11.17358047*I
0.35659705*Z9
0.05773682*Z7X8X9
0.05773682*Y8Y9
0.01776193*Z5X6X7X8X9
0.01776193*Y6X7X8Y9
0.19080496*Z8Z9
0.04683103*Z6X7X8Z9
0.04683103*Y7Y8
-0.00421388*X5X6X7X8Z9
0.00421388*Y5X6X7Y8
-0.11648769*Z7Z8
-0.08143952*Z5X6X7Z8
-0.08143952*Y6Y7
-0.60415304*Z6Z7
-0.05225464*X5X6Z7
0.05225464*Y5Y6
-1.51207474*Z5Z6
3.15833970*Z5
-0.35659705*Z4
-0.05773682*Z2X3X4
0.05773682*Y3Y4
-0.01776193*Z0X1X2X3X4
0.01776193*Y1X2X3Y4
0.19080496*Z3Z4
0.04683103*Z1X2X3Z4
0.04683103*Y2Y3
0.00421388*X0X1X2X3Z4
0.00421388*Y0X1X2Y3
-0.11648769*Z2Z3
-0.08143952*Z0X1X2Z3
-0.08143952*Y1Y2
-0.60415304*Z1Z2
0.05225464*X0X1Z2
0.05225464*Y0Y1
-1.51207474*Z0Z1
-3.15833970*Z0
0.10628191*Z8
-0.01744981*Z6X7X8
-0.01744981*Y7Y8Z9
0.00154361*X5X6X7X8
-0.00154361*Y5X6X7Y8Z9
0.11537417*Z7Z8Z9
0.02345176*Z5X6X7Z8Z9
0.02345176*Y6Y7Z9
0.13004156*Z6Z7Z9
0.02073039*X5X6Z7Z9
-0.02073039*Y5Y6Z9
0.15153465*Z5Z6Z9
-0.18585741*Z5Z9
0.02904311*Z7Y8Y9
0.02904311*X8X9
0.00606277*Z5X6X7Y8Y9
-0.00606277*Y6X7Y8X9
0.02504349*Z6X7X9
-0.00781950*X7Z8X9
0.01722399*Z6Y7Y9
0.01722399*Y7Y9
-0.00781950*Z6X7Z8X9
0.02504349*X7X9
0.00779212*X5X6X7X9
-0.00541734*Y5X6Y7Z8X9
0.00237478*X5X6Y7Y9
-0.00237478*Y5X6X7Y9
-0.00541734*X5X6X7Z8X9
0.00779212*Y5X6Y7X9
-0.02674124*Z5X6Z7Z8X9
0.01574154*X6Z8X9
-0.01099970*Z5Y6Y9
-0.01099970*Y6Z7Z8Y9
0.01574154*Z5X6Z7X9
-0.02674124*X6X9
0.03221961*X5Z6Z8X9
0.02527293*X5Z8X9
0.00694668*Y5Y9
-0.00694668*Y5Z6Z8Y9
-0.02527293*X5Z6X9
-0.03221961*X5X9
-0.01622581*Z5X6Y7Y8X9
-0.01622581*Y6Y7Y8Y9
-0.00697260*Z6X8X9
-0.00697260*Z6Z7Y8Y9
-0.01657357*X5X6X8X9
0.00599081*Y5Y6Z7X8X9
-0.01058276*X5Y6Y8X9
0.01058276*Y5X6X8Y9
-0.00599081*X5X6Z7Y8Y9
0.01657357*Y5Y6Y8Y9
-0.01413850*Z5Z6Z7X8X9
-0.01413850*Z5Z6Y8Y9
0.03342172*Z5Z7X8X9
0.03342172*Z5Y8Y9
0.00606269*Z5Y6Y7X8X9
-0.00606269*X6Y7X8Y9
-0.01647045*X5X7X8X9
-0.00932515*X5Z6X7X8X9
-0.00714530*Y5Y7X8X9
0.00714530*Y5X7X8Y9
-0.00932515*X5Z6Y7X8Y9
-0.01647045*X5Y7X8Y9
0.00210864*X6X7X8X9
0.00210864*Z5Y6X7X8Y9
-0.16825103*Z4Z9
0.02887263*Z4Z7X8X9
0.02887263*Z4Y8Y9
0.00299081*Z4Z5X6X7X8X9
0.00299081*Z4Y6X7X8Y9
-0.03357659*X4Z8X9
-0.03357659*Z3X4Z8X9
0.03357659*X4X9
0.03357659*Z3X4X9
0.01701202*X4Z6X7X8X9
0.01701202*Z3X4Z6X7X8X9
0.01701202*X4Y7X8Y9
0.01701202*Z3X4Y7X8Y9
0.00177060*X4X5X6X7X8X9
0.00177060*Z3X4X5X6X7X8X9
-0.00177060*X4Y5X6X7X8Y9
-0.00177060*Z3X4Y5X6X7X8Y9
-0.02887263*Y3Y4Z9
0.02887263*Z2X3X4Z9
0.02218638*Y3Y4Z7X8X9
-0.02218638*Z2X3X4Z7X8X9
0.02218638*Y3Y4Y8Y9
-0.02218638*Z2X3X4Y8Y9
0.01089887*Y3Y4Z5X6X7X8X9
-0.01089887*Z2X3X4Z5X6X7X8X9
0.01089887*Y3Y4Y6X7X8Y9
-0.01089887*Z2X3X4Y6X7X8Y9
-0.01701202*Y2X3Y4Z8X9
0.01701202*Z1X2X3X4Z8X9
0.01701202*Y2X3Y4X9
-0.01701202*Z1X2X3X4X9
0.01938813*Y2X3Y4Z6X7X8X9
-0.01938813*Z1X2X3X4Z6X7X8X9
0.01938813*Y2X3Y4Y7X8Y9
-0.01938813*Z1X2X3X4Y7X8Y9
0.00736248*Y2X3Y4X5X6X7X8X9
-0.00736248*Z1X2X3X4X5X6X7X8X9
-0.00736248*Y2X3Y4Y5X6X7X8Y9
0.00736248*Z1X2X3X4Y5X6X7X8Y9
-0.00299081*Y1X2X3Y4Z9
0.00299081*Z0X1X2X3X4Z9
0.01089887*Y1X2X3Y4Z7X8X9
-0.01089887*Z0X1X2X3X4Z7X8X9
0.01089887*Y1X2X3Y4Y8Y9
-0.01089887*Z0X1X2X3X4Y8Y9
0.01623124*Y1X2X3Y4Z5X6X7X8X9
-0.01623124*Z0X1X2X3X4Z5X6X7X8X9
0.01623124*Y1X2X3Y4Y6X7X8Y9
-0.01623124*Z0X1X2X3X4Y6X7X8Y9
0.00177060*Y0X1X2X3Y4Z8X9
-0.00177060*X0X1X2X3X4Z8X9
-0.00177060*Y0X1X2X3Y4X9
0.00177060*X0X1X2X3X4X9
-0.00736248*Y0X1X2X3Y4Z6X7X8X9
0.00736248*X0X1X2X3X4Z6X7X8X9
-0.00736248*Y0X1X2X3Y4Y7X8Y9
0.00736248*X0X1X2X3X4Y7X8Y9
-0.01549879*Y0X1X2X3Y4X5X6X7X8X9
0.01549879*X0X1X2X3X4X5X6X7X8X9
0.01549879*Y0X1X2X3Y4Y5X6X7X8Y9
-0.01549879*X0X1X2X3X4Y5X6X7X8Y9
0.13985850*Z3Z4Z9
-0.00302653*Z3Z4Z7X8X9
-0.00302653*Z3Z4Y8Y9
0.01016878*Z3Z4Z5X6X7X8X9
0.01016878*Z3Z4Y6X7X8Y9
-0.02601658*X3Z8X9
0.02601658*Z2X3Z4Z8X9
0.02601658*X3X9
-0.02601658*Z2X3Z4X9
0.00029937*X3Z6X7X8X9
-0.00029937*Z2X3Z4Z6X7X8X9
0.00029937*X3Y7X8Y9
-0.00029937*Z2X3Z4Y7X8Y9
-0.00603379*X3X5X6X7X8X9
0.00603379*Z2X3Z4X5X6X7X8X9
0.00603379*X3Y5X6X7X8Y9
-0.00603379*Z2X3Z4Y5X6X7X8Y9
-0.03446184*Y2Y3Z9
-0.03446184*Z1X2X3Z4Z9
0.01692463*Y2Y3Z7X8X9
0.01692463*Z1X2X3Z4Z7X8X9
0.01692463*Y2Y3Y8Y9
0.01692463*Z1X2X3Z4Y8Y9
-0.00366304*Y2Y3Z5X6X7X8X9
-0.00366304*Z1X2X3Z4Z5X6X7X8X9
-0.00366304*Y2Y3Y6X7X8Y9
-0.00366304*Z1X2X3Z4Y6X7X8Y9
0.01623154*Y1X2Y3Z8X9
0.01623154*Z0X1X2X3Z4Z8X9
-0.01623154*Y1X2Y3X9
-0.01623154*Z0X1X2X3Z4X9
-0.01466274*Y1X2Y3Z6X7X8X9
-0.01466274*Z0X1X2X3Z4Z6X7X8X9
-0.01466274*Y1X2Y3Y7X8Y9
-0.01466274*Z0X1X2X3Z4Y7X8Y9
0.00507400*Y1X2Y3X5X6X7X8X9
0.00507400*Z0X1X2X3Z4X5X6X7X8X9
-0.00507400*Y1X2Y3Y5X6X7X8Y9
-0.00507400*Z0X1X2X3Z4Y5X6X7X8Y9
0.00022699*Y0X1X2Y3Z9
0.00022699*X0X1X2X3Z4Z9
-0.00840857*Y0X1X2Y3Z7X8X9
-0.00840857*X0X1X2X3Z4Z7X8X9
-0.00840857*Y0X1X2Y3Y8Y9
-0.00840857*X0X1X2X3Z4Y8Y9
-0.01202068*Y0X1X2Y3Z5X6X7X8X9
-0.01202068*X0X1X2X3Z4Z5X6X7X8X9
-0.01202068*Y0X1X2Y3Y6X7X8Y9
-0.01202068*X0X1X2X3Z4Y6X7X8Y9
0.13756055*Z2Z3Z9
-0.00748620*Z2Z3Z7X8X9
-0.00748620*Z2Z3Y8Y9
-0.00259931*Z2Z3Z5X6X7X8X9
-0.00259931*Z2Z3Y6X7X8Y9
-0.02474412*X2Z8X9
0.02474412*Z1X2Z3Z8X9
0.02474412*X2X9
-0.02474412*Z1X2Z3X9
0.00490948*X2Z6X7X8X9
-0.00490948*Z1X2Z3Z6X7X8X9
0.00490948*X2Y7X8Y9
-0.00490948*Z1X2Z3Y7X8Y9
0.00546345*X2X5X6X7X8X9
-0.00546345*Z1X2Z3X5X6X7X8X9
-0.00546345*X2Y5X6X7X8Y9
0.00546345*Z1X2Z3Y5X6X7X8Y9
0.03435062*Y1Y2Z9
0.03435062*Z0X1X2Z3Z9
-0.01882513*Y1Y2Z7X8X9
-0.01882513*Z0X1X2Z3Z7X8X9
-0.01882513*Y1Y2Y8Y9
-0.01882513*Z0X1X2Z3Y8Y9
-0.00359604*Y1Y2Z5X6X7X8X9
-0.00359604*Z0X1X2Z3Z5X6X7X8X9
-0.00359604*Y1Y2Y6X7X8Y9
-0.00359604*Z0X1X2Z3Y6X7X8Y9
-0.01382591*Y0X1Y2Z8X9
-0.01382591*X0X1X2Z3Z8X9
0.01382591*Y0X1Y2X9
0.01382591*X0X1X2Z3X9
0.01604621*Y0X1Y2Z6X7X8X9
0.01604621*X0X1X2Z3Z6X7X8X9
0.01604621*Y0X1Y2Y7X8Y9
0.01604621*X0X1X2Z3Y7X8Y9
0.00859413*Y0X1Y2X5X6X7X8X9
0.00859413*X0X1X2Z3X5X6X7X8X9
-0.00859413*Y0X1Y2Y5X6X7X8Y9
-0.00859413*X0X1X2Z3Y5X6X7X8Y9
0.14942969*Z1Z2Z9
-0.01188208*Z1Z2Z7X8X9
-0.01188208*Z1Z2Y8Y9
0.00372444*Z1Z2Z5X6X7X8X9
0.00372444*Z1Z2Y6X7X8Y9
0.03040428*X1Z8X9
-0.03040428*Z0X1Z2Z8X9
-0.03040428*X1X9
0.03040428*Z0X1Z2X9
-0.00978713*X1Z6X7X8X9
0.00978713*Z0X1Z2Z6X7X8X9
-0.00978713*X1Y7X8Y9
0.00978713*Z0X1Z2Y7X8Y9
0.00576941*X1X5X6X7X8X9
-0.00576941*Z0X1Z2X5X6X7X8X9
-0.00576941*X1Y5X6X7X8Y9
0.00576941*Z0X1Z2Y5X6X7X8Y9
-0.02809287*Y0Y1Z9
-0.02809287*X0X1Z2Z9
0.02203702*Y0Y1Z7X8X9
0.02203702*X0X1Z2Z7X8X9
0.02203702*Y0Y1Y8Y9
0.02203702*X0X1Z2Y8Y9
0.01291471*Y0Y1Z5X6X7X8X9
0.01291471*X0X1Z2Z5X6X7X8X9
0.01291471*Y0Y1Y6X7X8Y9
0.01291471*X0X1Z2Y6X7X8Y9
0.16776589*Z0Z1Z9
-0.01773454*Z0Z1Z7X8X9
-0.01773454*Z0Z1Y8Y9
0.00734896*Z0Z1Z5X6X7X8X9
0.00734896*Z0Z1Y6X7X8Y9
0.03729361*X0Z8X9
-0.03729361*X0Z1Z8X9
-0.03729361*X0X9
0.03729361*X0Z1X9
-0.02223986*X0Z6X7X8X9
0.02223986*X0Z1Z6X7X8X9
-0.02223986*X0Y7X8Y9
0.02223986*X0Z1Y7X8Y9
-0.00381365*X0X5X6X7X8X9
0.00381365*X0Z1X5X6X7X8X9
0.00381365*X0Y5X6X7X8Y9
-0.00381365*X0Z1Y5X6X7X8Y9
0.20135619*Z0Z9
-0.04201585*Z0Z7X8X9
-0.04201585*Z0Y8Y9
-0.00592229*Z0Z5X6X7X8X9
-0.00592229*Z0Y6X7X8Y9
0.09996660*Z7Z9
0.00871149*Z5X6X7Z9
0.00871149*Y6Y7Z8Z9
0.11731678*Z6Z7Z8Z9
0.00545675*X5X6Z7Z8Z9
-0.00545675*Y5Y6Z8Z9
0.13644919*Z5Z6Z8Z9
-0.15247622*Z5Z8Z9
0.03645825*Z6Y7Y8Z9
0.03645825*X7X8
-0.00055022*X5X6Y7Y8Z9
-0.00055022*Y5X6Y7X8
-0.03099626*Z5X6X8Z9
0.00986539*X6Z7X8Z9
-0.02113087*Z5Y6Y8Z9
-0.02113087*Y6Y8
0.00986539*Z5X6Z7X8
-0.03099626*X6X8
0.02659814*X5Z6Z7X8Z9
0.01515164*X5Z7X8Z9
0.01144651*Y5Y8Z9
-0.01144651*Y5Z6Z7Y8
-0.01515164*X5Z6X8
-0.02659814*X5X8
-0.01799932*X5Y6Y7X8Z9
0.01799932*Y5Y6Y7Y8
-0.01772422*Z5X7X8Z9
-0.01772422*Z5Z6Y7Y8
0.03860946*Z5Z6X7X8Z9
0.03860946*Z5Y7Y8
0.01150706*Y5Y6X7X8Z9
0.01150706*X5Y6X7Y8
-0.13985850*Z4Z8Z9
0.03446184*Z4Z6X7X8Z9
0.03446184*Z4Y7Y8
0.00022699*Z4X5X6X7X8Z9
-0.00022699*Z4Y5X6X7Y8
-0.02601658*X4Z7X8Z9
-0.02601658*Z3X4Z7X8Z9
0.02601658*X4X8
0.02601658*Z3X4X8
-0.01623154*X4Z5X6X7X8Z9
-0.01623154*Z3X4Z5X6X7X8Z9
-0.01623154*X4Y6X7Y8
-0.01623154*Z3X4Y6X7Y8
-0.00302653*Y3Y4Z8Z9
0.00302653*Z2X3X4Z8Z9
0.01692463*Y3Y4Z6X7X8Z9
-0.01692463*Z2X3X4Z6X7X8Z9
0.01692463*Y3Y4Y7Y8
-0.01692463*Z2X3X4Y7Y8
0.00840857*Y3Y4X5X6X7X8Z9
-0.00840857*Z2X3X4X5X6X7X8Z9
-0.00840857*Y3Y4Y5X6X7Y8
0.00840857*Z2X3X4Y5X6X7Y8
-0.00029937*Y2X3Y4Z7X8Z9
0.00029937*Z1X2X3X4Z7X8Z9
0.00029937*Y2X3Y4X8
-0.00029937*Z1X2X3X4X8
-0.01466274*Y2X3Y4Z5X6X7X8Z9
0.01466274*Z1X2X3X4Z5X6X7X8Z9
-0.01466274*Y2X3Y4Y6X7Y8
0.01466274*Z1X2X3X4Y6X7Y8
0.01016878*Y1X2X3Y4Z8Z9
-0.01016878*Z0X1X2X3X4Z8Z9
-0.00366304*Y1X2X3Y4Z6X7X8Z9
0.00366304*Z0X1X2X3X4Z6X7X8Z9
-0.00366304*Y1X2X3Y4Y7Y8
0.00366304*Z0X1X2X3X4Y7Y8
0.01202068*Y1X2X3Y4X5X6X7X8Z9
-0.01202068*Z0X1X2X3X4X5X6X7X8Z9
-0.01202068*Y1X2X3Y4Y5X6X7Y8
0.01202068*Z0X1X2X3X4Y5X6X7Y8
-0.00603379*Y0X1X2X3Y4Z7X8Z9
0.00603379*X0X1X2X3X4Z7X8Z9
0.00603379*Y0X1X2X3Y4X8
-0.00603379*X0X1X2X3X4X8
-0.00507400*Y0X1X2X3Y4Z5X6X7X8Z9
0.00507400*X0X1X2X3X4Z5X6X7X8Z9
-0.00507400*Y0X1X2X3Y4Y6X7Y8
0.00507400*X0X1X2X3X4Y6X7Y8
0.14335461*Z3Z4Z8Z9
-0.01553107*Z3Z4Z6X7X8Z9
-0.01553107*Z3Z4Y7Y8
0.01018240*Z3Z4X5X6X7X8Z9
-0.01018240*Z3Z4Y5X6X7Y8
-0.03645695*X3Z7X8Z9
0.03645695*Z2X3Z4Z7X8Z9
0.03645695*X3X8
-0.03645695*Z2X3Z4X8
-0.00487749*X3Z5X6X7X8Z9
0.00487749*Z2X3Z4Z5X6X7X8Z9
-0.00487749*X3Y6X7Y8
0.00487749*Z2X3Z4Y6X7Y8
-0.01553107*Y2Y3Z8Z9
-0.01553107*Z1X2X3Z4Z8Z9
0.02686580*Y2Y3Z6X7X8Z9
0.02686580*Z1X2X3Z4Z6X7X8Z9
0.02686580*Y2Y3Y7Y8
0.02686580*Z1X2X3Z4Y7Y8
-0.00236628*Y2Y3X5X6X7X8Z9
-0.00236628*Z1X2X3Z4X5X6X7X8Z9
0.00236628*Y2Y3Y5X6X7Y8
0.00236628*Z1X2X3Z4Y5X6X7Y8
0.00487749*Y1X2Y3Z7X8Z9
0.00487749*Z0X1X2X3Z4Z7X8Z9
-0.00487749*Y1X2Y3X8
-0.00487749*Z0X1X2X3Z4X8
0.02124080*Y1X2Y3Z5X6X7X8Z9
0.02124080*Z0X1X2X3Z4Z5X6X7X8Z9
0.02124080*Y1X2Y3Y6X7Y8
0.02124080*Z0X1X2X3Z4Y6X7Y8
-0.01018240*Y0X1X2Y3Z8Z9
-0.01018240*X0X1X2X3Z4Z8Z9
0.00236628*Y0X1X2Y3Z6X7X8Z9
0.00236628*X0X1X2X3Z4Z6X7X8Z9
0.00236628*Y0X1X2Y3Y7Y8
0.00236628*X0X1X2X3Z4Y7Y8
-0.01248542*Y0X1X2Y3X5X6X7X8Z9
-0.01248542*X0X1X2X3Z4X5X6X7X8Z9
0.01248542*Y0X1X2Y3Y5X6X7Y8
0.01248542*X0X1X2X3Z4Y5X6X7Y8
0.13642355*Z2Z3Z8Z9
-0.00671063*Z2Z3Z6X7X8Z9
-0.00671063*Z2Z3Y7Y8
0.00093968*Z2Z3X5X6X7X8Z9
-0.00093968*Z2Z3Y5X6X7Y8
-0.02974762*X2Z7X8Z9
0.02974762*Z1X2Z3Z7X8Z9
0.02974762*X2X8
-0.02974762*Z1X2Z3X8
0.00087693*X2Z5X6X7X8Z9
-0.00087693*Z1X2Z3Z5X6X7X8Z9
0.00087693*X2Y6X7Y8
-0.00087693*Z1X2Z3Y6X7Y8
0.01358898*Y1Y2Z8Z9
0.01358898*Z0X1X2Z3Z8Z9
-0.02200780*Y1Y2Z6X7X8Z9
-0.02200780*Z0X1X2Z3Z6X7X8Z9
-0.02200780*Y1Y2Y7Y8
-0.02200780*Z0X1X2Z3Y7Y8
0.00060194*Y1Y2X5X6X7X8Z9
0.00060194*Z0X1X2Z3X5X6X7X8Z9
-0.00060194*Y1Y2Y5X6X7Y8
-0.00060194*Z0X1X2Z3Y5X6X7Y8
-0.00038947*Y0X1Y2Z7X8Z9
-0.00038947*X0X1X2Z3Z7X8Z9
0.00038947*Y0X1Y2X8
0.00038947*X0X1X2Z3X8
-0.01204844*Y0X1Y2Z5X6X7X8Z9
-0.01204844*X0X1X2Z3Z5X6X7X8Z9
-0.01204844*Y0X1Y2Y6X7Y8
-0.01204844*X0X1X2Z3Y6X7Y8
0.14418258*Z1Z2Z8Z9
-0.01910088*Z1Z2Z6X7X8Z9
-0.01910088*Z1Z2Y7Y8
0.00200901*Z1Z2X5X6X7X8Z9
-0.00200901*Z1Z2Y5X6X7Y8
0.03187319*X1Z7X8Z9
-0.03187319*Z0X1Z2Z7X8Z9
-0.03187319*X1X8
0.03187319*Z0X1Z2X8
0.01367987*X1Z5X6X7X8Z9
-0.01367987*Z0X1Z2Z5X6X7X8Z9
0.01367987*X1Y6X7Y8
-0.01367987*Z0X1Z2Y6X7Y8
-0.00309047*Y0Y1Z8Z9
-0.00309047*X0X1Z2Z8Z9
0.01599031*Y0Y1Z6X7X8Z9
0.01599031*X0X1Z2Z6X7X8Z9
0.01599031*Y0Y1Y7Y8
0.01599031*X0X1Z2Y7Y8
0.01199455*Y0Y1X5X6X7X8Z9
0.01199455*X0X1Z2X5X6X7X8Z9
-0.01199455*Y0Y1Y5X6X7Y8
-0.01199455*X0X1Z2Y5X6X7Y8
0.15768999*Z0Z1Z8Z9
-0.03140408*Z0Z1Z6X7X8Z9
-0.03140408*Z0Z1Y7Y8
0.01069857*Z0Z1X5X6X7X8Z9
-0.01069857*Z0Z1Y5X6X7Y8
0.02720008*X0Z7X8Z9
-0.02720008*X0Z1Z7X8Z9
-0.02720008*X0X8
0.02720008*X0Z1X8
0.02220562*X0Z5X6X7X8Z9
-0.02220562*X0Z1Z5X6X7X8Z9
0.02220562*X0Y6X7Y8
-0.02220562*X0Z1Y6X7Y8
0.16496165*Z0Z8Z9
-0.05060402*Z0Z6X7X8Z9
-0.05060402*Z0Y7Y8
-0.00199702*Z0X5X6X7X8Z9
0.00199702*Z0Y5X6X7Y8
0.11002860*Z6Z8
0.00447474*X5X6Z8
-0.00447474*Y5Y6Z7Z8
0.12738262*Z5Z6Z7Z8
-0.14792242*Z5Z7Z8
-0.04295075*Z5Y6Y7Z8
-0.04295075*X6X7
0.03184454*X5X7Z8
0.00842870*X5Z6X7Z8
0.02341584*Y5Y7Z8
-0.02341584*Y5Y7
-0.00842870*X5Z6X7
-0.03184454*X5X7
-0.03096147*X6X7Z8
-0.03096147*Z5Y6Y7
-0.13756055*Z4Z7Z8
-0.03435062*Z4Z5X6X7Z8
-0.03435062*Z4Y6Y7
-0.02474412*X4Z6X7Z8
-0.02474412*Z3X4Z6X7Z8
0.02474412*X4X7
0.02474412*Z3X4X7
-0.01382591*X4X5X6X7Z8
-0.01382591*Z3X4X5X6X7Z8
0.01382591*X4Y5X6Y7
0.01382591*Z3X4Y5X6Y7
-0.00748620*Y3Y4Z7Z8
0.00748620*Z2X3X4Z7Z8
-0.01882513*Y3Y4Z5X6X7Z8
0.01882513*Z2X3X4Z5X6X7Z8
-0.01882513*Y3Y4Y6Y7
0.01882513*Z2X3X4Y6Y7
-0.00490948*Y2X3Y4Z6X7Z8
0.00490948*Z1X2X3X4Z6X7Z8
0.00490948*Y2X3Y4X7
-0.00490948*Z1X2X3X4X7
-0.01604621*Y2X3Y4X5X6X7Z8
0.01604621*Z1X2X3X4X5X6X7Z8
0.01604621*Y2X3Y4Y5X6Y7
-0.01604621*Z1X2X3X4Y5X6Y7
-0.00259931*Y1X2X3Y4Z7Z8
0.00259931*Z0X1X2X3X4Z7Z8
-0.00359604*Y1X2X3Y4Z5X6X7Z8
0.00359604*Z0X1X2X3X4Z5X6X7Z8
-0.00359604*Y1X2X3Y4Y6Y7
0.00359604*Z0X1X2X3X4Y6Y7
0.00546345*Y0X1X2X3Y4Z6X7Z8
-0.00546345*X0X1X2X3X4Z6X7Z8
-0.00546345*Y0X1X2X3Y4X7
0.00546345*X0X1X2X3X4X7
0.00859413*Y0X1X2X3Y4X5X6X7Z8
-0.00859413*X0X1X2X3X4X5X6X7Z8
-0.00859413*Y0X1X2X3Y4Y5X6Y7
0.00859413*X0X1X2X3X4Y5X6Y7
0.13642355*Z3Z4Z7Z8
0.01358898*Z3Z4Z5X6X7Z8
0.01358898*Z3Z4Y6Y7
-0.02974762*X3Z6X7Z8
0.02974762*Z2X3Z4Z6X7Z8
0.02974762*X3X7
-0.02974762*Z2X3Z4X7
-0.00038947*X3X5X6X7Z8
0.00038947*Z2X3Z4X5X6X7Z8
0.00038947*X3Y5X6Y7
-0.00038947*Z2X3Z4Y5X6Y7
-0.00671063*Y2Y3Z7Z8
-0.00671063*Z1X2X3Z4Z7Z8
-0.02200780*Y2Y3Z5X6X7Z8
-0.02200780*Z1X2X3Z4Z5X6X7Z8
-0.02200780*Y2Y3Y6Y7
-0.02200780*Z1X2X3Z4Y6Y7
-0.00087693*Y1X2Y3Z6X7Z8
-0.00087693*Z0X1X2X3Z4Z6X7Z8
0.00087693*Y1X2Y3X7
0.00087693*Z0X1X2X3Z4X7
0.01204844*Y1X2Y3X5X6X7Z8
0.01204844*Z0X1X2X3Z4X5X6X7Z8
-0.01204844*Y1X2Y3Y5X6Y7
-0.01204844*Z0X1X2X3Z4Y5X6Y7
-0.00093968*Y0X1X2Y3Z7Z8
-0.00093968*X0X1X2X3Z4Z7Z8
-0.00060194*Y0X1X2Y3Z5X6X7Z8
-0.00060194*X0X1X2X3Z4Z5X6X7Z8
-0.00060194*Y0X1X2Y3Y6Y7
-0.00060194*X0X1X2X3Z4Y6Y7
0.14206206*Z2Z3Z7Z8
0.01112357*Z2Z3Z5X6X7Z8
0.01112357*Z2Z3Y6Y7
-0.03333169*X2Z6X7Z8
0.03333169*Z1X2Z3Z6X7Z8
0.03333169*X2X7
-0.03333169*Z1X2Z3X7
-0.00412276*X2X5X6X7Z8
0.00412276*Z1X2Z3X5X6X7Z8
0.00412276*X2Y5X6Y7
-0.00412276*Z1X2Z3Y5X6Y7
0.01112357*Y1Y2Z7Z8
0.01112357*Z0X1X2Z3Z7Z8
0.02510946*Y1Y2Z5X6X7Z8
0.02510946*Z0X1X2Z3Z5X6X7Z8
0.02510946*Y1Y2Y6Y7
0.02510946*Z0X1X2Z3Y6Y7
-0.00412276*Y0X1Y2Z6X7Z8
-0.00412276*X0X1X2Z3Z6X7Z8
0.00412276*Y0X1Y2X7
0.00412276*X0X1X2Z3X7
-0.01750373*Y0X1Y2X5X6X7Z8
-0.01750373*X0X1X2Z3X5X6X7Z8
0.01750373*Y0X1Y2Y5X6Y7
0.01750373*X0X1X2Z3Y5X6Y7
0.14336029*Z1Z2Z7Z8
0.01527294*Z1Z2Z5X6X7Z8
0.01527294*Z1Z2Y6Y7
0.02767781*X1Z6X7Z8
-0.02767781*Z0X1Z2Z6X7Z8
-0.02767781*X1X7
0.02767781*Z0X1Z2X7
0.00475976*X1X5X6X7Z8
-0.00475976*Z0X1Z2X5X6X7Z8
-0.00475976*X1Y5X6Y7
0.00475976*Z0X1Z2Y5X6Y7
-0.00859750*Y0Y1Z7Z8
-0.00859750*X0X1Z2Z7Z8
-0.01865608*Y0Y1Z5X6X7Z8
-0.01865608*X0X1Z2Z5X6X7Z8
-0.01865608*Y0Y1Y6Y7
-0.01865608*X0X1Z2Y6Y7
0.15249208*Z0Z1Z7Z8
0.03062094*Z0Z1Z5X6X7Z8
0.03062094*Z0Z1Y6Y7
0.02708478*X0Z6X7Z8
-0.02708478*X0Z1Z6X7Z8
-0.02708478*X0X7
0.02708478*X0Z1X7
0.02189835*X0X5X6X7Z8
-0.02189835*X0Z1X5X6X7Z8
-0.02189835*X0Y5X6Y7
0.02189835*X0Z1Y5X6Y7
0.16542615*Z0Z7Z8
0.05285982*Z0Z5X6X7Z8
0.05285982*Z0Y6Y7
0.12902907*Z5Z7
-0.15799114*Z5Z6Z7
-0.04935501*Y5Y6Z7
0.04935501*X5X6
-0.14942969*Z4Z6Z7
-0.02809287*Z4X5X6Z7
0.02809287*Z4Y5Y6
0.03040428*X4Z5X6Z7
0.03040428*Z3X4Z5X6Z7
-0.03040428*X4X6
-0.03040428*Z3X4X6
-0.01188208*Y3Y4Z6Z7
0.01188208*Z2X3X4Z6Z7
-0.02203702*Y3Y4X5X6Z7
0.02203702*Z2X3X4X5X6Z7
0.02203702*Y3Y4Y5Y6
-0.02203702*Z2X3X4Y5Y6
0.00978713*Y2X3Y4Z5X6Z7
-0.00978713*Z1X2X3X4Z5X6Z7
-0.00978713*Y2X3Y4X6
0.00978713*Z1X2X3X4X6
0.00372444*Y1X2X3Y4Z6Z7
-0.00372444*Z0X1X2X3X4Z6Z7
-0.01291471*Y1X2X3Y4X5X6Z7
0.01291471*Z0X1X2X3X4X5X6Z7
0.01291471*Y1X2X3Y4Y5Y6
-0.01291471*Z0X1X2X3X4Y5Y6
0.00576941*Y0X1X2X3Y4Z5X6Z7
-0.00576941*X0X1X2X3X4Z5X6Z7
-0.00576941*Y0X1X2X3Y4X6
0.00576941*X0X1X2X3X4X6
0.14418258*Z3Z4Z6Z7
0.00309047*Z3Z4X5X6Z7
-0.00309047*Z3Z4Y5Y6
0.03187319*X3Z5X6Z7
-0.03187319*Z2X3Z4Z5X6Z7
-0.03187319*X3X6
0.03187319*Z2X3Z4X6
-0.01910088*Y2Y3Z6Z7
-0.01910088*Z1X2X3Z4Z6Z7
-0.01599031*Y2Y3X5X6Z7
-0.01599031*Z1X2X3Z4X5X6Z7
0.01599031*Y2Y3Y5Y6
0.01599031*Z1X2X3Z4Y5Y6
-0.01367987*Y1X2Y3Z5X6Z7
-0.01367987*Z0X1X2X3Z4Z5X6Z7
0.01367987*Y1X2Y3X6
0.01367987*Z0X1X2X3Z4X6
-0.00200901*Y0X1X2Y3Z6Z7
-0.00200901*X0X1X2X3Z4Z6Z7
0.01199455*Y0X1X2Y3X5X6Z7
0.01199455*X0X1X2X3Z4X5X6Z7
-0.01199455*Y0X1X2Y3Y5Y6
-0.01199455*X0X1X2X3Z4Y5Y6
0.14336029*Z2Z3Z6Z7
0.00859750*Z2Z3X5X6Z7
-0.00859750*Z2Z3Y5Y6
0.02767781*X2Z5X6Z7
-0.02767781*Z1X2Z3Z5X6Z7
-0.02767781*X2X6
0.02767781*Z1X2Z3X6
0.01527294*Y1Y2Z6Z7
0.01527294*Z0X1X2Z3Z6Z7
0.01865608*Y1Y2X5X6Z7
0.01865608*Z0X1X2Z3X5X6Z7
-0.01865608*Y1Y2Y5Y6
-0.01865608*Z0X1X2Z3Y5Y6
0.00475976*Y0X1Y2Z5X6Z7
0.00475976*X0X1X2Z3Z5X6Z7
-0.00475976*Y0X1Y2X6
-0.00475976*X0X1X2Z3X6
0.15673914*Z1Z2Z6Z7
0.01247094*Z1Z2X5X6Z7
-0.01247094*Z1Z2Y5Y6
-0.03854270*X1Z5X6Z7
0.03854270*Z0X1Z2Z5X6Z7
0.03854270*X1X6
-0.03854270*Z0X1Z2X6
-0.01247094*Y0Y1Z6Z7
-0.01247094*X0X1Z2Z6Z7
-0.02827218*Y0Y1X5X6Z7
-0.02827218*X0X1Z2X5X6Z7
0.02827218*Y0Y1Y5Y6
0.02827218*X0X1Z2Y5Y6
0.16757177*Z0Z1Z6Z7
0.01367557*Z0Z1X5X6Z7
-0.01367557*Z0Z1Y5Y6
-0.03567944*X0Z5X6Z7
0.03567944*X0Z1Z5X6Z7
0.03567944*X0X6
-0.03567944*X0Z1X6
0.18626332*Z0Z6Z7
0.04719585*Z0X5X6Z7
-0.04719585*Z0Y5Y6
-0.16498613*Z6
-0.16776589*Z4Z5Z6
-0.03729361*X4X5Z6
-0.03729361*Z3X4X5Z6
-0.03729361*X4X5
-0.03729361*Z3X4X5
-0.01773454*Y3Y4Z5Z6
0.01773454*Z2X3X4Z5Z6
-0.02223986*Y2X3Y4X5Z6
0.02223986*Z1X2X3X4X5Z6
-0.02223986*Y2X3Y4X5
0.02223986*Z1X2X3X4X5
0.00734896*Y1X2X3Y4Z5Z6
-0.00734896*Z0X1X2X3X4Z5Z6
0.00381365*Y0X1X2X3Y4X5Z6
-0.00381365*X0X1X2X3X4X5Z6
0.00381365*Y0X1X2X3Y4X5
-0.00381365*X0X1X2X3X4X5
0.15768999*Z3Z4Z5Z6
-0.02720008*X3X5Z6
0.02720008*Z2X3Z4X5Z6
-0.02720008*X3X5
0.02720008*Z2X3Z4X5
-0.03140408*Y2Y3Z5Z6
-0.03140408*Z1X2X3Z4Z5Z6
0.02220562*Y1X2Y3X5Z6
0.02220562*Z0X1X2X3Z4X5Z6
0.02220562*Y1X2Y3X5
0.02220562*Z0X1X2X3Z4X5
-0.01069857*Y0X1X2Y3Z5Z6
-0.01069857*X0X1X2X3Z4Z5Z6
0.15249208*Z2Z3Z5Z6
-0.02708478*X2X5Z6
0.02708478*Z1X2Z3X5Z6
-0.02708478*X2X5
0.02708478*Z1X2Z3X5
0.03062094*Y1Y2Z5Z6
0.03062094*Z0X1X2Z3Z5Z6
-0.02189835*Y0X1Y2X5Z6
-0.02189835*X0X1X2Z3X5Z6
-0.02189835*Y0X1Y2X5
-0.02189835*X0X1X2Z3X5
0.16757177*Z1Z2Z5Z6
0.03567944*X1X5Z6
-0.03567944*Z0X1Z2X5Z6
0.03567944*X1X5
-0.03567944*Z0X1Z2X5
-0.01367557*Y0Y1Z5Z6
-0.01367557*X0X1Z2Z5Z6
0.19697258*Z0Z1Z5Z6
0.05374315*X0X5Z6
-0.05374315*X0Z1X5Z6
0.05374315*X0X5
-0.05374315*X0Z1X5
0.21872927*Z0Z5Z6
0.20135619*Z4Z5
0.04201585*Y3Y4Z5
-0.04201585*Z2X3X4Z5
0.00592229*Y1X2X3Y4Z5
-0.00592229*Z0X1X2X3X4Z5
-0.16496165*Z3Z4Z5
0.05060402*Y2Y3Z5
0.05060402*Z1X2X3Z4Z5
-0.00199702*Y0X1X2Y3Z5
-0.00199702*X0X1X2X3Z4Z5
-0.16542615*Z2Z3Z5
-0.05285982*Y1Y2Z5
-0.05285982*Z0X1X2Z3Z5
-0.18626332*Z1Z2Z5
0.04719585*Y0Y1Z5
0.04719585*X0X1Z2Z5
-0.21872927*Z0Z1Z5
-0.28453083*Z0Z5
-0.10628191*Z3
0.01744981*Z1X2X3
0.01744981*Y2Y3Z4
0.00154361*X0X1X2X3
0.00154361*Y0X1X2Y3Z4
-0.11537417*Z2Z3Z4
-0.02345176*Z0X1X2Z3Z4
-0.02345176*Y1Y2Z4
-0.13004156*Z1Z2Z4
0.02073039*X0X1Z2Z4
0.02073039*Y0Y1Z4
-0.15153465*Z0Z1Z4
-0.18585741*Z0Z4
-0.02904311*Z2Y3Y4
0.02904311*X3X4
-0.00606277*Z0X1X2Y3Y4
-0.00606277*Y1X2Y3X4
-0.02504349*Z1X2X4
0.00781950*X2Z3X4
-0.01722399*Z1Y2Y4
0.01722399*Y2Y4
-0.00781950*Z1X2Z3X4
0.02504349*X2X4
0.00779212*X0X1X2X4
0.00541734*Y0X1Y2Z3X4
0.00237478*X0X1Y2Y4
-0.00237478*Y0X1X2Y4
0.00541734*X0X1X2Z3X4
0.00779212*Y0X1Y2X4
0.02674124*Z0X1Z2Z3X4
-0.01574154*X1Z3X4
0.01099970*Z0Y1Y4
-0.01099970*Y1Z2Z3Y4
0.01574154*Z0X1Z2X4
-0.02674124*X1X4
0.03221961*X0Z1Z3X4
-0.02527293*X0Z3X4
0.00694668*Y0Y4
-0.00694668*Y0Z1Z3Y4
0.02527293*X0Z1X4
-0.03221961*X0X4
0.01622581*Z0X1Y2Y3X4
-0.01622581*Y1Y2Y3Y4
0.00697260*Z1X3X4
-0.00697260*Z1Z2Y3Y4
-0.01657357*X0X1X3X4
-0.00599081*Y0Y1Z2X3X4
-0.01058276*X0Y1Y3X4
0.01058276*Y0X1X3Y4
0.00599081*X0X1Z2Y3Y4
0.01657357*Y0Y1Y3Y4
0.01413850*Z0Z1Z2X3X4
-0.01413850*Z0Z1Y3Y4
0.03342172*Z0Z2X3X4
-0.03342172*Z0Y3Y4
-0.00606269*Z0Y1Y2X3X4
-0.00606269*X1Y2X3Y4
-0.01647045*X0X2X3X4
0.00932515*X0Z1X2X3X4
-0.00714530*Y0Y2X3X4
0.00714530*Y0X2X3Y4
0.00932515*X0Z1Y2X3Y4
-0.01647045*X0Y2X3Y4
0.00210864*X1X2X3X4
-0.00210864*Z0Y1X2X3Y4
0.09996660*Z2Z4
0.00871149*Z0X1X2Z4
0.00871149*Y1Y2Z3Z4
0.11731678*Z1Z2Z3Z4
-0.00545675*X0X1Z2Z3Z4
-0.00545675*Y0Y1Z3Z4
0.13644919*Z0Z1Z3Z4
0.15247622*Z0Z3Z4
0.03645825*Z1Y2Y3Z4
0.03645825*X2X3
0.00055022*X0X1Y2Y3Z4
-0.00055022*Y0X1Y2X3
-0.03099626*Z0X1X3Z4
0.00986539*X1Z2X3Z4
-0.02113087*Z0Y1Y3Z4
-0.02113087*Y1Y3
0.00986539*Z0X1Z2X3
-0.03099626*X1X3
-0.02659814*X0Z1Z2X3Z4
0.01515164*X0Z2X3Z4
-0.01144651*Y0Y3Z4
-0.01144651*Y0Z1Z2Y3
0.01515164*X0Z1X3
-0.02659814*X0X3
0.01799932*X0Y1Y2X3Z4
0.01799932*Y0Y1Y2Y3
-0.01772422*Z0X2X3Z4
-0.01772422*Z0Z1Y2Y3
-0.03860946*Z0Z1X2X3Z4
-0.03860946*Z0Y2Y3
-0.01150706*Y0Y1X2X3Z4
0.01150706*X0Y1X2Y3
0.11002860*Z1Z3
-0.00447474*X0X1Z3
-0.00447474*Y0Y1Z2Z3
0.12738262*Z0Z1Z2Z3
0.14792242*Z0Z2Z3
-0.04295075*Z0Y1Y2Z3
-0.04295075*X1X2
-0.03184454*X0X2Z3
0.00842870*X0Z1X2Z3
-0.02341584*Y0Y2Z3
-0.02341584*Y0Y2
0.00842870*X0Z1X2
-0.03184454*X0X2
0.03096147*X1X2Z3
0.03096147*Z0Y1Y2
0.12902907*Z0Z2
0.15799114*Z0Z1Z2
0.04935501*Y0Y1Z2
0.04935501*X0X1
0.16498613*Z1
