-1.55413755*I
0.09243403*Z9
0.00066018*Z7X8X9
0.00066018*Y8Y9
0.00455388*Z5X6X7X8X9
0.00455388*Y6X7X8Y9
0.07694863*Z8Z9
0.00648149*Z6X7X8Z9
0.00648149*Y7Y8
0.00518551*X5X6X7X8Z9
-0.00518551*Y5X6X7Y8
0.05278459*Z7Z8
0.00804689*Z5X6X7Z8
0.00804689*Y6Y7
0.02315303*Z6Z7
-0.00222174*X5X6Z7
0.00222174*Y5Y6
-0.00978725*Z5Z6
0.03808404*Z5
-0.09243403*Z4
-0.00066018*Z2X3X4
0.00066018*Y3Y4
-0.00455388*Z0X1X2X3X4
0.00455388*Y1X2X3Y4
0.07694863*Z3Z4
0.00648149*Z1X2X3Z4
0.00648149*Y2Y3
-0.00518551*X0X1X2X3Z4
-0.00518551*Y0X1X2Y3
0.05278459*Z2Z3
0.00804689*Z0X1X2Z3
0.00804689*Y1Y2
0.02315303*Z1Z2
0.00222174*X0X1Z2
0.00222174*Y0Y1
-0.00978725*Z0Z1
-0.03808404*Z0
0.02925740*Z8
0.00319909*Z6X7X8
0.00319909*Y7Y8Z9
-0.00297175*X5X6X7X8
0.00297175*Y5X6X7Y8Z9
0.03876398*Z7Z8Z9
-0.00759514*Z5X6X7Z8Z9
-0.00759514*Y6Y7Z9
0.04380696*Z6Z7Z9
0.00810102*X5X6Z7Z9
-0.00810102*Y5Y6Z9
0.04405927*Z5Z6Z9
-0.05546786*Z5Z9
-0.01124666*Z7Y8Y9
-0.01124666*X8X9
0.00003580*Z5X6X7Y8Y9
-0.00003580*Y6X7Y8X9
0.01041895*Z6X7X9
-0.00273861*X7Z8X9
0.00768034*Z6Y7Y9
0.00768034*Y7Y9
-0.00273861*Z6X7Z8X9
0.01041895*X7X9
0.00510682*X5X6X7X9
-0.00432484*Y5X6Y7Z8X9
0.00078198*X5X6Y7Y9
-0.00078198*Y5X6X7Y9
-0.00432484*X5X6X7Z8X9
0.00510682*Y5X6Y7X9
0.01234740*Z5X6Z7Z8X9
-0.00892251*X6Z8X9
0.00342489*Z5Y6Y9
0.00342489*Y6Z7Z8Y9
-0.00892251*Z5X6Z7X9
0.01234740*X6X9
-0.01693776*X5Z6Z8X9
-0.01460668*X5Z8X9
-0.00233109*Y5Y9
0.00233109*Y5Z6Z8Y9
0.01460668*X5Z6X9
0.01693776*X5X9
-0.00776753*Z5X6Y7Y8X9
-0.00776753*Y6Y7Y8Y9
0.00301225*Z6X8X9
0.00301225*Z6Z7Y8Y9
0.01049842*X5X6X8X9
-0.00490042*Y5Y6Z7X8X9
0.00559800*X5Y6Y8X9
-0.00559800*Y5X6X8Y9
0.00490042*X5X6Z7Y8Y9
-0.01049842*Y5Y6Y8Y9
-0.00098044*Z5Z6Z7X8X9
-0.00098044*Z5Z6Y8Y9
-0.00808437*Z5Z7X8X9
-0.00808437*Z5Y8Y9
-0.00001059*Z5Y6Y7X8X9
0.00001059*X6Y7X8Y9
-0.00520275*X5X7X8X9
-0.00435717*X5Z6X7X8X9
-0.00084558*Y5Y7X8X9
0.00084558*Y5X7X8Y9
-0.00435717*X5Z6Y7X8Y9
-0.00520275*X5Y7X8Y9
-0.00293047*X6X7X8X9
-0.00293047*Z5Y6X7X8Y9
-0.07476551*Z4Z9
-0.01592993*Z4Z7X8X9
-0.01592993*Z4Y8Y9
-0.00251272*Z4Z5X6X7X8X9
-0.00251272*Z4Y6X7X8Y9
-0.02874525*X4Z8X9
-0.02874525*Z3X4Z8X9
0.02874525*X4X9
0.02874525*Z3X4X9
-0.01009334*X4Z6X7X8X9
-0.01009334*Z3X4Z6X7X8X9
-0.01009334*X4Y7X8Y9
-0.01009334*Z3X4Y7X8Y9
-0.00017545*X4X5X6X7X8X9
-0.00017545*Z3X4X5X6X7X8X9
0.00017545*X4Y5X6X7X8Y9
0.00017545*Z3X4Y5X6X7X8Y9
0.01592993*Y3Y4Z9
-0.01592993*Z2X3X4Z9
0.02788023*Y3Y4Z7X8X9
-0.02788023*Z2X3X4Z7X8X9
0.02788023*Y3Y4Y8Y9
-0.02788023*Z2X3X4Y8Y9
-0.00613006*Y3Y4Z5X6X7X8X9
0.00613006*Z2X3X4Z5X6X7X8X9
-0.00613006*Y3Y4Y6X7X8Y9
0.00613006*Z2X3X4Y6X7X8Y9
0.01009334*Y2X3Y4Z8X9
-0.01009334*Z1X2X3X4Z8X9
-0.01009334*Y2X3Y4X9
0.01009334*Z1X2X3X4X9
0.02341981*Y2X3Y4Z6X7X8X9
-0.02341981*Z1X2X3X4Z6X7X8X9
0.02341981*Y2X3Y4Y7X8Y9
-0.02341981*Z1X2X3X4Y7X8Y9
0.00842239*Y2X3Y4X5X6X7X8X9
-0.00842239*Z1X2X3X4X5X6X7X8X9
-0.00842239*Y2X3Y4Y5X6X7X8Y9
0.00842239*Z1X2X3X4Y5X6X7X8Y9
0.00251272*Y1X2X3Y4Z9
-0.00251272*Z0X1X2X3X4Z9
-0.00613006*Y1X2X3Y4Z7X8X9
0.00613006*Z0X1X2X3X4Z7X8X9
-0.00613006*Y1X2X3Y4Y8Y9
0.00613006*Z0X1X2X3X4Y8Y9
0.01525617*Y1X2X3Y4Z5X6X7X8X9
-0.01525617*Z0X1X2X3X4Z5X6X7X8X9
0.01525617*Y1X2X3Y4Y6X7X8Y9
-0.01525617*Z0X1X2X3X4Y6X7X8Y9
-0.00017545*Y0X1X2X3Y4Z8X9
0.00017545*X0X1X2X3X4Z8X9
0.00017545*Y0X1X2X3Y4X9
-0.00017545*X0X1X2X3X4X9
-0.00842239*Y0X1X2X3Y4Z6X7X8X9
0.00842239*X0X1X2X3X4Z6X7X8X9
-0.00842239*Y0X1X2X3Y4Y7X8Y9
0.00842239*X0X1X2X3X4Y7X8Y9
-0.02197375*Y0X1X2X3Y4X5X6X7X8X9
0.02197375*X0X1X2X3X4X5X6X7X8X9
0.02197375*Y0X1X2X3Y4Y5X6X7X8Y9
-0.02197375*X0X1X2X3X4Y5X6X7X8Y9
0.05800266*Z3Z4Z9
-0.01271872*Z3Z4Z7X8X9
-0.01271872*Z3Z4Y8Y9
0.00731734*Z3Z4Z5X6X7X8X9
0.00731734*Z3Z4Y6X7X8Y9
0.02396538*X3Z8X9
-0.02396538*Z2X3Z4Z8X9
-0.02396538*X3X9
0.02396538*Z2X3Z4X9
-0.00460011*X3Z6X7X8X9
0.00460011*Z2X3Z4Z6X7X8X9
-0.00460011*X3Y7X8Y9
0.00460011*Z2X3Z4Y7X8Y9
-0.00529835*X3X5X6X7X8X9
0.00529835*Z2X3Z4X5X6X7X8X9
0.00529835*X3Y5X6X7X8Y9
-0.00529835*Z2X3Z4Y5X6X7X8Y9
0.01329242*Y2Y3Z9
0.01329242*Z1X2X3Z4Z9
0.01228046*Y2Y3Z7X8X9
0.01228046*Z1X2X3Z4Z7X8X9
0.01228046*Y2Y3Y8Y9
0.01228046*Z1X2X3Z4Y8Y9
0.01183845*Y2Y3Z5X6X7X8X9
0.01183845*Z1X2X3Z4Z5X6X7X8X9
0.01183845*Y2Y3Y6X7X8Y9
0.01183845*Z1X2X3Z4Y6X7X8Y9
0.00735314*Y1X2Y3Z8X9
0.00735314*Z0X1X2X3Z4Z8X9
-0.00735314*Y1X2Y3X9
-0.00735314*Z0X1X2X3Z4X9
0.01526334*Y1X2Y3Z6X7X8X9
0.01526334*Z0X1X2X3Z4Z6X7X8X9
0.01526334*Y1X2Y3Y7X8Y9
0.01526334*Z0X1X2X3Z4Y7X8Y9
-0.01301344*Y1X2Y3X5X6X7X8X9
-0.01301344*Z0X1X2X3Z4X5X6X7X8X9
0.01301344*Y1X2Y3Y5X6X7X8Y9
0.01301344*Z0X1X2X3Z4Y5X6X7X8Y9
0.00279630*Y0X1X2Y3Z9
0.00279630*X0X1X2X3Z4Z9
-0.00608033*Y0X1X2Y3Z7X8X9
-0.00608033*X0X1X2X3Z4Z7X8X9
-0.00608033*Y0X1X2Y3Y8Y9
-0.00608033*X0X1X2X3Z4Y8Y9
0.01534453*Y0X1X2Y3Z5X6X7X8X9
0.01534453*X0X1X2X3Z4Z5X6X7X8X9
0.01534453*Y0X1X2Y3Y6X7X8Y9
0.01534453*X0X1X2X3Z4Y6X7X8Y9
0.06664421*Z2Z3Z9
0.00740228*Z2Z3Z7X8X9
0.00740228*Z2Z3Y8Y9
-0.00461808*Z2Z3Z5X6X7X8X9
-0.00461808*Z2Z3Y6X7X8Y9
-0.01501906*X2Z8X9
0.01501906*Z1X2Z3Z8X9
0.01501906*X2X9
-0.01501906*Z1X2Z3X9
-0.00464839*X2Z6X7X8X9
0.00464839*Z1X2Z3Z6X7X8X9
-0.00464839*X2Y7X8Y9
0.00464839*Z1X2Z3Y7X8Y9
-0.01802598*X2X5X6X7X8X9
0.01802598*Z1X2Z3X5X6X7X8X9
0.01802598*X2Y5X6X7X8Y9
-0.01802598*Z1X2Z3Y5X6X7X8Y9
-0.01372520*Y1Y2Z9
-0.01372520*Z0X1X2Z3Z9
-0.01238562*Y1Y2Z7X8X9
-0.01238562*Z0X1X2Z3Z7X8X9
-0.01238562*Y1Y2Y8Y9
-0.01238562*Z0X1X2Z3Y8Y9
-0.01193488*Y1Y2Z5X6X7X8X9
-0.01193488*Z0X1X2Z3Z5X6X7X8X9
-0.01193488*Y1Y2Y6X7X8Y9
-0.01193488*Z0X1X2Z3Y6X7X8Y9
-0.01040517*Y0X1Y2Z8X9
-0.01040517*X0X1X2Z3Z8X9
0.01040517*Y0X1Y2X9
0.01040517*X0X1X2Z3X9
-0.02362398*Y0X1Y2Z6X7X8X9
-0.02362398*X0X1X2Z3Z6X7X8X9
-0.02362398*Y0X1Y2Y7X8Y9
-0.02362398*X0X1X2Z3Y7X8Y9
-0.00825406*Y0X1Y2X5X6X7X8X9
-0.00825406*X0X1X2Z3X5X6X7X8X9
0.00825406*Y0X1Y2Y5X6X7X8Y9
0.00825406*X0X1X2Z3Y5X6X7X8Y9
0.06722676*Z1Z2Z9
0.00766064*Z1Z2Z7X8X9
0.00766064*Z1Z2Y8Y9
-0.00464731*Z1Z2Z5X6X7X8X9
-0.00464731*Z1Z2Y6X7X8Y9
-0.02418585*X1Z8X9
0.02418585*Z0X1Z2Z8X9
0.02418585*X1X9
-0.02418585*Z0X1Z2X9
0.00465790*X1Z6X7X8X9
-0.00465790*Z0X1Z2Z6X7X8X9
0.00465790*X1Y7X8Y9
-0.00465790*Z0X1Z2Y7X8Y9
0.00521662*X1X5X6X7X8X9
-0.00521662*Z0X1Z2X5X6X7X8X9
-0.00521662*X1Y5X6X7X8Y9
0.00521662*Z0X1Z2Y5X6X7X8Y9
-0.01652341*Y0Y1Z9
-0.01652341*X0X1Z2Z9
-0.02852440*Y0Y1Z7X8X9
-0.02852440*X0X1Z2Z7X8X9
-0.02852440*Y0Y1Y8Y9
-0.02852440*X0X1Z2Y8Y9
0.00606221*Y0Y1Z5X6X7X8X9
0.00606221*X0X1Z2Z5X6X7X8X9
0.00606221*Y0Y1Y6X7X8Y9
0.00606221*X0X1Z2Y6X7X8Y9
0.05931544*Z0Z1Z9
-0.01291532*Z0Z1Z7X8X9
-0.01291532*Z0Z1Y8Y9
0.00737005*Z0Z1Z5X6X7X8X9
0.00737005*Z0Z1Y6X7X8Y9
-0.02995121*X0Z8X9
0.02995121*X0Z1Z8X9
0.02995121*X0X9
-0.02995121*X0Z1X9
-0.01041938*X0Z6X7X8X9
0.01041938*X0Z1Z6X7X8X9
-0.01041938*X0Y7X8Y9
0.01041938*X0Z1Y7X8Y9
-0.00020450*X0X5X6X7X8X9
0.00020450*X0Z1X5X6X7X8X9
0.00020450*X0Y5X6X7X8Y9
-0.00020450*X0Z1Y5X6X7X8Y9
0.07744161*Z0Z9
0.01633843*Z0Z7X8X9
0.01633843*Z0Y8Y9
0.00272597*Z0Z5X6X7X8X9
0.00272597*Z0Y6X7X8Y9
0.03111146*Z7Z9
-0.00163020*Z5X6X7Z9
-0.00163020*Y6Y7Z8Z9
0.03928240*Z6Z7Z8Z9
-0.00087297*X5X6Z7Z8Z9
0.00087297*Y5Y6Z8Z9
0.04401070*Z5Z6Z8Z9
-0.04467619*Z5Z8Z9
-0.01305936*Z6Y7Y8Z9
-0.01305936*X7X8
0.00002482*X5X6Y7Y8Z9
0.00002482*Y5X6Y7X8
-0.01403127*Z5X6X8Z9
0.00797596*X6Z7X8Z9
-0.00605531*Z5Y6Y8Z9
-0.00605531*Y6Y8
0.00797596*Z5X6Z7X8
-0.01403127*X6X8
0.01285008*X5Z6Z7X8Z9
0.00934921*X5Z7X8Z9
0.00350088*Y5Y8Z9
-0.00350088*Y5Z6Z7Y8
-0.00934921*X5Z6X8
-0.01285008*X5X8
0.00822072*X5Y6Y7X8Z9
-0.00822072*Y5Y6Y7Y8
0.00145311*Z5X7X8Z9
0.00145311*Z5Z6Y7Y8
-0.00774459*Z5Z6X7X8Z9
-0.00774459*Z5Y7Y8
0.00004971*Y5Y6X7X8Z9
0.00004971*X5Y6X7Y8
-0.05800266*Z4Z8Z9
-0.01329242*Z4Z6X7X8Z9
-0.01329242*Z4Y7Y8
0.00279630*Z4X5X6X7X8Z9
-0.00279630*Z4Y5X6X7Y8
0.02396538*X4Z7X8Z9
0.02396538*Z3X4Z7X8Z9
-0.02396538*X4X8
-0.02396538*Z3X4X8
-0.00735314*X4Z5X6X7X8Z9
-0.00735314*Z3X4Z5X6X7X8Z9
-0.00735314*X4Y6X7Y8
-0.00735314*Z3X4Y6X7Y8
-0.01271872*Y3Y4Z8Z9
0.01271872*Z2X3X4Z8Z9
0.01228046*Y3Y4Z6X7X8Z9
-0.01228046*Z2X3X4Z6X7X8Z9
0.01228046*Y3Y4Y7Y8
-0.01228046*Z2X3X4Y7Y8
0.00608033*Y3Y4X5X6X7X8Z9
-0.00608033*Z2X3X4X5X6X7X8Z9
-0.00608033*Y3Y4Y5X6X7Y8
0.00608033*Z2X3X4Y5X6X7Y8
0.00460011*Y2X3Y4Z7X8Z9
-0.00460011*Z1X2X3X4Z7X8Z9
-0.00460011*Y2X3Y4X8
0.00460011*Z1X2X3X4X8
0.01526334*Y2X3Y4Z5X6X7X8Z9
-0.01526334*Z1X2X3X4Z5X6X7X8Z9
0.01526334*Y2X3Y4Y6X7Y8
-0.01526334*Z1X2X3X4Y6X7Y8
0.00731734*Y1X2X3Y4Z8Z9
-0.00731734*Z0X1X2X3X4Z8Z9
0.01183845*Y1X2X3Y4Z6X7X8Z9
-0.01183845*Z0X1X2X3X4Z6X7X8Z9
0.01183845*Y1X2X3Y4Y7Y8
-0.01183845*Z0X1X2X3X4Y7Y8
-0.01534453*Y1X2X3Y4X5X6X7X8Z9
0.01534453*Z0X1X2X3X4X5X6X7X8Z9
0.01534453*Y1X2X3Y4Y5X6X7Y8
-0.01534453*Z0X1X2X3X4Y5X6X7Y8
-0.00529835*Y0X1X2X3Y4Z7X8Z9
0.00529835*X0X1X2X3X4Z7X8Z9
0.00529835*Y0X1X2X3Y4X8
-0.00529835*X0X1X2X3X4X8
0.01301344*Y0X1X2X3Y4Z5X6X7X8Z9
-0.01301344*X0X1X2X3X4Z5X6X7X8Z9
0.01301344*Y0X1X2X3Y4Y6X7Y8
-0.01301344*X0X1X2X3X4Y6X7Y8
0.07086000*Z3Z4Z8Z9
-0.00089233*Z3Z4Z6X7X8Z9
-0.00089233*Z3Z4Y7Y8
-0.00759192*Z3Z4X5X6X7X8Z9
0.00759192*Z3Z4Y5X6X7Y8
-0.02856104*X3Z7X8Z9
0.02856104*Z2X3Z4Z7X8Z9
0.02856104*X3X8
-0.02856104*Z2X3Z4X8
-0.00213642*X3Z5X6X7X8Z9
0.00213642*Z2X3Z4Z5X6X7X8Z9
-0.00213642*X3Y6X7Y8
0.00213642*Z2X3Z4Y6X7Y8
-0.00089233*Y2Y3Z8Z9
-0.00089233*Z1X2X3Z4Z8Z9
0.02063982*Y2Y3Z6X7X8Z9
0.02063982*Z1X2X3Z4Z6X7X8Z9
0.02063982*Y2Y3Y7Y8
0.02063982*Z1X2X3Z4Y7Y8
-0.01191643*Y2Y3X5X6X7X8Z9
-0.01191643*Z1X2X3Z4X5X6X7X8Z9
0.01191643*Y2Y3Y5X6X7Y8
0.01191643*Z1X2X3Z4Y5X6X7Y8
0.00213642*Y1X2Y3Z7X8Z9
0.00213642*Z0X1X2X3Z4Z7X8Z9
-0.00213642*Y1X2Y3X8
-0.00213642*Z0X1X2X3Z4X8
0.02840437*Y1X2Y3Z5X6X7X8Z9
0.02840437*Z0X1X2X3Z4Z5X6X7X8Z9
0.02840437*Y1X2Y3Y6X7Y8
0.02840437*Z0X1X2X3Z4Y6X7Y8
0.00759192*Y0X1X2Y3Z8Z9
0.00759192*X0X1X2X3Z4Z8Z9
0.01191643*Y0X1X2Y3Z6X7X8Z9
0.01191643*X0X1X2X3Z4Z6X7X8Z9
0.01191643*Y0X1X2Y3Y7Y8
0.01191643*X0X1X2X3Z4Y7Y8
-0.01567477*Y0X1X2Y3X5X6X7X8Z9
-0.01567477*X0X1X2X3Z4X5X6X7X8Z9
0.01567477*Y0X1X2Y3Y5X6X7Y8
0.01567477*X0X1X2X3Z4Y5X6X7Y8
0.05967250*Z2Z3Z8Z9
0.00008895*Z2Z3Z6X7X8Z9
0.00008895*Z2Z3Y7Y8
0.00422850*Z2Z3X5X6X7X8Z9
-0.00422850*Z2Z3Y5X6X7Y8
0.01297041*X2Z7X8Z9
-0.01297041*Z1X2Z3Z7X8Z9
-0.01297041*X2X8
0.01297041*Z1X2Z3X8
0.01471098*X2Z5X6X7X8Z9
-0.01471098*Z1X2Z3Z5X6X7X8Z9
0.01471098*X2Y6X7Y8
-0.01471098*Z1X2Z3Y6X7Y8
0.00050622*Y1Y2Z8Z9
0.00050622*Z0X1X2Z3Z8Z9
-0.02076629*Y1Y2Z6X7X8Z9
-0.02076629*Z0X1X2Z3Z6X7X8Z9
-0.02076629*Y1Y2Y7Y8
-0.02076629*Z0X1X2Z3Y7Y8
0.01232659*Y1Y2X5X6X7X8Z9
0.01232659*Z0X1X2Z3X5X6X7X8Z9
-0.01232659*Y1Y2Y5X6X7Y8
-0.01232659*Z0X1X2Z3Y5X6X7Y8
-0.00425333*Y0X1Y2Z7X8Z9
-0.00425333*X0X1X2Z3Z7X8Z9
0.00425333*Y0X1Y2X8
0.00425333*X0X1X2Z3X8
-0.01582746*Y0X1Y2Z5X6X7X8Z9
-0.01582746*X0X1X2Z3Z5X6X7X8Z9
-0.01582746*Y0X1Y2Y6X7Y8
-0.01582746*X0X1X2Z3Y6X7Y8
0.05992223*Z1Z2Z8Z9
0.00031060*Z1Z2Z6X7X8Z9
0.00031060*Z1Z2Y7Y8
0.00469613*Z1Z2X5X6X7X8Z9
-0.00469613*Z1Z2Y5X6X7Y8
0.02874225*X1Z7X8Z9
-0.02874225*Z0X1Z2Z7X8Z9
-0.02874225*X1X8
0.02874225*Z0X1Z2X8
0.00251949*X1Z5X6X7X8Z9
-0.00251949*Z0X1Z2Z5X6X7X8Z9
0.00251949*X1Y6X7Y8
-0.00251949*Z0X1Z2Y6X7Y8
0.01278940*Y0Y1Z8Z9
0.01278940*X0X1Z2Z8Z9
-0.01291685*Y0Y1Z6X7X8Z9
-0.01291685*X0X1Z2Z6X7X8Z9
-0.01291685*Y0Y1Y7Y8
-0.01291685*X0X1Z2Y7Y8
-0.00607940*Y0Y1X5X6X7X8Z9
-0.00607940*X0X1Z2X5X6X7X8Z9
0.00607940*Y0Y1Y5X6X7Y8
0.00607940*X0X1Z2Y5X6X7Y8
0.07241507*Z0Z1Z8Z9
-0.00106638*Z0Z1Z6X7X8Z9
-0.00106638*Z0Z1Y7Y8
-0.00766465*Z0Z1X5X6X7X8Z9
0.00766465*Z0Z1Y5X6X7Y8
0.02517667*X0Z7X8Z9
-0.02517667*X0Z1Z7X8Z9
-0.02517667*X0X8
0.02517667*X0Z1X8
-0.00761494*X0Z5X6X7X8Z9
0.00761494*X0Z1Z5X6X7X8Z9
-0.00761494*X0Y6X7Y8
0.00761494*X0Z1Y6X7Y8
0.06035095*Z0Z8Z9
0.01382399*Z0Z6X7X8Z9
0.01382399*Z0Y7Y8
-0.00310288*Z0X5X6X7X8Z9
0.00310288*Z0Y5X6X7Y8
0.04153422*Z6Z8
0.00305607*X5X6Z8
-0.00305607*Y5Y6Z7Z8
0.03988387*Z5Z6Z7Z8
-0.04500509*Z5Z7Z8
0.01365648*Z5Y6Y7Z8
0.01365648*X6X7
-0.01110735*X5X7Z8
-0.00282279*X5Z6X7Z8
-0.00828456*Y5Y7Z8
0.00828456*Y5Y7
0.00282279*X5Z6X7
0.01110735*X5X7
0.00346991*X6X7Z8
0.00346991*Z5Y6Y7
-0.06664421*Z4Z7Z8
0.01372520*Z4Z5X6X7Z8
0.01372520*Z4Y6Y7
-0.01501906*X4Z6X7Z8
-0.01501906*Z3X4Z6X7Z8
0.01501906*X4X7
0.01501906*Z3X4X7
-0.01040517*X4X5X6X7Z8
-0.01040517*Z3X4X5X6X7Z8
0.01040517*X4Y5X6Y7
0.01040517*Z3X4Y5X6Y7
0.00740228*Y3Y4Z7Z8
-0.00740228*Z2X3X4Z7Z8
-0.01238562*Y3Y4Z5X6X7Z8
0.01238562*Z2X3X4Z5X6X7Z8
-0.01238562*Y3Y4Y6Y7
0.01238562*Z2X3X4Y6Y7
0.00464839*Y2X3Y4Z6X7Z8
-0.00464839*Z1X2X3X4Z6X7Z8
-0.00464839*Y2X3Y4X7
0.00464839*Z1X2X3X4X7
0.02362398*Y2X3Y4X5X6X7Z8
-0.02362398*Z1X2X3X4X5X6X7Z8
-0.02362398*Y2X3Y4Y5X6Y7
0.02362398*Z1X2X3X4Y5X6Y7
-0.00461808*Y1X2X3Y4Z7Z8
0.00461808*Z0X1X2X3X4Z7Z8
-0.01193488*Y1X2X3Y4Z5X6X7Z8
0.01193488*Z0X1X2X3X4Z5X6X7Z8
-0.01193488*Y1X2X3Y4Y6Y7
0.01193488*Z0X1X2X3X4Y6Y7
-0.01802598*Y0X1X2X3Y4Z6X7Z8
0.01802598*X0X1X2X3X4Z6X7Z8
0.01802598*Y0X1X2X3Y4X7
-0.01802598*X0X1X2X3X4X7
-0.00825406*Y0X1X2X3Y4X5X6X7Z8
0.00825406*X0X1X2X3X4X5X6X7Z8
0.00825406*Y0X1X2X3Y4Y5X6Y7
-0.00825406*X0X1X2X3X4Y5X6Y7
0.05967250*Z3Z4Z7Z8
0.00050622*Z3Z4Z5X6X7Z8
0.00050622*Z3Z4Y6Y7
0.01297041*X3Z6X7Z8
-0.01297041*Z2X3Z4Z6X7Z8
-0.01297041*X3X7
0.01297041*Z2X3Z4X7
-0.00425333*X3X5X6X7Z8
0.00425333*Z2X3Z4X5X6X7Z8
0.00425333*X3Y5X6Y7
-0.00425333*Z2X3Z4Y5X6Y7
0.00008895*Y2Y3Z7Z8
0.00008895*Z1X2X3Z4Z7Z8
-0.02076629*Y2Y3Z5X6X7Z8
-0.02076629*Z1X2X3Z4Z5X6X7Z8
-0.02076629*Y2Y3Y6Y7
-0.02076629*Z1X2X3Z4Y6Y7
-0.01471098*Y1X2Y3Z6X7Z8
-0.01471098*Z0X1X2X3Z4Z6X7Z8
0.01471098*Y1X2Y3X7
0.01471098*Z0X1X2X3Z4X7
0.01582746*Y1X2Y3X5X6X7Z8
0.01582746*Z0X1X2X3Z4X5X6X7Z8
-0.01582746*Y1X2Y3Y5X6Y7
-0.01582746*Z0X1X2X3Z4Y5X6Y7
-0.00422850*Y0X1X2Y3Z7Z8
-0.00422850*X0X1X2X3Z4Z7Z8
-0.01232659*Y0X1X2Y3Z5X6X7Z8
-0.01232659*X0X1X2X3Z4Z5X6X7Z8
-0.01232659*Y0X1X2Y3Y6Y7
-0.01232659*X0X1X2X3Z4Y6Y7
0.06715274*Z2Z3Z7Z8
-0.00065747*Z2Z3Z5X6X7Z8
-0.00065747*Z2Z3Y6Y7
-0.02584799*X2Z6X7Z8
0.02584799*Z1X2Z3Z6X7Z8
0.02584799*X2X7
-0.02584799*Z1X2Z3X7
-0.00457412*X2X5X6X7Z8
0.00457412*Z1X2Z3X5X6X7Z8
0.00457412*X2Y5X6Y7
-0.00457412*Z1X2Z3Y5X6Y7
-0.00065747*Y1Y2Z7Z8
-0.00065747*Z0X1X2Z3Z7Z8
0.02131209*Y1Y2Z5X6X7Z8
0.02131209*Z0X1X2Z3Z5X6X7Z8
0.02131209*Y1Y2Y6Y7
0.02131209*Z0X1X2Z3Y6Y7
-0.00457412*Y0X1Y2Z6X7Z8
-0.00457412*X0X1X2Z3Z6X7Z8
0.00457412*Y0X1Y2X7
0.00457412*X0X1X2Z3X7
-0.02428980*Y0X1Y2X5X6X7Z8
-0.02428980*X0X1X2Z3X5X6X7Z8
0.02428980*Y0X1Y2Y5X6Y7
0.02428980*X0X1X2Z3Y5X6Y7
0.06738220*Z1Z2Z7Z8
-0.00030933*Z1Z2Z5X6X7Z8
-0.00030933*Z1Z2Y6Y7
-0.01334715*X1Z6X7Z8
0.01334715*Z0X1Z2Z6X7Z8
0.01334715*X1X7
-0.01334715*Z0X1Z2X7
0.00473759*X1X5X6X7Z8
-0.00473759*Z0X1Z2X5X6X7Z8
-0.00473759*X1Y5X6Y7
0.00473759*Z0X1Z2Y5X6Y7
-0.00763019*Y0Y1Z7Z8
-0.00763019*X0X1Z2Z7Z8
0.01302215*Y0Y1Z5X6X7Z8
0.01302215*X0X1Z2Z5X6X7Z8
0.01302215*Y0Y1Y6Y7
0.01302215*X0X1Z2Y6Y7
0.06119596*Z0Z1Z7Z8
0.00071386*Z0Z1Z5X6X7Z8
0.00071386*Z0Z1Y6Y7
-0.01584494*X0Z6X7Z8
0.01584494*X0Z1Z6X7Z8
0.01584494*X0X7
-0.01584494*X0Z1X7
-0.01095698*X0X5X6X7Z8
0.01095698*X0Z1X5X6X7Z8
0.01095698*X0Y5X6Y7
-0.01095698*X0Z1Y5X6Y7
0.06929489*Z0Z7Z8
-0.01442689*Z0Z5X6X7Z8
-0.01442689*Z0Y6Y7
0.03212912*Z5Z7
-0.04027461*Z5Z6Z7
-0.01213083*Y5Y6Z7
0.01213083*X5X6
-0.06722676*Z4Z6Z7
-0.01652341*Z4X5X6Z7
0.01652341*Z4Y5Y6
-0.02418585*X4Z5X6Z7
-0.02418585*Z3X4Z5X6Z7
0.02418585*X4X6
0.02418585*Z3X4X6
0.00766064*Y3Y4Z6Z7
-0.00766064*Z2X3X4Z6Z7
0.02852440*Y3Y4X5X6Z7
-0.02852440*Z2X3X4X5X6Z7
-0.02852440*Y3Y4Y5Y6
0.02852440*Z2X3X4Y5Y6
-0.00465790*Y2X3Y4Z5X6Z7
0.00465790*Z1X2X3X4Z5X6Z7
0.00465790*Y2X3Y4X6
-0.00465790*Z1X2X3X4X6
-0.00464731*Y1X2X3Y4Z6Z7
0.00464731*Z0X1X2X3X4Z6Z7
-0.00606221*Y1X2X3Y4X5X6Z7
0.00606221*Z0X1X2X3X4X5X6Z7
0.00606221*Y1X2X3Y4Y5Y6
-0.00606221*Z0X1X2X3X4Y5Y6
0.00521662*Y0X1X2X3Y4Z5X6Z7
-0.00521662*X0X1X2X3X4Z5X6Z7
-0.00521662*Y0X1X2X3Y4X6
0.00521662*X0X1X2X3X4X6
0.05992223*Z3Z4Z6Z7
-0.01278940*Z3Z4X5X6Z7
0.01278940*Z3Z4Y5Y6
0.02874225*X3Z5X6Z7
-0.02874225*Z2X3Z4Z5X6Z7
-0.02874225*X3X6
0.02874225*Z2X3Z4X6
0.00031060*Y2Y3Z6Z7
0.00031060*Z1X2X3Z4Z6Z7
0.01291685*Y2Y3X5X6Z7
0.01291685*Z1X2X3Z4X5X6Z7
-0.01291685*Y2Y3Y5Y6
-0.01291685*Z1X2X3Z4Y5Y6
-0.00251949*Y1X2Y3Z5X6Z7
-0.00251949*Z0X1X2X3Z4Z5X6Z7
0.00251949*Y1X2Y3X6
0.00251949*Z0X1X2X3Z4X6
-0.00469613*Y0X1X2Y3Z6Z7
-0.00469613*X0X1X2X3Z4Z6Z7
-0.00607940*Y0X1X2Y3X5X6Z7
-0.00607940*X0X1X2X3Z4X5X6Z7
0.00607940*Y0X1X2Y3Y5Y6
0.00607940*X0X1X2X3Z4Y5Y6
0.06738220*Z2Z3Z6Z7
0.00763019*Z2Z3X5X6Z7
-0.00763019*Z2Z3Y5Y6
-0.01334715*X2Z5X6Z7
0.01334715*Z1X2Z3Z5X6Z7
0.01334715*X2X6
-0.01334715*Z1X2Z3X6
-0.00030933*Y1Y2Z6Z7
-0.00030933*Z0X1X2Z3Z6Z7
-0.01302215*Y1Y2X5X6Z7
-0.01302215*Z0X1X2Z3X5X6Z7
0.01302215*Y1Y2Y5Y6
0.01302215*Z0X1X2Z3Y5Y6
0.00473759*Y0X1Y2Z5X6Z7
0.00473759*X0X1X2Z3Z5X6Z7
-0.00473759*Y0X1Y2X6
-0.00473759*X0X1X2Z3X6
0.06856220*Z1Z2Z6Z7
0.00798889*Z1Z2X5X6Z7
-0.00798889*Z1Z2Y5Y6
-0.02958032*X1Z5X6Z7
0.02958032*Z0X1Z2Z5X6Z7
0.02958032*X1X6
-0.02958032*Z0X1Z2X6
-0.00798889*Y0Y1Z6Z7
-0.00798889*X0X1Z2Z6Z7
-0.02981089*Y0Y1X5X6Z7
-0.02981089*X0X1Z2X5X6Z7
0.02981089*Y0Y1Y5Y6
0.02981089*X0X1Z2Y5Y6
0.06170944*Z0Z1Z6Z7
-0.01345347*Z0Z1X5X6Z7
0.01345347*Z0Z1Y5Y6
-0.02558430*X0Z5X6Z7
0.02558430*X0Z1Z5X6Z7
0.02558430*X0X6
-0.02558430*X0Z1X6
0.07008550*Z0Z6Z7
0.01720378*Z0X5X6Z7
-0.01720378*Z0Y5Y6
-0.03031052*Z6
-0.05931544*Z4Z5Z6
0.02995121*X4X5Z6
0.02995121*Z3X4X5Z6
0.02995121*X4X5
0.02995121*Z3X4X5
-0.01291532*Y3Y4Z5Z6
0.01291532*Z2X3X4Z5Z6
-0.01041938*Y2X3Y4X5Z6
0.01041938*Z1X2X3X4X5Z6
-0.01041938*Y2X3Y4X5
0.01041938*Z1X2X3X4X5
0.00737005*Y1X2X3Y4Z5Z6
-0.00737005*Z0X1X2X3X4Z5Z6
0.00020450*Y0X1X2X3Y4X5Z6
-0.00020450*X0X1X2X3X4X5Z6
0.00020450*Y0X1X2X3Y4X5
-0.00020450*X0X1X2X3X4X5
0.07241507*Z3Z4Z5Z6
-0.02517667*X3X5Z6
0.02517667*Z2X3Z4X5Z6
-0.02517667*X3X5
0.02517667*Z2X3Z4X5
-0.00106638*Y2Y3Z5Z6
-0.00106638*Z1X2X3Z4Z5Z6
-0.00761494*Y1X2Y3X5Z6
-0.00761494*Z0X1X2X3Z4X5Z6
-0.00761494*Y1X2Y3X5
-0.00761494*Z0X1X2X3Z4X5
0.00766465*Y0X1X2Y3Z5Z6
0.00766465*X0X1X2X3Z4Z5Z6
0.06119596*Z2Z3Z5Z6
0.01584494*X2X5Z6
-0.01584494*Z1X2Z3X5Z6
0.01584494*X2X5
-0.01584494*Z1X2Z3X5
0.00071386*Y1Y2Z5Z6
0.00071386*Z0X1X2Z3Z5Z6
0.01095698*Y0X1Y2X5Z6
0.01095698*X0X1X2Z3X5Z6
0.01095698*Y0X1Y2X5
0.01095698*X0X1X2Z3X5
0.06170944*Z1Z2Z5Z6
0.02558430*X1X5Z6
-0.02558430*Z0X1Z2X5Z6
0.02558430*X1X5
-0.02558430*Z0X1Z2X5
0.01345347*Y0Y1Z5Z6
0.01345347*X0X1Z2Z5Z6
0.07484514*Z0Z1Z5Z6
0.03186991*X0X5Z6
-0.03186991*X0Z1X5Z6
0.03186991*X0X5
-0.03186991*X0Z1X5
0.06218043*Z0Z5Z6
0.07744161*Z4Z5
-0.01633843*Y3Y4Z5
0.01633843*Z2X3X4Z5
-0.00272597*Y1X2X3Y4Z5
0.00272597*Z0X1X2X3X4Z5
-0.06035095*Z3Z4Z5
-0.01382399*Y2Y3Z5
-0.01382399*Z1X2X3Z4Z5
-0.00310288*Y0X1X2Y3Z5
-0.00310288*X0X1X2X3Z4Z5
-0.06929489*Z2Z3Z5
0.01442689*Y1Y2Z5
0.01442689*Z0X1X2Z3Z5
-0.07008550*Z1Z2Z5
0.01720378*Y0Y1Z5
0.01720378*X0X1Z2Z5
-0.06218043*Z0Z1Z5
-0.08130164*Z0Z5
-0.02925740*Z3
-0.00319909*Z1X2X3
-0.00319909*Y2Y3Z4
-0.00297175*X0X1X2X3
-0.00297175*Y0X1X2Y3Z4
-0.03876398*Z2Z3Z4
0.00759514*Z0X1X2Z3Z4
0.00759514*Y1Y2Z4
-0.04380696*Z1Z2Z4
0.00810102*X0X1Z2Z4
0.00810102*Y0Y1Z4
-0.04405927*Z0Z1Z4
-0.05546786*Z0Z4
0.01124666*Z2Y3Y4
-0.01124666*X3X4
-0.00003580*Z0X1X2Y3Y4
-0.00003580*Y1X2Y3X4
-0.01041895*Z1X2X4
0.00273861*X2Z3X4
-0.00768034*Z1Y2Y4
0.00768034*Y2Y4
-0.00273861*Z1X2Z3X4
0.01041895*X2X4
0.00510682*X0X1X2X4
0.00432484*Y0X1Y2Z3X4
0.00078198*X0X1Y2Y4
-0.00078198*Y0X1X2Y4
0.00432484*X0X1X2Z3X4
0.00510682*Y0X1Y2X4
-0.01234740*Z0X1Z2Z3X4
0.00892251*X1Z3X4
-0.00342489*Z0Y1Y4
0.00342489*Y1Z2Z3Y4
-0.00892251*Z0X1Z2X4
0.01234740*X1X4
-0.01693776*X0Z1Z3X4
0.01460668*X0Z3X4
-0.00233109*Y0Y4
0.00233109*Y0Z1Z3Y4
-0.01460668*X0Z1X4
0.01693776*X0X4
0.00776753*Z0X1Y2Y3X4
-0.00776753*Y1Y2Y3Y4
-0.00301225*Z1X3X4
0.00301225*Z1Z2Y3Y4
0.01049842*X0X1X3X4
0.00490042*Y0Y1Z2X3X4
0.00559800*X0Y1Y3X4
-0.00559800*Y0X1X3Y4
-0.00490042*X0X1Z2Y3Y4
-0.01049842*Y0Y1Y3Y4
0.00098044*Z0Z1Z2X3X4
-0.00098044*Z0Z1Y3Y4
-0.00808437*Z0Z2X3X4
0.00808437*Z0Y3Y4
0.00001059*Z0Y1Y2X3X4
0.00001059*X1Y2X3Y4
-0.00520275*X0X2X3X4
0.00435717*X0Z1X2X3X4
-0.00084558*Y0Y2X3X4
0.00084558*Y0X2X3Y4
0.00435717*X0Z1Y2X3Y4
-0.00520275*X0Y2X3Y4
-0.00293047*X1X2X3X4
0.00293047*Z0Y1X2X3Y4
0.03111146*Z2Z4
-0.00163020*Z0X1X2Z4
-0.00163020*Y1Y2Z3Z4
0.03928240*Z1Z2Z3Z4
0.00087297*X0X1Z2Z3Z4
0.00087297*Y0Y1Z3Z4
0.04401070*Z0Z1Z3Z4
0.04467619*Z0Z3Z4
-0.01305936*Z1Y2Y3Z4
-0.01305936*X2X3
-0.00002482*X0X1Y2Y3Z4
0.00002482*Y0X1Y2X3
-0.01403127*Z0X1X3Z4
0.00797596*X1Z2X3Z4
-0.00605531*Z0Y1Y3Z4
-0.00605531*Y1Y3
0.00797596*Z0X1Z2X3
-0.01403127*X1X3
-0.01285008*X0Z1Z2X3Z4
0.00934921*X0Z2X3Z4
-0.00350088*Y0Y3Z4
-0.00350088*Y0Z1Z2Y3
0.00934921*X0Z1X3
-0.01285008*X0X3
-0.00822072*X0Y1Y2X3Z4
-0.00822072*Y0Y1Y2Y3
0.00145311*Z0X2X3Z4
0.00145311*Z0Z1Y2Y3
0.00774459*Z0Z1X2X3Z4
0.00774459*Z0Y2Y3
-0.00004971*Y0Y1X2X3Z4
0.00004971*X0Y1X2Y3
0.04153422*Z1Z3
-0.00305607*X0X1Z3
-0.00305607*Y0Y1Z2Z3
0.03988387*Z0Z1Z2Z3
0.04500509*Z0Z2Z3
0.01365648*Z0Y1Y2Z3
0.01365648*X1X2
0.01110735*X0X2Z3
-0.00282279*X0Z1X2Z3
0.00828456*Y0Y2Z3
0.00828456*Y0Y2
-0.00282279*X0Z1X2
0.01110735*X0X2
-0.00346991*X1X2Z3
-0.00346991*Z0Y1Y2
0.03212912*Z0Z2
0.04027461*Z0Z1Z2
0.01213083*Y0Y1Z2
0.01213083*X0X1
0.03031052*Z1
