3.14792555*I
0.30779941*Z5
0.01038946*Z3X4X5
0.01038946*Y4Y5
0.06182155*Z4Z5
-0.03705330*X3X4Z5
-0.03705330*Y3Y4
-0.38005988*Z3Z4
-1.37250549*Z3
0.30779941*Z2
0.01038946*Z0X1X2
0.01038946*Y1Y2
0.06182155*Z1Z2
-0.03705330*X0X1Z2
-0.03705330*Y0Y1
-0.38005988*Z0Z1
-1.37250549*Z0
0.24537166*Z4
-0.02234963*X3X4
-0.02234963*Y3Y4Z5
0.26244446*Z3Z4Z5
0.27401918*Z3Z5
0.00880286*Z3Y4Y5
0.00880286*X4X5
-0.05579334*X3X5
0.02207523*X3Z4X5
-0.03371811*Y3Y5
0.16502543*Z2Z5
-0.02854363*Z2Z3X4X5
-0.02854363*Z2Y4Y5
-0.03673160*X2Z4X5
0.03673160*Z1X2Z4X5
0.03673160*X2X5
-0.03673160*Z1X2X5
-0.01348147*X2X3X4X5
0.01348147*Z1X2X3X4X5
-0.01348147*X2Y3X4Y5
0.01348147*Z1X2Y3X4Y5
-0.02854363*Y1Y2Z5
-0.02854363*Z0X1X2Z5
0.02720576*Y1Y2Z3X4X5
0.02720576*Z0X1X2Z3X4X5
0.02720576*Y1Y2Y4Y5
0.02720576*Z0X1X2Y4Y5
0.01348147*Y0X1Y2Z4X5
0.01348147*X0X1X2Z4X5
-0.01348147*Y0X1Y2X5
-0.01348147*X0X1X2X5
0.02320709*Y0X1Y2X3X4X5
0.02320709*X0X1X2X3X4X5
0.02320709*Y0X1Y2Y3X4Y5
0.02320709*X0X1X2Y3X4Y5
0.14409803*Z1Z2Z5
-0.00311949*Z1Z2Z3X4X5
-0.00311949*Z1Z2Y4Y5
-0.02774159*X1Z4X5
0.02774159*Z0X1Z2Z4X5
0.02774159*X1X5
-0.02774159*Z0X1Z2X5
0.00573382*X1X3X4X5
-0.00573382*Z0X1Z2X3X4X5
0.00573382*X1Y3X4Y5
-0.00573382*Z0X1Z2Y3X4Y5
0.02915811*Y0Y1Z5
0.02915811*X0X1Z2Z5
-0.02259287*Y0Y1Z3X4X5
-0.02259287*X0X1Z2Z3X4X5
-0.02259287*Y0Y1Y4Y5
-0.02259287*X0X1Z2Y4Y5
0.15318689*Z0Z1Z5
-0.01374210*Z0Z1Z3X4X5
-0.01374210*Z0Z1Y4Y5
0.03363049*X0Z4X5
-0.03363049*X0Z1Z4X5
-0.03363049*X0X5
0.03363049*X0Z1X5
0.01505511*X0X3X4X5
-0.01505511*X0Z1X3X4X5
0.01505511*X0Y3X4Y5
-0.01505511*X0Z1Y3X4Y5
0.18442304*Z0Z5
-0.03711333*Z0Z3X4X5
-0.03711333*Z0Y4Y5
0.14409803*Z2Z4Z5
0.02915811*Z2X3X4Z5
0.02915811*Z2Y3Y4
-0.02774159*X2Z3X4Z5
0.02774159*Z1X2Z3X4Z5
0.02774159*X2X4
-0.02774159*Z1X2X4
-0.00311949*Y1Y2Z4Z5
-0.00311949*Z0X1X2Z4Z5
-0.02259287*Y1Y2X3X4Z5
-0.02259287*Z0X1X2X3X4Z5
-0.02259287*Y1Y2Y3Y4
-0.02259287*Z0X1X2Y3Y4
-0.00573382*Y0X1Y2Z3X4Z5
-0.00573382*X0X1X2Z3X4Z5
0.00573382*Y0X1Y2X4
0.00573382*X0X1X2X4
0.14878403*Z1Z2Z4Z5
0.00900260*Z1Z2X3X4Z5
0.00900260*Z1Z2Y3Y4
-0.03598895*X1Z3X4Z5
0.03598895*Z0X1Z2Z3X4Z5
0.03598895*X1X4
-0.03598895*Z0X1Z2X4
0.00900260*Y0Y1Z4Z5
0.00900260*X0X1Z2Z4Z5
0.02475302*Y0Y1X3X4Z5
0.02475302*X0X1Z2X3X4Z5
0.02475302*Y0Y1Y3Y4
0.02475302*X0X1Z2Y3Y4
0.14879217*Z0Z1Z4Z5
0.01238075*Z0Z1X3X4Z5
0.01238075*Z0Z1Y3Y4
0.02564552*X0Z3X4Z5
-0.02564552*X0Z1Z3X4Z5
-0.02564552*X0X4
0.02564552*X0Z1X4
0.16121635*Z0Z4Z5
0.04048365*Z0X3X4Z5
0.04048365*Z0Y3Y4
0.15318689*Z2Z3Z4
0.03363049*X2X3Z4
-0.03363049*Z1X2X3Z4
-0.03363049*X2X3
0.03363049*Z1X2X3
-0.01374210*Y1Y2Z3Z4
-0.01374210*Z0X1X2Z3Z4
-0.01505511*Y0X1Y2X3Z4
-0.01505511*X0X1X2X3Z4
0.01505511*Y0X1Y2X3
0.01505511*X0X1X2X3
0.14879217*Z1Z2Z3Z4
0.02564552*X1X3Z4
-0.02564552*Z0X1Z2X3Z4
-0.02564552*X1X3
0.02564552*Z0X1Z2X3
0.01238075*Y0Y1Z3Z4
0.01238075*X0X1Z2Z3Z4
0.15996171*Z0Z1Z3Z4
-0.03829549*X0X3Z4
0.03829549*X0Z1X3Z4
0.03829549*X0X3
-0.03829549*X0Z1X3
0.17630072*Z0Z3Z4
0.18442304*Z2Z3
-0.03711333*Y1Y2Z3
-0.03711333*Z0X1X2Z3
0.16121635*Z1Z2Z3
0.04048365*Y0Y1Z3
0.04048365*X0X1Z2Z3
0.17630072*Z0Z1Z3
0.23068956*Z0Z3
0.24537166*Z1
-0.02234963*X0X1
-0.02234963*Y0Y1Z2
0.26244446*Z0Z1Z2
0.27401918*Z0Z2
0.00880286*Z0Y1Y2
0.00880286*X1X2
-0.05579334*X0X2
0.02207523*X0Z1X2
-0.03371811*Y0Y2
