-1.61497559*I
0.06994237*Z9
0.00053483*Z7X8X9
0.00053483*Y8Y9
0.00357871*Z5X6X7X8X9
0.00357871*Y6X7X8Y9
0.06040130*Z8Z9
0.00484250*Z6X7X8Z9
0.00484250*Y7Y8
-0.00383320*X5X6X7X8Z9
0.00383320*Y5X6X7Y8
0.04685027*Z7Z8
0.00536294*Z5X6X7Z8
0.00536294*Y6Y7
0.03164689*Z6Z7
0.00112755*X5X6Z7
-0.00112755*Y5Y6
0.01540351*Z5Z6
-0.00201264*Z5
-0.06994237*Z4
-0.00053483*Z2X3X4
0.00053483*Y3Y4
-0.00357871*Z0X1X2X3X4
0.00357871*Y1X2X3Y4
0.06040130*Z3Z4
0.00484250*Z1X2X3Z4
0.00484250*Y2Y3
0.00383320*X0X1X2X3Z4
0.00383320*Y0X1X2Y3
0.04685027*Z2Z3
0.00536294*Z0X1X2Z3
0.00536294*Y1Y2
0.03164689*Z1Z2
-0.00112755*X0X1Z2
-0.00112755*Y0Y1
0.01540351*Z0Z1
0.00201264*Z0
0.02412524*Z8
0.00224460*Z6X7X8
0.00224460*Y7Y8Z9
0.00341514*X5X6X7X8
-0.00341514*Y5X6X7Y8Z9
0.03268756*Z7Z8Z9
-0.00649674*Z5X6X7Z8Z9
-0.00649674*Y6Y7Z9
0.03699715*Z6Z7Z9
-0.00665638*X5X6Z7Z9
0.00665638*Y5Y6Z9
0.03633601*Z5Z6Z9
-0.04574065*Z5Z9
-0.00941263*Z7Y8Y9
-0.00941263*X8X9
-0.00039535*Z5X6X7Y8Y9
0.00039535*Y6X7Y8X9
0.00845145*Z6X7X9
-0.00186736*X7Z8X9
0.00658408*Z6Y7Y9
0.00658408*Y7Y9
-0.00186736*Z6X7Z8X9
0.00845145*X7X9
-0.00474990*X5X6X7X9
0.00420070*Y5X6Y7Z8X9
-0.00054920*X5X6Y7Y9
0.00054920*Y5X6X7Y9
0.00420070*X5X6X7Z8X9
-0.00474990*Y5X6Y7X9
0.01039792*Z5X6Z7Z8X9
-0.00773393*X6Z8X9
0.00266400*Z5Y6Y9
0.00266400*Y6Z7Z8Y9
-0.00773393*Z5X6Z7X9
0.01039792*X6X9
0.01412928*X5Z6Z8X9
0.01217723*X5Z8X9
0.00195205*Y5Y9
-0.00195205*Y5Z6Z8Y9
-0.01217723*X5Z6X9
-0.01412928*X5X9
-0.00660581*Z5X6Y7Y8X9
-0.00660581*Y6Y7Y8Y9
0.00311005*Z6X8X9
0.00311005*Z6Z7Y8Y9
-0.00895576*X5X6X8X9
0.00421986*Y5Y6Z7X8X9
-0.00473590*X5Y6Y8X9
0.00473590*Y5X6X8Y9
-0.00421986*X5X6Z7Y8Y9
0.00895576*Y5Y6Y8Y9
-0.00098820*Z5Z6Z7X8X9
-0.00098820*Z5Z6Y8Y9
-0.00656565*Z5Z7X8X9
-0.00656565*Z5Y8Y9
-0.00000889*Z5Y6Y7X8X9
0.00000889*X6Y7X8Y9
0.00481156*X5X7X8X9
0.00422596*X5Z6X7X8X9
0.00058560*Y5Y7X8X9
-0.00058560*Y5X7X8Y9
0.00422596*X5Z6Y7X8Y9
0.00481156*X5Y7X8Y9
-0.00337110*X6X7X8X9
-0.00337110*Z5Y6X7X8Y9
-0.06788410*Z4Z9
-0.01529102*Z4Z7X8X9
-0.01529102*Z4Y8Y9
-0.00282825*Z4Z5X6X7X8X9
-0.00282825*Z4Y6X7X8Y9
-0.02755551*X4Z8X9
-0.02755551*Z3X4Z8X9
0.02755551*X4X9
0.02755551*Z3X4X9
-0.00892576*X4Z6X7X8X9
-0.00892576*Z3X4Z6X7X8X9
-0.00892576*X4Y7X8Y9
-0.00892576*Z3X4Y7X8Y9
0.00030220*X4X5X6X7X8X9
0.00030220*Z3X4X5X6X7X8X9
-0.00030220*X4Y5X6X7X8Y9
-0.00030220*Z3X4Y5X6X7X8Y9
0.01529102*Y3Y4Z9
-0.01529102*Z2X3X4Z9
0.02948363*Y3Y4Z7X8X9
-0.02948363*Z2X3X4Z7X8X9
0.02948363*Y3Y4Y8Y9
-0.02948363*Z2X3X4Y8Y9
-0.00503209*Y3Y4Z5X6X7X8X9
0.00503209*Z2X3X4Z5X6X7X8X9
-0.00503209*Y3Y4Y6X7X8Y9
0.00503209*Z2X3X4Y6X7X8Y9
0.00892576*Y2X3Y4Z8X9
-0.00892576*Z1X2X3X4Z8X9
-0.00892576*Y2X3Y4X9
0.00892576*Z1X2X3X4X9
0.02566204*Y2X3Y4Z6X7X8X9
-0.02566204*Z1X2X3X4Z6X7X8X9
0.02566204*Y2X3Y4Y7X8Y9
-0.02566204*Z1X2X3X4Y7X8Y9
-0.00907996*Y2X3Y4X5X6X7X8X9
0.00907996*Z1X2X3X4X5X6X7X8X9
0.00907996*Y2X3Y4Y5X6X7X8Y9
-0.00907996*Z1X2X3X4Y5X6X7X8Y9
0.00282825*Y1X2X3Y4Z9
-0.00282825*Z0X1X2X3X4Z9
-0.00503209*Y1X2X3Y4Z7X8X9
0.00503209*Z0X1X2X3X4Z7X8X9
-0.00503209*Y1X2X3Y4Y8Y9
0.00503209*Z0X1X2X3X4Y8Y9
0.01620633*Y1X2X3Y4Z5X6X7X8X9
-0.01620633*Z0X1X2X3X4Z5X6X7X8X9
0.01620633*Y1X2X3Y4Y6X7X8Y9
-0.01620633*Z0X1X2X3X4Y6X7X8Y9
0.00030220*Y0X1X2X3Y4Z8X9
-0.00030220*X0X1X2X3X4Z8X9
-0.00030220*Y0X1X2X3Y4X9
0.00030220*X0X1X2X3X4X9
0.00907996*Y0X1X2X3Y4Z6X7X8X9
-0.00907996*X0X1X2X3X4Z6X7X8X9
0.00907996*Y0X1X2X3Y4Y7X8Y9
-0.00907996*X0X1X2X3X4Y7X8Y9
-0.02388934*Y0X1X2X3Y4X5X6X7X8X9
0.02388934*X0X1X2X3X4X5X6X7X8X9
0.02388934*Y0X1X2X3Y4Y5X6X7X8Y9
-0.02388934*X0X1X2X3X4Y5X6X7X8Y9
0.05168074*Z3Z4Z9
-0.01510948*Z3Z4Z7X8X9
-0.01510948*Z3Z4Y8Y9
0.00622968*Z3Z4Z5X6X7X8X9
0.00622968*Z3Z4Y6X7X8Y9
0.02452210*X3Z8X9
-0.02452210*Z2X3Z4Z8X9
-0.02452210*X3X9
0.02452210*Z2X3Z4X9
-0.00402706*X3Z6X7X8X9
0.00402706*Z2X3Z4Z6X7X8X9
-0.00402706*X3Y7X8Y9
0.00402706*Z2X3Z4Y7X8Y9
0.00441943*X3X5X6X7X8X9
-0.00441943*Z2X3Z4X5X6X7X8X9
-0.00441943*X3Y5X6X7X8Y9
0.00441943*Z2X3Z4Y5X6X7X8Y9
0.01117036*Y2Y3Z9
0.01117036*Z1X2X3Z4Z9
0.01061114*Y2Y3Z7X8X9
0.01061114*Z1X2X3Z4Z7X8X9
0.01061114*Y2Y3Y8Y9
0.01061114*Z1X2X3Z4Y8Y9
0.01423913*Y2Y3Z5X6X7X8X9
0.01423913*Z1X2X3Z4Z5X6X7X8X9
0.01423913*Y2Y3Y6X7X8Y9
0.01423913*Z1X2X3Z4Y6X7X8Y9
0.00583434*Y1X2Y3Z8X9
0.00583434*Z0X1X2X3Z4Z8X9
-0.00583434*Y1X2Y3X9
-0.00583434*Z0X1X2X3Z4X9
0.01690312*Y1X2Y3Z6X7X8X9
0.01690312*Z0X1X2X3Z4Z6X7X8X9
0.01690312*Y1X2Y3Y7X8Y9
0.01690312*Z0X1X2X3Z4Y7X8Y9
0.01444771*Y1X2Y3X5X6X7X8X9
0.01444771*Z0X1X2X3Z4X5X6X7X8X9
-0.01444771*Y1X2Y3Y5X6X7X8Y9
-0.01444771*Z0X1X2X3Z4Y5X6X7X8Y9
-0.00311295*Y0X1X2Y3Z9
-0.00311295*X0X1X2X3Z4Z9
0.00496863*Y0X1X2Y3Z7X8X9
0.00496863*X0X1X2X3Z4Z7X8X9
0.00496863*Y0X1X2Y3Y8Y9
0.00496863*X0X1X2X3Z4Y8Y9
-0.01639977*Y0X1X2Y3Z5X6X7X8X9
-0.01639977*X0X1X2X3Z4Z5X6X7X8X9
-0.01639977*Y0X1X2Y3Y6X7X8Y9
-0.01639977*X0X1X2X3Z4Y6X7X8Y9
0.06217118*Z2Z3Z9
0.00879866*Z2Z3Z7X8X9
0.00879866*Z2Z3Y8Y9
-0.00405680*Z2Z3Z5X6X7X8X9
-0.00405680*Z2Z3Y6X7X8Y9
-0.01247850*X2Z8X9
0.01247850*Z1X2Z3Z8X9
0.01247850*X2X9
-0.01247850*Z1X2Z3X9
-0.00608049*X2Z6X7X8X9
0.00608049*Z1X2Z3Z6X7X8X9
-0.00608049*X2Y7X8Y9
0.00608049*Z1X2Z3Y7X8Y9
0.02121562*X2X5X6X7X8X9
-0.02121562*Z1X2Z3X5X6X7X8X9
-0.02121562*X2Y5X6X7X8Y9
0.02121562*Z1X2Z3Y5X6X7X8Y9
-0.01152883*Y1Y2Z9
-0.01152883*Z0X1X2Z3Z9
-0.01066261*Y1Y2Z7X8X9
-0.01066261*Z0X1X2Z3Z7X8X9
-0.01066261*Y1Y2Y8Y9
-0.01066261*Z0X1X2Z3Y8Y9
-0.01447244*Y1Y2Z5X6X7X8X9
-0.01447244*Z0X1X2Z3Z5X6X7X8X9
-0.01447244*Y1Y2Y6X7X8Y9
-0.01447244*Z0X1X2Z3Y6X7X8Y9
0.00916933*Y0X1Y2Z8X9
0.00916933*X0X1X2Z3Z8X9
-0.00916933*Y0X1Y2X9
-0.00916933*X0X1X2Z3X9
0.02595152*Y0X1Y2Z6X7X8X9
0.02595152*X0X1X2Z3Z6X7X8X9
0.02595152*Y0X1Y2Y7X8Y9
0.02595152*X0X1X2Z3Y7X8Y9
-0.00887494*Y0X1Y2X5X6X7X8X9
-0.00887494*X0X1X2Z3X5X6X7X8X9
0.00887494*Y0X1Y2Y5X6X7X8Y9
0.00887494*X0X1X2Z3Y5X6X7X8Y9
0.06265920*Z1Z2Z9
0.00919054*Z1Z2Z7X8X9
0.00919054*Z1Z2Y8Y9
-0.00428195*Z1Z2Z5X6X7X8X9
-0.00428195*Z1Z2Y6X7X8Y9
-0.02463705*X1Z8X9
0.02463705*Z0X1Z2Z8X9
0.02463705*X1X9
-0.02463705*Z0X1Z2X9
0.00429083*X1Z6X7X8X9
-0.00429083*Z0X1Z2Z6X7X8X9
0.00429083*X1Y7X8Y9
-0.00429083*Z0X1Z2Y7X8Y9
-0.00442197*X1X5X6X7X8X9
0.00442197*Z0X1Z2X5X6X7X8X9
0.00442197*X1Y5X6X7X8Y9
-0.00442197*Z0X1Z2Y5X6X7X8Y9
0.01573634*Y0Y1Z9
0.01573634*X0X1Z2Z9
0.03017138*Y0Y1Z7X8X9
0.03017138*X0X1Z2Z7X8X9
0.03017138*Y0Y1Y8Y9
0.03017138*X0X1Z2Y8Y9
-0.00500756*Y0Y1Z5X6X7X8X9
-0.00500756*X0X1Z2Z5X6X7X8X9
-0.00500756*Y0Y1Y6X7X8Y9
-0.00500756*X0X1Z2Y6X7X8Y9
0.05254234*Z0Z1Z9
-0.01546064*Z0Z1Z7X8X9
-0.01546064*Z0Z1Y8Y9
0.00628538*Z0Z1Z5X6X7X8X9
0.00628538*Z0Z1Y6X7X8Y9
0.02857700*X0Z8X9
-0.02857700*X0Z1Z8X9
-0.02857700*X0X9
0.02857700*X0Z1X9
0.00923352*X0Z6X7X8X9
-0.00923352*X0Z1Z6X7X8X9
0.00923352*X0Y7X8Y9
-0.00923352*X0Z1Y7X8Y9
-0.00033097*X0X5X6X7X8X9
0.00033097*X0Z1X5X6X7X8X9
0.00033097*X0Y5X6X7X8Y9
-0.00033097*X0Z1Y5X6X7X8Y9
0.06962998*Z0Z9
0.01544059*Z0Z7X8X9
0.01544059*Z0Y8Y9
0.00304013*Z0Z5X6X7X8X9
0.00304013*Z0Y6X7X8Y9
0.02547992*Z7Z9
-0.00137268*Z5X6X7Z9
-0.00137268*Y6Y7Z8Z9
0.03308232*Z6Z7Z8Z9
0.00092097*X5X6Z7Z8Z9
-0.00092097*Y5Y6Z8Z9
0.03658980*Z5Z6Z8Z9
-0.03662641*Z5Z8Z9
-0.01053540*Z6Y7Y8Z9
-0.01053540*X7X8
-0.00003849*X5X6Y7Y8Z9
-0.00003849*Y5X6Y7X8
-0.01198346*Z5X6X8Z9
0.00749284*X6Z7X8Z9
-0.00449062*Z5Y6Y8Z9
-0.00449062*Y6Y8
0.00749284*Z5X6Z7X8
-0.01198346*X6X8
-0.01070385*X5Z6Z7X8Z9
-0.00804019*X5Z7X8Z9
-0.00266366*Y5Y8Z9
0.00266366*Y5Z6Z7Y8
0.00804019*X5Z6X8
0.01070385*X5X8
-0.00686247*X5Y6Y7X8Z9
0.00686247*Y5Y6Y7Y8
0.00126379*Z5X7X8Z9
0.00126379*Z5Z6Y7Y8
-0.00652269*Z5Z6X7X8Z9
-0.00652269*Z5Y7Y8
-0.00047192*Y5Y6X7X8Z9
-0.00047192*X5Y6X7Y8
-0.05168074*Z4Z8Z9
-0.01117036*Z4Z6X7X8Z9
-0.01117036*Z4Y7Y8
-0.00311295*Z4X5X6X7X8Z9
0.00311295*Z4Y5X6X7Y8
0.02452210*X4Z7X8Z9
0.02452210*Z3X4Z7X8Z9
-0.02452210*X4X8
-0.02452210*Z3X4X8
-0.00583434*X4Z5X6X7X8Z9
-0.00583434*Z3X4Z5X6X7X8Z9
-0.00583434*X4Y6X7Y8
-0.00583434*Z3X4Y6X7Y8
-0.01510948*Y3Y4Z8Z9
0.01510948*Z2X3X4Z8Z9
0.01061114*Y3Y4Z6X7X8Z9
-0.01061114*Z2X3X4Z6X7X8Z9
0.01061114*Y3Y4Y7Y8
-0.01061114*Z2X3X4Y7Y8
-0.00496863*Y3Y4X5X6X7X8Z9
0.00496863*Z2X3X4X5X6X7X8Z9
0.00496863*Y3Y4Y5X6X7Y8
-0.00496863*Z2X3X4Y5X6X7Y8
0.00402706*Y2X3Y4Z7X8Z9
-0.00402706*Z1X2X3X4Z7X8Z9
-0.00402706*Y2X3Y4X8
0.00402706*Z1X2X3X4X8
0.01690312*Y2X3Y4Z5X6X7X8Z9
-0.01690312*Z1X2X3X4Z5X6X7X8Z9
0.01690312*Y2X3Y4Y6X7Y8
-0.01690312*Z1X2X3X4Y6X7Y8
0.00622968*Y1X2X3Y4Z8Z9
-0.00622968*Z0X1X2X3X4Z8Z9
0.01423913*Y1X2X3Y4Z6X7X8Z9
-0.01423913*Z0X1X2X3X4Z6X7X8Z9
0.01423913*Y1X2X3Y4Y7Y8
-0.01423913*Z0X1X2X3X4Y7Y8
0.01639977*Y1X2X3Y4X5X6X7X8Z9
-0.01639977*Z0X1X2X3X4X5X6X7X8Z9
-0.01639977*Y1X2X3Y4Y5X6X7Y8
0.01639977*Z0X1X2X3X4Y5X6X7Y8
0.00441943*Y0X1X2X3Y4Z7X8Z9
-0.00441943*X0X1X2X3X4Z7X8Z9
-0.00441943*Y0X1X2X3Y4X8
0.00441943*X0X1X2X3X4X8
-0.01444771*Y0X1X2X3Y4Z5X6X7X8Z9
0.01444771*X0X1X2X3X4Z5X6X7X8Z9
-0.01444771*Y0X1X2X3Y4Y6X7Y8
0.01444771*X0X1X2X3X4Y6X7Y8
0.06704365*Z3Z4Z8Z9
-0.00164185*Z3Z4Z6X7X8Z9
-0.00164185*Z3Z4Y7Y8
0.00645086*Z3Z4X5X6X7X8Z9
-0.00645086*Z3Z4Y5X6X7Y8
-0.02814565*X3Z7X8Z9
0.02814565*Z2X3Z4Z7X8Z9
0.02814565*X3X8
-0.02814565*Z2X3Z4X8
-0.00270319*X3Z5X6X7X8Z9
0.00270319*Z2X3Z4Z5X6X7X8Z9
-0.00270319*X3Y6X7Y8
0.00270319*Z2X3Z4Y6X7Y8
-0.00164185*Y2Y3Z8Z9
-0.00164185*Z1X2X3Z4Z8Z9
0.02061371*Y2Y3Z6X7X8Z9
0.02061371*Z1X2X3Z4Z6X7X8Z9
0.02061371*Y2Y3Y7Y8
0.02061371*Z1X2X3Z4Y7Y8
0.01446253*Y2Y3X5X6X7X8Z9
0.01446253*Z1X2X3Z4X5X6X7X8Z9
-0.01446253*Y2Y3Y5X6X7Y8
-0.01446253*Z1X2X3Z4Y5X6X7Y8
0.00270319*Y1X2Y3Z7X8Z9
0.00270319*Z0X1X2X3Z4Z7X8Z9
-0.00270319*Y1X2Y3X8
-0.00270319*Z0X1X2X3Z4X8
0.03169584*Y1X2Y3Z5X6X7X8Z9
0.03169584*Z0X1X2X3Z4Z5X6X7X8Z9
0.03169584*Y1X2Y3Y6X7Y8
0.03169584*Z0X1X2X3Z4Y6X7Y8
-0.00645086*Y0X1X2Y3Z8Z9
-0.00645086*X0X1X2X3Z4Z8Z9
-0.01446253*Y0X1X2Y3Z6X7X8Z9
-0.01446253*X0X1X2X3Z4Z6X7X8Z9
-0.01446253*Y0X1X2Y3Y7Y8
-0.01446253*X0X1X2X3Z4Y7Y8
-0.01667353*Y0X1X2Y3X5X6X7X8Z9
-0.01667353*X0X1X2X3Z4X5X6X7X8Z9
0.01667353*Y0X1X2Y3Y5X6X7Y8
0.01667353*X0X1X2X3Z4Y5X6X7Y8
0.05362558*Z2Z3Z8Z9
0.00046407*Z2Z3Z6X7X8Z9
0.00046407*Z2Z3Y7Y8
-0.00381726*Z2Z3X5X6X7X8Z9
0.00381726*Z2Z3Y5X6X7Y8
0.01007134*X2Z7X8Z9
-0.01007134*Z1X2Z3Z7X8Z9
-0.01007134*X2X8
0.01007134*Z1X2Z3X8
0.01638195*X2Z5X6X7X8Z9
-0.01638195*Z1X2Z3Z5X6X7X8Z9
0.01638195*X2Y6X7Y8
-0.01638195*Z1X2Z3Y6X7Y8
0.00133052*Y1Y2Z8Z9
0.00133052*Z0X1X2Z3Z8Z9
-0.02087257*Y1Y2Z6X7X8Z9
-0.02087257*Z0X1X2Z3Z6X7X8Z9
-0.02087257*Y1Y2Y7Y8
-0.02087257*Z0X1X2Z3Y7Y8
-0.01479786*Y1Y2X5X6X7X8Z9
-0.01479786*Z0X1X2Z3X5X6X7X8Z9
0.01479786*Y1Y2Y5X6X7Y8
0.01479786*Z0X1X2Z3Y5X6X7Y8
0.00385575*Y0X1Y2Z7X8Z9
0.00385575*X0X1X2Z3Z7X8Z9
-0.00385575*Y0X1Y2X8
-0.00385575*X0X1X2Z3X8
0.01746153*Y0X1Y2Z5X6X7X8Z9
0.01746153*X0X1X2Z3Z5X6X7X8Z9
0.01746153*Y0X1Y2Y6X7Y8
0.01746153*X0X1X2Z3Y6X7Y8
0.05369603*Z1Z2Z8Z9
0.00046520*Z1Z2Z6X7X8Z9
0.00046520*Z1Z2Y7Y8
-0.00418846*Z1Z2X5X6X7X8Z9
0.00418846*Z1Z2Y5X6X7Y8
0.02836541*X1Z7X8Z9
-0.02836541*Z0X1Z2Z7X8Z9
-0.02836541*X1X8
0.02836541*Z0X1Z2X8
0.00306750*X1Z5X6X7X8Z9
-0.00306750*Z0X1Z2Z5X6X7X8Z9
0.00306750*X1Y6X7Y8
-0.00306750*Z0X1Z2Y6X7Y8
-0.01538350*Y0Y1Z8Z9
-0.01538350*X0X1Z2Z8Z9
0.01105094*Y0Y1Z6X7X8Z9
0.01105094*X0X1Z2Z6X7X8Z9
0.01105094*Y0Y1Y7Y8
0.01105094*X0X1Z2Y7Y8
-0.00495937*Y0Y1X5X6X7X8Z9
-0.00495937*X0X1Z2X5X6X7X8Z9
0.00495937*Y0Y1Y5X6X7Y8
0.00495937*X0X1Z2Y5X6X7Y8
0.06828564*Z0Z1Z8Z9
-0.00180371*Z0Z1Z6X7X8Z9
-0.00180371*Z0Z1Y7Y8
0.00651037*Z0Z1X5X6X7X8Z9
-0.00651037*Z0Z1Y5X6X7Y8
-0.02550172*X0Z7X8Z9
0.02550172*X0Z1Z7X8Z9
0.02550172*X0X8
-0.02550172*X0Z1X8
0.00603845*X0Z5X6X7X8Z9
-0.00603845*X0Z1Z5X6X7X8Z9
0.00603845*X0Y6X7Y8
-0.00603845*X0Z1Y6X7Y8
0.05329994*Z0Z8Z9
0.01148206*Z0Z6X7X8Z9
0.01148206*Z0Y7Y8
0.00337710*Z0X5X6X7X8Z9
-0.00337710*Z0Y5X6X7Y8
0.03647143*Z6Z8
-0.00309473*X5X6Z8
0.00309473*Y5Y6Z7Z8
0.03335803*Z5Z6Z7Z8
-0.03748395*Z5Z7Z8
0.01084384*Z5Y6Y7Z8
0.01084384*X6X7
0.00874507*X5X7Z8
0.00190609*X5Z6X7Z8
0.00683898*Y5Y7Z8
-0.00683898*Y5Y7
-0.00190609*X5Z6X7
-0.00874507*X5X7
0.00235133*X6X7Z8
0.00235133*Z5Y6Y7
-0.06217118*Z4Z7Z8
0.01152883*Z4Z5X6X7Z8
0.01152883*Z4Y6Y7
-0.01247850*X4Z6X7Z8
-0.01247850*Z3X4Z6X7Z8
0.01247850*X4X7
0.01247850*Z3X4X7
0.00916933*X4X5X6X7Z8
0.00916933*Z3X4X5X6X7Z8
-0.00916933*X4Y5X6Y7
-0.00916933*Z3X4Y5X6Y7
0.00879866*Y3Y4Z7Z8
-0.00879866*Z2X3X4Z7Z8
-0.01066261*Y3Y4Z5X6X7Z8
0.01066261*Z2X3X4Z5X6X7Z8
-0.01066261*Y3Y4Y6Y7
0.01066261*Z2X3X4Y6Y7
0.00608049*Y2X3Y4Z6X7Z8
-0.00608049*Z1X2X3X4Z6X7Z8
-0.00608049*Y2X3Y4X7
0.00608049*Z1X2X3X4X7
-0.02595152*Y2X3Y4X5X6X7Z8
0.02595152*Z1X2X3X4X5X6X7Z8
0.02595152*Y2X3Y4Y5X6Y7
-0.02595152*Z1X2X3X4Y5X6Y7
-0.00405680*Y1X2X3Y4Z7Z8
0.00405680*Z0X1X2X3X4Z7Z8
-0.01447244*Y1X2X3Y4Z5X6X7Z8
0.01447244*Z0X1X2X3X4Z5X6X7Z8
-0.01447244*Y1X2X3Y4Y6Y7
0.01447244*Z0X1X2X3X4Y6Y7
0.02121562*Y0X1X2X3Y4Z6X7Z8
-0.02121562*X0X1X2X3X4Z6X7Z8
-0.02121562*Y0X1X2X3Y4X7
0.02121562*X0X1X2X3X4X7
-0.00887494*Y0X1X2X3Y4X5X6X7Z8
0.00887494*X0X1X2X3X4X5X6X7Z8
0.00887494*Y0X1X2X3Y4Y5X6Y7
-0.00887494*X0X1X2X3X4Y5X6Y7
0.05362558*Z3Z4Z7Z8
0.00133052*Z3Z4Z5X6X7Z8
0.00133052*Z3Z4Y6Y7
0.01007134*X3Z6X7Z8
-0.01007134*Z2X3Z4Z6X7Z8
-0.01007134*X3X7
0.01007134*Z2X3Z4X7
0.00385575*X3X5X6X7Z8
-0.00385575*Z2X3Z4X5X6X7Z8
-0.00385575*X3Y5X6Y7
0.00385575*Z2X3Z4Y5X6Y7
0.00046407*Y2Y3Z7Z8
0.00046407*Z1X2X3Z4Z7Z8
-0.02087257*Y2Y3Z5X6X7Z8
-0.02087257*Z1X2X3Z4Z5X6X7Z8
-0.02087257*Y2Y3Y6Y7
-0.02087257*Z1X2X3Z4Y6Y7
-0.01638195*Y1X2Y3Z6X7Z8
-0.01638195*Z0X1X2X3Z4Z6X7Z8
0.01638195*Y1X2Y3X7
0.01638195*Z0X1X2X3Z4X7
-0.01746153*Y1X2Y3X5X6X7Z8
-0.01746153*Z0X1X2X3Z4X5X6X7Z8
0.01746153*Y1X2Y3Y5X6Y7
0.01746153*Z0X1X2X3Z4Y5X6Y7
0.00381726*Y0X1X2Y3Z7Z8
0.00381726*X0X1X2X3Z4Z7Z8
0.01479786*Y0X1X2Y3Z5X6X7Z8
0.01479786*X0X1X2X3Z4Z5X6X7Z8
0.01479786*Y0X1X2Y3Y6Y7
0.01479786*X0X1X2X3Z4Y6Y7
0.06214098*Z2Z3Z7Z8
-0.00078262*Z2Z3Z5X6X7Z8
-0.00078262*Z2Z3Y6Y7
-0.02604990*X2Z6X7Z8
0.02604990*Z1X2Z3Z6X7Z8
0.02604990*X2X7
-0.02604990*Z1X2Z3X7
0.00591836*X2X5X6X7Z8
-0.00591836*Z1X2Z3X5X6X7Z8
-0.00591836*X2Y5X6Y7
0.00591836*Z1X2Z3Y5X6Y7
-0.00078262*Y1Y2Z7Z8
-0.00078262*Z0X1X2Z3Z7Z8
0.02126299*Y1Y2Z5X6X7Z8
0.02126299*Z0X1X2Z3Z5X6X7Z8
0.02126299*Y1Y2Y6Y7
0.02126299*Z0X1X2Z3Y6Y7
0.00591836*Y0X1Y2Z6X7Z8
0.00591836*X0X1X2Z3Z6X7Z8
-0.00591836*Y0X1Y2X7
-0.00591836*X0X1X2Z3X7
-0.02640694*Y0X1Y2X5X6X7Z8
-0.02640694*X0X1X2Z3X5X6X7Z8
0.02640694*Y0X1Y2Y5X6Y7
0.02640694*X0X1X2Z3Y5X6Y7
0.06252133*Z1Z2Z7Z8
-0.00059951*Z1Z2Z5X6X7Z8
-0.00059951*Z1Z2Y6Y7
-0.01024433*X1Z6X7Z8
0.01024433*Z0X1Z2Z6X7Z8
0.01024433*X1X7
-0.01024433*Z0X1Z2X7
-0.00426364*X1X5X6X7Z8
0.00426364*Z0X1Z2X5X6X7Z8
0.00426364*X1Y5X6Y7
-0.00426364*Z0X1Z2Y5X6Y7
0.00901309*Y0Y1Z7Z8
0.00901309*X0X1Z2Z7Z8
-0.01110262*Y0Y1Z5X6X7Z8
-0.01110262*X0X1Z2Z5X6X7Z8
-0.01110262*Y0Y1Y6Y7
-0.01110262*X0X1Z2Y6Y7
0.05462102*Z0Z1Z7Z8
0.00150007*Z0Z1Z5X6X7Z8
0.00150007*Z0Z1Y6Y7
0.01300872*X0Z6X7Z8
-0.01300872*X0Z1Z6X7Z8
-0.01300872*X0X7
0.01300872*X0Z1X7
-0.00956739*X0X5X6X7Z8
0.00956739*X0Z1X5X6X7Z8
0.00956739*X0Y5X6Y7
-0.00956739*X0Z1Y5X6Y7
0.06389089*Z0Z7Z8
-0.01191871*Z0Z5X6X7Z8
-0.01191871*Z0Y6Y7
0.02598184*Z5Z7
-0.03336028*Z5Z6Z7
0.00978721*Y5Y6Z7
-0.00978721*X5X6
-0.06265920*Z4Z6Z7
0.01573634*Z4X5X6Z7
-0.01573634*Z4Y5Y6
-0.02463705*X4Z5X6Z7
-0.02463705*Z3X4Z5X6Z7
0.02463705*X4X6
0.02463705*Z3X4X6
0.00919054*Y3Y4Z6Z7
-0.00919054*Z2X3X4Z6Z7
-0.03017138*Y3Y4X5X6Z7
0.03017138*Z2X3X4X5X6Z7
0.03017138*Y3Y4Y5Y6
-0.03017138*Z2X3X4Y5Y6
-0.00429083*Y2X3Y4Z5X6Z7
0.00429083*Z1X2X3X4Z5X6Z7
0.00429083*Y2X3Y4X6
-0.00429083*Z1X2X3X4X6
-0.00428195*Y1X2X3Y4Z6Z7
0.00428195*Z0X1X2X3X4Z6Z7
0.00500756*Y1X2X3Y4X5X6Z7
-0.00500756*Z0X1X2X3X4X5X6Z7
-0.00500756*Y1X2X3Y4Y5Y6
0.00500756*Z0X1X2X3X4Y5Y6
-0.00442197*Y0X1X2X3Y4Z5X6Z7
0.00442197*X0X1X2X3X4Z5X6Z7
0.00442197*Y0X1X2X3Y4X6
-0.00442197*X0X1X2X3X4X6
0.05369603*Z3Z4Z6Z7
0.01538350*Z3Z4X5X6Z7
-0.01538350*Z3Z4Y5Y6
0.02836541*X3Z5X6Z7
-0.02836541*Z2X3Z4Z5X6Z7
-0.02836541*X3X6
0.02836541*Z2X3Z4X6
0.00046520*Y2Y3Z6Z7
0.00046520*Z1X2X3Z4Z6Z7
-0.01105094*Y2Y3X5X6Z7
-0.01105094*Z1X2X3Z4X5X6Z7
0.01105094*Y2Y3Y5Y6
0.01105094*Z1X2X3Z4Y5Y6
-0.00306750*Y1X2Y3Z5X6Z7
-0.00306750*Z0X1X2X3Z4Z5X6Z7
0.00306750*Y1X2Y3X6
0.00306750*Z0X1X2X3Z4X6
0.00418846*Y0X1X2Y3Z6Z7
0.00418846*X0X1X2X3Z4Z6Z7
-0.00495937*Y0X1X2Y3X5X6Z7
-0.00495937*X0X1X2X3Z4X5X6Z7
0.00495937*Y0X1X2Y3Y5Y6
0.00495937*X0X1X2X3Z4Y5Y6
0.06252133*Z2Z3Z6Z7
-0.00901309*Z2Z3X5X6Z7
0.00901309*Z2Z3Y5Y6
-0.01024433*X2Z5X6Z7
0.01024433*Z1X2Z3Z5X6Z7
0.01024433*X2X6
-0.01024433*Z1X2Z3X6
-0.00059951*Y1Y2Z6Z7
-0.00059951*Z0X1X2Z3Z6Z7
0.01110262*Y1Y2X5X6Z7
0.01110262*Z0X1X2Z3X5X6Z7
-0.01110262*Y1Y2Y5Y6
-0.01110262*Z0X1X2Z3Y5Y6
-0.00426364*Y0X1Y2Z5X6Z7
-0.00426364*X0X1X2Z3Z5X6Z7
0.00426364*Y0X1Y2X6
0.00426364*X0X1X2Z3X6
0.06325927*Z1Z2Z6Z7
-0.00945685*Z1Z2X5X6Z7
0.00945685*Z1Z2Y5Y6
-0.02881915*X1Z5X6Z7
0.02881915*Z0X1Z2Z5X6Z7
0.02881915*X1X6
-0.02881915*Z0X1Z2X6
0.00945685*Y0Y1Z6Z7
0.00945685*X0X1Z2Z6Z7
-0.03110120*Y0Y1X5X6Z7
-0.03110120*X0X1Z2X5X6Z7
0.03110120*Y0Y1Y5Y6
0.03110120*X0X1Z2Y5Y6
0.05480099*Z0Z1Z6Z7
0.01590286*Z0Z1X5X6Z7
-0.01590286*Z0Z1Y5Y6
0.02569007*X0Z5X6Z7
-0.02569007*X0Z1Z5X6Z7
-0.02569007*X0X6
0.02569007*X0Z1X6
0.06446148*Z0Z6Z7
-0.01598239*Z0X5X6Z7
0.01598239*Z0Y5Y6
-0.02449138*Z6
-0.05254234*Z4Z5Z6
-0.02857700*X4X5Z6
-0.02857700*Z3X4X5Z6
-0.02857700*X4X5
-0.02857700*Z3X4X5
-0.01546064*Y3Y4Z5Z6
0.01546064*Z2X3X4Z5Z6
0.00923352*Y2X3Y4X5Z6
-0.00923352*Z1X2X3X4X5Z6
0.00923352*Y2X3Y4X5
-0.00923352*Z1X2X3X4X5
0.00628538*Y1X2X3Y4Z5Z6
-0.00628538*Z0X1X2X3X4Z5Z6
0.00033097*Y0X1X2X3Y4X5Z6
-0.00033097*X0X1X2X3X4X5Z6
0.00033097*Y0X1X2X3Y4X5
-0.00033097*X0X1X2X3X4X5
0.06828564*Z3Z4Z5Z6
0.02550172*X3X5Z6
-0.02550172*Z2X3Z4X5Z6
0.02550172*X3X5
-0.02550172*Z2X3Z4X5
-0.00180371*Y2Y3Z5Z6
-0.00180371*Z1X2X3Z4Z5Z6
0.00603845*Y1X2Y3X5Z6
0.00603845*Z0X1X2X3Z4X5Z6
0.00603845*Y1X2Y3X5
0.00603845*Z0X1X2X3Z4X5
-0.00651037*Y0X1X2Y3Z5Z6
-0.00651037*X0X1X2X3Z4Z5Z6
0.05462102*Z2Z3Z5Z6
-0.01300872*X2X5Z6
0.01300872*Z1X2Z3X5Z6
-0.01300872*X2X5
0.01300872*Z1X2Z3X5
0.00150007*Y1Y2Z5Z6
0.00150007*Z0X1X2Z3Z5Z6
0.00956739*Y0X1Y2X5Z6
0.00956739*X0X1X2Z3X5Z6
0.00956739*Y0X1Y2X5
0.00956739*X0X1X2Z3X5
0.05480099*Z1Z2Z5Z6
-0.02569007*X1X5Z6
0.02569007*Z0X1Z2X5Z6
-0.02569007*X1X5
0.02569007*Z0X1Z2X5
-0.01590286*Y0Y1Z5Z6
-0.01590286*X0X1Z2Z5Z6
0.06985722*Z0Z1Z5Z6
0.02987333*X0X5Z6
-0.02987333*X0Z1X5Z6
0.02987333*X0X5
-0.02987333*X0Z1X5
0.05436471*Z0Z5Z6
0.06962998*Z4Z5
-0.01544059*Y3Y4Z5
0.01544059*Z2X3X4Z5
-0.00304013*Y1X2X3Y4Z5
0.00304013*Z0X1X2X3X4Z5
-0.05329994*Z3Z4Z5
-0.01148206*Y2Y3Z5
-0.01148206*Z1X2X3Z4Z5
0.00337710*Y0X1X2Y3Z5
0.00337710*X0X1X2X3Z4Z5
-0.06389089*Z2Z3Z5
0.01191871*Y1Y2Z5
0.01191871*Z0X1X2Z3Z5
-0.06446148*Z1Z2Z5
-0.01598239*Y0Y1Z5
-0.01598239*X0X1Z2Z5
-0.05436471*Z0Z1Z5
-0.07182073*Z0Z5
-0.02412524*Z3
-0.00224460*Z1X2X3
-0.00224460*Y2Y3Z4
0.00341514*X0X1X2X3
0.00341514*Y0X1X2Y3Z4
-0.03268756*Z2Z3Z4
0.00649674*Z0X1X2Z3Z4
0.00649674*Y1Y2Z4
-0.03699715*Z1Z2Z4
-0.00665638*X0X1Z2Z4
-0.00665638*Y0Y1Z4
-0.03633601*Z0Z1Z4
-0.04574065*Z0Z4
0.00941263*Z2Y3Y4
-0.00941263*X3X4
0.00039535*Z0X1X2Y3Y4
0.00039535*Y1X2Y3X4
-0.00845145*Z1X2X4
0.00186736*X2Z3X4
-0.00658408*Z1Y2Y4
0.00658408*Y2Y4
-0.00186736*Z1X2Z3X4
0.00845145*X2X4
-0.00474990*X0X1X2X4
-0.00420070*Y0X1Y2Z3X4
-0.00054920*X0X1Y2Y4
0.00054920*Y0X1X2Y4
-0.00420070*X0X1X2Z3X4
-0.00474990*Y0X1Y2X4
-0.01039792*Z0X1Z2Z3X4
0.00773393*X1Z3X4
-0.00266400*Z0Y1Y4
0.00266400*Y1Z2Z3Y4
-0.00773393*Z0X1Z2X4
0.01039792*X1X4
0.01412928*X0Z1Z3X4
-0.01217723*X0Z3X4
0.00195205*Y0Y4
-0.00195205*Y0Z1Z3Y4
0.01217723*X0Z1X4
-0.01412928*X0X4
0.00660581*Z0X1Y2Y3X4
-0.00660581*Y1Y2Y3Y4
-0.00311005*Z1X3X4
0.00311005*Z1Z2Y3Y4
-0.00895576*X0X1X3X4
-0.00421986*Y0Y1Z2X3X4
-0.00473590*X0Y1Y3X4
0.00473590*Y0X1X3Y4
0.00421986*X0X1Z2Y3Y4
0.00895576*Y0Y1Y3Y4
0.00098820*Z0Z1Z2X3X4
-0.00098820*Z0Z1Y3Y4
-0.00656565*Z0Z2X3X4
0.00656565*Z0Y3Y4
0.00000889*Z0Y1Y2X3X4
0.00000889*X1Y2X3Y4
0.00481156*X0X2X3X4
-0.00422596*X0Z1X2X3X4
0.00058560*Y0Y2X3X4
-0.00058560*Y0X2X3Y4
-0.00422596*X0Z1Y2X3Y4
0.00481156*X0Y2X3Y4
-0.00337110*X1X2X3X4
0.00337110*Z0Y1X2X3Y4
0.02547992*Z2Z4
-0.00137268*Z0X1X2Z4
-0.00137268*Y1Y2Z3Z4
0.03308232*Z1Z2Z3Z4
-0.00092097*X0X1Z2Z3Z4
-0.00092097*Y0Y1Z3Z4
0.03658980*Z0Z1Z3Z4
0.03662641*Z0Z3Z4
-0.01053540*Z1Y2Y3Z4
-0.01053540*X2X3
0.00003849*X0X1Y2Y3Z4
-0.00003849*Y0X1Y2X3
-0.01198346*Z0X1X3Z4
0.00749284*X1Z2X3Z4
-0.00449062*Z0Y1Y3Z4
-0.00449062*Y1Y3
0.00749284*Z0X1Z2X3
-0.01198346*X1X3
0.01070385*X0Z1Z2X3Z4
-0.00804019*X0Z2X3Z4
0.00266366*Y0Y3Z4
0.00266366*Y0Z1Z2Y3
-0.00804019*X0Z1X3
0.01070385*X0X3
0.00686247*X0Y1Y2X3Z4
0.00686247*Y0Y1Y2Y3
0.00126379*Z0X2X3Z4
0.00126379*Z0Z1Y2Y3
0.00652269*Z0Z1X2X3Z4
0.00652269*Z0Y2Y3
0.00047192*Y0Y1X2X3Z4
-0.00047192*X0Y1X2Y3
0.03647143*Z1Z3
0.00309473*X0X1Z3
0.00309473*Y0Y1Z2Z3
0.03335803*Z0Z1Z2Z3
0.03748395*Z0Z2Z3
0.01084384*Z0Y1Y2Z3
0.01084384*X1X2
-0.00874507*X0X2Z3
0.00190609*X0Z1X2Z3
-0.00683898*Y0Y2Z3
-0.00683898*Y0Y2
0.00190609*X0Z1X2
-0.00874507*X0X2
-0.00235133*X1X2Z3
-0.00235133*Z0Y1Y2
0.02598184*Z0Z2
0.03336028*Z0Z1Z2
-0.00978721*Y0Y1Z2
-0.00978721*X0X1
0.02449138*Z1
