-7.26007764*I
-0.10285967*Z3
-0.01791040*Z2X3
0.01791040*X3
0.01291338*X2X3
-0.01291338*Y2Y3
-0.16046720*Z2Z3
-0.02246978*X2Z3
-0.02246978*X2
0.19965299*Z2
0.10285967*Z1
0.01791040*Z0X1
0.01791040*X1
0.01291338*X0X1
-0.01291338*Y0Y1
-0.16046720*Z0Z1
0.02246978*X0Z1
-0.02246978*X0
-0.19965299*Z0
-0.09663203*Z1Z3
0.02580162*Z1Z2X3
-0.02580162*Z1X3
-0.02014913*Z1X2X3
0.02014913*Z1Y2Y3
0.02580162*X1Z3
0.02580162*Z0X1Z3
-0.02190922*X1Z2X3
-0.02190922*Z0X1Z2X3
0.02190922*X1X3
0.02190922*Z0X1X3
0.02029804*X1X2X3
0.02029804*Z0X1X2X3
-0.02029804*X1Y2Y3
-0.02029804*Z0X1Y2Y3
-0.02014913*Y0Y1Z3
0.02014913*X0X1Z3
0.02029804*Y0Y1Z2X3
-0.02029804*X0X1Z2X3
-0.02029804*Y0Y1X3
0.02029804*X0X1X3
-0.02644304*Y0Y1X2X3
0.02644304*X0X1X2X3
0.02644304*Y0Y1Y2Y3
-0.02644304*X0X1Y2Y3
0.06124919*Z0Z1Z3
0.00053080*Z0Z1Z2X3
-0.00053080*Z0Z1X3
0.00473200*Z0Z1X2X3
-0.00473200*Z0Z1Y2Y3
-0.02183554*X0Z3
0.02183554*X0Z1Z3
0.01648331*X0Z2X3
-0.01648331*X0Z1Z2X3
-0.01648331*X0X3
0.01648331*X0Z1X3
-0.01180970*X0X2X3
0.01180970*X0Z1X2X3
0.01180970*X0Y2Y3
-0.01180970*X0Z1Y2Y3
0.07869114*Z0Z3
-0.00842205*Z0Z2X3
0.00842205*Z0X3
0.00250382*Z0X2X3
-0.00250382*Z0Y2Y3
-0.06124919*Z1Z2Z3
0.02183554*Z1X2Z3
0.02183554*Z1X2
-0.00053080*X1Z2Z3
-0.00053080*Z0X1Z2Z3
-0.01648331*X1X2Z3
-0.01648331*Z0X1X2Z3
-0.01648331*X1X2
-0.01648331*Z0X1X2
-0.00473200*Y0Y1Z2Z3
0.00473200*X0X1Z2Z3
0.01180970*Y0Y1X2Z3
-0.01180970*X0X1X2Z3
0.01180970*Y0Y1X2
-0.01180970*X0X1X2
0.07075667*Z0Z1Z2Z3
0.00493972*Z0Z1X2Z3
0.00493972*Z0Z1X2
0.00493972*X0Z2Z3
-0.00493972*X0Z1Z2Z3
0.01730148*X0X2Z3
-0.01730148*X0Z1X2Z3
0.01730148*X0X2
-0.01730148*X0Z1X2
0.06476321*Z0Z2Z3
-0.00738058*Z0X2Z3
-0.00738058*Z0X2
0.07869114*Z1Z2
-0.00842205*X1Z2
-0.00842205*Z0X1Z2
0.00250382*Y0Y1Z2
-0.00250382*X0X1Z2
-0.06476321*Z0Z1Z2
0.00738058*X0Z2
-0.00738058*X0Z1Z2
-0.07809523*Z0Z2
