-1.59368759*I
0.07996490*Z9
0.00063501*Z7X8X9
0.00063501*Y8Y9
0.00407980*Z5X6X7X8X9
0.00407980*Y6X7X8Y9
0.06773250*Z8Z9
0.00569032*Z6X7X8Z9
0.00569032*Y7Y8
-0.00448816*X5X6X7X8Z9
0.00448816*Y5X6X7Y8
0.04952036*Z7Z8
0.00660336*Z5X6X7Z8
0.00660336*Y6Y7
0.02815179*Z6Z7
0.00159677*X5X6Z7
-0.00159677*Y5Y6
0.00497925*Z5Z6
0.01438225*Z5
-0.07996490*Z4
-0.00063501*Z2X3X4
0.00063501*Y3Y4
-0.00407980*Z0X1X2X3X4
0.00407980*Y1X2X3Y4
0.06773250*Z3Z4
0.00569032*Z1X2X3Z4
0.00569032*Y2Y3
0.00448816*X0X1X2X3Z4
0.00448816*Y0X1X2Y3
0.04952036*Z2Z3
0.00660336*Z0X1X2Z3
0.00660336*Y1Y2
0.02815179*Z1Z2
-0.00159677*X0X1Z2
-0.00159677*Y0Y1
0.00497925*Z0Z1
-0.01438225*Z0
0.02645968*Z8
0.00268965*Z6X7X8
0.00268965*Y7Y8Z9
0.00319397*X5X6X7X8
-0.00319397*Y5X6X7Y8Z9
0.03547630*Z7Z8Z9
-0.00700579*Z5X6X7Z8Z9
-0.00700579*Y6Y7Z9
0.04013214*Z6Z7Z9
-0.00733788*X5X6Z7Z9
0.00733788*Y5Y6Z9
0.03988606*Z5Z6Z9
-0.05021621*Z5Z9
-0.01026510*Z7Y8Y9
-0.01026510*X8X9
-0.00020001*Z5X6X7Y8Y9
0.00020001*Y6X7Y8X9
0.00937663*Z6X7X9
-0.00227065*X7Z8X9
0.00710598*Z6Y7Y9
0.00710598*Y7Y9
-0.00227065*Z6X7Z8X9
0.00937663*X7X9
-0.00491012*X5X6X7X9
0.00425714*Y5X6Y7Z8X9
-0.00065298*X5X6Y7Y9
0.00065298*Y5X6X7Y9
0.00425714*X5X6X7Z8X9
-0.00491012*Y5X6Y7X9
0.01130654*Z5X6Z7Z8X9
-0.00828771*X6Z8X9
0.00301883*Z5Y6Y9
0.00301883*Y6Z7Z8Y9
-0.00828771*Z5X6Z7X9
0.01130654*X6X9
0.01545084*X5Z6Z8X9
0.01333132*X5Z8X9
0.00211952*Y5Y9
-0.00211952*Y5Z6Z8Y9
-0.01333132*X5Z6X9
-0.01545084*X5X9
-0.00714902*Z5X6Y7Y8X9
-0.00714902*Y6Y7Y8Y9
0.00305838*Z6X8X9
0.00305838*Z6Z7Y8Y9
-0.00968675*X5X6X8X9
0.00454641*Y5Y6Z7X8X9
-0.00514033*X5Y6Y8X9
0.00514033*Y5X6X8Y9
-0.00454641*X5X6Z7Y8Y9
0.00968675*Y5Y6Y8Y9
-0.00099794*Z5Z6Z7X8X9
-0.00099794*Z5Z6Y8Y9
-0.00727416*Z5Z7X8X9
-0.00727416*Z5Y8Y9
-0.00000539*Z5Y6Y7X8X9
0.00000539*X6Y7X8Y9
0.00498430*X5X7X8X9
0.00428372*X5Z6X7X8X9
0.00070058*Y5Y7X8X9
-0.00070058*Y5X7X8Y9
0.00428372*X5Z6Y7X8Y9
0.00498430*X5Y7X8Y9
-0.00315089*X6X7X8X9
-0.00315089*Z5Y6X7X8Y9
-0.07100545*Z4Z9
-0.01557119*Z4Z7X8X9
-0.01557119*Z4Y8Y9
-0.00268479*Z4Z5X6X7X8X9
-0.00268479*Z4Y6X7X8Y9
-0.02809322*X4Z8X9
-0.02809322*Z3X4Z8X9
0.02809322*X4X9
0.02809322*Z3X4X9
-0.00954667*X4Z6X7X8X9
-0.00954667*Z3X4Z6X7X8X9
-0.00954667*X4Y7X8Y9
-0.00954667*Z3X4Y7X8Y9
0.00022121*X4X5X6X7X8X9
0.00022121*Z3X4X5X6X7X8X9
-0.00022121*X4Y5X6X7X8Y9
-0.00022121*Z3X4Y5X6X7X8Y9
0.01557119*Y3Y4Z9
-0.01557119*Z2X3X4Z9
0.02865615*Y3Y4Z7X8X9
-0.02865615*Z2X3X4Z7X8X9
0.02865615*Y3Y4Y8Y9
-0.02865615*Z2X3X4Y8Y9
-0.00562761*Y3Y4Z5X6X7X8X9
0.00562761*Z2X3X4Z5X6X7X8X9
-0.00562761*Y3Y4Y6X7X8Y9
0.00562761*Z2X3X4Y6X7X8Y9
0.00954667*Y2X3Y4Z8X9
-0.00954667*Z1X2X3X4Z8X9
-0.00954667*Y2X3Y4X9
0.00954667*Z1X2X3X4X9
0.02453319*Y2X3Y4Z6X7X8X9
-0.02453319*Z1X2X3X4Z6X7X8X9
0.02453319*Y2X3Y4Y7X8Y9
-0.02453319*Z1X2X3X4Y7X8Y9
-0.00875699*Y2X3Y4X5X6X7X8X9
0.00875699*Z1X2X3X4X5X6X7X8X9
0.00875699*Y2X3Y4Y5X6X7X8Y9
-0.00875699*Z1X2X3X4Y5X6X7X8Y9
0.00268479*Y1X2X3Y4Z9
-0.00268479*Z0X1X2X3X4Z9
-0.00562761*Y1X2X3Y4Z7X8X9
0.00562761*Z0X1X2X3X4Z7X8X9
-0.00562761*Y1X2X3Y4Y8Y9
0.00562761*Z0X1X2X3X4Y8Y9
0.01573602*Y1X2X3Y4Z5X6X7X8X9
-0.01573602*Z0X1X2X3X4Z5X6X7X8X9
0.01573602*Y1X2X3Y4Y6X7X8Y9
-0.01573602*Z0X1X2X3X4Y6X7X8Y9
0.00022121*Y0X1X2X3Y4Z8X9
-0.00022121*X0X1X2X3X4Z8X9
-0.00022121*Y0X1X2X3Y4X9
0.00022121*X0X1X2X3X4X9
0.00875699*Y0X1X2X3Y4Z6X7X8X9
-0.00875699*X0X1X2X3X4Z6X7X8X9
0.00875699*Y0X1X2X3Y4Y7X8Y9
-0.00875699*X0X1X2X3X4Y7X8Y9
-0.02297573*Y0X1X2X3Y4X5X6X7X8X9
0.02297573*X0X1X2X3X4X5X6X7X8X9
0.02297573*Y0X1X2X3Y4Y5X6X7X8Y9
-0.02297573*X0X1X2X3X4Y5X6X7X8Y9
0.05455290*Z3Z4Z9
-0.01392288*Z3Z4Z7X8X9
-0.01392288*Z3Z4Y8Y9
0.00682208*Z3Z4Z5X6X7X8X9
0.00682208*Z3Z4Y6X7X8Y9
0.02418798*X3Z8X9
-0.02418798*Z2X3Z4Z8X9
-0.02418798*X3X9
0.02418798*Z2X3Z4X9
-0.00439030*X3Z6X7X8X9
0.00439030*Z2X3Z4Z6X7X8X9
-0.00439030*X3Y7X8Y9
0.00439030*Z2X3Z4Y7X8Y9
0.00492087*X3X5X6X7X8X9
-0.00492087*Z2X3Z4X5X6X7X8X9
-0.00492087*X3Y5X6X7X8Y9
0.00492087*Z2X3Z4Y5X6X7X8Y9
0.01223632*Y2Y3Z9
0.01223632*Z1X2X3Z4Z9
0.01149628*Y2Y3Z7X8X9
0.01149628*Z1X2X3Z4Z7X8X9
0.01149628*Y2Y3Y8Y9
0.01149628*Z1X2X3Z4Y8Y9
0.01304831*Y2Y3Z5X6X7X8X9
0.01304831*Z1X2X3Z4Z5X6X7X8X9
0.01304831*Y2Y3Y6X7X8Y9
0.01304831*Z1X2X3Z4Y6X7X8Y9
0.00662207*Y1X2Y3Z8X9
0.00662207*Z0X1X2X3Z4Z8X9
-0.00662207*Y1X2Y3X9
-0.00662207*Z0X1X2X3Z4X9
0.01606714*Y1X2Y3Z6X7X8X9
0.01606714*Z0X1X2X3Z4Z6X7X8X9
0.01606714*Y1X2Y3Y7X8Y9
0.01606714*Z0X1X2X3Z4Y7X8Y9
0.01377400*Y1X2Y3X5X6X7X8X9
0.01377400*Z0X1X2X3Z4X5X6X7X8X9
-0.01377400*Y1X2Y3Y5X6X7X8Y9
-0.01377400*Z0X1X2X3Z4Y5X6X7X8Y9
-0.00297276*Y0X1X2Y3Z9
-0.00297276*X0X1X2X3Z4Z9
0.00557385*Y0X1X2Y3Z7X8X9
0.00557385*X0X1X2X3Z4Z7X8X9
0.00557385*Y0X1X2Y3Y8Y9
0.00557385*X0X1X2X3Z4Y8Y9
-0.01589352*Y0X1X2Y3Z5X6X7X8X9
-0.01589352*X0X1X2X3Z4Z5X6X7X8X9
-0.01589352*Y0X1X2Y3Y6X7X8Y9
-0.01589352*X0X1X2X3Z4Y6X7X8Y9
0.06413245*Z2Z3Z9
0.00807935*Z2Z3Z7X8X9
0.00807935*Z2Z3Y8Y9
-0.00442008*Z2Z3Z5X6X7X8X9
-0.00442008*Z2Z3Y6X7X8Y9
-0.01376693*X2Z8X9
0.01376693*Z1X2Z3Z8X9
0.01376693*X2X9
-0.01376693*Z1X2Z3X9
-0.00535066*X2Z6X7X8X9
0.00535066*Z1X2Z3Z6X7X8X9
-0.00535066*X2Y7X8Y9
0.00535066*Z1X2Z3Y7X8Y9
0.01967150*X2X5X6X7X8X9
-0.01967150*Z1X2Z3X5X6X7X8X9
-0.01967150*X2Y5X6X7X8Y9
0.01967150*Z1X2Z3Y5X6X7X8Y9
-0.01263340*Y1Y2Z9
-0.01263340*Z0X1X2Z3Z9
-0.01156910*Y1Y2Z7X8X9
-0.01156910*Z0X1X2Z3Z7X8X9
-0.01156910*Y1Y2Y8Y9
-0.01156910*Z0X1X2Z3Y8Y9
-0.01323894*Y1Y2Z5X6X7X8X9
-0.01323894*Z0X1X2Z3Z5X6X7X8X9
-0.01323894*Y1Y2Y6X7X8Y9
-0.01323894*Z0X1X2Z3Y6X7X8Y9
0.00983099*Y0X1Y2Z8X9
0.00983099*X0X1X2Z3Z8X9
-0.00983099*Y0X1Y2X9
-0.00983099*X0X1X2Z3X9
0.02481184*Y0X1Y2Z6X7X8X9
0.02481184*X0X1X2Z3Z6X7X8X9
0.02481184*Y0X1Y2Y7X8Y9
0.02481184*X0X1X2Z3Y7X8Y9
-0.00857678*Y0X1Y2X5X6X7X8X9
-0.00857678*X0X1X2Z3X5X6X7X8X9
0.00857678*Y0X1Y2Y5X6X7X8Y9
0.00857678*X0X1X2Z3Y5X6X7X8Y9
0.06466533*Z1Z2Z9
0.00840904*Z1Z2Z7X8X9
0.00840904*Z1Z2Y8Y9
-0.00458499*Z1Z2Z5X6X7X8X9
-0.00458499*Z1Z2Y6X7X8Y9
-0.02435485*X1Z8X9
0.02435485*Z0X1Z2Z8X9
0.02435485*X1X9
-0.02435485*Z0X1Z2X9
0.00459038*X1Z6X7X8X9
-0.00459038*Z0X1Z2Z6X7X8X9
0.00459038*X1Y7X8Y9
-0.00459038*Z0X1Z2Y7X8Y9
-0.00489057*X1X5X6X7X8X9
0.00489057*Z0X1Z2X5X6X7X8X9
0.00489057*X1Y5X6X7X8Y9
-0.00489057*Z0X1Z2Y5X6X7X8Y9
0.01609488*Y0Y1Z9
0.01609488*X0X1Z2Z9
0.02935825*Y0Y1Z7X8X9
0.02935825*X0X1Z2Z7X8X9
0.02935825*Y0Y1Y8Y9
0.02935825*X0X1Z2Y8Y9
-0.00559115*Y0Y1Z5X6X7X8X9
-0.00559115*X0X1Z2Z5X6X7X8X9
-0.00559115*Y0Y1Y6X7X8Y9
-0.00559115*X0X1Z2Y6X7X8Y9
0.05562208*Z0Z1Z9
-0.01423688*Z0Z1Z7X8X9
-0.01423688*Z0Z1Y8Y9
0.00688354*Z0Z1Z5X6X7X8X9
0.00688354*Z0Z1Y6X7X8Y9
0.02922484*X0Z8X9
-0.02922484*X0Z1Z8X9
-0.02922484*X0X9
0.02922484*X0Z1X9
0.00987488*X0Z6X7X8X9
-0.00987488*X0Z1Z6X7X8X9
0.00987488*X0Y7X8Y9
-0.00987488*X0Z1Y7X8Y9
-0.00024990*X0X5X6X7X8X9
0.00024990*X0Z1X5X6X7X8X9
0.00024990*X0Y5X6X7X8Y9
-0.00024990*X0Z1Y5X6X7X8Y9
0.07319194*Z0Z9
0.01585094*Z0Z7X8X9
0.01585094*Z0Y8Y9
0.00290099*Z0Z5X6X7X8X9
0.00290099*Z0Y6X7X8Y9
0.02806874*Z7Z9
-0.00148728*Z5X6X7Z9
-0.00148728*Y6Y7Z8Z9
0.03592159*Z6Z7Z8Z9
0.00091012*X5X6Z7Z8Z9
-0.00091012*Y5Y6Z8Z9
0.04000141*Z5Z6Z8Z9
-0.04031303*Z5Z8Z9
-0.01173219*Z6Y7Y8Z9
-0.01173219*X7X8
-0.00002799*X5X6Y7Y8Z9
-0.00002799*Y5X6Y7X8
-0.01292849*Z5X6X8Z9
0.00770919*X6Z7X8Z9
-0.00521931*Z5Y6Y8Z9
-0.00521931*Y6Y8
0.00770919*Z5X6Z7X8
-0.01292849*X6X8
-0.01169672*X5Z6Z7X8Z9
-0.00864888*X5Z7X8Z9
-0.00304785*Y5Y8Z9
0.00304785*Y5Z6Z7Y8
0.00864888*X5Z6X8
0.01169672*X5X8
-0.00749156*X5Y6Y7X8Z9
0.00749156*Y5Y6Y7Y8
0.00134546*Z5X7X8Z9
0.00134546*Z5Z6Y7Y8
-0.00707969*Z5Z6X7X8Z9
-0.00707969*Z5Y7Y8
-0.00028513*Y5Y6X7X8Z9
-0.00028513*X5Y6X7Y8
-0.05455290*Z4Z8Z9
-0.01223632*Z4Z6X7X8Z9
-0.01223632*Z4Y7Y8
-0.00297276*Z4X5X6X7X8Z9
0.00297276*Z4Y5X6X7Y8
0.02418798*X4Z7X8Z9
0.02418798*Z3X4Z7X8Z9
-0.02418798*X4X8
-0.02418798*Z3X4X8
-0.00662207*X4Z5X6X7X8Z9
-0.00662207*Z3X4Z5X6X7X8Z9
-0.00662207*X4Y6X7Y8
-0.00662207*Z3X4Y6X7Y8
-0.01392288*Y3Y4Z8Z9
0.01392288*Z2X3X4Z8Z9
0.01149628*Y3Y4Z6X7X8Z9
-0.01149628*Z2X3X4Z6X7X8Z9
0.01149628*Y3Y4Y7Y8
-0.01149628*Z2X3X4Y7Y8
-0.00557385*Y3Y4X5X6X7X8Z9
0.00557385*Z2X3X4X5X6X7X8Z9
0.00557385*Y3Y4Y5X6X7Y8
-0.00557385*Z2X3X4Y5X6X7Y8
0.00439030*Y2X3Y4Z7X8Z9
-0.00439030*Z1X2X3X4Z7X8Z9
-0.00439030*Y2X3Y4X8
0.00439030*Z1X2X3X4X8
0.01606714*Y2X3Y4Z5X6X7X8Z9
-0.01606714*Z1X2X3X4Z5X6X7X8Z9
0.01606714*Y2X3Y4Y6X7Y8
-0.01606714*Z1X2X3X4Y6X7Y8
0.00682208*Y1X2X3Y4Z8Z9
-0.00682208*Z0X1X2X3X4Z8Z9
0.01304831*Y1X2X3Y4Z6X7X8Z9
-0.01304831*Z0X1X2X3X4Z6X7X8Z9
0.01304831*Y1X2X3Y4Y7Y8
-0.01304831*Z0X1X2X3X4Y7Y8
0.01589352*Y1X2X3Y4X5X6X7X8Z9
-0.01589352*Z0X1X2X3X4X5X6X7X8Z9
-0.01589352*Y1X2X3Y4Y5X6X7Y8
0.01589352*Z0X1X2X3X4Y5X6X7Y8
0.00492087*Y0X1X2X3Y4Z7X8Z9
-0.00492087*X0X1X2X3X4Z7X8Z9
-0.00492087*Y0X1X2X3Y4X8
0.00492087*X0X1X2X3X4X8
-0.01377400*Y0X1X2X3Y4Z5X6X7X8Z9
0.01377400*X0X1X2X3X4Z5X6X7X8Z9
-0.01377400*Y0X1X2X3Y4Y6X7Y8
0.01377400*X0X1X2X3X4Y6X7Y8
0.06866064*Z3Z4Z8Z9
-0.00133037*Z3Z4Z6X7X8Z9
-0.00133037*Z3Z4Y7Y8
0.00707351*Z3Z4X5X6X7X8Z9
-0.00707351*Z3Z4Y5X6X7Y8
-0.02833805*X3Z7X8Z9
0.02833805*Z2X3Z4Z7X8Z9
0.02833805*X3X8
-0.02833805*Z2X3Z4X8
-0.00246694*X3Z5X6X7X8Z9
0.00246694*Z2X3Z4Z5X6X7X8Z9
-0.00246694*X3Y6X7Y8
0.00246694*Z2X3Z4Y6X7Y8
-0.00133037*Y2Y3Z8Z9
-0.00133037*Z1X2X3Z4Z8Z9
0.02064325*Y2Y3Z6X7X8Z9
0.02064325*Z1X2X3Z4Z6X7X8Z9
0.02064325*Y2Y3Y7Y8
0.02064325*Z1X2X3Z4Y7Y8
0.01321974*Y2Y3X5X6X7X8Z9
0.01321974*Z1X2X3Z4X5X6X7X8Z9
-0.01321974*Y2Y3Y5X6X7Y8
-0.01321974*Z1X2X3Z4Y5X6X7Y8
0.00246694*Y1X2Y3Z7X8Z9
0.00246694*Z0X1X2X3Z4Z7X8Z9
-0.00246694*Y1X2Y3X8
-0.00246694*Z0X1X2X3Z4X8
0.03007940*Y1X2Y3Z5X6X7X8Z9
0.03007940*Z0X1X2X3Z4Z5X6X7X8Z9
0.03007940*Y1X2Y3Y6X7Y8
0.03007940*Z0X1X2X3Z4Y6X7Y8
-0.00707351*Y0X1X2Y3Z8Z9
-0.00707351*X0X1X2X3Z4Z8Z9
-0.01321974*Y0X1X2Y3Z6X7X8Z9
-0.01321974*X0X1X2X3Z4Z6X7X8Z9
-0.01321974*Y0X1X2Y3Y7Y8
-0.01321974*X0X1X2X3Z4Y7Y8
-0.01619221*Y0X1X2Y3X5X6X7X8Z9
-0.01619221*X0X1X2X3Z4X5X6X7X8Z9
0.01619221*Y0X1X2Y3Y5X6X7Y8
0.01619221*X0X1X2X3Z4Y5X6X7Y8
0.05640678*Z2Z3Z8Z9
0.00023925*Z2Z3Z6X7X8Z9
0.00023925*Z2Z3Y7Y8
-0.00412400*Z2Z3X5X6X7X8Z9
0.00412400*Z2Z3Y5X6X7Y8
0.01149294*X2Z7X8Z9
-0.01149294*Z1X2Z3Z7X8Z9
-0.01149294*X2X8
0.01149294*Z1X2Z3X8
0.01564256*X2Z5X6X7X8Z9
-0.01564256*Z1X2Z3Z5X6X7X8Z9
0.01564256*X2Y6X7Y8
-0.01564256*Z1X2Z3Y6X7Y8
0.00097966*Y1Y2Z8Z9
0.00097966*Z0X1X2Z3Z8Z9
-0.02086187*Y1Y2Z6X7X8Z9
-0.02086187*Z0X1X2Z3Z6X7X8Z9
-0.02086187*Y1Y2Y7Y8
-0.02086187*Z0X1X2Z3Y7Y8
-0.01359231*Y1Y2X5X6X7X8Z9
-0.01359231*Z0X1X2Z3X5X6X7X8Z9
0.01359231*Y1Y2Y5X6X7Y8
0.01359231*Z0X1X2Z3Y5X6X7Y8
0.00415200*Y0X1Y2Z7X8Z9
0.00415200*X0X1X2Z3Z7X8Z9
-0.00415200*Y0X1Y2X8
-0.00415200*X0X1X2Z3X8
0.01664016*Y0X1Y2Z5X6X7X8Z9
0.01664016*X0X1X2Z3Z5X6X7X8Z9
0.01664016*Y0X1Y2Y6X7Y8
0.01664016*X0X1X2Z3Y6X7Y8
0.05656484*Z1Z2Z8Z9
0.00031348*Z1Z2Z6X7X8Z9
0.00031348*Z1Z2Y7Y8
-0.00454806*Z1Z2X5X6X7X8Z9
0.00454806*Z1Z2Y5X6X7Y8
0.02857106*X1Z7X8Z9
-0.02857106*Z0X1Z2Z7X8Z9
-0.02857106*X1X8
0.02857106*Z0X1Z2X8
0.00285884*X1Z5X6X7X8Z9
-0.00285884*Z0X1Z2Z5X6X7X8Z9
0.00285884*X1Y6X7Y8
-0.00285884*Z0X1Z2Y6X7Y8
-0.01412985*Y0Y1Z8Z9
-0.01412985*X0X1Z2Z8Z9
0.01203962*Y0Y1Z6X7X8Z9
0.01203962*X0X1Z2Z6X7X8Z9
0.01203962*Y0Y1Y7Y8
0.01203962*X0X1Z2Y7Y8
-0.00557149*Y0Y1X5X6X7X8Z9
-0.00557149*X0X1Z2X5X6X7X8Z9
0.00557149*Y0Y1Y5X6X7Y8
0.00557149*X0X1Z2Y5X6X7Y8
0.07008081*Z0Z1Z8Z9
-0.00151338*Z0Z1Z6X7X8Z9
-0.00151338*Z0Z1Y7Y8
0.00714353*Z0Z1X5X6X7X8Z9
-0.00714353*Z0Z1Y5X6X7Y8
-0.02528904*X0Z7X8Z9
0.02528904*X0Z1Z7X8Z9
0.02528904*X0X8
-0.02528904*X0Z1X8
0.00685840*X0Z5X6X7X8Z9
-0.00685840*X0Z1Z5X6X7X8Z9
0.00685840*X0Y6X7Y8
-0.00685840*X0Z1Y6X7Y8
0.05650523*Z0Z8Z9
0.01265118*Z0Z6X7X8Z9
0.01265118*Z0Y7Y8
0.00326037*Z0X5X6X7X8Z9
-0.00326037*Z0Y5X6X7Y8
0.03878380*Z6Z8
-0.00307047*X5X6Z8
0.00307047*Y5Y6Z7Z8
0.03633221*Z5Z6Z7Z8
-0.04091504*Z5Z7Z8
0.01216287*Z5Y6Y7Z8
0.01216287*X6X7
0.00983432*X5X7Z8
0.00232758*X5Z6X7Z8
0.00750674*Y5Y7Z8
-0.00750674*Y5Y7
-0.00232758*X5Z6X7
-0.00983432*X5X7
0.00286104*X6X7Z8
0.00286104*Z5Y6Y7
-0.06413245*Z4Z7Z8
0.01263340*Z4Z5X6X7Z8
0.01263340*Z4Y6Y7
-0.01376693*X4Z6X7Z8
-0.01376693*Z3X4Z6X7Z8
0.01376693*X4X7
0.01376693*Z3X4X7
0.00983099*X4X5X6X7Z8
0.00983099*Z3X4X5X6X7Z8
-0.00983099*X4Y5X6Y7
-0.00983099*Z3X4Y5X6Y7
0.00807935*Y3Y4Z7Z8
-0.00807935*Z2X3X4Z7Z8
-0.01156910*Y3Y4Z5X6X7Z8
0.01156910*Z2X3X4Z5X6X7Z8
-0.01156910*Y3Y4Y6Y7
0.01156910*Z2X3X4Y6Y7
0.00535066*Y2X3Y4Z6X7Z8
-0.00535066*Z1X2X3X4Z6X7Z8
-0.00535066*Y2X3Y4X7
0.00535066*Z1X2X3X4X7
-0.02481184*Y2X3Y4X5X6X7Z8
0.02481184*Z1X2X3X4X5X6X7Z8
0.02481184*Y2X3Y4Y5X6Y7
-0.02481184*Z1X2X3X4Y5X6Y7
-0.00442008*Y1X2X3Y4Z7Z8
0.00442008*Z0X1X2X3X4Z7Z8
-0.01323894*Y1X2X3Y4Z5X6X7Z8
0.01323894*Z0X1X2X3X4Z5X6X7Z8
-0.01323894*Y1X2X3Y4Y6Y7
0.01323894*Z0X1X2X3X4Y6Y7
0.01967150*Y0X1X2X3Y4Z6X7Z8
-0.01967150*X0X1X2X3X4Z6X7Z8
-0.01967150*Y0X1X2X3Y4X7
0.01967150*X0X1X2X3X4X7
-0.00857678*Y0X1X2X3Y4X5X6X7Z8
0.00857678*X0X1X2X3X4X5X6X7Z8
0.00857678*Y0X1X2X3Y4Y5X6Y7
-0.00857678*X0X1X2X3X4Y5X6Y7
0.05640678*Z3Z4Z7Z8
0.00097966*Z3Z4Z5X6X7Z8
0.00097966*Z3Z4Y6Y7
0.01149294*X3Z6X7Z8
-0.01149294*Z2X3Z4Z6X7Z8
-0.01149294*X3X7
0.01149294*Z2X3Z4X7
0.00415200*X3X5X6X7Z8
-0.00415200*Z2X3Z4X5X6X7Z8
-0.00415200*X3Y5X6Y7
0.00415200*Z2X3Z4Y5X6Y7
0.00023925*Y2Y3Z7Z8
0.00023925*Z1X2X3Z4Z7Z8
-0.02086187*Y2Y3Z5X6X7Z8
-0.02086187*Z1X2X3Z4Z5X6X7Z8
-0.02086187*Y2Y3Y6Y7
-0.02086187*Z1X2X3Z4Y6Y7
-0.01564256*Y1X2Y3Z6X7Z8
-0.01564256*Z0X1X2X3Z4Z6X7Z8
0.01564256*Y1X2Y3X7
0.01564256*Z0X1X2X3Z4X7
-0.01664016*Y1X2Y3X5X6X7Z8
-0.01664016*Z0X1X2X3Z4X5X6X7Z8
0.01664016*Y1X2Y3Y5X6Y7
0.01664016*Z0X1X2X3Z4Y5X6Y7
0.00412400*Y0X1X2Y3Z7Z8
0.00412400*X0X1X2X3Z4Z7Z8
0.01359231*Y0X1X2Y3Z5X6X7Z8
0.01359231*X0X1X2X3Z4Z5X6X7Z8
0.01359231*Y0X1X2Y3Y6Y7
0.01359231*X0X1X2X3Z4Y6Y7
0.06437968*Z2Z3Z7Z8
-0.00065588*Z2Z3Z5X6X7Z8
-0.00065588*Z2Z3Y6Y7
-0.02593339*X2Z6X7Z8
0.02593339*Z1X2Z3Z6X7Z8
0.02593339*X2X7
-0.02593339*Z1X2Z3X7
0.00523187*X2X5X6X7Z8
-0.00523187*Z1X2Z3X5X6X7Z8
-0.00523187*X2Y5X6Y7
0.00523187*Z1X2Z3Y5X6Y7
-0.00065588*Y1Y2Z7Z8
-0.00065588*Z0X1X2Z3Z7Z8
0.02132019*Y1Y2Z5X6X7Z8
0.02132019*Z0X1X2Z3Z5X6X7Z8
0.02132019*Y1Y2Y6Y7
0.02132019*Z0X1X2Z3Y6Y7
0.00523187*Y0X1Y2Z6X7Z8
0.00523187*X0X1X2Z3Z6X7Z8
-0.00523187*Y0X1Y2X7
-0.00523187*X0X1X2Z3X7
-0.02537233*Y0X1Y2X5X6X7Z8
-0.02537233*X0X1X2Z3X5X6X7Z8
0.02537233*Y0X1Y2Y5X6Y7
0.02537233*X0X1X2Z3Y5X6Y7
0.06471719*Z1Z2Z7Z8
-0.00039765*Z1Z2Z5X6X7Z8
-0.00039765*Z1Z2Y6Y7
-0.01176521*X1Z6X7Z8
0.01176521*Z0X1Z2Z6X7Z8
0.01176521*X1X7
-0.01176521*Z0X1Z2X7
-0.00460559*X1X5X6X7Z8
0.00460559*Z0X1Z2X5X6X7Z8
0.00460559*X1Y5X6Y7
-0.00460559*Z0X1Z2Y5X6Y7
0.00830234*Y0Y1Z7Z8
0.00830234*X0X1Z2Z7Z8
-0.01211233*Y0Y1Z5X6X7Z8
-0.01211233*X0X1Z2Z5X6X7Z8
-0.01211233*Y0Y1Y6Y7
-0.01211233*X0X1Z2Y6Y7
0.05765240*Z0Z1Z7Z8
0.00118068*Z0Z1Z5X6X7Z8
0.00118068*Z0Z1Y6Y7
0.01443991*X0Z6X7Z8
-0.01443991*X0Z1Z6X7Z8
-0.01443991*X0X7
0.01443991*X0Z1X7
-0.01030433*X0X5X6X7Z8
0.01030433*X0Z1X5X6X7Z8
0.01030433*X0Y5X6Y7
-0.01030433*X0Z1Y5X6Y7
0.06628736*Z0Z7Z8
-0.01316537*Z0Z5X6X7Z8
-0.01316537*Z0Y6Y7
0.02878072*Z5Z7
-0.03649187*Z5Z6Z7
0.01084630*Y5Y6Z7
-0.01084630*X5X6
-0.06466533*Z4Z6Z7
0.01609488*Z4X5X6Z7
-0.01609488*Z4Y5Y6
-0.02435485*X4Z5X6Z7
-0.02435485*Z3X4Z5X6Z7
0.02435485*X4X6
0.02435485*Z3X4X6
0.00840904*Y3Y4Z6Z7
-0.00840904*Z2X3X4Z6Z7
-0.02935825*Y3Y4X5X6Z7
0.02935825*Z2X3X4X5X6Z7
0.02935825*Y3Y4Y5Y6
-0.02935825*Z2X3X4Y5Y6
-0.00459038*Y2X3Y4Z5X6Z7
0.00459038*Z1X2X3X4Z5X6Z7
0.00459038*Y2X3Y4X6
-0.00459038*Z1X2X3X4X6
-0.00458499*Y1X2X3Y4Z6Z7
0.00458499*Z0X1X2X3X4Z6Z7
0.00559115*Y1X2X3Y4X5X6Z7
-0.00559115*Z0X1X2X3X4X5X6Z7
-0.00559115*Y1X2X3Y4Y5Y6
0.00559115*Z0X1X2X3X4Y5Y6
-0.00489057*Y0X1X2X3Y4Z5X6Z7
0.00489057*X0X1X2X3X4Z5X6Z7
0.00489057*Y0X1X2X3Y4X6
-0.00489057*X0X1X2X3X4X6
0.05656484*Z3Z4Z6Z7
0.01412985*Z3Z4X5X6Z7
-0.01412985*Z3Z4Y5Y6
0.02857106*X3Z5X6Z7
-0.02857106*Z2X3Z4Z5X6Z7
-0.02857106*X3X6
0.02857106*Z2X3Z4X6
0.00031348*Y2Y3Z6Z7
0.00031348*Z1X2X3Z4Z6Z7
-0.01203962*Y2Y3X5X6Z7
-0.01203962*Z1X2X3Z4X5X6Z7
0.01203962*Y2Y3Y5Y6
0.01203962*Z1X2X3Z4Y5Y6
-0.00285884*Y1X2Y3Z5X6Z7
-0.00285884*Z0X1X2X3Z4Z5X6Z7
0.00285884*Y1X2Y3X6
0.00285884*Z0X1X2X3Z4X6
0.00454806*Y0X1X2Y3Z6Z7
0.00454806*X0X1X2X3Z4Z6Z7
-0.00557149*Y0X1X2Y3X5X6Z7
-0.00557149*X0X1X2X3Z4X5X6Z7
0.00557149*Y0X1X2Y3Y5Y6
0.00557149*X0X1X2X3Z4Y5Y6
0.06471719*Z2Z3Z6Z7
-0.00830234*Z2Z3X5X6Z7
0.00830234*Z2Z3Y5Y6
-0.01176521*X2Z5X6Z7
0.01176521*Z1X2Z3Z5X6Z7
0.01176521*X2X6
-0.01176521*Z1X2Z3X6
-0.00039765*Y1Y2Z6Z7
-0.00039765*Z0X1X2Z3Z6Z7
0.01211233*Y1Y2X5X6Z7
0.01211233*Z0X1X2Z3X5X6Z7
-0.01211233*Y1Y2Y5Y6
-0.01211233*Z0X1X2Z3Y5Y6
-0.00460559*Y0X1Y2Z5X6Z7
-0.00460559*X0X1X2Z3Z5X6Z7
0.00460559*Y0X1Y2X6
0.00460559*X0X1X2Z3X6
0.06565009*Z1Z2Z6Z7
-0.00870544*Z1Z2X5X6Z7
0.00870544*Z1Z2Y5Y6
-0.02920484*X1Z5X6Z7
0.02920484*Z0X1Z2Z5X6Z7
0.02920484*X1X6
-0.02920484*Z0X1Z2X6
0.00870544*Y0Y1Z6Z7
0.00870544*X0X1Z2Z6Z7
-0.03046276*Y0Y1X5X6Z7
-0.03046276*X0X1Z2X5X6Z7
0.03046276*Y0Y1Y5Y6
0.03046276*X0X1Z2Y5Y6
0.05798556*Z0Z1Z6Z7
0.01473013*Z0Z1X5X6Z7
-0.01473013*Z0Z1Y5Y6
0.02557643*X0Z5X6Z7
-0.02557643*X0Z1Z5X6Z7
-0.02557643*X0X6
0.02557643*X0Z1X6
0.06695463*Z0Z6Z7
-0.01654070*Z0X5X6Z7
0.01654070*Z0Y5Y6
-0.02709766*Z6
-0.05562208*Z4Z5Z6
-0.02922484*X4X5Z6
-0.02922484*Z3X4X5Z6
-0.02922484*X4X5
-0.02922484*Z3X4X5
-0.01423688*Y3Y4Z5Z6
0.01423688*Z2X3X4Z5Z6
0.00987488*Y2X3Y4X5Z6
-0.00987488*Z1X2X3X4X5Z6
0.00987488*Y2X3Y4X5
-0.00987488*Z1X2X3X4X5
0.00688354*Y1X2X3Y4Z5Z6
-0.00688354*Z0X1X2X3X4Z5Z6
0.00024990*Y0X1X2X3Y4X5Z6
-0.00024990*X0X1X2X3X4X5Z6
0.00024990*Y0X1X2X3Y4X5
-0.00024990*X0X1X2X3X4X5
0.07008081*Z3Z4Z5Z6
0.02528904*X3X5Z6
-0.02528904*Z2X3Z4X5Z6
0.02528904*X3X5
-0.02528904*Z2X3Z4X5
-0.00151338*Y2Y3Z5Z6
-0.00151338*Z1X2X3Z4Z5Z6
0.00685840*Y1X2Y3X5Z6
0.00685840*Z0X1X2X3Z4X5Z6
0.00685840*Y1X2Y3X5
0.00685840*Z0X1X2X3Z4X5
-0.00714353*Y0X1X2Y3Z5Z6
-0.00714353*X0X1X2X3Z4Z5Z6
0.05765240*Z2Z3Z5Z6
-0.01443991*X2X5Z6
0.01443991*Z1X2Z3X5Z6
-0.01443991*X2X5
0.01443991*Z1X2Z3X5
0.00118068*Y1Y2Z5Z6
0.00118068*Z0X1X2Z3Z5Z6
0.01030433*Y0X1Y2X5Z6
0.01030433*X0X1X2Z3X5Z6
0.01030433*Y0X1Y2X5
0.01030433*X0X1X2Z3X5
0.05798556*Z1Z2Z5Z6
-0.02557643*X1X5Z6
0.02557643*Z0X1Z2X5Z6
-0.02557643*X1X5
0.02557643*Z0X1Z2X5
-0.01473013*Y0Y1Z5Z6
-0.01473013*X0X1Z2Z5Z6
0.07204902*Z0Z1Z5Z6
0.03080623*X0X5Z6
-0.03080623*X0Z1X5Z6
0.03080623*X0X5
-0.03080623*X0Z1X5
0.05790388*Z0Z5Z6
0.07319194*Z4Z5
-0.01585094*Y3Y4Z5
0.01585094*Z2X3X4Z5
-0.00290099*Y1X2X3Y4Z5
0.00290099*Z0X1X2X3X4Z5
-0.05650523*Z3Z4Z5
-0.01265118*Y2Y3Z5
-0.01265118*Z1X2X3Z4Z5
0.00326037*Y0X1X2Y3Z5
0.00326037*X0X1X2X3Z4Z5
-0.06628736*Z2Z3Z5
0.01316537*Y1Y2Z5
0.01316537*Z0X1X2Z3Z5
-0.06695463*Z1Z2Z5
-0.01654070*Y0Y1Z5
-0.01654070*X0X1Z2Z5
-0.05790388*Z0Z1Z5
-0.07611557*Z0Z5
-0.02645968*Z3
-0.00268965*Z1X2X3
-0.00268965*Y2Y3Z4
0.00319397*X0X1X2X3
0.00319397*Y0X1X2Y3Z4
-0.03547630*Z2Z3Z4
0.00700579*Z0X1X2Z3Z4
0.00700579*Y1Y2Z4
-0.04013214*Z1Z2Z4
-0.00733788*X0X1Z2Z4
-0.00733788*Y0Y1Z4
-0.03988606*Z0Z1Z4
-0.05021621*Z0Z4
0.01026510*Z2Y3Y4
-0.01026510*X3X4
0.00020001*Z0X1X2Y3Y4
0.00020001*Y1X2Y3X4
-0.00937663*Z1X2X4
0.00227065*X2Z3X4
-0.00710598*Z1Y2Y4
0.00710598*Y2Y4
-0.00227065*Z1X2Z3X4
0.00937663*X2X4
-0.00491012*X0X1X2X4
-0.00425714*Y0X1Y2Z3X4
-0.00065298*X0X1Y2Y4
0.00065298*Y0X1X2Y4
-0.00425714*X0X1X2Z3X4
-0.00491012*Y0X1Y2X4
-0.01130654*Z0X1Z2Z3X4
0.00828771*X1Z3X4
-0.00301883*Z0Y1Y4
0.00301883*Y1Z2Z3Y4
-0.00828771*Z0X1Z2X4
0.01130654*X1X4
0.01545084*X0Z1Z3X4
-0.01333132*X0Z3X4
0.00211952*Y0Y4
-0.00211952*Y0Z1Z3Y4
0.01333132*X0Z1X4
-0.01545084*X0X4
0.00714902*Z0X1Y2Y3X4
-0.00714902*Y1Y2Y3Y4
-0.00305838*Z1X3X4
0.00305838*Z1Z2Y3Y4
-0.00968675*X0X1X3X4
-0.00454641*Y0Y1Z2X3X4
-0.00514033*X0Y1Y3X4
0.00514033*Y0X1X3Y4
0.00454641*X0X1Z2Y3Y4
0.00968675*Y0Y1Y3Y4
0.00099794*Z0Z1Z2X3X4
-0.00099794*Z0Z1Y3Y4
-0.00727416*Z0Z2X3X4
0.00727416*Z0Y3Y4
0.00000539*Z0Y1Y2X3X4
0.00000539*X1Y2X3Y4
0.00498430*X0X2X3X4
-0.00428372*X0Z1X2X3X4
0.00070058*Y0Y2X3X4
-0.00070058*Y0X2X3Y4
-0.00428372*X0Z1Y2X3Y4
0.00498430*X0Y2X3Y4
-0.00315089*X1X2X3X4
0.00315089*Z0Y1X2X3Y4
0.02806874*Z2Z4
-0.00148728*Z0X1X2Z4
-0.00148728*Y1Y2Z3Z4
0.03592159*Z1Z2Z3Z4
-0.00091012*X0X1Z2Z3Z4
-0.00091012*Y0Y1Z3Z4
0.04000141*Z0Z1Z3Z4
0.04031303*Z0Z3Z4
-0.01173219*Z1Y2Y3Z4
-0.01173219*X2X3
0.00002799*X0X1Y2Y3Z4
-0.00002799*Y0X1Y2X3
-0.01292849*Z0X1X3Z4
0.00770919*X1Z2X3Z4
-0.00521931*Z0Y1Y3Z4
-0.00521931*Y1Y3
0.00770919*Z0X1Z2X3
-0.01292849*X1X3
0.01169672*X0Z1Z2X3Z4
-0.00864888*X0Z2X3Z4
0.00304785*Y0Y3Z4
0.00304785*Y0Z1Z2Y3
-0.00864888*X0Z1X3
0.01169672*X0X3
0.00749156*X0Y1Y2X3Z4
0.00749156*Y0Y1Y2Y3
0.00134546*Z0X2X3Z4
0.00134546*Z0Z1Y2Y3
0.00707969*Z0Z1X2X3Z4
0.00707969*Z0Y2Y3
0.00028513*Y0Y1X2X3Z4
-0.00028513*X0Y1X2Y3
0.03878380*Z1Z3
0.00307047*X0X1Z3
0.00307047*Y0Y1Z2Z3
0.03633221*Z0Z1Z2Z3
0.04091504*Z0Z2Z3
0.01216287*Z0Y1Y2Z3
0.01216287*X1X2
-0.00983432*X0X2Z3
0.00232758*X0Z1X2Z3
-0.00750674*Y0Y2Z3
-0.00750674*Y0Y2
0.00232758*X0Z1X2
-0.00983432*X0X2
-0.00286104*X1X2Z3
-0.00286104*Z0Y1Y2
0.02878072*Z0Z2
0.03649187*Z0Z1Z2
-0.01084630*Y0Y1Z2
-0.01084630*X0X1
0.02709766*Z1
