-1.42543451*I
0.11649192*Z9
-0.00035272*Z7X8X9
-0.00035272*Y8Y9
0.00518012*Z5X6X7X8X9
0.00518012*Y6X7X8Y9
0.09477491*Z8Z9
-0.00733756*Z6X7X8Z9
-0.00733756*Y7Y8
0.00632190*X5X6X7X8Z9
-0.00632190*Y5X6X7Y8
0.05842020*Z7Z8
-0.01077870*Z5X6X7Z8
-0.01077870*Y6Y7
0.01092794*Z6Z7
0.00361095*X5X6Z7
-0.00361095*Y5Y6
-0.04480980*Z5Z6
0.09611079*Z5
-0.11649192*Z4
0.00035272*Z2X3X4
-0.00035272*Y3Y4
-0.00518012*Z0X1X2X3X4
0.00518012*Y1X2X3Y4
0.09477491*Z3Z4
-0.00733756*Z1X2X3Z4
-0.00733756*Y2Y3
-0.00632190*X0X1X2X3Z4
-0.00632190*Y0X1X2Y3
0.05842020*Z2Z3
-0.01077870*Z0X1X2Z3
-0.01077870*Y1Y2
0.01092794*Z1Z2
-0.00361095*X0X1Z2
-0.00361095*Y0Y1
-0.04480980*Z0Z1
-0.09611079*Z0
0.03463919*Z8
-0.00412419*Z6X7X8
-0.00412419*Y7Y8Z9
-0.00264025*X5X6X7X8
0.00264025*Y5X6X7Y8Z9
0.04495638*Z7Z8Z9
0.00868850*Z5X6X7Z8Z9
0.00868850*Y6Y7Z9
0.05066564*Z6Z7Z9
-0.00944464*X5X6Z7Z9
0.00944464*Y5Y6Z9
0.05187946*Z5Z6Z9
-0.06531836*Z5Z9
0.01302024*Z7Y8Y9
0.01302024*X8X9
0.00047652*Z5X6X7Y8Y9
-0.00047652*Y6X7Y8X9
0.01223848*Z6X7X9
-0.00357514*X7Z8X9
0.00866333*Z6Y7Y9
0.00866333*Y7Y9
-0.00357514*Z6X7Z8X9
0.01223848*X7X9
-0.00548567*X5X6X7X9
0.00446012*Y5X6Y7Z8X9
-0.00102555*X5X6Y7Y9
0.00102555*Y5X6X7Y9
0.00446012*X5X6X7Z8X9
-0.00548567*Y5X6Y7X9
-0.01420065*Z5X6Z7Z8X9
0.01006369*X6Z8X9
-0.00413697*Z5Y6Y9
-0.00413697*Y6Z7Z8Y9
0.01006369*Z5X6Z7X9
-0.01420065*X6X9
-0.01950666*X5Z6Z8X9
-0.01676571*X5Z8X9
-0.00274095*Y5Y9
0.00274095*Y5Z6Z8Y9
0.01676571*X5Z6X9
0.01950666*X5X9
-0.00885189*Z5X6Y7Y8X9
-0.00885189*Y6Y7Y8Y9
-0.00296072*Z6X8X9
-0.00296072*Z6Z7Y8Y9
0.01185651*X5X6X8X9
-0.00547157*Y5Y6Z7X8X9
0.00638494*X5Y6Y8X9
-0.00638494*Y5X6X8Y9
0.00547157*X5X6Z7Y8Y9
-0.01185651*Y5Y6Y8Y9
0.00084672*Z5Z6Z7X8X9
0.00084672*Z5Z6Y8Y9
0.00957149*Z5Z7X8X9
0.00957149*Z5Y8Y9
-0.00000851*Z5Y6Y7X8X9
0.00000851*X6Y7X8Y9
0.00565382*X5X7X8X9
0.00452072*X5Z6X7X8X9
0.00113311*Y5Y7X8X9
-0.00113311*Y5X7X8Y9
0.00452072*X5Z6Y7X8Y9
0.00565382*X5Y7X8Y9
-0.00260165*X6X7X8X9
-0.00260165*Z5Y6X7X8Y9
-0.08209679*Z4Z9
0.01671529*Z4Z7X8X9
0.01671529*Z4Y8Y9
-0.00219937*Z4Z5X6X7X8X9
-0.00219937*Z4Y6X7X8Y9
-0.02997836*X4Z8X9
-0.02997836*Z3X4Z8X9
0.02997836*X4X9
0.02997836*Z3X4X9
0.01085193*X4Z6X7X8X9
0.01085193*Z3X4Z6X7X8X9
0.01085193*X4Y7X8Y9
0.01085193*Z3X4Y7X8Y9
-0.00016905*X4X5X6X7X8X9
-0.00016905*Z3X4X5X6X7X8X9
0.00016905*X4Y5X6X7X8Y9
0.00016905*Z3X4Y5X6X7X8Y9
-0.01671529*Y3Y4Z9
0.01671529*Z2X3X4Z9
0.02690050*Y3Y4Z7X8X9
-0.02690050*Z2X3X4Z7X8X9
0.02690050*Y3Y4Y8Y9
-0.02690050*Z2X3X4Y8Y9
0.00677606*Y3Y4Z5X6X7X8X9
-0.00677606*Z2X3X4Z5X6X7X8X9
0.00677606*Y3Y4Y6X7X8Y9
-0.00677606*Z2X3X4Y6X7X8Y9
-0.01085193*Y2X3Y4Z8X9
0.01085193*Z1X2X3X4Z8X9
0.01085193*Y2X3Y4X9
-0.01085193*Z1X2X3X4X9
0.02188073*Y2X3Y4Z6X7X8X9
-0.02188073*Z1X2X3X4Z6X7X8X9
0.02188073*Y2X3Y4Y7X8Y9
-0.02188073*Z1X2X3X4Y7X8Y9
-0.00794047*Y2X3Y4X5X6X7X8X9
0.00794047*Z1X2X3X4X5X6X7X8X9
0.00794047*Y2X3Y4Y5X6X7X8Y9
-0.00794047*Z1X2X3X4Y5X6X7X8Y9
0.00219937*Y1X2X3Y4Z9
-0.00219937*Z0X1X2X3X4Z9
0.00677606*Y1X2X3Y4Z7X8X9
-0.00677606*Z0X1X2X3X4Z7X8X9
0.00677606*Y1X2X3Y4Y8Y9
-0.00677606*Z0X1X2X3X4Y8Y9
0.01454966*Y1X2X3Y4Z5X6X7X8X9
-0.01454966*Z0X1X2X3X4Z5X6X7X8X9
0.01454966*Y1X2X3Y4Y6X7X8Y9
-0.01454966*Z0X1X2X3X4Y6X7X8Y9
-0.00016905*Y0X1X2X3Y4Z8X9
0.00016905*X0X1X2X3X4Z8X9
0.00016905*Y0X1X2X3Y4X9
-0.00016905*X0X1X2X3X4X9
0.00794047*Y0X1X2X3Y4Z6X7X8X9
-0.00794047*X0X1X2X3X4Z6X7X8X9
0.00794047*Y0X1X2X3Y4Y7X8Y9
-0.00794047*X0X1X2X3X4Y7X8Y9
-0.02034395*Y0X1X2X3Y4X5X6X7X8X9
0.02034395*X0X1X2X3X4X5X6X7X8X9
0.02034395*Y0X1X2X3Y4Y5X6X7X8Y9
-0.02034395*X0X1X2X3X4Y5X6X7X8Y9
0.06461755*Z3Z4Z9
0.01092134*Z3Z4Z7X8X9
0.01092134*Z3Z4Y8Y9
0.00791836*Z3Z4Z5X6X7X8X9
0.00791836*Z3Z4Y6X7X8Y9
-0.02394158*X3Z8X9
0.02394158*Z2X3Z4Z8X9
0.02394158*X3X9
-0.02394158*Z2X3Z4X9
-0.00464961*X3Z6X7X8X9
0.00464961*Z2X3Z4Z6X7X8X9
-0.00464961*X3Y7X8Y9
0.00464961*Z2X3Z4Y7X8Y9
0.00567406*X3X5X6X7X8X9
-0.00567406*Z2X3Z4X5X6X7X8X9
-0.00567406*X3Y5X6X7X8Y9
0.00567406*Z2X3Z4Y5X6X7X8Y9
-0.01497612*Y2Y3Z9
-0.01497612*Z1X2X3Z4Z9
0.01331294*Y2Y3Z7X8X9
0.01331294*Z1X2X3Z4Z7X8X9
0.01331294*Y2Y3Y8Y9
0.01331294*Z1X2X3Z4Y8Y9
-0.01005971*Y2Y3Z5X6X7X8X9
-0.01005971*Z1X2X3Z4Z5X6X7X8X9
-0.01005971*Y2Y3Y6X7X8Y9
-0.01005971*Z1X2X3Z4Y6X7X8Y9
0.00839488*Y1X2Y3Z8X9
0.00839488*Z0X1X2X3Z4Z8X9
-0.00839488*Y1X2Y3X9
-0.00839488*Z0X1X2X3Z4X9
-0.01419668*Y1X2Y3Z6X7X8X9
-0.01419668*Z0X1X2X3Z4Z6X7X8X9
-0.01419668*Y1X2Y3Y7X8Y9
-0.01419668*Z0X1X2X3Z4Y7X8Y9
-0.01168488*Y1X2Y3X5X6X7X8X9
-0.01168488*Z0X1X2X3Z4X5X6X7X8X9
0.01168488*Y1X2Y3Y5X6X7X8Y9
0.01168488*Z0X1X2X3Z4Y5X6X7X8Y9
0.00247120*Y0X1X2Y3Z9
0.00247120*X0X1X2X3Z4Z9
0.00669961*Y0X1X2Y3Z7X8X9
0.00669961*X0X1X2X3Z4Z7X8X9
0.00669961*Y0X1X2Y3Y8Y9
0.00669961*X0X1X2X3Z4Y8Y9
0.01442583*Y0X1X2Y3Z5X6X7X8X9
0.01442583*X0X1X2X3Z4Z5X6X7X8X9
0.01442583*Y0X1X2Y3Y6X7X8Y9
0.01442583*X0X1X2X3Z4Y6X7X8Y9
0.07185688*Z2Z3Z9
-0.00650380*Z2Z3Z7X8X9
-0.00650380*Z2Z3Y8Y9
-0.00464577*Z2Z3Z5X6X7X8X9
-0.00464577*Z2Z3Y6X7X8Y9
-0.01688809*X2Z8X9
0.01688809*Z1X2Z3Z8X9
0.01688809*X2X9
-0.01688809*Z1X2Z3X9
0.00368924*X2Z6X7X8X9
-0.00368924*Z1X2Z3Z6X7X8X9
0.00368924*X2Y7X8Y9
-0.00368924*Z1X2Z3Y7X8Y9
-0.01541376*X2X5X6X7X8X9
0.01541376*Z1X2Z3X5X6X7X8X9
0.01541376*X2Y5X6X7X8Y9
-0.01541376*Z1X2Z3Y5X6X7X8Y9
0.01546456*Y1Y2Z9
0.01546456*Z0X1X2Z3Z9
-0.01349767*Y1Y2Z7X8X9
-0.01349767*Z0X1X2Z3Z7X8X9
-0.01349767*Y1Y2Y8Y9
-0.01349767*Z0X1X2Z3Y8Y9
0.00985399*Y1Y2Z5X6X7X8X9
0.00985399*Z0X1X2Z3Z5X6X7X8X9
0.00985399*Y1Y2Y6X7X8Y9
0.00985399*Z0X1X2Z3Y6X7X8Y9
0.01115973*Y0X1Y2Z8X9
0.01115973*X0X1X2Z3Z8X9
-0.01115973*Y0X1Y2X9
-0.01115973*X0X1X2Z3X9
-0.02179870*Y0X1Y2Z6X7X8X9
-0.02179870*X0X1X2Z3Z6X7X8X9
-0.02179870*Y0X1Y2Y7X8Y9
-0.02179870*X0X1X2Z3Y7X8Y9
0.00775905*Y0X1Y2X5X6X7X8X9
0.00775905*X0X1X2Z3X5X6X7X8X9
-0.00775905*Y0X1Y2Y5X6X7X8Y9
-0.00775905*X0X1X2Z3Y5X6X7X8Y9
0.07254637*Z1Z2Z9
-0.00664996*Z1Z2Z7X8X9
-0.00664996*Z1Z2Y8Y9
-0.00426076*Z1Z2Z5X6X7X8X9
-0.00426076*Z1Z2Y6X7X8Y9
0.02426037*X1Z8X9
-0.02426037*Z0X1Z2Z8X9
-0.02426037*X1X9
0.02426037*Z0X1Z2X9
0.00426927*X1Z6X7X8X9
-0.00426927*Z0X1Z2Z6X7X8X9
0.00426927*X1Y7X8Y9
-0.00426927*Z0X1Z2Y7X8Y9
-0.00547603*X1X5X6X7X8X9
0.00547603*Z0X1Z2X5X6X7X8X9
0.00547603*X1Y5X6X7X8Y9
-0.00547603*Z0X1Z2Y5X6X7X8Y9
0.01738511*Y0Y1Z9
0.01738511*X0X1Z2Z9
-0.02727027*Y0Y1Z7X8X9
-0.02727027*X0X1Z2Z7X8X9
-0.02727027*Y0Y1Y8Y9
-0.02727027*X0X1Z2Y8Y9
-0.00660914*Y0Y1Z5X6X7X8X9
-0.00660914*X0X1Z2Z5X6X7X8X9
-0.00660914*Y0Y1Y6X7X8Y9
-0.00660914*X0X1Z2Y6X7X8Y9
0.06642913*Z0Z1Z9
0.01070071*Z0Z1Z7X8X9
0.01070071*Z0Z1Y8Y9
0.00791616*Z0Z1Z5X6X7X8X9
0.00791616*Z0Z1Y6X7X8Y9
-0.03119154*X0Z8X9
0.03119154*X0Z1Z8X9
0.03119154*X0X9
-0.03119154*X0Z1X9
0.01112985*X0Z6X7X8X9
-0.01112985*X0Z1Z6X7X8X9
0.01112985*X0Y7X8Y9
-0.01112985*X0Z1Y7X8Y9
-0.00020000*X0X5X6X7X8X9
0.00020000*X0Z1X5X6X7X8X9
0.00020000*X0Y5X6X7X8Y9
-0.00020000*X0Z1Y5X6X7X8Y9
0.08566231*Z0Z9
-0.01733054*Z0Z7X8X9
-0.01733054*Z0Y8Y9
0.00240165*Z0Z5X6X7X8X9
0.00240165*Z0Y6X7X8Y9
0.03678443*Z7Z9
0.00192806*Z5X6X7Z9
0.00192806*Y6Y7Z8Z9
0.04560592*Z6Z7Z8Z9
0.00073065*X5X6Z7Z8Z9
-0.00073065*Y5Y6Z8Z9
0.05147518*Z5Z6Z8Z9
-0.05291179*Z5Z8Z9
0.01535399*Z6Y7Y8Z9
0.01535399*X7X8
0.00002037*X5X6Y7Y8Z9
0.00002037*Y5X6Y7X8
-0.01603018*Z5X6X8Z9
0.00849857*X6Z7X8Z9
-0.00753161*Z5Y6Y8Z9
-0.00753161*Y6Y8
0.00849857*Z5X6Z7X8
-0.01603018*X6X8
-0.01493173*X5Z6Z7X8Z9
-0.01060324*X5Z7X8Z9
-0.00432849*Y5Y8Z9
0.00432849*Y5Z6Z7Y8
0.01060324*X5Z6X8
0.01493173*X5X8
0.00952272*X5Y6Y7X8Z9
-0.00952272*Y5Y6Y7Y8
-0.00171166*Z5X7X8Z9
-0.00171166*Z5Z6Y7Y8
0.00904079*Z5Z6X7X8Z9
0.00904079*Z5Y7Y8
-0.00042555*Y5Y6X7X8Z9
-0.00042555*X5Y6X7Y8
-0.06461755*Z4Z8Z9
0.01497612*Z4Z6X7X8Z9
0.01497612*Z4Y7Y8
0.00247120*Z4X5X6X7X8Z9
-0.00247120*Z4Y5X6X7Y8
-0.02394158*X4Z7X8Z9
-0.02394158*Z3X4Z7X8Z9
0.02394158*X4X8
0.02394158*Z3X4X8
-0.00839488*X4Z5X6X7X8Z9
-0.00839488*Z3X4Z5X6X7X8Z9
-0.00839488*X4Y6X7Y8
-0.00839488*Z3X4Y6X7Y8
0.01092134*Y3Y4Z8Z9
-0.01092134*Z2X3X4Z8Z9
0.01331294*Y3Y4Z6X7X8Z9
-0.01331294*Z2X3X4Z6X7X8Z9
0.01331294*Y3Y4Y7Y8
-0.01331294*Z2X3X4Y7Y8
-0.00669961*Y3Y4X5X6X7X8Z9
0.00669961*Z2X3X4X5X6X7X8Z9
0.00669961*Y3Y4Y5X6X7Y8
-0.00669961*Z2X3X4Y5X6X7Y8
0.00464961*Y2X3Y4Z7X8Z9
-0.00464961*Z1X2X3X4Z7X8Z9
-0.00464961*Y2X3Y4X8
0.00464961*Z1X2X3X4X8
-0.01419668*Y2X3Y4Z5X6X7X8Z9
0.01419668*Z1X2X3X4Z5X6X7X8Z9
-0.01419668*Y2X3Y4Y6X7Y8
0.01419668*Z1X2X3X4Y6X7Y8
0.00791836*Y1X2X3Y4Z8Z9
-0.00791836*Z0X1X2X3X4Z8Z9
-0.01005971*Y1X2X3Y4Z6X7X8Z9
0.01005971*Z0X1X2X3X4Z6X7X8Z9
-0.01005971*Y1X2X3Y4Y7Y8
0.01005971*Z0X1X2X3X4Y7Y8
-0.01442583*Y1X2X3Y4X5X6X7X8Z9
0.01442583*Z0X1X2X3X4X5X6X7X8Z9
0.01442583*Y1X2X3Y4Y5X6X7Y8
-0.01442583*Z0X1X2X3X4Y5X6X7Y8
0.00567406*Y0X1X2X3Y4Z7X8Z9
-0.00567406*X0X1X2X3X4Z7X8Z9
-0.00567406*Y0X1X2X3Y4X8
0.00567406*X0X1X2X3X4X8
0.01168488*Y0X1X2X3Y4Z5X6X7X8Z9
-0.01168488*X0X1X2X3X4Z5X6X7X8Z9
0.01168488*Y0X1X2X3Y4Y6X7Y8
-0.01168488*X0X1X2X3X4Y6X7Y8
0.07568067*Z3Z4Z8Z9
0.00000213*Z3Z4Z6X7X8Z9
0.00000213*Z3Z4Y7Y8
-0.00820115*Z3Z4X5X6X7X8Z9
0.00820115*Z3Z4Y5X6X7Y8
-0.02908022*X3Z7X8Z9
0.02908022*Z2X3Z4Z7X8Z9
0.02908022*X3X8
-0.02908022*Z2X3Z4X8
0.00150023*X3Z5X6X7X8Z9
-0.00150023*Z2X3Z4Z5X6X7X8Z9
0.00150023*X3Y6X7Y8
-0.00150023*Z2X3Z4Y6X7Y8
0.00000213*Y2Y3Z8Z9
0.00000213*Z1X2X3Z4Z8Z9
0.02066522*Y2Y3Z6X7X8Z9
0.02066522*Z1X2X3Z4Z6X7X8Z9
0.02066522*Y2Y3Y7Y8
0.02066522*Z1X2X3Z4Y7Y8
0.00988390*Y2Y3X5X6X7X8Z9
0.00988390*Z1X2X3Z4X5X6X7X8Z9
-0.00988390*Y2Y3Y5X6X7Y8
-0.00988390*Z1X2X3Z4Y5X6X7Y8
-0.00150023*Y1X2Y3Z7X8Z9
-0.00150023*Z0X1X2X3Z4Z7X8Z9
0.00150023*Y1X2Y3X8
0.00150023*Z0X1X2X3Z4X8
0.02585586*Y1X2Y3Z5X6X7X8Z9
0.02585586*Z0X1X2X3Z4Z5X6X7X8Z9
0.02585586*Y1X2Y3Y6X7Y8
0.02585586*Z0X1X2X3Z4Y6X7Y8
0.00820115*Y0X1X2Y3Z8Z9
0.00820115*X0X1X2X3Z4Z8Z9
-0.00988390*Y0X1X2Y3Z6X7X8Z9
-0.00988390*X0X1X2X3Z4Z6X7X8Z9
-0.00988390*Y0X1X2Y3Y7Y8
-0.00988390*X0X1X2X3Z4Y7Y8
-0.01481827*Y0X1X2Y3X5X6X7X8Z9
-0.01481827*X0X1X2X3Z4X5X6X7X8Z9
0.01481827*Y0X1X2Y3Y5X6X7Y8
0.01481827*X0X1X2X3Z4Y5X6X7Y8
0.06586465*Z2Z3Z8Z9
-0.00002180*Z2Z3Z6X7X8Z9
-0.00002180*Z2Z3Y7Y8
0.00399840*Z2Z3X5X6X7X8Z9
-0.00399840*Z2Z3Y5X6X7Y8
-0.01533219*X2Z7X8Z9
0.01533219*Z1X2Z3Z7X8Z9
0.01533219*X2X8
-0.01533219*Z1X2Z3X8
0.01296517*X2Z5X6X7X8Z9
-0.01296517*Z1X2Z3Z5X6X7X8Z9
0.01296517*X2Y6X7Y8
-0.01296517*Z1X2Z3Y6X7Y8
0.00042783*Y1Y2Z8Z9
0.00042783*Z0X1X2Z3Z8Z9
-0.02049678*Y1Y2Z6X7X8Z9
-0.02049678*Z0X1X2Z3Z6X7X8Z9
-0.02049678*Y1Y2Y7Y8
-0.02049678*Z0X1X2Z3Y7Y8
-0.01034612*Y1Y2X5X6X7X8Z9
-0.01034612*Z0X1X2Z3X5X6X7X8Z9
0.01034612*Y1Y2Y5X6X7Y8
0.01034612*Z0X1X2Z3Y5X6X7Y8
-0.00401878*Y0X1Y2Z7X8Z9
-0.00401878*X0X1X2Z3Z7X8Z9
0.00401878*Y0X1Y2X8
0.00401878*X0X1X2Z3X8
0.01467461*Y0X1Y2Z5X6X7X8Z9
0.01467461*X0X1X2Z3Z5X6X7X8Z9
0.01467461*Y0X1Y2Y6X7Y8
0.01467461*X0X1X2Z3Y6X7Y8
0.06627115*Z1Z2Z8Z9
-0.00068661*Z1Z2Z6X7X8Z9
-0.00068661*Z1Z2Y7Y8
0.00450829*Z1Z2X5X6X7X8Z9
-0.00450829*Z1Z2Y5X6X7Y8
0.02899535*X1Z7X8Z9
-0.02899535*Z0X1Z2Z7X8Z9
-0.02899535*X1X8
0.02899535*Z0X1Z2X8
-0.00174630*X1Z5X6X7X8Z9
0.00174630*Z0X1Z2Z5X6X7X8Z9
-0.00174630*X1Y6X7Y8
0.00174630*Z0X1Z2Y6X7Y8
-0.01061456*Y0Y1Z8Z9
-0.01061456*X0X1Z2Z8Z9
-0.01403101*Y0Y1Z6X7X8Z9
-0.01403101*X0X1Z2Z6X7X8Z9
-0.01403101*Y0Y1Y7Y8
-0.01403101*X0X1Z2Y7Y8
0.00669123*Y0Y1X5X6X7X8Z9
0.00669123*X0X1Z2X5X6X7X8Z9
-0.00669123*Y0Y1Y5X6X7Y8
-0.00669123*X0X1Z2Y5X6X7Y8
0.07733104*Z0Z1Z8Z9
0.00003465*Z0Z1Z6X7X8Z9
0.00003465*Z0Z1Y7Y8
-0.00826398*Z0Z1X5X6X7X8Z9
0.00826398*Z0Z1Y5X6X7Y8
-0.02527785*X0Z7X8Z9
0.02527785*X0Z1Z7X8Z9
0.02527785*X0X8
-0.02527785*X0Z1X8
-0.00868953*X0Z5X6X7X8Z9
0.00868953*X0Z1Z5X6X7X8Z9
-0.00868953*X0Y6X7Y8
0.00868953*X0Z1Y6X7Y8
0.06773007*Z0Z8Z9
-0.01573201*Z0Z6X7X8Z9
-0.01573201*Z0Y7Y8
-0.00280360*Z0X5X6X7X8Z9
0.00280360*Z0Y5X6X7Y8
0.04675776*Z6Z8
-0.00305647*X5X6Z8
0.00305647*Y5Y6Z7Z8
0.04663902*Z5Z6Z7Z8
-0.05280399*Z5Z7Z8
-0.01630835*Z5Y6Y7Z8
-0.01630835*X6X7
-0.01343961*X5X7Z8
-0.00372440*X5Z6X7Z8
-0.00971520*Y5Y7Z8
0.00971520*Y5Y7
0.00372440*X5Z6X7
0.01343961*X5X7
-0.00465132*X6X7Z8
-0.00465132*Z5Y6Y7
-0.07185688*Z4Z7Z8
-0.01546456*Z4Z5X6X7Z8
-0.01546456*Z4Y6Y7
-0.01688809*X4Z6X7Z8
-0.01688809*Z3X4Z6X7Z8
0.01688809*X4X7
0.01688809*Z3X4X7
0.01115973*X4X5X6X7Z8
0.01115973*Z3X4X5X6X7Z8
-0.01115973*X4Y5X6Y7
-0.01115973*Z3X4Y5X6Y7
-0.00650380*Y3Y4Z7Z8
0.00650380*Z2X3X4Z7Z8
-0.01349767*Y3Y4Z5X6X7Z8
0.01349767*Z2X3X4Z5X6X7Z8
-0.01349767*Y3Y4Y6Y7
0.01349767*Z2X3X4Y6Y7
-0.00368924*Y2X3Y4Z6X7Z8
0.00368924*Z1X2X3X4Z6X7Z8
0.00368924*Y2X3Y4X7
-0.00368924*Z1X2X3X4X7
0.02179870*Y2X3Y4X5X6X7Z8
-0.02179870*Z1X2X3X4X5X6X7Z8
-0.02179870*Y2X3Y4Y5X6Y7
0.02179870*Z1X2X3X4Y5X6Y7
-0.00464577*Y1X2X3Y4Z7Z8
0.00464577*Z0X1X2X3X4Z7Z8
0.00985399*Y1X2X3Y4Z5X6X7Z8
-0.00985399*Z0X1X2X3X4Z5X6X7Z8
0.00985399*Y1X2X3Y4Y6Y7
-0.00985399*Z0X1X2X3X4Y6Y7
-0.01541376*Y0X1X2X3Y4Z6X7Z8
0.01541376*X0X1X2X3X4Z6X7Z8
0.01541376*Y0X1X2X3Y4X7
-0.01541376*X0X1X2X3X4X7
0.00775905*Y0X1X2X3Y4X5X6X7Z8
-0.00775905*X0X1X2X3X4X5X6X7Z8
-0.00775905*Y0X1X2X3Y4Y5X6Y7
0.00775905*X0X1X2X3X4Y5X6Y7
0.06586465*Z3Z4Z7Z8
0.00042783*Z3Z4Z5X6X7Z8
0.00042783*Z3Z4Y6Y7
-0.01533219*X3Z6X7Z8
0.01533219*Z2X3Z4Z6X7Z8
0.01533219*X3X7
-0.01533219*Z2X3Z4X7
-0.00401878*X3X5X6X7Z8
0.00401878*Z2X3Z4X5X6X7Z8
0.00401878*X3Y5X6Y7
-0.00401878*Z2X3Z4Y5X6Y7
-0.00002180*Y2Y3Z7Z8
-0.00002180*Z1X2X3Z4Z7Z8
-0.02049678*Y2Y3Z5X6X7Z8
-0.02049678*Z1X2X3Z4Z5X6X7Z8
-0.02049678*Y2Y3Y6Y7
-0.02049678*Z1X2X3Z4Y6Y7
-0.01296517*Y1X2Y3Z6X7Z8
-0.01296517*Z0X1X2X3Z4Z6X7Z8
0.01296517*Y1X2Y3X7
0.01296517*Z0X1X2X3Z4X7
-0.01467461*Y1X2Y3X5X6X7Z8
-0.01467461*Z0X1X2X3Z4X5X6X7Z8
0.01467461*Y1X2Y3Y5X6Y7
0.01467461*Z0X1X2X3Z4Y5X6Y7
-0.00399840*Y0X1X2Y3Z7Z8
-0.00399840*X0X1X2X3Z4Z7Z8
0.01034612*Y0X1X2Y3Z5X6X7Z8
0.01034612*X0X1X2X3Z4Z5X6X7Z8
0.01034612*Y0X1X2Y3Y6Y7
0.01034612*X0X1X2X3Z4Y6Y7
0.07269347*Z2Z3Z7Z8
0.00098688*Z2Z3Z5X6X7Z8
0.00098688*Z2Z3Y6Y7
-0.02582625*X2Z6X7Z8
0.02582625*Z1X2Z3Z6X7Z8
0.02582625*X2X7
-0.02582625*Z1X2Z3X7
0.00370027*X2X5X6X7Z8
-0.00370027*Z1X2Z3X5X6X7Z8
-0.00370027*X2Y5X6Y7
0.00370027*Z1X2Z3Y5X6Y7
0.00098688*Y1Y2Z7Z8
0.00098688*Z0X1X2Z3Z7Z8
0.02122991*Y1Y2Z5X6X7Z8
0.02122991*Z0X1X2Z3Z5X6X7Z8
0.02122991*Y1Y2Y6Y7
0.02122991*Z0X1X2Z3Y6Y7
0.00370027*Y0X1Y2Z6X7Z8
0.00370027*X0X1X2Z3Z6X7Z8
-0.00370027*Y0X1Y2X7
-0.00370027*X0X1X2Z3X7
-0.02262489*Y0X1Y2X5X6X7Z8
-0.02262489*X0X1X2Z3X5X6X7Z8
0.02262489*Y0X1Y2Y5X6Y7
0.02262489*X0X1X2Z3Y5X6Y7
0.07258401*Z1Z2Z7Z8
0.00047626*Z1Z2Z5X6X7Z8
0.00047626*Z1Z2Y6Y7
0.01583209*X1Z6X7Z8
-0.01583209*Z0X1Z2Z6X7Z8
-0.01583209*X1X7
0.01583209*Z0X1Z2X7
0.00450263*X1X5X6X7Z8
-0.00450263*Z0X1Z2X5X6X7Z8
-0.00450263*X1Y5X6Y7
0.00450263*Z0X1Z2Y5X6Y7
0.00675675*Y0Y1Z7Z8
0.00675675*X0X1Z2Z7Z8
0.01421783*Y0Y1Z5X6X7Z8
0.01421783*X0X1Z2Z5X6X7Z8
0.01421783*Y0Y1Y6Y7
0.01421783*X0X1Z2Y6Y7
0.06786893*Z0Z1Z7Z8
0.00033183*Z0Z1Z5X6X7Z8
0.00033183*Z0Z1Y6Y7
-0.01794223*X0Z6X7Z8
0.01794223*X0Z1Z6X7Z8
0.01794223*X0X7
-0.01794223*X0Z1X7
0.01185545*X0X5X6X7Z8
-0.01185545*X0Z1X5X6X7Z8
-0.01185545*X0Y5X6Y7
0.01185545*X0Z1Y5X6Y7
0.07542888*Z0Z7Z8
0.01650676*Z0Z5X6X7Z8
0.01650676*Z0Y6Y7
0.03852557*Z5Z7
-0.04764117*Z5Z6Z7
0.01462446*Y5Y6Z7
-0.01462446*X5X6
-0.07254637*Z4Z6Z7
0.01738511*Z4X5X6Z7
-0.01738511*Z4Y5Y6
0.02426037*X4Z5X6Z7
0.02426037*Z3X4Z5X6Z7
-0.02426037*X4X6
-0.02426037*Z3X4X6
-0.00664996*Y3Y4Z6Z7
0.00664996*Z2X3X4Z6Z7
0.02727027*Y3Y4X5X6Z7
-0.02727027*Z2X3X4X5X6Z7
-0.02727027*Y3Y4Y5Y6
0.02727027*Z2X3X4Y5Y6
-0.00426927*Y2X3Y4Z5X6Z7
0.00426927*Z1X2X3X4Z5X6Z7
0.00426927*Y2X3Y4X6
-0.00426927*Z1X2X3X4X6
-0.00426076*Y1X2X3Y4Z6Z7
0.00426076*Z0X1X2X3X4Z6Z7
0.00660914*Y1X2X3Y4X5X6Z7
-0.00660914*Z0X1X2X3X4X5X6Z7
-0.00660914*Y1X2X3Y4Y5Y6
0.00660914*Z0X1X2X3X4Y5Y6
-0.00547603*Y0X1X2X3Y4Z5X6Z7
0.00547603*X0X1X2X3X4Z5X6Z7
0.00547603*Y0X1X2X3Y4X6
-0.00547603*X0X1X2X3X4X6
0.06627115*Z3Z4Z6Z7
0.01061456*Z3Z4X5X6Z7
-0.01061456*Z3Z4Y5Y6
0.02899535*X3Z5X6Z7
-0.02899535*Z2X3Z4Z5X6Z7
-0.02899535*X3X6
0.02899535*Z2X3Z4X6
-0.00068661*Y2Y3Z6Z7
-0.00068661*Z1X2X3Z4Z6Z7
0.01403101*Y2Y3X5X6Z7
0.01403101*Z1X2X3Z4X5X6Z7
-0.01403101*Y2Y3Y5Y6
-0.01403101*Z1X2X3Z4Y5Y6
0.00174630*Y1X2Y3Z5X6Z7
0.00174630*Z0X1X2X3Z4Z5X6Z7
-0.00174630*Y1X2Y3X6
-0.00174630*Z0X1X2X3Z4X6
-0.00450829*Y0X1X2Y3Z6Z7
-0.00450829*X0X1X2X3Z4Z6Z7
0.00669123*Y0X1X2Y3X5X6Z7
0.00669123*X0X1X2X3Z4X5X6Z7
-0.00669123*Y0X1X2Y3Y5Y6
-0.00669123*X0X1X2X3Z4Y5Y6
0.07258401*Z2Z3Z6Z7
-0.00675675*Z2Z3X5X6Z7
0.00675675*Z2Z3Y5Y6
0.01583209*X2Z5X6Z7
-0.01583209*Z1X2Z3Z5X6Z7
-0.01583209*X2X6
0.01583209*Z1X2Z3X6
0.00047626*Y1Y2Z6Z7
0.00047626*Z0X1X2Z3Z6Z7
-0.01421783*Y1Y2X5X6Z7
-0.01421783*Z0X1X2Z3X5X6Z7
0.01421783*Y1Y2Y5Y6
0.01421783*Z0X1X2Z3Y5Y6
0.00450263*Y0X1Y2Z5X6Z7
0.00450263*X0X1X2Z3Z5X6Z7
-0.00450263*Y0X1Y2X6
-0.00450263*X0X1X2Z3X6
0.07426163*Z1Z2Z6Z7
-0.00705403*Z1Z2X5X6Z7
0.00705403*Z1Z2Y5Y6
-0.03019391*X1Z5X6Z7
0.03019391*Z0X1Z2Z5X6Z7
0.03019391*X1X6
-0.03019391*Z0X1Z2X6
0.00705403*Y0Y1Z6Z7
0.00705403*X0X1Z2Z6Z7
-0.02885150*Y0Y1X5X6Z7
-0.02885150*X0X1Z2X5X6Z7
0.02885150*Y0Y1Y5Y6
0.02885150*X0X1Z2Y5Y6
0.06871948*Z0Z1Z6Z7
0.01130320*Z0Z1X5X6Z7
-0.01130320*Z0Z1Y5Y6
0.02592766*X0Z5X6Z7
-0.02592766*X0Z1Z5X6Z7
-0.02592766*X0X6
0.02592766*X0Z1X6
0.07649267*Z0Z6Z7
-0.01853342*Z0X5X6Z7
0.01853342*Z0Y5Y6
-0.03675523*Z6
-0.06642913*Z4Z5Z6
0.03119154*X4X5Z6
0.03119154*Z3X4X5Z6
0.03119154*X4X5
0.03119154*Z3X4X5
0.01070071*Y3Y4Z5Z6
-0.01070071*Z2X3X4Z5Z6
0.01112985*Y2X3Y4X5Z6
-0.01112985*Z1X2X3X4X5Z6
0.01112985*Y2X3Y4X5
-0.01112985*Z1X2X3X4X5
0.00791616*Y1X2X3Y4Z5Z6
-0.00791616*Z0X1X2X3X4Z5Z6
0.00020000*Y0X1X2X3Y4X5Z6
-0.00020000*X0X1X2X3X4X5Z6
0.00020000*Y0X1X2X3Y4X5
-0.00020000*X0X1X2X3X4X5
0.07733104*Z3Z4Z5Z6
0.02527785*X3X5Z6
-0.02527785*Z2X3Z4X5Z6
0.02527785*X3X5
-0.02527785*Z2X3Z4X5
0.00003465*Y2Y3Z5Z6
0.00003465*Z1X2X3Z4Z5Z6
-0.00868953*Y1X2Y3X5Z6
-0.00868953*Z0X1X2X3Z4X5Z6
-0.00868953*Y1X2Y3X5
-0.00868953*Z0X1X2X3Z4X5
0.00826398*Y0X1X2Y3Z5Z6
0.00826398*X0X1X2X3Z4Z5Z6
0.06786893*Z2Z3Z5Z6
0.01794223*X2X5Z6
-0.01794223*Z1X2Z3X5Z6
0.01794223*X2X5
-0.01794223*Z1X2Z3X5
0.00033183*Y1Y2Z5Z6
0.00033183*Z0X1X2Z3Z5Z6
-0.01185545*Y0X1Y2X5Z6
-0.01185545*X0X1X2Z3X5Z6
-0.01185545*Y0X1Y2X5
-0.01185545*X0X1X2Z3X5
0.06871948*Z1Z2Z5Z6
-0.02592766*X1X5Z6
0.02592766*Z0X1Z2X5Z6
-0.02592766*X1X5
0.02592766*Z0X1Z2X5
-0.01130320*Y0Y1Z5Z6
-0.01130320*X0X1Z2Z5Z6
0.08063764*Z0Z1Z5Z6
0.03375224*X0X5Z6
-0.03375224*X0Z1X5Z6
0.03375224*X0X5
-0.03375224*X0Z1X5
0.07050747*Z0Z5Z6
0.08566231*Z4Z5
0.01733054*Y3Y4Z5
-0.01733054*Z2X3X4Z5
-0.00240165*Y1X2X3Y4Z5
0.00240165*Z0X1X2X3X4Z5
-0.06773007*Z3Z4Z5
0.01573201*Y2Y3Z5
0.01573201*Z1X2X3Z4Z5
-0.00280360*Y0X1X2Y3Z5
-0.00280360*X0X1X2X3Z4Z5
-0.07542888*Z2Z3Z5
-0.01650676*Y1Y2Z5
-0.01650676*Z0X1X2Z3Z5
-0.07649267*Z1Z2Z5
-0.01853342*Y0Y1Z5
-0.01853342*X0X1Z2Z5
-0.07050747*Z0Z1Z5
-0.09153725*Z0Z5
-0.03463919*Z3
0.00412419*Z1X2X3
0.00412419*Y2Y3Z4
-0.00264025*X0X1X2X3
-0.00264025*Y0X1X2Y3Z4
-0.04495638*Z2Z3Z4
-0.00868850*Z0X1X2Z3Z4
-0.00868850*Y1Y2Z4
-0.05066564*Z1Z2Z4
-0.00944464*X0X1Z2Z4
-0.00944464*Y0Y1Z4
-0.05187946*Z0Z1Z4
-0.06531836*Z0Z4
-0.01302024*Z2Y3Y4
0.01302024*X3X4
-0.00047652*Z0X1X2Y3Y4
-0.00047652*Y1X2Y3X4
-0.01223848*Z1X2X4
0.00357514*X2Z3X4
-0.00866333*Z1Y2Y4
0.00866333*Y2Y4
-0.00357514*Z1X2Z3X4
0.01223848*X2X4
-0.00548567*X0X1X2X4
-0.00446012*Y0X1Y2Z3X4
-0.00102555*X0X1Y2Y4
0.00102555*Y0X1X2Y4
-0.00446012*X0X1X2Z3X4
-0.00548567*Y0X1Y2X4
0.01420065*Z0X1Z2Z3X4
-0.01006369*X1Z3X4
0.00413697*Z0Y1Y4
-0.00413697*Y1Z2Z3Y4
0.01006369*Z0X1Z2X4
-0.01420065*X1X4
-0.01950666*X0Z1Z3X4
0.01676571*X0Z3X4
-0.00274095*Y0Y4
0.00274095*Y0Z1Z3Y4
-0.01676571*X0Z1X4
0.01950666*X0X4
0.00885189*Z0X1Y2Y3X4
-0.00885189*Y1Y2Y3Y4
0.00296072*Z1X3X4
-0.00296072*Z1Z2Y3Y4
0.01185651*X0X1X3X4
0.00547157*Y0Y1Z2X3X4
0.00638494*X0Y1Y3X4
-0.00638494*Y0X1X3Y4
-0.00547157*X0X1Z2Y3Y4
-0.01185651*Y0Y1Y3Y4
-0.00084672*Z0Z1Z2X3X4
0.00084672*Z0Z1Y3Y4
0.00957149*Z0Z2X3X4
-0.00957149*Z0Y3Y4
0.00000851*Z0Y1Y2X3X4
0.00000851*X1Y2X3Y4
0.00565382*X0X2X3X4
-0.00452072*X0Z1X2X3X4
0.00113311*Y0Y2X3X4
-0.00113311*Y0X2X3Y4
-0.00452072*X0Z1Y2X3Y4
0.00565382*X0Y2X3Y4
-0.00260165*X1X2X3X4
0.00260165*Z0Y1X2X3Y4
0.03678443*Z2Z4
0.00192806*Z0X1X2Z4
0.00192806*Y1Y2Z3Z4
0.04560592*Z1Z2Z3Z4
-0.00073065*X0X1Z2Z3Z4
-0.00073065*Y0Y1Z3Z4
0.05147518*Z0Z1Z3Z4
0.05291179*Z0Z3Z4
0.01535399*Z1Y2Y3Z4
0.01535399*X2X3
-0.00002037*X0X1Y2Y3Z4
0.00002037*Y0X1Y2X3
-0.01603018*Z0X1X3Z4
0.00849857*X1Z2X3Z4
-0.00753161*Z0Y1Y3Z4
-0.00753161*Y1Y3
0.00849857*Z0X1Z2X3
-0.01603018*X1X3
0.01493173*X0Z1Z2X3Z4
-0.01060324*X0Z2X3Z4
0.00432849*Y0Y3Z4
0.00432849*Y0Z1Z2Y3
-0.01060324*X0Z1X3
0.01493173*X0X3
-0.00952272*X0Y1Y2X3Z4
-0.00952272*Y0Y1Y2Y3
-0.00171166*Z0X2X3Z4
-0.00171166*Z0Z1Y2Y3
-0.00904079*Z0Z1X2X3Z4
-0.00904079*Z0Y2Y3
0.00042555*Y0Y1X2X3Z4
-0.00042555*X0Y1X2Y3
0.04675776*Z1Z3
0.00305647*X0X1Z3
0.00305647*Y0Y1Z2Z3
0.04663902*Z0Z1Z2Z3
0.05280399*Z0Z2Z3
-0.01630835*Z0Y1Y2Z3
-0.01630835*X1X2
0.01343961*X0X2Z3
-0.00372440*X0Z1X2Z3
0.00971520*Y0Y2Z3
0.00971520*Y0Y2
-0.00372440*X0Z1X2
0.01343961*X0X2
0.00465132*X1X2Z3
0.00465132*Z0Y1Y2
0.03852557*Z0Z2
0.04764117*Z0Z1Z2
-0.01462446*Y0Y1Z2
-0.01462446*X0X1
0.03675523*Z1
