-0.33147781*I
0.18136485*Z5
-0.00556213*Z3X4X5
-0.00556213*Y4Y5
0.08792645*Z4Z5
0.01726655*X3X4Z5
0.01726655*Y3Y4
-0.07904409*Z3Z4
-0.33461213*Z3
0.18136485*Z2
-0.00556213*Z0X1X2
-0.00556213*Y1Y2
0.08792645*Z1Z2
0.01726655*X0X1Z2
0.01726655*Y0Y1
-0.07904409*Z0Z1
-0.33461213*Z0
0.14907600*Z4
0.01525434*X3X4
0.01525434*Y3Y4Z5
0.17436548*Z3Z4Z5
0.18409106*Z3Z5
0.01081448*Z3Y4Y5
0.01081448*X4X5
0.04883646*X3X5
-0.02606024*X3Z4X5
0.02277621*Y3Y5
0.12432121*Z2Z5
-0.02039130*Z2Z3X4X5
-0.02039130*Z2Y4Y5
-0.03934551*X2Z4X5
0.03934551*Z1X2Z4X5
0.03934551*X2X5
-0.03934551*Z1X2X5
0.01077100*X2X3X4X5
-0.01077100*Z1X2X3X4X5
0.01077100*X2Y3X4Y5
-0.01077100*Z1X2Y3X4Y5
-0.02039130*Y1Y2Z5
-0.02039130*Z0X1X2Z5
0.02695803*Y1Y2Z3X4X5
0.02695803*Z0X1X2Z3X4X5
0.02695803*Y1Y2Y4Y5
0.02695803*Z0X1X2Y4Y5
-0.01077100*Y0X1Y2Z4X5
-0.01077100*X0X1X2Z4X5
0.01077100*Y0X1Y2X5
0.01077100*X0X1X2X5
0.02426738*Y0X1Y2X3X4X5
0.02426738*X0X1X2X3X4X5
0.02426738*Y0X1Y2Y3X4Y5
0.02426738*X0X1X2Y3X4Y5
0.10898302*Z1Z2Z5
0.00245129*Z1Z2Z3X4X5
0.00245129*Z1Z2Y4Y5
-0.02450024*X1Z4X5
0.02450024*Z0X1Z2Z4X5
0.02450024*X1X5
-0.02450024*Z0X1Z2X5
-0.01324014*X1X3X4X5
0.01324014*Z0X1Z2X3X4X5
-0.01324014*X1Y3X4Y5
0.01324014*Z0X1Z2Y3X4Y5
-0.02106190*Y0Y1Z5
-0.02106190*X0X1Z2Z5
0.02462824*Y0Y1Z3X4X5
0.02462824*X0X1Z2Z3X4X5
0.02462824*Y0Y1Y4Y5
0.02462824*X0X1Z2Y4Y5
0.11149852*Z0Z1Z5
-0.00171566*Z0Z1Z3X4X5
-0.00171566*Z0Z1Y4Y5
-0.03765837*X0Z4X5
0.03765837*X0Z1Z4X5
0.03765837*X0X5
-0.03765837*X0Z1X5
0.01024235*X0X3X4X5
-0.01024235*X0Z1X3X4X5
0.01024235*X0Y3X4Y5
-0.01024235*X0Z1Y3X4Y5
0.13073806*Z0Z5
-0.02147683*Z0Z3X4X5
-0.02147683*Z0Y4Y5
0.10898302*Z2Z4Z5
-0.02106190*Z2X3X4Z5
-0.02106190*Z2Y3Y4
-0.02450024*X2Z3X4Z5
0.02450024*Z1X2Z3X4Z5
0.02450024*X2X4
-0.02450024*Z1X2X4
0.00245129*Y1Y2Z4Z5
0.00245129*Z0X1X2Z4Z5
0.02462824*Y1Y2X3X4Z5
0.02462824*Z0X1X2X3X4Z5
0.02462824*Y1Y2Y3Y4
0.02462824*Z0X1X2Y3Y4
0.01324014*Y0X1Y2Z3X4Z5
0.01324014*X0X1X2Z3X4Z5
-0.01324014*Y0X1Y2X4
-0.01324014*X0X1X2X4
0.11340654*Z1Z2Z4Z5
-0.00101412*Z1Z2X3X4Z5
-0.00101412*Z1Z2Y3Y4
-0.03432068*X1Z3X4Z5
0.03432068*Z0X1Z2Z3X4Z5
0.03432068*X1X4
-0.03432068*Z0X1Z2X4
-0.00101412*Y0Y1Z4Z5
-0.00101412*X0X1Z2Z4Z5
0.02616133*Y0Y1X3X4Z5
0.02616133*X0X1Z2X3X4Z5
0.02616133*Y0Y1Y3Y4
0.02616133*X0X1Z2Y3Y4
0.11194105*Z0Z1Z4Z5
-0.00070363*Z0Z1X3X4Z5
-0.00070363*Z0Z1Y3Y4
-0.02484162*X0Z3X4Z5
0.02484162*X0Z1Z3X4Z5
0.02484162*X0X4
-0.02484162*X0Z1X4
0.11598632*Z0Z4Z5
-0.02338450*Z0X3X4Z5
-0.02338450*Z0Y3Y4
0.11149852*Z2Z3Z4
-0.03765837*X2X3Z4
0.03765837*Z1X2X3Z4
0.03765837*X2X3
-0.03765837*Z1X2X3
-0.00171566*Y1Y2Z3Z4
-0.00171566*Z0X1X2Z3Z4
-0.01024235*Y0X1Y2X3Z4
-0.01024235*X0X1X2X3Z4
0.01024235*Y0X1Y2X3
0.01024235*X0X1X2X3
0.11194105*Z1Z2Z3Z4
-0.02484162*X1X3Z4
0.02484162*Z0X1Z2X3Z4
0.02484162*X1X3
-0.02484162*Z0X1Z2X3
-0.00070363*Y0Y1Z3Z4
-0.00070363*X0X1Z2Z3Z4
0.11685144*Z0Z1Z3Z4
-0.04061612*X0X3Z4
0.04061612*X0Z1X3Z4
0.04061612*X0X3
-0.04061612*X0Z1X3
0.12005460*Z0Z3Z4
0.13073806*Z2Z3
-0.02147683*Y1Y2Z3
-0.02147683*Z0X1X2Z3
0.11598632*Z1Z2Z3
-0.02338450*Y0Y1Z3
-0.02338450*X0X1Z2Z3
0.12005460*Z0Z1Z3
0.14526148*Z0Z3
0.14907600*Z1
0.01525434*X0X1
0.01525434*Y0Y1Z2
0.17436548*Z0Z1Z2
0.18409106*Z0Z2
0.01081448*Z0Y1Y2
0.01081448*X1X2
0.04883646*X0X2
-0.02606024*X0Z1X2
0.02277621*Y0Y2
