-1.60598917*I
0.07467039*Z9
0.00059052*Z7X8X9
0.00059052*Y8Y9
0.00383185*Z5X6X7X8X9
0.00383185*Y6X7X8Y9
0.06384738*Z8Z9
0.00526922*Z6X7X8Z9
0.00526922*Y7Y8
-0.00415598*X5X6X7X8Z9
0.00415598*Y5X6X7Y8
0.04810892*Z7Z8
0.00596121*Z5X6X7Z8
0.00596121*Y6Y7
0.03005142*Z6Z7
0.00134568*X5X6Z7
-0.00134568*Y5Y6
0.01063914*Z5Z6
0.00544419*Z5
-0.07467039*Z4
-0.00059052*Z2X3X4
0.00059052*Y3Y4
-0.00383185*Z0X1X2X3X4
0.00383185*Y1X2X3Y4
0.06384738*Z3Z4
0.00526922*Z1X2X3Z4
0.00526922*Y2Y3
0.00415598*X0X1X2X3Z4
0.00415598*Y0X1X2Y3
0.04810892*Z2Z3
0.00596121*Z0X1X2Z3
0.00596121*Y1Y2
0.03005142*Z1Z2
-0.00134568*X0X1Z2
-0.00134568*Y0Y1
0.01063914*Z0Z1
-0.00544419*Z0
0.02524125*Z8
0.00245971*Z6X7X8
0.00245971*Y7Y8Z9
0.00330512*X5X6X7X8
-0.00330512*Y5X6X7Y8Z9
0.03402693*Z7Z8Z9
-0.00674247*Z5X6X7Z8Z9
-0.00674247*Y6Y7Z9
0.03850479*Z6Z7Z9
-0.00698789*X5X6Z7Z9
0.00698789*Y5Y6Z9
0.03804157*Z5Z6Z9
-0.04789259*Z5Z9
-0.00982407*Z7Y8Y9
-0.00982407*X8X9
-0.00030268*Z5X6X7Y8Y9
0.00030268*Y6X7Y8X9
0.00890024*Z6X7X9
-0.00206115*X7Z8X9
0.00683909*Z6Y7Y9
0.00683909*Y7Y9
-0.00206115*Z6X7Z8X9
0.00890024*X7X9
-0.00482600*X5X6X7X9
0.00422801*Y5X6Y7Z8X9
-0.00059798*X5X6Y7Y9
0.00059798*Y5X6X7Y9
0.00422801*X5X6X7Z8X9
-0.00482600*Y5X6Y7X9
0.01083689*Z5X6Z7Z8X9
-0.00800176*X6Z8X9
0.00283513*Z5Y6Y9
0.00283513*Y6Z7Z8Y9
-0.00800176*Z5X6Z7X9
0.01083689*X6X9
0.01477034*X5Z6Z8X9
0.01273975*X5Z8X9
0.00203059*Y5Y9
-0.00203059*Y5Z6Z8Y9
-0.01273975*X5Z6X9
-0.01477034*X5X9
-0.00686856*Z5X6Y7Y8X9
-0.00686856*Y6Y7Y8Y9
0.00308390*Z6X8X9
0.00308390*Z6Z7Y8Y9
-0.00931123*X5X6X8X9
0.00437956*Y5Y6Z7X8X9
-0.00493167*X5Y6Y8X9
0.00493167*Y5X6X8Y9
-0.00437956*X5X6Z7Y8Y9
0.00931123*Y5Y6Y8Y9
-0.00099548*Z5Z6Z7X8X9
-0.00099548*Z5Z6Y8Y9
-0.00690874*Z5Z7X8X9
-0.00690874*Z5Y8Y9
-0.00000560*Z5Y6Y7X8X9
0.00000560*X6Y7X8Y9
0.00489308*X5X7X8X9
0.00425354*X5Z6X7X8X9
0.00063954*Y5Y7X8X9
-0.00063954*Y5X7X8Y9
0.00425354*X5Z6Y7X8Y9
0.00489308*X5Y7X8Y9
-0.00326144*X6X7X8X9
-0.00326144*Z5Y6X7X8Y9
-0.06937582*Z4Z9
-0.01542357*Z4Z7X8X9
-0.01542357*Z4Y8Y9
-0.00276053*Z4Z5X6X7X8X9
-0.00276053*Z4Y6X7X8Y9
-0.02781101*X4Z8X9
-0.02781101*Z3X4Z8X9
0.02781101*X4X9
0.02781101*Z3X4X9
-0.00924682*X4Z6X7X8X9
-0.00924682*Z3X4Z6X7X8X9
-0.00924682*X4Y7X8Y9
-0.00924682*Z3X4Y7X8Y9
0.00025713*X4X5X6X7X8X9
0.00025713*Z3X4X5X6X7X8X9
-0.00025713*X4Y5X6X7X8Y9
-0.00025713*Z3X4Y5X6X7X8Y9
0.01542357*Y3Y4Z9
-0.01542357*Z2X3X4Z9
0.02906641*Y3Y4Z7X8X9
-0.02906641*Z2X3X4Z7X8X9
0.02906641*Y3Y4Y8Y9
-0.02906641*Z2X3X4Y8Y9
-0.00534231*Y3Y4Z5X6X7X8X9
0.00534231*Z2X3X4Z5X6X7X8X9
-0.00534231*Y3Y4Y6X7X8Y9
0.00534231*Z2X3X4Y6X7X8Y9
0.00924682*Y2X3Y4Z8X9
-0.00924682*Z1X2X3X4Z8X9
-0.00924682*Y2X3Y4X9
0.00924682*Z1X2X3X4X9
0.02509867*Y2X3Y4Z6X7X8X9
-0.02509867*Z1X2X3X4Z6X7X8X9
0.02509867*Y2X3Y4Y7X8Y9
-0.02509867*Z1X2X3X4Y7X8Y9
-0.00892088*Y2X3Y4X5X6X7X8X9
0.00892088*Z1X2X3X4X5X6X7X8X9
0.00892088*Y2X3Y4Y5X6X7X8Y9
-0.00892088*Z1X2X3X4Y5X6X7X8Y9
0.00276053*Y1X2X3Y4Z9
-0.00276053*Z0X1X2X3X4Z9
-0.00534231*Y1X2X3Y4Z7X8X9
0.00534231*Z0X1X2X3X4Z7X8X9
-0.00534231*Y1X2X3Y4Y8Y9
0.00534231*Z0X1X2X3X4Y8Y9
0.01597251*Y1X2X3Y4Z5X6X7X8X9
-0.01597251*Z0X1X2X3X4Z5X6X7X8X9
0.01597251*Y1X2X3Y4Y6X7X8Y9
-0.01597251*Z0X1X2X3X4Y6X7X8Y9
0.00025713*Y0X1X2X3Y4Z8X9
-0.00025713*X0X1X2X3X4Z8X9
-0.00025713*Y0X1X2X3Y4X9
0.00025713*X0X1X2X3X4X9
0.00892088*Y0X1X2X3Y4Z6X7X8X9
-0.00892088*X0X1X2X3X4Z6X7X8X9
0.00892088*Y0X1X2X3Y4Y7X8Y9
-0.00892088*X0X1X2X3X4Y7X8Y9
-0.02344409*Y0X1X2X3Y4X5X6X7X8X9
0.02344409*X0X1X2X3X4X5X6X7X8X9
0.02344409*Y0X1X2X3Y4Y5X6X7X8Y9
-0.02344409*X0X1X2X3X4Y5X6X7X8Y9
0.05305226*Z3Z4Z9
-0.01452046*Z3Z4Z7X8X9
-0.01452046*Z3Z4Y8Y9
0.00653815*Z3Z4Z5X6X7X8X9
0.00653815*Z3Z4Y6X7X8Y9
0.02434454*X3Z8X9
-0.02434454*Z2X3Z4Z8X9
-0.02434454*X3X9
0.02434454*Z2X3Z4X9
-0.00422780*X3Z6X7X8X9
0.00422780*Z2X3Z4Z6X7X8X9
-0.00422780*X3Y7X8Y9
0.00422780*Z2X3Z4Y7X8Y9
0.00468600*X3X5X6X7X8X9
-0.00468600*Z2X3Z4X5X6X7X8X9
-0.00468600*X3Y5X6X7X8Y9
0.00468600*Z2X3Z4Y5X6X7X8Y9
0.01170652*Y2Y3Z9
0.01170652*Z1X2X3Z4Z9
0.01106689*Y2Y3Z7X8X9
0.01106689*Z1X2X3Z4Z7X8X9
0.01106689*Y2Y3Y8Y9
0.01106689*Z1X2X3Z4Y8Y9
0.01364857*Y2Y3Z5X6X7X8X9
0.01364857*Z1X2X3Z4Z5X6X7X8X9
0.01364857*Y2Y3Y6X7X8Y9
0.01364857*Z1X2X3Z4Y6X7X8Y9
0.00623547*Y1X2Y3Z8X9
0.00623547*Z0X1X2X3Z4Z8X9
-0.00623547*Y1X2Y3X9
-0.00623547*Z0X1X2X3Z4X9
0.01648370*Y1X2Y3Z6X7X8X9
0.01648370*Z0X1X2X3Z4Z6X7X8X9
0.01648370*Y1X2Y3Y7X8Y9
0.01648370*Z0X1X2X3Z4Y7X8Y9
0.01412060*Y1X2Y3X5X6X7X8X9
0.01412060*Z0X1X2X3Z4X5X6X7X8X9
-0.01412060*Y1X2Y3Y5X6X7X8Y9
-0.01412060*Z0X1X2X3Z4Y5X6X7X8Y9
-0.00304799*Y0X1X2Y3Z9
-0.00304799*X0X1X2X3Z4Z9
0.00528398*Y0X1X2Y3Z7X8X9
0.00528398*X0X1X2X3Z4Z7X8X9
0.00528398*Y0X1X2Y3Y8Y9
0.00528398*X0X1X2X3Z4Y8Y9
-0.01615119*Y0X1X2Y3Z5X6X7X8X9
-0.01615119*X0X1X2X3Z4Z5X6X7X8X9
-0.01615119*Y0X1X2Y3Y6X7X8Y9
-0.01615119*X0X1X2X3Z4Y6X7X8Y9
0.06309334*Z2Z3Z9
0.00843566*Z2Z3Z7X8X9
0.00843566*Z2Z3Y8Y9
-0.00425934*Z2Z3Z5X6X7X8X9
-0.00425934*Z2Z3Y6X7X8Y9
-0.01312804*X2Z8X9
0.01312804*Z1X2Z3Z8X9
0.01312804*X2X9
-0.01312804*Z1X2Z3X9
-0.00571382*X2Z6X7X8X9
0.00571382*Z1X2Z3Z6X7X8X9
-0.00571382*X2Y7X8Y9
0.00571382*Z1X2Z3Y7X8Y9
0.02045770*X2X5X6X7X8X9
-0.02045770*Z1X2Z3X5X6X7X8X9
-0.02045770*X2Y5X6X7X8Y9
0.02045770*Z1X2Z3Y5X6X7X8Y9
-0.01208478*Y1Y2Z9
-0.01208478*Z0X1X2Z3Z9
-0.01112790*Y1Y2Z7X8X9
-0.01112790*Z0X1X2Z3Z7X8X9
-0.01112790*Y1Y2Y8Y9
-0.01112790*Z0X1X2Z3Y8Y9
-0.01386553*Y1Y2Z5X6X7X8X9
-0.01386553*Z0X1X2Z3Z5X6X7X8X9
-0.01386553*Y1Y2Y6X7X8Y9
-0.01386553*Z0X1X2Z3Y6X7X8Y9
0.00951199*Y0X1Y2Z8X9
0.00951199*X0X1X2Z3Z8X9
-0.00951199*Y0X1Y2X9
-0.00951199*X0X1X2Z3X9
0.02538937*Y0X1Y2Z6X7X8X9
0.02538937*X0X1X2Z3Z6X7X8X9
0.02538937*Y0X1Y2Y7X8Y9
0.02538937*X0X1X2Z3Y7X8Y9
-0.00872970*Y0X1Y2X5X6X7X8X9
-0.00872970*X0X1X2Z3X5X6X7X8X9
0.00872970*Y0X1Y2Y5X6X7X8Y9
0.00872970*X0X1X2Z3Y5X6X7X8Y9
0.06360345*Z1Z2Z9
0.00879772*Z1Z2Z7X8X9
0.00879772*Z1Z2Y8Y9
-0.00446208*Z1Z2Z5X6X7X8X9
-0.00446208*Z1Z2Y6X7X8Y9
-0.02448546*X1Z8X9
0.02448546*Z0X1Z2Z8X9
0.02448546*X1X9
-0.02448546*Z0X1Z2X9
0.00446768*X1Z6X7X8X9
-0.00446768*Z0X1Z2Z6X7X8X9
0.00446768*X1Y7X8Y9
-0.00446768*Z0X1Z2Y7X8Y9
-0.00467423*X1X5X6X7X8X9
0.00467423*Z0X1Z2X5X6X7X8X9
0.00467423*X1Y5X6X7X8Y9
-0.00467423*Z0X1Z2Y5X6X7X8Y9
0.01590878*Y0Y1Z9
0.01590878*X0X1Z2Z9
0.02976893*Y0Y1Z7X8X9
0.02976893*X0X1Z2Z7X8X9
0.02976893*Y0Y1Y8Y9
0.02976893*X0X1Z2Y8Y9
-0.00531377*Y0Y1Z5X6X7X8X9
-0.00531377*X0X1Z2Z5X6X7X8X9
-0.00531377*Y0Y1Y6X7X8Y9
-0.00531377*X0X1Z2Y6X7X8Y9
0.05401408*Z0Z1Z9
-0.01486101*Z0Z1Z7X8X9
-0.01486101*Z0Z1Y8Y9
0.00659812*Z0Z1Z5X6X7X8X9
0.00659812*Z0Z1Y6X7X8Y9
0.02889094*X0Z8X9
-0.02889094*X0Z1Z8X9
-0.02889094*X0X9
0.02889094*X0Z1X9
0.00956731*X0Z6X7X8X9
-0.00956731*X0Z1Z6X7X8X9
0.00956731*X0Y7X8Y9
-0.00956731*X0Z1Y7X8Y9
-0.00028581*X0X5X6X7X8X9
0.00028581*X0Z1X5X6X7X8X9
0.00028581*X0Y5X6X7X8Y9
-0.00028581*X0Z1Y5X6X7X8Y9
0.07133669*Z0Z9
0.01563845*Z0Z7X8X9
0.01563845*Z0Y8Y9
0.00297564*Z0Z5X6X7X8X9
0.00297564*Z0Y6X7X8Y9
0.02672319*Z7Z9
-0.00142707*Z5X6X7Z9
-0.00142707*Y6Y7Z8Z9
0.03444373*Z6Z7Z8Z9
0.00091814*X5X6Z7Z8Z9
-0.00091814*Y5Y6Z8Z9
0.03822829*Z5Z6Z8Z9
-0.03839439*Z5Z8Z9
-0.01111874*Z6Y7Y8Z9
-0.01111874*X7X8
-0.00003204*X5X6Y7Y8Z9
-0.00003204*Y5X6Y7X8
-0.01243766*Z5X6X8Z9
0.00759569*X6Z7X8Z9
-0.00484197*Z5Y6Y8Z9
-0.00484197*Y6Y8
0.00759569*Z5X6Z7X8
-0.01243766*X6X8
-0.01118169*X5Z6Z7X8Z9
-0.00833407*X5Z7X8Z9
-0.00284762*Y5Y8Z9
0.00284762*Y5Z6Z7Y8
0.00833407*X5Z6X8
0.01118169*X5X8
-0.00716528*X5Y6Y7X8Z9
0.00716528*Y5Y6Y7Y8
0.00130226*Z5X7X8Z9
0.00130226*Z5Z6Y7Y8
-0.00678961*Z5Z6X7X8Z9
-0.00678961*Z5Y7Y8
-0.00038420*Y5Y6X7X8Z9
-0.00038420*X5Y6X7Y8
-0.05305226*Z4Z8Z9
-0.01170652*Z4Z6X7X8Z9
-0.01170652*Z4Y7Y8
-0.00304799*Z4X5X6X7X8Z9
0.00304799*Z4Y5X6X7Y8
0.02434454*X4Z7X8Z9
0.02434454*Z3X4Z7X8Z9
-0.02434454*X4X8
-0.02434454*Z3X4X8
-0.00623547*X4Z5X6X7X8Z9
-0.00623547*Z3X4Z5X6X7X8Z9
-0.00623547*X4Y6X7Y8
-0.00623547*Z3X4Y6X7Y8
-0.01452046*Y3Y4Z8Z9
0.01452046*Z2X3X4Z8Z9
0.01106689*Y3Y4Z6X7X8Z9
-0.01106689*Z2X3X4Z6X7X8Z9
0.01106689*Y3Y4Y7Y8
-0.01106689*Z2X3X4Y7Y8
-0.00528398*Y3Y4X5X6X7X8Z9
0.00528398*Z2X3X4X5X6X7X8Z9
0.00528398*Y3Y4Y5X6X7Y8
-0.00528398*Z2X3X4Y5X6X7Y8
0.00422780*Y2X3Y4Z7X8Z9
-0.00422780*Z1X2X3X4Z7X8Z9
-0.00422780*Y2X3Y4X8
0.00422780*Z1X2X3X4X8
0.01648370*Y2X3Y4Z5X6X7X8Z9
-0.01648370*Z1X2X3X4Z5X6X7X8Z9
0.01648370*Y2X3Y4Y6X7Y8
-0.01648370*Z1X2X3X4Y6X7Y8
0.00653815*Y1X2X3Y4Z8Z9
-0.00653815*Z0X1X2X3X4Z8Z9
0.01364857*Y1X2X3Y4Z6X7X8Z9
-0.01364857*Z0X1X2X3X4Z6X7X8Z9
0.01364857*Y1X2X3Y4Y7Y8
-0.01364857*Z0X1X2X3X4Y7Y8
0.01615119*Y1X2X3Y4X5X6X7X8Z9
-0.01615119*Z0X1X2X3X4X5X6X7X8Z9
-0.01615119*Y1X2X3Y4Y5X6X7Y8
0.01615119*Z0X1X2X3X4Y5X6X7Y8
0.00468600*Y0X1X2X3Y4Z7X8Z9
-0.00468600*X0X1X2X3X4Z7X8Z9
-0.00468600*Y0X1X2X3Y4X8
0.00468600*X0X1X2X3X4X8
-0.01412060*Y0X1X2X3Y4Z5X6X7X8Z9
0.01412060*X0X1X2X3X4Z5X6X7X8Z9
-0.01412060*Y0X1X2X3Y4Y6X7Y8
0.01412060*X0X1X2X3X4Y6X7Y8
0.06778997*Z3Z4Z8Z9
-0.00150276*Z3Z4Z6X7X8Z9
-0.00150276*Z3Z4Y7Y8
0.00677509*Z3Z4X5X6X7X8Z9
-0.00677509*Z3Z4Y5X6X7Y8
-0.02824070*X3Z7X8Z9
0.02824070*Z2X3Z4Z7X8Z9
0.02824070*X3X8
-0.02824070*Z2X3Z4X8
-0.00259836*X3Z5X6X7X8Z9
0.00259836*Z2X3Z4Z5X6X7X8Z9
-0.00259836*X3Y6X7Y8
0.00259836*Z2X3Z4Y6X7Y8
-0.00150276*Y2Y3Z8Z9
-0.00150276*Z1X2X3Z4Z8Z9
0.02063399*Y2Y3Z6X7X8Z9
0.02063399*Z1X2X3Z4Z6X7X8Z9
0.02063399*Y2Y3Y7Y8
0.02063399*Z1X2X3Z4Y7Y8
0.01385034*Y2Y3X5X6X7X8Z9
0.01385034*Z1X2X3Z4X5X6X7X8Z9
-0.01385034*Y2Y3Y5X6X7Y8
-0.01385034*Z1X2X3Z4Y5X6X7Y8
0.00259836*Y1X2Y3Z7X8Z9
0.00259836*Z0X1X2X3Z4Z7X8Z9
-0.00259836*Y1X2Y3X8
-0.00259836*Z0X1X2X3Z4X8
0.03089704*Y1X2Y3Z5X6X7X8Z9
0.03089704*Z0X1X2X3Z4Z5X6X7X8Z9
0.03089704*Y1X2Y3Y6X7Y8
0.03089704*Z0X1X2X3Z4Y6X7Y8
-0.00677509*Y0X1X2Y3Z8Z9
-0.00677509*X0X1X2X3Z4Z8Z9
-0.01385034*Y0X1X2Y3Z6X7X8Z9
-0.01385034*X0X1X2X3Z4Z6X7X8Z9
-0.01385034*Y0X1X2Y3Y7Y8
-0.01385034*X0X1X2X3Z4Y7Y8
-0.01643669*Y0X1X2Y3X5X6X7X8Z9
-0.01643669*X0X1X2X3Z4X5X6X7X8Z9
0.01643669*Y0X1X2Y3Y5X6X7Y8
0.01643669*X0X1X2X3Z4Y5X6X7Y8
0.05496389*Z2Z3Z8Z9
0.00034377*Z2Z3Z6X7X8Z9
0.00034377*Z2Z3Y7Y8
-0.00399504*Z2Z3X5X6X7X8Z9
0.00399504*Z2Z3Y5X6X7Y8
0.01077497*X2Z7X8Z9
-0.01077497*Z1X2Z3Z7X8Z9
-0.01077497*X2X8
0.01077497*Z1X2Z3X8
0.01603586*X2Z5X6X7X8Z9
-0.01603586*Z1X2Z3Z5X6X7X8Z9
0.01603586*X2Y6X7Y8
-0.01603586*Z1X2Z3Y6X7Y8
0.00117129*Y1Y2Z8Z9
0.00117129*Z0X1X2Z3Z8Z9
-0.02087783*Y1Y2Z6X7X8Z9
-0.02087783*Z0X1X2Z3Z6X7X8Z9
-0.02087783*Y1Y2Y7Y8
-0.02087783*Z0X1X2Z3Y7Y8
-0.01420410*Y1Y2X5X6X7X8Z9
-0.01420410*Z0X1X2Z3X5X6X7X8Z9
0.01420410*Y1Y2Y5X6X7Y8
0.01420410*Z0X1X2Z3Y5X6X7Y8
0.00402708*Y0X1Y2Z7X8Z9
0.00402708*X0X1X2Z3Z7X8Z9
-0.00402708*Y0X1Y2X8
-0.00402708*X0X1X2Z3X8
0.01705172*Y0X1Y2Z5X6X7X8Z9
0.01705172*X0X1X2Z3Z5X6X7X8Z9
0.01705172*Y0X1Y2Y6X7Y8
0.01705172*X0X1X2Z3Y6X7Y8
0.05507773*Z1Z2Z8Z9
0.00037409*Z1Z2Z6X7X8Z9
0.00037409*Z1Z2Y7Y8
-0.00439357*Z1Z2X5X6X7X8Z9
0.00439357*Z1Z2Y5X6X7Y8
0.02847352*X1Z7X8Z9
-0.02847352*Z0X1Z2Z7X8Z9
-0.02847352*X1X8
0.02847352*Z0X1Z2X8
0.00297979*X1Z5X6X7X8Z9
-0.00297979*Z0X1Z2Z5X6X7X8Z9
0.00297979*X1Y6X7Y8
-0.00297979*Z0X1Z2Y6X7Y8
-0.01476847*Y0Y1Z8Z9
-0.01476847*X0X1Z2Z8Z9
0.01155885*Y0Y1Z6X7X8Z9
0.01155885*X0X1Z2Z6X7X8Z9
0.01155885*Y0Y1Y7Y8
0.01155885*X0X1Z2Y7Y8
-0.00527872*Y0Y1X5X6X7X8Z9
-0.00527872*X0X1Z2X5X6X7X8Z9
0.00527872*Y0Y1Y5X6X7Y8
0.00527872*X0X1Z2Y5X6X7Y8
0.06912533*Z0Z1Z8Z9
-0.00167753*Z0Z1Z6X7X8Z9
-0.00167753*Z0Z1Y7Y8
0.00684070*Z0Z1X5X6X7X8Z9
-0.00684070*Z0Z1Y5X6X7Y8
-0.02538579*X0Z7X8Z9
0.02538579*X0Z1Z7X8Z9
0.02538579*X0X8
-0.02538579*X0Z1X8
0.00645649*X0Z5X6X7X8Z9
-0.00645649*X0Z1Z5X6X7X8Z9
0.00645649*X0Y6X7Y8
-0.00645649*X0Z1Y6X7Y8
0.05483108*Z0Z8Z9
0.01206833*Z0Z6X7X8Z9
0.01206833*Z0Y7Y8
0.00332458*Z0X5X6X7X8Z9
-0.00332458*Z0Y5X6X7Y8
0.03757985*Z6Z8
-0.00308170*X5X6Z8
0.00308170*Y5Y6Z7Z8
0.03478085*Z5Z6Z7Z8
-0.03912682*Z5Z7Z8
0.01148341*Z5Y6Y7Z8
0.01148341*X6X7
0.00926866*X5X7Z8
0.00210802*X5Z6X7Z8
0.00716065*Y5Y7Z8
-0.00716065*Y5Y7
-0.00210802*X5Z6X7
-0.00926866*X5X7
0.00259522*X6X7Z8
0.00259522*Z5Y6Y7
-0.06309334*Z4Z7Z8
0.01208478*Z4Z5X6X7Z8
0.01208478*Z4Y6Y7
-0.01312804*X4Z6X7Z8
-0.01312804*Z3X4Z6X7Z8
0.01312804*X4X7
0.01312804*Z3X4X7
0.00951199*X4X5X6X7Z8
0.00951199*Z3X4X5X6X7Z8
-0.00951199*X4Y5X6Y7
-0.00951199*Z3X4Y5X6Y7
0.00843566*Y3Y4Z7Z8
-0.00843566*Z2X3X4Z7Z8
-0.01112790*Y3Y4Z5X6X7Z8
0.01112790*Z2X3X4Z5X6X7Z8
-0.01112790*Y3Y4Y6Y7
0.01112790*Z2X3X4Y6Y7
0.00571382*Y2X3Y4Z6X7Z8
-0.00571382*Z1X2X3X4Z6X7Z8
-0.00571382*Y2X3Y4X7
0.00571382*Z1X2X3X4X7
-0.02538937*Y2X3Y4X5X6X7Z8
0.02538937*Z1X2X3X4X5X6X7Z8
0.02538937*Y2X3Y4Y5X6Y7
-0.02538937*Z1X2X3X4Y5X6Y7
-0.00425934*Y1X2X3Y4Z7Z8
0.00425934*Z0X1X2X3X4Z7Z8
-0.01386553*Y1X2X3Y4Z5X6X7Z8
0.01386553*Z0X1X2X3X4Z5X6X7Z8
-0.01386553*Y1X2X3Y4Y6Y7
0.01386553*Z0X1X2X3X4Y6Y7
0.02045770*Y0X1X2X3Y4Z6X7Z8
-0.02045770*X0X1X2X3X4Z6X7Z8
-0.02045770*Y0X1X2X3Y4X7
0.02045770*X0X1X2X3X4X7
-0.00872970*Y0X1X2X3Y4X5X6X7Z8
0.00872970*X0X1X2X3X4X5X6X7Z8
0.00872970*Y0X1X2X3Y4Y5X6Y7
-0.00872970*X0X1X2X3X4Y5X6Y7
0.05496389*Z3Z4Z7Z8
0.00117129*Z3Z4Z5X6X7Z8
0.00117129*Z3Z4Y6Y7
0.01077497*X3Z6X7Z8
-0.01077497*Z2X3Z4Z6X7Z8
-0.01077497*X3X7
0.01077497*Z2X3Z4X7
0.00402708*X3X5X6X7Z8
-0.00402708*Z2X3Z4X5X6X7Z8
-0.00402708*X3Y5X6Y7
0.00402708*Z2X3Z4Y5X6Y7
0.00034377*Y2Y3Z7Z8
0.00034377*Z1X2X3Z4Z7Z8
-0.02087783*Y2Y3Z5X6X7Z8
-0.02087783*Z1X2X3Z4Z5X6X7Z8
-0.02087783*Y2Y3Y6Y7
-0.02087783*Z1X2X3Z4Y6Y7
-0.01603586*Y1X2Y3Z6X7Z8
-0.01603586*Z0X1X2X3Z4Z6X7Z8
0.01603586*Y1X2Y3X7
0.01603586*Z0X1X2X3Z4X7
-0.01705172*Y1X2Y3X5X6X7Z8
-0.01705172*Z0X1X2X3Z4X5X6X7Z8
0.01705172*Y1X2Y3Y5X6Y7
0.01705172*Z0X1X2X3Z4Y5X6Y7
0.00399504*Y0X1X2Y3Z7Z8
0.00399504*X0X1X2X3Z4Z7Z8
0.01420410*Y0X1X2Y3Z5X6X7Z8
0.01420410*X0X1X2X3Z4Z5X6X7Z8
0.01420410*Y0X1X2Y3Y6Y7
0.01420410*X0X1X2X3Z4Y6Y7
0.06320197*Z2Z3Z7Z8
-0.00070619*Z2Z3Z5X6X7Z8
-0.00070619*Z2Z3Y6Y7
-0.02598766*X2Z6X7Z8
0.02598766*Z1X2Z3Z6X7Z8
0.02598766*X2X7
-0.02598766*Z1X2Z3X7
0.00557354*X2X5X6X7Z8
-0.00557354*Z1X2Z3X5X6X7Z8
-0.00557354*X2Y5X6Y7
0.00557354*Z1X2Z3Y5X6Y7
-0.00070619*Y1Y2Z7Z8
-0.00070619*Z0X1X2Z3Z7Z8
0.02130013*Y1Y2Z5X6X7Z8
0.02130013*Z0X1X2Z3Z5X6X7Z8
0.02130013*Y1Y2Y6Y7
0.02130013*Z0X1X2Z3Y6Y7
0.00557354*Y0X1Y2Z6X7Z8
0.00557354*X0X1X2Z3Z6X7Z8
-0.00557354*Y0X1Y2X7
-0.00557354*X0X1X2Z3X7
-0.02589734*Y0X1Y2X5X6X7Z8
-0.02589734*X0X1X2Z3X5X6X7Z8
0.02589734*Y0X1Y2Y5X6Y7
0.02589734*X0X1X2Z3Y5X6Y7
0.06356751*Z1Z2Z7Z8
-0.00048734*Z1Z2Z5X6X7Z8
-0.00048734*Z1Z2Y6Y7
-0.01099607*X1Z6X7Z8
0.01099607*Z0X1Z2Z6X7Z8
0.01099607*X1X7
-0.01099607*Z0X1Z2X7
-0.00445923*X1X5X6X7Z8
0.00445923*Z0X1Z2X5X6X7Z8
0.00445923*X1Y5X6Y7
-0.00445923*Z0X1Z2Y5X6Y7
0.00865524*Y0Y1Z7Z8
0.00865524*X0X1Z2Z7Z8
-0.01161987*Y0Y1Z5X6X7Z8
-0.01161987*X0X1Z2Z5X6X7Z8
-0.01161987*Y0Y1Y6Y7
-0.01161987*X0X1Z2Y6Y7
0.05608098*Z0Z1Z7Z8
0.00135827*Z0Z1Z5X6X7Z8
0.00135827*Z0Z1Y6Y7
0.01372789*X0Z6X7Z8
-0.01372789*X0Z1Z6X7Z8
-0.01372789*X0X7
0.01372789*X0Z1X7
-0.00994749*X0X5X6X7Z8
0.00994749*X0Z1X5X6X7Z8
0.00994749*X0Y5X6Y7
-0.00994749*X0Z1Y5X6Y7
0.06502416*Z0Z7Z8
-0.01254272*Z0Z5X6X7Z8
-0.01254272*Z0Y6Y7
0.02732006*Z5Z7
-0.03485512*Z5Z6Z7
0.01029185*Y5Y6Z7
-0.01029185*X5X6
-0.06360345*Z4Z6Z7
0.01590878*Z4X5X6Z7
-0.01590878*Z4Y5Y6
-0.02448546*X4Z5X6Z7
-0.02448546*Z3X4Z5X6Z7
0.02448546*X4X6
0.02448546*Z3X4X6
0.00879772*Y3Y4Z6Z7
-0.00879772*Z2X3X4Z6Z7
-0.02976893*Y3Y4X5X6Z7
0.02976893*Z2X3X4X5X6Z7
0.02976893*Y3Y4Y5Y6
-0.02976893*Z2X3X4Y5Y6
-0.00446768*Y2X3Y4Z5X6Z7
0.00446768*Z1X2X3X4Z5X6Z7
0.00446768*Y2X3Y4X6
-0.00446768*Z1X2X3X4X6
-0.00446208*Y1X2X3Y4Z6Z7
0.00446208*Z0X1X2X3X4Z6Z7
0.00531377*Y1X2X3Y4X5X6Z7
-0.00531377*Z0X1X2X3X4X5X6Z7
-0.00531377*Y1X2X3Y4Y5Y6
0.00531377*Z0X1X2X3X4Y5Y6
-0.00467423*Y0X1X2X3Y4Z5X6Z7
0.00467423*X0X1X2X3X4Z5X6Z7
0.00467423*Y0X1X2X3Y4X6
-0.00467423*X0X1X2X3X4X6
0.05507773*Z3Z4Z6Z7
0.01476847*Z3Z4X5X6Z7
-0.01476847*Z3Z4Y5Y6
0.02847352*X3Z5X6Z7
-0.02847352*Z2X3Z4Z5X6Z7
-0.02847352*X3X6
0.02847352*Z2X3Z4X6
0.00037409*Y2Y3Z6Z7
0.00037409*Z1X2X3Z4Z6Z7
-0.01155885*Y2Y3X5X6Z7
-0.01155885*Z1X2X3Z4X5X6Z7
0.01155885*Y2Y3Y5Y6
0.01155885*Z1X2X3Z4Y5Y6
-0.00297979*Y1X2Y3Z5X6Z7
-0.00297979*Z0X1X2X3Z4Z5X6Z7
0.00297979*Y1X2Y3X6
0.00297979*Z0X1X2X3Z4X6
0.00439357*Y0X1X2Y3Z6Z7
0.00439357*X0X1X2X3Z4Z6Z7
-0.00527872*Y0X1X2Y3X5X6Z7
-0.00527872*X0X1X2X3Z4X5X6Z7
0.00527872*Y0X1X2Y3Y5Y6
0.00527872*X0X1X2X3Z4Y5Y6
0.06356751*Z2Z3Z6Z7
-0.00865524*Z2Z3X5X6Z7
0.00865524*Z2Z3Y5Y6
-0.01099607*X2Z5X6Z7
0.01099607*Z1X2Z3Z5X6Z7
0.01099607*X2X6
-0.01099607*Z1X2Z3X6
-0.00048734*Y1Y2Z6Z7
-0.00048734*Z0X1X2Z3Z6Z7
0.01161987*Y1Y2X5X6Z7
0.01161987*Z0X1X2Z3X5X6Z7
-0.01161987*Y1Y2Y5Y6
-0.01161987*Z0X1X2Z3Y5Y6
-0.00445923*Y0X1Y2Z5X6Z7
-0.00445923*X0X1X2Z3Z5X6Z7
0.00445923*Y0X1Y2X6
0.00445923*X0X1X2Z3X6
0.06439696*Z1Z2Z6Z7
-0.00907929*Z1Z2X5X6Z7
0.00907929*Z1Z2Y5Y6
-0.02901436*X1Z5X6Z7
0.02901436*Z0X1Z2Z5X6Z7
0.02901436*X1X6
-0.02901436*Z0X1Z2X6
0.00907929*Y0Y1Z6Z7
0.00907929*X0X1Z2Z6Z7
-0.03078527*Y0Y1X5X6Z7
-0.03078527*X0X1Z2X5X6Z7
0.03078527*Y0Y1Y5Y6
0.03078527*X0X1Z2Y5Y6
0.05633442*Z0Z1Z6Z7
0.01532965*Z0Z1X5X6Z7
-0.01532965*Z0Z1Y5Y6
0.02562150*X0Z5X6Z7
-0.02562150*X0Z1Z5X6Z7
-0.02562150*X0X6
0.02562150*X0Z1X6
0.06564039*Z0Z6Z7
-0.01625118*Z0X5X6Z7
0.01625118*Z0Y5Y6
-0.02572886*Z6
-0.05401408*Z4Z5Z6
-0.02889094*X4X5Z6
-0.02889094*Z3X4X5Z6
-0.02889094*X4X5
-0.02889094*Z3X4X5
-0.01486101*Y3Y4Z5Z6
0.01486101*Z2X3X4Z5Z6
0.00956731*Y2X3Y4X5Z6
-0.00956731*Z1X2X3X4X5Z6
0.00956731*Y2X3Y4X5
-0.00956731*Z1X2X3X4X5
0.00659812*Y1X2X3Y4Z5Z6
-0.00659812*Z0X1X2X3X4Z5Z6
0.00028581*Y0X1X2X3Y4X5Z6
-0.00028581*X0X1X2X3X4X5Z6
0.00028581*Y0X1X2X3Y4X5
-0.00028581*X0X1X2X3X4X5
0.06912533*Z3Z4Z5Z6
0.02538579*X3X5Z6
-0.02538579*Z2X3Z4X5Z6
0.02538579*X3X5
-0.02538579*Z2X3Z4X5
-0.00167753*Y2Y3Z5Z6
-0.00167753*Z1X2X3Z4Z5Z6
0.00645649*Y1X2Y3X5Z6
0.00645649*Z0X1X2X3Z4X5Z6
0.00645649*Y1X2Y3X5
0.00645649*Z0X1X2X3Z4X5
-0.00684070*Y0X1X2Y3Z5Z6
-0.00684070*X0X1X2X3Z4Z5Z6
0.05608098*Z2Z3Z5Z6
-0.01372789*X2X5Z6
0.01372789*Z1X2Z3X5Z6
-0.01372789*X2X5
0.01372789*Z1X2Z3X5
0.00135827*Y1Y2Z5Z6
0.00135827*Z0X1X2Z3Z5Z6
0.00994749*Y0X1Y2X5Z6
0.00994749*X0X1X2Z3X5Z6
0.00994749*Y0X1Y2X5
0.00994749*X0X1X2Z3X5
0.05633442*Z1Z2Z5Z6
-0.02562150*X1X5Z6
0.02562150*Z0X1Z2X5Z6
-0.02562150*X1X5
0.02562150*Z0X1Z2X5
-0.01532965*Y0Y1Z5Z6
-0.01532965*X0X1Z2Z5Z6
0.07088803*Z0Z1Z5Z6
0.03032398*X0X5Z6
-0.03032398*X0Z1X5Z6
0.03032398*X0X5
-0.03032398*X0Z1X5
0.05605284*Z0Z5Z6
0.07133669*Z4Z5
-0.01563845*Y3Y4Z5
0.01563845*Z2X3X4Z5
-0.00297564*Y1X2X3Y4Z5
0.00297564*Z0X1X2X3X4Z5
-0.05483108*Z3Z4Z5
-0.01206833*Y2Y3Z5
-0.01206833*Z1X2X3Z4Z5
0.00332458*Y0X1X2Y3Z5
0.00332458*X0X1X2X3Z4Z5
-0.06502416*Z2Z3Z5
0.01254272*Y1Y2Z5
0.01254272*Z0X1X2Z3Z5
-0.06564039*Z1Z2Z5
-0.01625118*Y0Y1Z5
-0.01625118*X0X1Z2Z5
-0.05605284*Z0Z1Z5
-0.07387280*Z0Z5
-0.02524125*Z3
-0.00245971*Z1X2X3
-0.00245971*Y2Y3Z4
0.00330512*X0X1X2X3
0.00330512*Y0X1X2Y3Z4
-0.03402693*Z2Z3Z4
0.00674247*Z0X1X2Z3Z4
0.00674247*Y1Y2Z4
-0.03850479*Z1Z2Z4
-0.00698789*X0X1Z2Z4
-0.00698789*Y0Y1Z4
-0.03804157*Z0Z1Z4
-0.04789259*Z0Z4
0.00982407*Z2Y3Y4
-0.00982407*X3X4
0.00030268*Z0X1X2Y3Y4
0.00030268*Y1X2Y3X4
-0.00890024*Z1X2X4
0.00206115*X2Z3X4
-0.00683909*Z1Y2Y4
0.00683909*Y2Y4
-0.00206115*Z1X2Z3X4
0.00890024*X2X4
-0.00482600*X0X1X2X4
-0.00422801*Y0X1Y2Z3X4
-0.00059798*X0X1Y2Y4
0.00059798*Y0X1X2Y4
-0.00422801*X0X1X2Z3X4
-0.00482600*Y0X1Y2X4
-0.01083689*Z0X1Z2Z3X4
0.00800176*X1Z3X4
-0.00283513*Z0Y1Y4
0.00283513*Y1Z2Z3Y4
-0.00800176*Z0X1Z2X4
0.01083689*X1X4
0.01477034*X0Z1Z3X4
-0.01273975*X0Z3X4
0.00203059*Y0Y4
-0.00203059*Y0Z1Z3Y4
0.01273975*X0Z1X4
-0.01477034*X0X4
0.00686856*Z0X1Y2Y3X4
-0.00686856*Y1Y2Y3Y4
-0.00308390*Z1X3X4
0.00308390*Z1Z2Y3Y4
-0.00931123*X0X1X3X4
-0.00437956*Y0Y1Z2X3X4
-0.00493167*X0Y1Y3X4
0.00493167*Y0X1X3Y4
0.00437956*X0X1Z2Y3Y4
0.00931123*Y0Y1Y3Y4
0.00099548*Z0Z1Z2X3X4
-0.00099548*Z0Z1Y3Y4
-0.00690874*Z0Z2X3X4
0.00690874*Z0Y3Y4
0.00000560*Z0Y1Y2X3X4
0.00000560*X1Y2X3Y4
0.00489308*X0X2X3X4
-0.00425354*X0Z1X2X3X4
0.00063954*Y0Y2X3X4
-0.00063954*Y0X2X3Y4
-0.00425354*X0Z1Y2X3Y4
0.00489308*X0Y2X3Y4
-0.00326144*X1X2X3X4
0.00326144*Z0Y1X2X3Y4
0.02672319*Z2Z4
-0.00142707*Z0X1X2Z4
-0.00142707*Y1Y2Z3Z4
0.03444373*Z1Z2Z3Z4
-0.00091814*X0X1Z2Z3Z4
-0.00091814*Y0Y1Z3Z4
0.03822829*Z0Z1Z3Z4
0.03839439*Z0Z3Z4
-0.01111874*Z1Y2Y3Z4
-0.01111874*X2X3
0.00003204*X0X1Y2Y3Z4
-0.00003204*Y0X1Y2X3
-0.01243766*Z0X1X3Z4
0.00759569*X1Z2X3Z4
-0.00484197*Z0Y1Y3Z4
-0.00484197*Y1Y3
0.00759569*Z0X1Z2X3
-0.01243766*X1X3
0.01118169*X0Z1Z2X3Z4
-0.00833407*X0Z2X3Z4
0.00284762*Y0Y3Z4
0.00284762*Y0Z1Z2Y3
-0.00833407*X0Z1X3
0.01118169*X0X3
0.00716528*X0Y1Y2X3Z4
0.00716528*Y0Y1Y2Y3
0.00130226*Z0X2X3Z4
0.00130226*Z0Z1Y2Y3
0.00678961*Z0Z1X2X3Z4
0.00678961*Z0Y2Y3
0.00038420*Y0Y1X2X3Z4
-0.00038420*X0Y1X2Y3
0.03757985*Z1Z3
0.00308170*X0X1Z3
0.00308170*Y0Y1Z2Z3
0.03478085*Z0Z1Z2Z3
0.03912682*Z0Z2Z3
0.01148341*Z0Y1Y2Z3
0.01148341*X1X2
-0.00926866*X0X2Z3
0.00210802*X0Z1X2Z3
-0.00716065*Y0Y2Z3
-0.00716065*Y0Y2
0.00210802*X0Z1X2
-0.00926866*X0X2
-0.00259522*X1X2Z3
-0.00259522*Z0Y1Y2
0.02732006*Z0Z2
0.03485512*Z0Z1Z2
-0.01029185*Y0Y1Z2
-0.01029185*X0X1
0.02572886*Z1
