-7.25622834*I
-0.10280115*Z3
-0.01669903*Z2X3
0.01669903*X3
0.01309519*X2X3
-0.01309519*Y2Y3
-0.16449477*Z2Z3
-0.02236497*X2Z3
-0.02236497*X2
0.20277526*Z2
0.10280115*Z1
0.01669903*Z0X1
0.01669903*X1
0.01309519*X0X1
-0.01309519*Y0Y1
-0.16449477*Z0Z1
0.02236497*X0Z1
-0.02236497*X0
-0.20277526*Z0
-0.09777844*Z1Z3
0.02466502*Z1Z2X3
-0.02466502*Z1X3
-0.02112452*Z1X2X3
0.02112452*Z1Y2Y3
0.02466502*X1Z3
0.02466502*Z0X1Z3
-0.01952649*X1Z2X3
-0.01952649*Z0X1Z2X3
0.01952649*X1X3
0.01952649*Z0X1X3
0.01980400*X1X2X3
0.01980400*Z0X1X2X3
-0.01980400*X1Y2Y3
-0.01980400*Z0X1Y2Y3
-0.02112452*Y0Y1Z3
0.02112452*X0X1Z3
0.01980400*Y0Y1Z2X3
-0.01980400*X0X1Z2X3
-0.01980400*Y0Y1X3
0.01980400*X0X1X3
-0.02794196*Y0Y1X2X3
0.02794196*X0X1X2X3
0.02794196*Y0Y1Y2Y3
-0.02794196*X0X1Y2Y3
0.05963153*Z0Z1Z3
0.00184860*Z0Z1Z2X3
-0.00184860*Z0Z1X3
0.00343217*Z0Z1X2X3
-0.00343217*Z0Z1Y2Y3
-0.02149080*X0Z3
0.02149080*X0Z1Z3
0.01520950*X0Z2X3
-0.01520950*X0Z1Z2X3
-0.01520950*X0X3
0.01520950*X0Z1X3
-0.01243666*X0X2X3
0.01243666*X0Z1X2X3
0.01243666*X0Y2Y3
-0.01243666*X0Z1Y2Y3
0.08154640*Z0Z3
-0.00981460*Z0Z2X3
0.00981460*Z0X3
0.00459721*Z0X2X3
-0.00459721*Z0Y2Y3
-0.05963153*Z1Z2Z3
0.02149080*Z1X2Z3
0.02149080*Z1X2
-0.00184860*X1Z2Z3
-0.00184860*Z0X1Z2Z3
-0.01520950*X1X2Z3
-0.01520950*Z0X1X2Z3
-0.01520950*X1X2
-0.01520950*Z0X1X2
-0.00343217*Y0Y1Z2Z3
0.00343217*X0X1Z2Z3
0.01243666*Y0Y1X2Z3
-0.01243666*X0X1X2Z3
0.01243666*Y0Y1X2
-0.01243666*X0X1X2
0.07172855*Z0Z1Z2Z3
0.00607141*Z0Z1X2Z3
0.00607141*Z0Z1X2
0.00607141*X0Z2Z3
-0.00607141*X0Z1Z2Z3
0.01651009*X0X2Z3
-0.01651009*X0Z1X2Z3
0.01651009*X0X2
-0.01651009*X0Z1X2
0.06429668*Z0Z2Z3
-0.00857089*Z0X2Z3
-0.00857089*Z0X2
0.08154640*Z1Z2
-0.00981460*X1Z2
-0.00981460*Z0X1Z2
0.00459721*Y0Y1Z2
-0.00459721*X0X1Z2
-0.06429668*Z0Z1Z2
0.00857089*X0Z2
-0.00857089*X0Z1Z2
-0.08000525*Z0Z2
