-1.06544286*I
0.07615953*Z5
-0.00493167*Z3X4X5
-0.00493167*Y4Y5
0.05407255*Z4Z5
0.00592044*X3X4Z5
0.00592044*Y3Y4
0.02316312*Z3Z4
-0.00768543*Z3
0.07615953*Z2
-0.00493167*Z0X1X2
-0.00493167*Y1Y2
0.05407255*Z1Z2
0.00592044*X0X1Z2
0.00592044*Y0Y1
0.02316312*Z0Z1
-0.00768543*Z0
0.07478538*Z4
0.00584023*X3X4
0.00584023*Y3Y4Z5
0.09376889*Z3Z4Z5
0.10239584*Z3Z5
0.00523380*Z3Y4Y5
0.00523380*X4X5
0.03086062*X3X5
-0.01900684*X3Z4X5
0.01185378*Y3Y5
0.08559403*Z2Z5
-0.01392005*Z2Z3X4X5
-0.01392005*Z2Y4Y5
-0.04155572*X2Z4X5
0.04155572*Z1X2Z4X5
0.04155572*X2X5
-0.04155572*Z1X2X5
0.00724371*X2X3X4X5
-0.00724371*Z1X2X3X4X5
0.00724371*X2Y3X4Y5
-0.00724371*Z1X2Y3X4Y5
-0.01392005*Y1Y2Z5
-0.01392005*Z0X1X2Z5
0.03263879*Y1Y2Z3X4X5
0.03263879*Z0X1X2Z3X4X5
0.03263879*Y1Y2Y4Y5
0.03263879*Z0X1X2Y4Y5
-0.00724371*Y0X1Y2Z4X5
-0.00724371*X0X1X2Z4X5
0.00724371*Y0X1Y2X5
0.00724371*X0X1X2X5
0.03142085*Y0X1Y2X3X4X5
0.03142085*X0X1X2X3X4X5
0.03142085*Y0X1Y2Y3X4Y5
0.03142085*X0X1X2Y3X4Y5
0.07840143*Z1Z2Z5
0.00428916*Z1Z2Z3X4X5
0.00428916*Z1Z2Y4Y5
-0.01674052*X1Z4X5
0.01674052*Z0X1Z2Z4X5
0.01674052*X1X5
-0.01674052*Z0X1Z2X5
-0.02706623*X1X3X4X5
0.02706623*Z0X1Z2X3X4X5
-0.02706623*X1Y3X4Y5
0.02706623*Z0X1Z2Y3X4Y5
-0.01445179*Y0Y1Z5
-0.01445179*X0X1Z2Z5
0.03299312*Y0Y1Z3X4X5
0.03299312*X0X1Z2Z3X4X5
0.03299312*Y0Y1Y4Y5
0.03299312*X0X1Z2Y4Y5
0.07910216*Z0Z1Z5
0.00449998*Z0Z1Z3X4X5
0.00449998*Z0Z1Y4Y5
-0.04249654*X0Z4X5
0.04249654*X0Z1Z4X5
0.04249654*X0X5
-0.04249654*X0Z1X5
0.00721543*X0X3X4X5
-0.00721543*X0Z1X3X4X5
0.00721543*X0Y3X4Y5
-0.00721543*X0Z1Y3X4Y5
0.08823662*Z0Z5
-0.01443299*Z0Z3X4X5
-0.01443299*Z0Y4Y5
0.07840143*Z2Z4Z5
-0.01445179*Z2X3X4Z5
-0.01445179*Z2Y3Y4
-0.01674052*X2Z3X4Z5
0.01674052*Z1X2Z3X4Z5
0.01674052*X2X4
-0.01674052*Z1X2X4
0.00428916*Y1Y2Z4Z5
0.00428916*Z0X1X2Z4Z5
0.03299312*Y1Y2X3X4Z5
0.03299312*Z0X1X2X3X4Z5
0.03299312*Y1Y2Y3Y4
0.03299312*Z0X1X2Y3Y4
0.02706623*Y0X1Y2Z3X4Z5
0.02706623*X0X1X2Z3X4Z5
-0.02706623*Y0X1Y2X4
-0.02706623*X0X1X2X4
0.08148121*Z1Z2Z4Z5
0.00378306*Z1Z2X3X4Z5
0.00378306*Z1Z2Y3Y4
-0.03658518*X1Z3X4Z5
0.03658518*Z0X1Z2Z3X4Z5
0.03658518*X1X4
-0.03658518*Z0X1Z2X4
0.00378306*Y0Y1Z4Z5
0.00378306*X0X1Z2Z4Z5
0.03367417*Y0Y1X3X4Z5
0.03367417*X0X1Z2X3X4Z5
0.03367417*Y0Y1Y3Y4
0.03367417*X0X1Z2Y3Y4
0.08216525*Z0Z1Z4Z5
0.00438833*Z0Z1X3X4Z5
0.00438833*Z0Z1Y3Y4
-0.01743663*X0Z3X4Z5
0.01743663*X0Z1Z3X4Z5
0.01743663*X0X4
-0.01743663*X0Z1X4
0.08097968*Z0Z4Z5
-0.01513727*Z0X3X4Z5
-0.01513727*Z0Y3Y4
0.07910216*Z2Z3Z4
-0.04249654*X2X3Z4
0.04249654*Z1X2X3Z4
0.04249654*X2X3
-0.04249654*Z1X2X3
0.00449998*Y1Y2Z3Z4
0.00449998*Z0X1X2Z3Z4
-0.00721543*Y0X1Y2X3Z4
-0.00721543*X0X1X2X3Z4
0.00721543*Y0X1Y2X3
0.00721543*X0X1X2X3
0.08216525*Z1Z2Z3Z4
-0.01743663*X1X3Z4
0.01743663*Z0X1Z2X3Z4
0.01743663*X1X3
-0.01743663*Z0X1Z2X3
0.00438833*Y0Y1Z3Z4
0.00438833*X0X1Z2Z3Z4
0.08358360*Z0Z1Z3Z4
-0.04399105*X0X3Z4
0.04399105*X0Z1X3Z4
0.04399105*X0X3
-0.04399105*X0Z1X3
0.08193072*Z0Z3Z4
0.08823662*Z2Z3
-0.01443299*Y1Y2Z3
-0.01443299*Z0X1X2Z3
0.08097968*Z1Z2Z3
-0.01513727*Y0Y1Z3
-0.01513727*X0X1Z2Z3
0.08193072*Z0Z1Z3
0.09178551*Z0Z3
0.07478538*Z1
0.00584023*X0X1
0.00584023*Y0Y1Z2
0.09376889*Z0Z1Z2
0.10239584*Z0Z2
0.00523380*Z0Y1Y2
0.00523380*X1X2
0.03086062*X0X2
-0.01900684*X0Z1X2
0.01185378*Y0Y2
