-95.34426880*I
0.85500839*Z5
0.23636205*X3X4X5
-0.23636205*Y3X4Y5
0.94639166*Z4Z5
0.94639166*Z3Z4
-0.49659047*Z3
-0.85500839*Z2
0.23636205*X0X1X2
-0.23636205*Y0X1Y2
0.94639166*Z1Z2
0.94639166*Z0Z1
0.49659047*Z0
0.01595782*Z4
0.01595782*Z3Z4Z5
0.09583121*Z3Z5
-0.10270489*X3Y4Y5
-0.10270489*Y3Y4X5
-0.17823871*Z2Z5
-0.02649400*Z2X3X4X5
0.02649400*Z2Y3X4Y5
-0.01005611*X2Z4X5
-0.01005611*Z1X2Z4X5
0.01005611*X2X5
0.01005611*Z1X2X5
0.01005611*Y1Y2Z3X4X5
-0.01005611*Z0X1X2Z3X4X5
0.01005611*Y1Y2Y4Y5
-0.01005611*Z0X1X2Y4Y5
-0.02649400*Y0X1Y2Z5
0.02649400*X0X1X2Z5
-0.05208286*Y0X1Y2X3X4X5
0.05208286*X0X1X2X3X4X5
0.05208286*Y0X1Y2Y3X4Y5
-0.05208286*X0X1X2Y3X4Y5
0.17779246*Z1Z2Z5
0.05620132*Z1Z2X3X4X5
-0.05620132*Z1Z2Y3X4Y5
-0.00484887*Y0Y1Z4X5
-0.00484887*X0X1Z2Z4X5
0.00484887*Y0Y1X5
0.00484887*X0X1Z2X5
0.17779246*Z0Z1Z5
0.05620132*Z0Z1X3X4X5
-0.05620132*Z0Z1Y3X4Y5
0.00484887*X0Z3X4X5
-0.00484887*X0Z1Z3X4X5
0.00484887*X0Y4Y5
-0.00484887*X0Z1Y4Y5
0.16530228*Z0Z5
0.00523948*Z0X3X4X5
-0.00523948*Z0Y3X4Y5
-0.17779246*Z2Z4Z5
-0.00484887*X2X3X4Z5
-0.00484887*Z1X2X3X4Z5
0.00484887*X2Y3Y4
0.00484887*Z1X2Y3Y4
-0.05620132*Y0X1Y2Z4Z5
0.05620132*X0X1X2Z4Z5
0.24937841*Z1Z2Z4Z5
-0.01344259*X1Z3X4Z5
0.01344259*Z0X1Z2Z3X4Z5
0.01344259*X1X4
-0.01344259*Z0X1Z2X4
-0.00752914*Y0Y1X3X4Z5
-0.00752914*X0X1Z2X3X4Z5
0.00752914*Y0Y1Y3Y4
0.00752914*X0X1Z2Y3Y4
0.22249322*Z0Z1Z4Z5
0.15930766*Z0Z4Z5
-0.17779246*Z2Z3Z4
0.00484887*Y1Y2X3Z4
-0.00484887*Z0X1X2X3Z4
0.00484887*Y1Y2X3
-0.00484887*Z0X1X2X3
-0.05620132*Y0X1Y2Z3Z4
0.05620132*X0X1X2Z3Z4
0.22249322*Z1Z2Z3Z4
0.24937841*Z0Z1Z3Z4
0.00752914*X0X3Z4
-0.00752914*X0Z1X3Z4
0.00752914*X0X3
-0.00752914*X0Z1X3
0.15930766*Z0Z3Z4
0.16530228*Z2Z3
0.00523948*Y0X1Y2Z3
-0.00523948*X0X1X2Z3
-0.15930766*Z1Z2Z3
-0.15930766*Z0Z1Z3
-0.17367053*Z0Z3
-0.01595782*Z1
-0.01595782*Z0Z1Z2
0.09583121*Z0Z2
-0.10270489*X0Y1Y2
-0.10270489*Y0Y1X2
