2.98807896*I
0.25462278*Z13
0.01508590*Z11X12X13
0.01508590*Y12Y13
-0.00003019*Z9X10X11X12X13
-0.00003019*Y10X11X12Y13
0.00673971*Z7X8X9X10X11X12X13
0.00673971*Y8X9X10X11X12Y13
0.21240713*Z12Z13
-0.01818421*Z10X11X12Z13
-0.01818421*Y11Y12
-0.00803209*Z8X9X10X11X12Z13
-0.00803209*Y9X10X11Y12
-0.00518954*X7X8X9X10X11X12Z13
-0.00518954*Y7X8X9X10X11Y12
0.12879706*Z11Z12
0.00549396*Z9X10X11Z12
0.00549396*Y10Y11
-0.01509467*Z7X8X9X10X11Z12
-0.01509467*Y8X9X10Y11
-0.00132161*Z10Z11
-0.03881626*Z8X9X10Z11
-0.03881626*Y9Y10
0.00609267*X7X8X9X10Z11
0.00609267*Y7X8X9Y10
-0.17375578*Z9Z10
-0.02553139*Z7X8X9Z10
-0.02553139*Y8Y9
-0.40667295*Z8Z9
-0.01843923*X7X8Z9
-0.01843923*Y7Y8
-0.72853699*Z7Z8
-1.10708925*Z7
0.25462278*Z6
0.01508590*Z4X5X6
0.01508590*Y5Y6
-0.00003019*Z2X3X4X5X6
-0.00003019*Y3X4X5Y6
0.00673971*Z0X1X2X3X4X5X6
0.00673971*Y1X2X3X4X5Y6
0.21240713*Z5Z6
-0.01818421*Z3X4X5Z6
-0.01818421*Y4Y5
-0.00803209*Z1X2X3X4X5Z6
-0.00803209*Y2X3X4Y5
-0.00518954*X0X1X2X3X4X5Z6
-0.00518954*Y0X1X2X3X4Y5
0.12879706*Z4Z5
0.00549396*Z2X3X4Z5
0.00549396*Y3Y4
-0.01509467*Z0X1X2X3X4Z5
-0.01509467*Y1X2X3Y4
-0.00132161*Z3Z4
-0.03881626*Z1X2X3Z4
-0.03881626*Y2Y3
0.00609267*X0X1X2X3Z4
0.00609267*Y0X1X2Y3
-0.17375578*Z2Z3
-0.02553139*Z0X1X2Z3
-0.02553139*Y1Y2
-0.40667295*Z1Z2
-0.01843923*X0X1Z2
-0.01843923*Y0Y1
-0.72853699*Z0Z1
-1.10708925*Z0
0.06068042*Z12
0.00930781*Z10X11X12
0.00930781*Y11Y12Z13
-0.00037279*Z8X9X10X11X12
-0.00037279*Y9X10X11Y12Z13
0.00084409*X7X8X9X10X11X12
0.00084409*Y7X8X9X10X11Y12Z13
0.06869477*Z11Z12Z13
-0.01318875*Z9X10X11Z12Z13
-0.01318875*Y10Y11Z13
0.00164208*Z7X8X9X10X11Z12Z13
0.00164208*Y8X9X10Y11Z13
0.07748633*Z10Z11Z13
0.01693381*Z8X9X10Z11Z13
0.01693381*Y9Y10Z13
0.00020562*X7X8X9X10Z11Z13
0.00020562*Y7X8X9Y10Z13
0.08327350*Z9Z10Z13
0.01799778*Z7X8X9Z10Z13
0.01799778*Y8Y9Z13
0.08677753*Z8Z9Z13
0.01750227*X7X8Z9Z13
0.01750227*Y7Y8Z13
0.09465105*Z7Z8Z13
0.11610503*Z7Z13
0.01940192*Z11Y12Y13
0.01940192*X12X13
-0.00506214*Z9X10X11Y12Y13
0.00506214*Y10X11Y12X13
-0.00044661*Z7X8X9X10X11Y12Y13
0.00044661*Y8X9X10X11Y12X13
-0.01942481*Z10X11X13
0.00827841*X11Z12X13
-0.01114640*Z10Y11Y13
-0.01114640*Y11Y13
0.00827841*Z10X11Z12X13
-0.01942481*X11X13
-0.00597997*Z8X9X10X11X13
-0.00403502*Y9X10Y11Z12X13
-0.00194496*Z8X9X10Y11Y13
-0.00194496*Y9X10X11Y13
0.00403502*Z8X9X10X11Z12X13
0.00597997*Y9X10Y11X13
0.00083403*X7X8X9X10X11X13
0.00098125*Y7X8X9X10Y11Z12X13
-0.00014722*X7X8X9X10Y11Y13
-0.00014722*Y7X8X9X10X11Y13
-0.00098125*X7X8X9X10X11Z12X13
-0.00083403*Y7X8X9X10Y11X13
-0.01816867*Z9X10Z11Z12X13
0.01011835*X10Z12X13
-0.00805032*Z9Y10Y13
-0.00805032*Y10Z11Z12Y13
0.01011835*Z9X10Z11X13
-0.01816867*X10X13
-0.00959942*Z7X8X9X10Z11Z12X13
-0.00755769*Y8X9Y10Z12X13
-0.00204173*Z7X8X9Y10Y13
-0.00204173*Y8X9X10Z11Z12Y13
0.00755769*Z7X8X9X10Z11X13
0.00959942*Y8X9Y10X13
0.02118804*Z8X9Z10Z12X13
-0.01621728*X9Z12X13
0.00497077*Z8Y9Y13
0.00497077*Y9Z10Z12Y13
-0.01621728*Z8X9Z10X13
0.02118804*X9X13
0.00893605*X7X8X9Z10Z12X13
0.00780717*Y7X8Y9Z12X13
0.00112888*X7X8Y9Y13
0.00112888*Y7X8X9Z10Z12Y13
-0.00780717*X7X8X9Z10X13
-0.00893605*Y7X8Y9X13
-0.02201322*Z7X8Z9Z12X13
0.01836107*X8Z12X13
-0.00365215*Z7Y8Y13
-0.00365215*Y8Z9Z12Y13
0.01836107*Z7X8Z9X13
-0.02201322*X8X13
0.03087161*X7Z8Z12X13
-0.02830694*X7Z12X13
0.00256468*Y7Y13
0.00256468*Y7Z8Z12Y13
-0.02830694*X7Z8X13
0.03087161*X7X13
0.01174961*Z9X10Y11Y12X13
0.01174961*Y10Y11Y12Y13
0.00334391*Z7X8X9X10Y11Y12X13
0.00334391*Y8X9X10Y11Y12Y13
-0.00240088*Z10X12X13
-0.00240088*Z10Z11Y12Y13
-0.01244879*Z8X9X10X12X13
-0.00422842*Y9Y10Z11X12X13
-0.00822037*Z8X9Y10Y12X13
-0.00822037*Y9X10X12Y13
-0.00422842*Z8X9X10Z11Y12Y13
-0.01244879*Y9Y10Y12Y13
-0.00525044*X7X8X9X10X12X13
-0.00301754*Y7X8X9Y10Z11X12X13
-0.00223290*X7X8X9Y10Y12X13
-0.00223290*Y7X8X9X10X12Y13
-0.00301754*X7X8X9X10Z11Y12Y13
-0.00525044*Y7X8X9Y10Y12Y13
-0.00363043*Z9Z10Z11X12X13
-0.00363043*Z9Z10Y12Y13
-0.01358769*Z7X8X9Z10Z11X12X13
-0.00785579*Y8Y9Z11X12X13
-0.00573190*Z7X8Y9Y12X13
-0.00573190*Y8X9Z10Z11X12Y13
-0.00785579*Z7X8X9Z10Y12Y13
-0.01358769*Y8Y9Y12Y13
-0.00317847*Z8Z9Z11X12X13
-0.00317847*Z8Z9Y12Y13
-0.01734736*X7X8Z9Z11X12X13
-0.01314261*Y7Y8Z11X12X13
-0.00420475*X7Y8Y12X13
-0.00420475*Y7X8Z9Z11X12Y13
-0.01314261*X7X8Z9Y12Y13
-0.01734736*Y7Y8Y12Y13
-0.00207875*Z7Z8Z11X12X13
-0.00207875*Z7Z8Y12Y13
-0.01898024*Z7Z11X12X13
-0.01898024*Z7Y12Y13
-0.00058231*Z9Y10Y11X12X13
0.00058231*X10Y11X12Y13
-0.00896123*Z7X8X9Y10Y11X12X13
-0.00896123*Y8X9Y10Y11X12Y13
0.00183760*Z8X9X11X12X13
-0.00110849*X9Z10X11X12X13
0.00072911*Z8Y9Y11X12X13
0.00072911*Y9X11X12Y13
0.00110849*Z8X9Z10Y11X12Y13
-0.00183760*X9Y11X12Y13
0.01126310*X7X8X9X11X12X13
0.00387905*Y7X8Y9Z10X11X12X13
0.00738404*X7X8Y9Y11X12X13
0.00738404*Y7X8X9X11X12Y13
0.00387905*X7X8X9Z10Y11X12Y13
0.01126310*Y7X8Y9Y11X12Y13
-0.00078642*Z7X8Z9Z10X11X12X13
0.00083244*X8Z10X11X12X13
0.00004602*Z7Y8Y11X12X13
0.00004602*Y8Z9Z10X11X12Y13
-0.00083244*Z7X8Z9Y11X12Y13
0.00078642*X8Y11X12Y13
0.01086659*X7Z8Z10X11X12X13
-0.00926105*X7Z10X11X12X13
0.00160554*Y7Y11X12X13
0.00160554*Y7Z8Z10X11X12Y13
0.00926105*X7Z8Y11X12Y13
-0.01086659*X7Y11X12Y13
0.00122949*Z7X8Y9Y10X11X12X13
0.00122949*Y8Y9Y10X11X12Y13
-0.00034156*Z8X10X11X12X13
-0.00034156*Z8Z9Y10X11X12Y13
0.00699807*X7X8X10X11X12X13
0.00357406*Y7Y8Z9X10X11X12X13
0.00342401*X7Y8Y10X11X12X13
0.00342401*Y7X8X10X11X12Y13
0.00357406*X7X8Z9Y10X11X12Y13
0.00699807*Y7Y8Y10X11X12Y13
-0.00469831*Z7Z8Z9X10X11X12X13
-0.00469831*Z7Z8Y10X11X12Y13
0.00120441*Z7Z9X10X11X12X13
0.00120441*Z7Y10X11X12Y13
0.00192898*Z7Y8Y9X10X11X12X13
-0.00192898*X8Y9X10X11X12Y13
-0.00040829*X7X9X10X11X12X13
0.00065955*X7Z8X9X10X11X12X13
0.00025126*Y7Y9X10X11X12X13
0.00025126*Y7X9X10X11X12Y13
-0.00065955*X7Z8Y9X10X11X12Y13
0.00040829*X7Y9X10X11X12Y13
0.00070160*X8X9X10X11X12X13
0.00070160*Z7Y8X9X10X11X12Y13
0.11644644*Z6Z13
-0.02095989*Z6Z11X12X13
-0.02095989*Z6Y12Y13
0.00184265*Z6Z9X10X11X12X13
0.00184265*Z6Y10X11X12Y13
0.00040956*Z6Z7X8X9X10X11X12X13
0.00040956*Z6Y8X9X10X11X12Y13
-0.03427091*X6Z12X13
0.03427091*Z5X6Z12X13
0.03427091*X6X13
-0.03427091*Z5X6X13
-0.01409876*X6Z10X11X12X13
0.01409876*Z5X6Z10X11X12X13
-0.01409876*X6Y11X12Y13
0.01409876*Z5X6Y11X12Y13
-0.00037215*X6Z8X9X10X11X12X13
0.00037215*Z5X6Z8X9X10X11X12X13
-0.00037215*X6Y9X10X11X12Y13
0.00037215*Z5X6Y9X10X11X12Y13
0.00019738*X6X7X8X9X10X11X12X13
-0.00019738*Z5X6X7X8X9X10X11X12X13
0.00019738*X6Y7X8X9X10X11X12Y13
-0.00019738*Z5X6Y7X8X9X10X11X12Y13
-0.02095989*Y5Y6Z13
-0.02095989*Z4X5X6Z13
0.02193335*Y5Y6Z11X12X13
0.02193335*Z4X5X6Z11X12X13
0.02193335*Y5Y6Y12Y13
0.02193335*Z4X5X6Y12Y13
-0.01041608*Y5Y6Z9X10X11X12X13
-0.01041608*Z4X5X6Z9X10X11X12X13
-0.01041608*Y5Y6Y10X11X12Y13
-0.01041608*Z4X5X6Y10X11X12Y13
-0.00078556*Y5Y6Z7X8X9X10X11X12X13
-0.00078556*Z4X5X6Z7X8X9X10X11X12X13
-0.00078556*Y5Y6Y8X9X10X11X12Y13
-0.00078556*Z4X5X6Y8X9X10X11X12Y13
0.01409876*Y4X5Y6Z12X13
0.01409876*Z3X4X5X6Z12X13
-0.01409876*Y4X5Y6X13
-0.01409876*Z3X4X5X6X13
0.01827635*Y4X5Y6Z10X11X12X13
0.01827635*Z3X4X5X6Z10X11X12X13
0.01827635*Y4X5Y6Y11X12Y13
0.01827635*Z3X4X5X6Y11X12Y13
0.00758218*Y4X5Y6Z8X9X10X11X12X13
0.00758218*Z3X4X5X6Z8X9X10X11X12X13
0.00758218*Y4X5Y6Y9X10X11X12Y13
0.00758218*Z3X4X5X6Y9X10X11X12Y13
0.00054641*Y4X5Y6X7X8X9X10X11X12X13
0.00054641*Z3X4X5X6X7X8X9X10X11X12X13
0.00054641*Y4X5Y6Y7X8X9X10X11X12Y13
0.00054641*Z3X4X5X6Y7X8X9X10X11X12Y13
0.00184265*Y3X4X5Y6Z13
0.00184265*Z2X3X4X5X6Z13
-0.01041608*Y3X4X5Y6Z11X12X13
-0.01041608*Z2X3X4X5X6Z11X12X13
-0.01041608*Y3X4X5Y6Y12Y13
-0.01041608*Z2X3X4X5X6Y12Y13
0.01517744*Y3X4X5Y6Z9X10X11X12X13
0.01517744*Z2X3X4X5X6Z9X10X11X12X13
0.01517744*Y3X4X5Y6Y10X11X12Y13
0.01517744*Z2X3X4X5X6Y10X11X12Y13
0.00658893*Y3X4X5Y6Z7X8X9X10X11X12X13
0.00658893*Z2X3X4X5X6Z7X8X9X10X11X12X13
0.00658893*Y3X4X5Y6Y8X9X10X11X12Y13
0.00658893*Z2X3X4X5X6Y8X9X10X11X12Y13
0.00037215*Y2X3X4X5Y6Z12X13
0.00037215*Z1X2X3X4X5X6Z12X13
-0.00037215*Y2X3X4X5Y6X13
-0.00037215*Z1X2X3X4X5X6X13
0.00758218*Y2X3X4X5Y6Z10X11X12X13
0.00758218*Z1X2X3X4X5X6Z10X11X12X13
0.00758218*Y2X3X4X5Y6Y11X12Y13
0.00758218*Z1X2X3X4X5X6Y11X12Y13
0.01132251*Y2X3X4X5Y6Z8X9X10X11X12X13
0.01132251*Z1X2X3X4X5X6Z8X9X10X11X12X13
0.01132251*Y2X3X4X5Y6Y9X10X11X12Y13
0.01132251*Z1X2X3X4X5X6Y9X10X11X12Y13
0.00500810*Y2X3X4X5Y6X7X8X9X10X11X12X13
0.00500810*Z1X2X3X4X5X6X7X8X9X10X11X12X13
0.00500810*Y2X3X4X5Y6Y7X8X9X10X11X12Y13
0.00500810*Z1X2X3X4X5X6Y7X8X9X10X11X12Y13
0.00040956*Y1X2X3X4X5Y6Z13
0.00040956*Z0X1X2X3X4X5X6Z13
-0.00078556*Y1X2X3X4X5Y6Z11X12X13
-0.00078556*Z0X1X2X3X4X5X6Z11X12X13
-0.00078556*Y1X2X3X4X5Y6Y12Y13
-0.00078556*Z0X1X2X3X4X5X6Y12Y13
0.00658893*Y1X2X3X4X5Y6Z9X10X11X12X13
0.00658893*Z0X1X2X3X4X5X6Z9X10X11X12X13
0.00658893*Y1X2X3X4X5Y6Y10X11X12Y13
0.00658893*Z0X1X2X3X4X5X6Y10X11X12Y13
0.01028523*Y1X2X3X4X5Y6Z7X8X9X10X11X12X13
0.01028523*Z0X1X2X3X4X5X6Z7X8X9X10X11X12X13
0.01028523*Y1X2X3X4X5Y6Y8X9X10X11X12Y13
0.01028523*Z0X1X2X3X4X5X6Y8X9X10X11X12Y13
-0.00019738*Y0X1X2X3X4X5Y6Z12X13
-0.00019738*X0X1X2X3X4X5X6Z12X13
0.00019738*Y0X1X2X3X4X5Y6X13
0.00019738*X0X1X2X3X4X5X6X13
0.00054641*Y0X1X2X3X4X5Y6Z10X11X12X13
0.00054641*X0X1X2X3X4X5X6Z10X11X12X13
0.00054641*Y0X1X2X3X4X5Y6Y11X12Y13
0.00054641*X0X1X2X3X4X5X6Y11X12Y13
0.00500810*Y0X1X2X3X4X5Y6Z8X9X10X11X12X13
0.00500810*X0X1X2X3X4X5X6Z8X9X10X11X12X13
0.00500810*Y0X1X2X3X4X5Y6Y9X10X11X12Y13
0.00500810*X0X1X2X3X4X5X6Y9X10X11X12Y13
0.01221694*Y0X1X2X3X4X5Y6X7X8X9X10X11X12X13
0.01221694*X0X1X2X3X4X5X6X7X8X9X10X11X12X13
0.01221694*Y0X1X2X3X4X5Y6Y7X8X9X10X11X12Y13
0.01221694*X0X1X2X3X4X5X6Y7X8X9X10X11X12Y13
0.09495132*Z5Z6Z13
0.00289657*Z5Z6Z11X12X13
0.00289657*Z5Z6Y12Y13
-0.00994373*Z5Z6Z9X10X11X12X13
-0.00994373*Z5Z6Y10X11X12Y13
-0.00077529*Z5Z6Z7X8X9X10X11X12X13
-0.00077529*Z5Z6Y8X9X10X11X12Y13
-0.02229849*X5Z12X13
0.02229849*Z4X5Z6Z12X13
0.02229849*X5X13
-0.02229849*Z4X5Z6X13
0.00479752*X5Z10X11X12X13
-0.00479752*Z4X5Z6Z10X11X12X13
0.00479752*X5Y11X12Y13
-0.00479752*Z4X5Z6Y11X12Y13
0.00760376*X5Z8X9X10X11X12X13
-0.00760376*Z4X5Z6Z8X9X10X11X12X13
0.00760376*X5Y9X10X11X12Y13
-0.00760376*Z4X5Z6Y9X10X11X12Y13
0.00052638*X5X7X8X9X10X11X12X13
-0.00052638*Z4X5Z6X7X8X9X10X11X12X13
0.00052638*X5Y7X8X9X10X11X12Y13
-0.00052638*Z4X5Z6Y7X8X9X10X11X12Y13
0.02340657*Y4Y5Z13
0.02340657*Z3X4X5Z6Z13
-0.01594393*Y4Y5Z11X12X13
-0.01594393*Z3X4X5Z6Z11X12X13
-0.01594393*Y4Y5Y12Y13
-0.01594393*Z3X4X5Z6Y12Y13
-0.00279703*Y4Y5Z9X10X11X12X13
-0.00279703*Z3X4X5Z6Z9X10X11X12X13
-0.00279703*Y4Y5Y10X11X12Y13
-0.00279703*Z3X4X5Z6Y10X11X12Y13
-0.00578219*Y4Y5Z7X8X9X10X11X12X13
-0.00578219*Z3X4X5Z6Z7X8X9X10X11X12X13
-0.00578219*Y4Y5Y8X9X10X11X12Y13
-0.00578219*Z3X4X5Z6Y8X9X10X11X12Y13
-0.01500587*Y3X4Y5Z12X13
-0.01500587*Z2X3X4X5Z6Z12X13
0.01500587*Y3X4Y5X13
0.01500587*Z2X3X4X5Z6X13
-0.01084735*Y3X4Y5Z10X11X12X13
-0.01084735*Z2X3X4X5Z6Z10X11X12X13
-0.01084735*Y3X4Y5Y11X12Y13
-0.01084735*Z2X3X4X5Z6Y11X12Y13
0.00479319*Y3X4Y5Z8X9X10X11X12X13
0.00479319*Z2X3X4X5Z6Z8X9X10X11X12X13
0.00479319*Y3X4Y5Y9X10X11X12Y13
0.00479319*Z2X3X4X5Z6Y9X10X11X12Y13
0.00488532*Y3X4Y5X7X8X9X10X11X12X13
0.00488532*Z2X3X4X5Z6X7X8X9X10X11X12X13
0.00488532*Y3X4Y5Y7X8X9X10X11X12Y13
0.00488532*Z2X3X4X5Z6Y7X8X9X10X11X12Y13
-0.00000065*Y2X3X4Y5Z13
-0.00000065*Z1X2X3X4X5Z6Z13
-0.00954871*Y2X3X4Y5Z11X12X13
-0.00954871*Z1X2X3X4X5Z6Z11X12X13
-0.00954871*Y2X3X4Y5Y12Y13
-0.00954871*Z1X2X3X4X5Z6Y12Y13
0.00976396*Y2X3X4Y5Z9X10X11X12X13
0.00976396*Z1X2X3X4X5Z6Z9X10X11X12X13
0.00976396*Y2X3X4Y5Y10X11X12Y13
0.00976396*Z1X2X3X4X5Z6Y10X11X12Y13
-0.00326634*Y2X3X4Y5Z7X8X9X10X11X12X13
-0.00326634*Z1X2X3X4X5Z6Z7X8X9X10X11X12X13
-0.00326634*Y2X3X4Y5Y8X9X10X11X12Y13
-0.00326634*Z1X2X3X4X5Z6Y8X9X10X11X12Y13
-0.00122190*Y1X2X3X4Y5Z12X13
-0.00122190*Z0X1X2X3X4X5Z6Z12X13
0.00122190*Y1X2X3X4Y5X13
0.00122190*Z0X1X2X3X4X5Z6X13
-0.00782392*Y1X2X3X4Y5Z10X11X12X13
-0.00782392*Z0X1X2X3X4X5Z6Z10X11X12X13
-0.00782392*Y1X2X3X4Y5Y11X12Y13
-0.00782392*Z0X1X2X3X4X5Z6Y11X12Y13
-0.00691849*Y1X2X3X4Y5Z8X9X10X11X12X13
-0.00691849*Z0X1X2X3X4X5Z6Z8X9X10X11X12X13
-0.00691849*Y1X2X3X4Y5Y9X10X11X12Y13
-0.00691849*Z0X1X2X3X4X5Z6Y9X10X11X12Y13
0.00629487*Y1X2X3X4Y5X7X8X9X10X11X12X13
0.00629487*Z0X1X2X3X4X5Z6X7X8X9X10X11X12X13
0.00629487*Y1X2X3X4Y5Y7X8X9X10X11X12Y13
0.00629487*Z0X1X2X3X4X5Z6Y7X8X9X10X11X12Y13
0.00064671*Y0X1X2X3X4Y5Z13
0.00064671*X0X1X2X3X4X5Z6Z13
-0.00067360*Y0X1X2X3X4Y5Z11X12X13
-0.00067360*X0X1X2X3X4X5Z6Z11X12X13
-0.00067360*Y0X1X2X3X4Y5Y12Y13
-0.00067360*X0X1X2X3X4X5Z6Y12Y13
0.00601421*Y0X1X2X3X4Y5Z9X10X11X12X13
0.00601421*X0X1X2X3X4X5Z6Z9X10X11X12X13
0.00601421*Y0X1X2X3X4Y5Y10X11X12Y13
0.00601421*X0X1X2X3X4X5Z6Y10X11X12Y13
0.00885954*Y0X1X2X3X4Y5Z7X8X9X10X11X12X13
0.00885954*X0X1X2X3X4X5Z6Z7X8X9X10X11X12X13
0.00885954*Y0X1X2X3X4Y5Y8X9X10X11X12Y13
0.00885954*X0X1X2X3X4X5Z6Y8X9X10X11X12Y13
0.09062812*Z4Z5Z13
-0.00069909*Z4Z5Z11X12X13
-0.00069909*Z4Z5Y12Y13
0.00287505*Z4Z5Z9X10X11X12X13
0.00287505*Z4Z5Y10X11X12Y13
0.00575550*Z4Z5Z7X8X9X10X11X12X13
0.00575550*Z4Z5Y8X9X10X11X12Y13
0.02422234*X4Z12X13
-0.02422234*Z3X4Z5Z12X13
-0.02422234*X4X13
0.02422234*Z3X4Z5X13
0.00208312*X4Z10X11X12X13
-0.00208312*Z3X4Z5Z10X11X12X13
0.00208312*X4Y11X12Y13
-0.00208312*Z3X4Z5Y11X12Y13
0.00313173*X4Z8X9X10X11X12X13
-0.00313173*Z3X4Z5Z8X9X10X11X12X13
0.00313173*X4Y9X10X11X12Y13
-0.00313173*Z3X4Z5Y9X10X11X12Y13
0.00427363*X4X7X8X9X10X11X12X13
-0.00427363*Z3X4Z5X7X8X9X10X11X12X13
0.00427363*X4Y7X8X9X10X11X12Y13
-0.00427363*Z3X4Z5Y7X8X9X10X11X12Y13
-0.02360483*Y3Y4Z13
-0.02360483*Z2X3X4Z5Z13
0.01462466*Y3Y4Z11X12X13
0.01462466*Z2X3X4Z5Z11X12X13
0.01462466*Y3Y4Y12Y13
0.01462466*Z2X3X4Z5Y12Y13
-0.00143127*Y3Y4Z9X10X11X12X13
-0.00143127*Z2X3X4Z5Z9X10X11X12X13
-0.00143127*Y3Y4Y10X11X12Y13
-0.00143127*Z2X3X4Z5Y10X11X12Y13
-0.00424673*Y3Y4Z7X8X9X10X11X12X13
-0.00424673*Z2X3X4Z5Z7X8X9X10X11X12X13
-0.00424673*Y3Y4Y8X9X10X11X12Y13
-0.00424673*Z2X3X4Z5Y8X9X10X11X12Y13
-0.01358373*Y2X3Y4Z12X13
-0.01358373*Z1X2X3X4Z5Z12X13
0.01358373*Y2X3Y4X13
0.01358373*Z1X2X3X4Z5X13
-0.01135209*Y2X3Y4Z10X11X12X13
-0.01135209*Z1X2X3X4Z5Z10X11X12X13
-0.01135209*Y2X3Y4Y11X12Y13
-0.01135209*Z1X2X3X4Z5Y11X12Y13
0.00053898*Y2X3Y4Z8X9X10X11X12X13
0.00053898*Z1X2X3X4Z5Z8X9X10X11X12X13
0.00053898*Y2X3Y4Y9X10X11X12Y13
0.00053898*Z1X2X3X4Z5Y9X10X11X12Y13
-0.00537370*Y2X3Y4X7X8X9X10X11X12X13
-0.00537370*Z1X2X3X4Z5X7X8X9X10X11X12X13
-0.00537370*Y2X3Y4Y7X8X9X10X11X12Y13
-0.00537370*Z1X2X3X4Z5Y7X8X9X10X11X12Y13
0.00085652*Y1X2X3Y4Z13
0.00085652*Z0X1X2X3X4Z5Z13
0.00909942*Y1X2X3Y4Z11X12X13
0.00909942*Z0X1X2X3X4Z5Z11X12X13
0.00909942*Y1X2X3Y4Y12Y13
0.00909942*Z0X1X2X3X4Z5Y12Y13
-0.00997863*Y1X2X3Y4Z9X10X11X12X13
-0.00997863*Z0X1X2X3X4Z5Z9X10X11X12X13
-0.00997863*Y1X2X3Y4Y10X11X12Y13
-0.00997863*Z0X1X2X3X4Z5Y10X11X12Y13
0.00112321*Y1X2X3Y4Z7X8X9X10X11X12X13
0.00112321*Z0X1X2X3X4Z5Z7X8X9X10X11X12X13
0.00112321*Y1X2X3Y4Y8X9X10X11X12Y13
0.00112321*Z0X1X2X3X4Z5Y8X9X10X11X12Y13
0.00030765*Y0X1X2X3Y4Z12X13
0.00030765*X0X1X2X3X4Z5Z12X13
-0.00030765*Y0X1X2X3Y4X13
-0.00030765*X0X1X2X3X4Z5X13
-0.00650653*Y0X1X2X3Y4Z10X11X12X13
-0.00650653*X0X1X2X3X4Z5Z10X11X12X13
-0.00650653*Y0X1X2X3Y4Y11X12Y13
-0.00650653*X0X1X2X3X4Z5Y11X12Y13
-0.00957845*Y0X1X2X3Y4Z8X9X10X11X12X13
-0.00957845*X0X1X2X3X4Z5Z8X9X10X11X12X13
-0.00957845*Y0X1X2X3Y4Y9X10X11X12Y13
-0.00957845*X0X1X2X3X4Z5Y9X10X11X12Y13
-0.00463025*Y0X1X2X3Y4X7X8X9X10X11X12X13
-0.00463025*X0X1X2X3X4Z5X7X8X9X10X11X12X13
-0.00463025*Y0X1X2X3Y4Y7X8X9X10X11X12Y13
-0.00463025*X0X1X2X3X4Z5Y7X8X9X10X11X12Y13
0.09576268*Z3Z4Z13
-0.00448401*Z3Z4Z11X12X13
-0.00448401*Z3Z4Y12Y13
-0.00094521*Z3Z4Z9X10X11X12X13
-0.00094521*Z3Z4Y10X11X12Y13
-0.00332012*Z3Z4Z7X8X9X10X11X12X13
-0.00332012*Z3Z4Y8X9X10X11X12Y13
0.02096570*X3Z12X13
-0.02096570*Z2X3Z4Z12X13
-0.02096570*X3X13
0.02096570*Z2X3Z4X13
0.00152752*X3Z10X11X12X13
-0.00152752*Z2X3Z4Z10X11X12X13
0.00152752*X3Y11X12Y13
-0.00152752*Z2X3Z4Y11X12Y13
-0.00105564*X3Z8X9X10X11X12X13
0.00105564*Z2X3Z4Z8X9X10X11X12X13
-0.00105564*X3Y9X10X11X12Y13
0.00105564*Z2X3Z4Y9X10X11X12Y13
-0.00626689*X3X7X8X9X10X11X12X13
0.00626689*Z2X3Z4X7X8X9X10X11X12X13
-0.00626689*X3Y7X8X9X10X11X12Y13
0.00626689*Z2X3Z4Y7X8X9X10X11X12Y13
0.02451599*Y2Y3Z13
0.02451599*Z1X2X3Z4Z13
-0.01558051*Y2Y3Z11X12X13
-0.01558051*Z1X2X3Z4Z11X12X13
-0.01558051*Y2Y3Y12Y13
-0.01558051*Z1X2X3Z4Y12Y13
0.00178475*Y2Y3Z9X10X11X12X13
0.00178475*Z1X2X3Z4Z9X10X11X12X13
0.00178475*Y2Y3Y10X11X12Y13
0.00178475*Z1X2X3Z4Y10X11X12Y13
0.00181737*Y2Y3Z7X8X9X10X11X12X13
0.00181737*Z1X2X3Z4Z7X8X9X10X11X12X13
0.00181737*Y2Y3Y8X9X10X11X12Y13
0.00181737*Z1X2X3Z4Y8X9X10X11X12Y13
-0.01538162*Y1X2Y3Z12X13
-0.01538162*Z0X1X2X3Z4Z12X13
0.01538162*Y1X2Y3X13
0.01538162*Z0X1X2X3Z4X13
-0.01228136*Y1X2Y3Z10X11X12X13
-0.01228136*Z0X1X2X3Z4Z10X11X12X13
-0.01228136*Y1X2Y3Y11X12Y13
-0.01228136*Z0X1X2X3Z4Y11X12Y13
0.00186340*Y1X2Y3Z8X9X10X11X12X13
0.00186340*Z0X1X2X3Z4Z8X9X10X11X12X13
0.00186340*Y1X2Y3Y9X10X11X12Y13
0.00186340*Z0X1X2X3Z4Y9X10X11X12Y13
0.00443783*Y1X2Y3X7X8X9X10X11X12X13
0.00443783*Z0X1X2X3Z4X7X8X9X10X11X12X13
0.00443783*Y1X2Y3Y7X8X9X10X11X12Y13
0.00443783*Z0X1X2X3Z4Y7X8X9X10X11X12Y13
0.00075203*Y0X1X2Y3Z13
0.00075203*X0X1X2X3Z4Z13
-0.00952407*Y0X1X2Y3Z11X12X13
-0.00952407*X0X1X2X3Z4Z11X12X13
-0.00952407*Y0X1X2Y3Y12Y13
-0.00952407*X0X1X2X3Z4Y12Y13
0.01365094*Y0X1X2Y3Z9X10X11X12X13
0.01365094*X0X1X2X3Z4Z9X10X11X12X13
0.01365094*Y0X1X2Y3Y10X11X12Y13
0.01365094*X0X1X2X3Z4Y10X11X12Y13
0.00604336*Y0X1X2Y3Z7X8X9X10X11X12X13
0.00604336*X0X1X2X3Z4Z7X8X9X10X11X12X13
0.00604336*Y0X1X2Y3Y8X9X10X11X12Y13
0.00604336*X0X1X2X3Z4Y8X9X10X11X12Y13
0.09845094*Z2Z3Z13
-0.00506169*Z2Z3Z11X12X13
-0.00506169*Z2Z3Y12Y13
-0.00110297*Z2Z3Z9X10X11X12X13
-0.00110297*Z2Z3Y10X11X12Y13
-0.00042143*Z2Z3Z7X8X9X10X11X12X13
-0.00042143*Z2Z3Y8X9X10X11X12Y13
-0.02598123*X2Z12X13
0.02598123*Z1X2Z3Z12X13
0.02598123*X2X13
-0.02598123*Z1X2Z3X13
-0.00289324*X2Z10X11X12X13
0.00289324*Z1X2Z3Z10X11X12X13
-0.00289324*X2Y11X12Y13
0.00289324*Z1X2Z3Y11X12Y13
-0.00024947*X2Z8X9X10X11X12X13
0.00024947*Z1X2Z3Z8X9X10X11X12X13
-0.00024947*X2Y9X10X11X12Y13
0.00024947*Z1X2Z3Y9X10X11X12Y13
-0.00380509*X2X7X8X9X10X11X12X13
0.00380509*Z1X2Z3X7X8X9X10X11X12X13
-0.00380509*X2Y7X8X9X10X11X12Y13
0.00380509*Z1X2Z3Y7X8X9X10X11X12Y13
0.02458671*Y1Y2Z13
0.02458671*Z0X1X2Z3Z13
-0.01783442*Y1Y2Z11X12X13
-0.01783442*Z0X1X2Z3Z11X12X13
-0.01783442*Y1Y2Y12Y13
-0.01783442*Z0X1X2Z3Y12Y13
0.00080806*Y1Y2Z9X10X11X12X13
0.00080806*Z0X1X2Z3Z9X10X11X12X13
0.00080806*Y1Y2Y10X11X12Y13
0.00080806*Z0X1X2Z3Y10X11X12Y13
-0.00436476*Y1Y2Z7X8X9X10X11X12X13
-0.00436476*Z0X1X2Z3Z7X8X9X10X11X12X13
-0.00436476*Y1Y2Y8X9X10X11X12Y13
-0.00436476*Z0X1X2Z3Y8X9X10X11X12Y13
0.01382138*Y0X1Y2Z12X13
0.01382138*X0X1X2Z3Z12X13
-0.01382138*Y0X1Y2X13
-0.01382138*X0X1X2Z3X13
0.01752999*Y0X1Y2Z10X11X12X13
0.01752999*X0X1X2Z3Z10X11X12X13
0.01752999*Y0X1Y2Y11X12Y13
0.01752999*X0X1X2Z3Y11X12Y13
0.00722910*Y0X1Y2Z8X9X10X11X12X13
0.00722910*X0X1X2Z3Z8X9X10X11X12X13
0.00722910*Y0X1Y2Y9X10X11X12Y13
0.00722910*X0X1X2Z3Y9X10X11X12Y13
0.00064292*Y0X1Y2X7X8X9X10X11X12X13
0.00064292*X0X1X2Z3X7X8X9X10X11X12X13
0.00064292*Y0X1Y2Y7X8X9X10X11X12Y13
0.00064292*X0X1X2Z3Y7X8X9X10X11X12Y13
0.09810004*Z1Z2Z13
-0.00263949*Z1Z2Z11X12X13
-0.00263949*Z1Z2Y12Y13
-0.00009208*Z1Z2Z9X10X11X12X13
-0.00009208*Z1Z2Y10X11X12Y13
0.00460233*Z1Z2Z7X8X9X10X11X12X13
0.00460233*Z1Z2Y8X9X10X11X12Y13
0.02527956*X1Z12X13
-0.02527956*Z0X1Z2Z12X13
-0.02527956*X1X13
0.02527956*Z0X1Z2X13
-0.00103095*X1Z10X11X12X13
0.00103095*Z0X1Z2Z10X11X12X13
-0.00103095*X1Y11X12Y13
0.00103095*Z0X1Z2Y11X12Y13
-0.00653131*X1Z8X9X10X11X12X13
0.00653131*Z0X1Z2Z8X9X10X11X12X13
-0.00653131*X1Y9X10X11X12Y13
0.00653131*Z0X1Z2Y9X10X11X12Y13
-0.00071920*X1X7X8X9X10X11X12X13
0.00071920*Z0X1Z2X7X8X9X10X11X12X13
-0.00071920*X1Y7X8X9X10X11X12Y13
0.00071920*Z0X1Z2Y7X8X9X10X11X12Y13
0.02251037*Y0Y1Z13
0.02251037*X0X1Z2Z13
-0.02272106*Y0Y1Z11X12X13
-0.02272106*X0X1Z2Z11X12X13
-0.02272106*Y0Y1Y12Y13
-0.02272106*X0X1Z2Y12Y13
0.01080316*Y0Y1Z9X10X11X12X13
0.01080316*X0X1Z2Z9X10X11X12X13
0.01080316*Y0Y1Y10X11X12Y13
0.01080316*X0X1Z2Y10X11X12Y13
0.00097046*Y0Y1Z7X8X9X10X11X12X13
0.00097046*X0X1Z2Z7X8X9X10X11X12X13
0.00097046*Y0Y1Y8X9X10X11X12Y13
0.00097046*X0X1Z2Y8X9X10X11X12Y13
0.10493628*Z0Z1Z13
-0.00095554*Z0Z1Z11X12X13
-0.00095554*Z0Z1Y12Y13
-0.00906308*Z0Z1Z9X10X11X12X13
-0.00906308*Z0Z1Y10X11X12Y13
-0.00075221*Z0Z1Z7X8X9X10X11X12X13
-0.00075221*Z0Z1Y8X9X10X11X12Y13
-0.03716648*X0Z12X13
0.03716648*X0Z1Z12X13
0.03716648*X0X13
-0.03716648*X0Z1X13
-0.01530441*X0Z10X11X12X13
0.01530441*X0Z1Z10X11X12X13
-0.01530441*X0Y11X12Y13
0.01530441*X0Z1Y11X12Y13
-0.00031091*X0Z8X9X10X11X12X13
0.00031091*X0Z1Z8X9X10X11X12X13
-0.00031091*X0Y9X10X11X12Y13
0.00031091*X0Z1Y9X10X11X12Y13
0.00027954*X0X7X8X9X10X11X12X13
-0.00027954*X0Z1X7X8X9X10X11X12X13
0.00027954*X0Y7X8X9X10X11X12Y13
-0.00027954*X0Z1Y7X8X9X10X11X12Y13
0.12832197*Z0Z13
-0.02361050*Z0Z11X12X13
-0.02361050*Z0Y12Y13
0.00184733*Z0Z9X10X11X12X13
0.00184733*Z0Y10X11X12Y13
0.00042206*Z0Z7X8X9X10X11X12X13
0.00042206*Z0Y8X9X10X11X12Y13
0.06059802*Z11Z13
-0.00391386*Z9X10X11Z13
-0.00391386*Y10Y11Z12Z13
0.00380200*Z7X8X9X10X11Z13
0.00380200*Y8X9X10Y11Z12Z13
0.07008672*Z10Z11Z12Z13
0.00620045*Z8X9X10Z11Z12Z13
0.00620045*Y9Y10Z12Z13
-0.00472805*X7X8X9X10Z11Z12Z13
-0.00472805*Y7X8X9Y10Z12Z13
0.07725093*Z9Z10Z12Z13
0.00535499*Z7X8X9Z10Z12Z13
0.00535499*Y8Y9Z12Z13
0.08254301*Z8Z9Z12Z13
0.00017354*X7X8Z9Z12Z13
0.00017354*Y7Y8Z12Z13
0.09243508*Z7Z8Z12Z13
0.09562322*Z7Z12Z13
-0.02306373*Z10Y11Y12Z13
-0.02306373*X11X12
0.00083732*Z8X9X10Y11Y12Z13
-0.00083732*Y9X10Y11X12
0.00156056*X7X8X9X10Y11Y12Z13
-0.00156056*Y7X8X9X10Y11X12
-0.02104896*Z9X10X12Z13
0.00566674*X10Z11X12Z13
-0.01538222*Z9Y10Y12Z13
-0.01538222*Y10Y12
0.00566674*Z9X10Z11X12
-0.02104896*X10X12
-0.00227937*Z7X8X9X10X12Z13
-0.00211629*Y8X9Y10Z11X12Z13
-0.00016308*Z7X8X9Y10Y12Z13
-0.00016308*Y8X9X10Y12
0.00211629*Z7X8X9X10Z11X12
0.00227937*Y8X9Y10X12
0.02214092*Z8X9Z10Z11X12Z13
-0.01313985*X9Z11X12Z13
0.00900107*Z8Y9Y12Z13
0.00900107*Y9Z10Z11Y12
-0.01313985*Z8X9Z10X12
0.02214092*X9X12
-0.00107352*X7X8X9Z10Z11X12Z13
-0.00029198*Y7X8Y9Z11X12Z13
-0.00078154*X7X8Y9Y12Z13
-0.00078154*Y7X8X9Z10Z11Y12
0.00029198*X7X8X9Z10X12
0.00107352*Y7X8Y9X12
-0.02415324*Z7X8Z9Z11X12Z13
0.01744932*X8Z11X12Z13
-0.00670393*Z7Y8Y12Z13
-0.00670393*Y8Z9Z11Y12
0.01744932*Z7X8Z9X12
-0.02415324*X8X12
0.02234741*X7Z8Z11X12Z13
-0.01834644*X7Z11X12Z13
0.00400097*Y7Y12Z13
0.00400097*Y7Z8Z11Y12
-0.01834644*X7Z8X12
0.02234741*X7X12
0.01513123*Z8X9Y10Y11X12Z13
0.01513123*Y9Y10Y11Y12
-0.00042846*X7X8X9Y10Y11X12Z13
-0.00042846*Y7X8X9Y10Y11Y12
0.00411785*Z9X11X12Z13
0.00411785*Z9Z10Y11Y12
0.01572519*Z7X8X9X11X12Z13
0.00555087*Y8Y9Z10X11X12Z13
0.01017431*Z7X8Y9Y11X12Z13
0.01017431*Y8X9X11Y12
0.00555087*Z7X8X9Z10Y11Y12
0.01572519*Y8Y9Y11Y12
0.00419340*Z8Z9Z10X11X12Z13
0.00419340*Z8Z9Y11Y12
0.01389261*X7X8Z9Z10X11X12Z13
0.00771449*Y7Y8Z10X11X12Z13
0.00617812*X7Y8Y11X12Z13
0.00617812*Y7X8Z9Z10X11Y12
0.00771449*X7X8Z9Y11Y12
0.01389261*Y7Y8Y11Y12
0.00804050*Z7Z8Z10X11X12Z13
0.00804050*Z7Z8Y11Y12
0.02088872*Z7Z10X11X12Z13
0.02088872*Z7Y11Y12
-0.00190264*Z8Y9Y10X11X12Z13
0.00190264*X9Y10X11Y12
-0.00930485*X7X8Y9Y10X11X12Z13
-0.00930485*Y7X8Y9Y10X11Y12
0.00421248*Z7X8X10X11X12Z13
-0.00280281*X8Z9X10X11X12Z13
0.00140968*Z7Y8Y10X11X12Z13
0.00140968*Y8X10X11Y12
0.00280281*Z7X8Z9Y10X11Y12
-0.00421248*X8Y10X11Y12
-0.01195950*X7Z8Z9X10X11X12Z13
0.00895549*X7Z9X10X11X12Z13
-0.00300401*Y7Y10X11X12Z13
-0.00300401*Y7Z8Z9X10X11Y12
-0.00895549*X7Z8Y10X11Y12
0.01195950*X7Y10X11Y12
0.00487319*X7Y8Y9X10X11X12Z13
0.00487319*Y7Y8Y9X10X11Y12
-0.00398589*Z7X9X10X11X12Z13
-0.00398589*Z7Z8Y9X10X11Y12
-0.00107657*Z7Z8X9X10X11X12Z13
-0.00107657*Z7Y9X10X11Y12
-0.00090708*Y7Y8X9X10X11X12Z13
0.00090708*X7Y8X9X10X11Y12
0.09495132*Z6Z12Z13
0.02340657*Z6Z10X11X12Z13
0.02340657*Z6Y11Y12
-0.00000065*Z6Z8X9X10X11X12Z13
-0.00000065*Z6Y9X10X11Y12
0.00064671*Z6X7X8X9X10X11X12Z13
0.00064671*Z6Y7X8X9X10X11Y12
-0.02229849*X6Z11X12Z13
0.02229849*Z5X6Z11X12Z13
0.02229849*X6X12
-0.02229849*Z5X6X12
0.01500587*X6Z9X10X11X12Z13
-0.01500587*Z5X6Z9X10X11X12Z13
0.01500587*X6Y10X11Y12
-0.01500587*Z5X6Y10X11Y12
0.00122190*X6Z7X8X9X10X11X12Z13
-0.00122190*Z5X6Z7X8X9X10X11X12Z13
0.00122190*X6Y8X9X10X11Y12
-0.00122190*Z5X6Y8X9X10X11Y12
0.00289657*Y5Y6Z12Z13
0.00289657*Z4X5X6Z12Z13
-0.01594393*Y5Y6Z10X11X12Z13
-0.01594393*Z4X5X6Z10X11X12Z13
-0.01594393*Y5Y6Y11Y12
-0.01594393*Z4X5X6Y11Y12
-0.00954871*Y5Y6Z8X9X10X11X12Z13
-0.00954871*Z4X5X6Z8X9X10X11X12Z13
-0.00954871*Y5Y6Y9X10X11Y12
-0.00954871*Z4X5X6Y9X10X11Y12
-0.00067360*Y5Y6X7X8X9X10X11X12Z13
-0.00067360*Z4X5X6X7X8X9X10X11X12Z13
-0.00067360*Y5Y6Y7X8X9X10X11Y12
-0.00067360*Z4X5X6Y7X8X9X10X11Y12
-0.00479752*Y4X5Y6Z11X12Z13
-0.00479752*Z3X4X5X6Z11X12Z13
0.00479752*Y4X5Y6X12
0.00479752*Z3X4X5X6X12
-0.01084735*Y4X5Y6Z9X10X11X12Z13
-0.01084735*Z3X4X5X6Z9X10X11X12Z13
-0.01084735*Y4X5Y6Y10X11Y12
-0.01084735*Z3X4X5X6Y10X11Y12
-0.00782392*Y4X5Y6Z7X8X9X10X11X12Z13
-0.00782392*Z3X4X5X6Z7X8X9X10X11X12Z13
-0.00782392*Y4X5Y6Y8X9X10X11Y12
-0.00782392*Z3X4X5X6Y8X9X10X11Y12
-0.00994373*Y3X4X5Y6Z12Z13
-0.00994373*Z2X3X4X5X6Z12Z13
-0.00279703*Y3X4X5Y6Z10X11X12Z13
-0.00279703*Z2X3X4X5X6Z10X11X12Z13
-0.00279703*Y3X4X5Y6Y11Y12
-0.00279703*Z2X3X4X5X6Y11Y12
0.00976396*Y3X4X5Y6Z8X9X10X11X12Z13
0.00976396*Z2X3X4X5X6Z8X9X10X11X12Z13
0.00976396*Y3X4X5Y6Y9X10X11Y12
0.00976396*Z2X3X4X5X6Y9X10X11Y12
0.00601421*Y3X4X5Y6X7X8X9X10X11X12Z13
0.00601421*Z2X3X4X5X6X7X8X9X10X11X12Z13
0.00601421*Y3X4X5Y6Y7X8X9X10X11Y12
0.00601421*Z2X3X4X5X6Y7X8X9X10X11Y12
-0.00760376*Y2X3X4X5Y6Z11X12Z13
-0.00760376*Z1X2X3X4X5X6Z11X12Z13
0.00760376*Y2X3X4X5Y6X12
0.00760376*Z1X2X3X4X5X6X12
0.00479319*Y2X3X4X5Y6Z9X10X11X12Z13
0.00479319*Z1X2X3X4X5X6Z9X10X11X12Z13
0.00479319*Y2X3X4X5Y6Y10X11Y12
0.00479319*Z1X2X3X4X5X6Y10X11Y12
-0.00691849*Y2X3X4X5Y6Z7X8X9X10X11X12Z13
-0.00691849*Z1X2X3X4X5X6Z7X8X9X10X11X12Z13
-0.00691849*Y2X3X4X5Y6Y8X9X10X11Y12
-0.00691849*Z1X2X3X4X5X6Y8X9X10X11Y12
-0.00077529*Y1X2X3X4X5Y6Z12Z13
-0.00077529*Z0X1X2X3X4X5X6Z12Z13
-0.00578219*Y1X2X3X4X5Y6Z10X11X12Z13
-0.00578219*Z0X1X2X3X4X5X6Z10X11X12Z13
-0.00578219*Y1X2X3X4X5Y6Y11Y12
-0.00578219*Z0X1X2X3X4X5X6Y11Y12
-0.00326634*Y1X2X3X4X5Y6Z8X9X10X11X12Z13
-0.00326634*Z0X1X2X3X4X5X6Z8X9X10X11X12Z13
-0.00326634*Y1X2X3X4X5Y6Y9X10X11Y12
-0.00326634*Z0X1X2X3X4X5X6Y9X10X11Y12
0.00885954*Y1X2X3X4X5Y6X7X8X9X10X11X12Z13
0.00885954*Z0X1X2X3X4X5X6X7X8X9X10X11X12Z13
0.00885954*Y1X2X3X4X5Y6Y7X8X9X10X11Y12
0.00885954*Z0X1X2X3X4X5X6Y7X8X9X10X11Y12
-0.00052638*Y0X1X2X3X4X5Y6Z11X12Z13
-0.00052638*X0X1X2X3X4X5X6Z11X12Z13
0.00052638*Y0X1X2X3X4X5Y6X12
0.00052638*X0X1X2X3X4X5X6X12
0.00488532*Y0X1X2X3X4X5Y6Z9X10X11X12Z13
0.00488532*X0X1X2X3X4X5X6Z9X10X11X12Z13
0.00488532*Y0X1X2X3X4X5Y6Y10X11Y12
0.00488532*X0X1X2X3X4X5X6Y10X11Y12
0.00629487*Y0X1X2X3X4X5Y6Z7X8X9X10X11X12Z13
0.00629487*X0X1X2X3X4X5X6Z7X8X9X10X11X12Z13
0.00629487*Y0X1X2X3X4X5Y6Y8X9X10X11Y12
0.00629487*X0X1X2X3X4X5X6Y8X9X10X11Y12
0.09952066*Z5Z6Z12Z13
0.00657242*Z5Z6Z10X11X12Z13
0.00657242*Z5Z6Y11Y12
-0.01055308*Z5Z6Z8X9X10X11X12Z13
-0.01055308*Z5Z6Y9X10X11Y12
-0.00032749*Z5Z6X7X8X9X10X11X12Z13
-0.00032749*Z5Z6Y7X8X9X10X11Y12
-0.03026084*X5Z11X12Z13
0.03026084*Z4X5Z6Z11X12Z13
0.03026084*X5X12
-0.03026084*Z4X5Z6X12
0.00404455*X5Z9X10X11X12Z13
-0.00404455*Z4X5Z6Z9X10X11X12Z13
0.00404455*X5Y10X11Y12
-0.00404455*Z4X5Z6Y10X11Y12
-0.00722611*X5Z7X8X9X10X11X12Z13
0.00722611*Z4X5Z6Z7X8X9X10X11X12Z13
-0.00722611*X5Y8X9X10X11Y12
0.00722611*Z4X5Z6Y8X9X10X11Y12
0.00657242*Y4Y5Z12Z13
0.00657242*Z3X4X5Z6Z12Z13
0.02220314*Y4Y5Z10X11X12Z13
0.02220314*Z3X4X5Z6Z10X11X12Z13
0.02220314*Y4Y5Y11Y12
0.02220314*Z3X4X5Z6Y11Y12
0.00177922*Y4Y5Z8X9X10X11X12Z13
0.00177922*Z3X4X5Z6Z8X9X10X11X12Z13
0.00177922*Y4Y5Y9X10X11Y12
0.00177922*Z3X4X5Z6Y9X10X11Y12
-0.00526573*Y4Y5X7X8X9X10X11X12Z13
-0.00526573*Z3X4X5Z6X7X8X9X10X11X12Z13
-0.00526573*Y4Y5Y7X8X9X10X11Y12
-0.00526573*Z3X4X5Z6Y7X8X9X10X11Y12
-0.00404455*Y3X4Y5Z11X12Z13
-0.00404455*Z2X3X4X5Z6Z11X12Z13
0.00404455*Y3X4Y5X12
0.00404455*Z2X3X4X5Z6X12
0.01711494*Y3X4Y5Z9X10X11X12Z13
0.01711494*Z2X3X4X5Z6Z9X10X11X12Z13
0.01711494*Y3X4Y5Y10X11Y12
0.01711494*Z2X3X4X5Z6Y10X11Y12
0.00035037*Y3X4Y5Z7X8X9X10X11X12Z13
0.00035037*Z2X3X4X5Z6Z7X8X9X10X11X12Z13
0.00035037*Y3X4Y5Y8X9X10X11Y12
0.00035037*Z2X3X4X5Z6Y8X9X10X11Y12
-0.01055308*Y2X3X4Y5Z12Z13
-0.01055308*Z1X2X3X4X5Z6Z12Z13
0.00177922*Y2X3X4Y5Z10X11X12Z13
0.00177922*Z1X2X3X4X5Z6Z10X11X12Z13
0.00177922*Y2X3X4Y5Y11Y12
0.00177922*Z1X2X3X4X5Z6Y11Y12
0.01412785*Y2X3X4Y5Z8X9X10X11X12Z13
0.01412785*Z1X2X3X4X5Z6Z8X9X10X11X12Z13
0.01412785*Y2X3X4Y5Y9X10X11Y12
0.01412785*Z1X2X3X4X5Z6Y9X10X11Y12
-0.00214351*Y2X3X4Y5X7X8X9X10X11X12Z13
-0.00214351*Z1X2X3X4X5Z6X7X8X9X10X11X12Z13
-0.00214351*Y2X3X4Y5Y7X8X9X10X11Y12
-0.00214351*Z1X2X3X4X5Z6Y7X8X9X10X11Y12
0.00722611*Y1X2X3X4Y5Z11X12Z13
0.00722611*Z0X1X2X3X4X5Z6Z11X12Z13
-0.00722611*Y1X2X3X4Y5X12
-0.00722611*Z0X1X2X3X4X5Z6X12
0.00035037*Y1X2X3X4Y5Z9X10X11X12Z13
0.00035037*Z0X1X2X3X4X5Z6Z9X10X11X12Z13
0.00035037*Y1X2X3X4Y5Y10X11Y12
0.00035037*Z0X1X2X3X4X5Z6Y10X11Y12
0.01338911*Y1X2X3X4Y5Z7X8X9X10X11X12Z13
0.01338911*Z0X1X2X3X4X5Z6Z7X8X9X10X11X12Z13
0.01338911*Y1X2X3X4Y5Y8X9X10X11Y12
0.01338911*Z0X1X2X3X4X5Z6Y8X9X10X11Y12
-0.00032749*Y0X1X2X3X4Y5Z12Z13
-0.00032749*X0X1X2X3X4X5Z6Z12Z13
-0.00526573*Y0X1X2X3X4Y5Z10X11X12Z13
-0.00526573*X0X1X2X3X4X5Z6Z10X11X12Z13
-0.00526573*Y0X1X2X3X4Y5Y11Y12
-0.00526573*X0X1X2X3X4X5Z6Y11Y12
-0.00214351*Y0X1X2X3X4Y5Z8X9X10X11X12Z13
-0.00214351*X0X1X2X3X4X5Z6Z8X9X10X11X12Z13
-0.00214351*Y0X1X2X3X4Y5Y9X10X11Y12
-0.00214351*X0X1X2X3X4X5Z6Y9X10X11Y12
0.00935524*Y0X1X2X3X4Y5X7X8X9X10X11X12Z13
0.00935524*X0X1X2X3X4X5Z6X7X8X9X10X11X12Z13
0.00935524*Y0X1X2X3X4Y5Y7X8X9X10X11Y12
0.00935524*X0X1X2X3X4X5Z6Y7X8X9X10X11Y12
0.09085886*Z4Z5Z12Z13
-0.00215959*Z4Z5Z10X11X12Z13
-0.00215959*Z4Z5Y11Y12
-0.00302935*Z4Z5Z8X9X10X11X12Z13
-0.00302935*Z4Z5Y9X10X11Y12
0.00571815*Z4Z5X7X8X9X10X11X12Z13
0.00571815*Z4Z5Y7X8X9X10X11Y12
0.02522332*X4Z11X12Z13
-0.02522332*Z3X4Z5Z11X12Z13
-0.02522332*X4X12
0.02522332*Z3X4Z5X12
0.00086706*X4Z9X10X11X12Z13
-0.00086706*Z3X4Z5Z9X10X11X12Z13
0.00086706*X4Y10X11Y12
-0.00086706*Z3X4Z5Y10X11Y12
0.00086218*X4Z7X8X9X10X11X12Z13
-0.00086218*Z3X4Z5Z7X8X9X10X11X12Z13
0.00086218*X4Y8X9X10X11Y12
-0.00086218*Z3X4Z5Y8X9X10X11Y12
-0.00795841*Y3Y4Z12Z13
-0.00795841*Z2X3X4Z5Z12Z13
-0.01624927*Y3Y4Z10X11X12Z13
-0.01624927*Z2X3X4Z5Z10X11X12Z13
-0.01624927*Y3Y4Y11Y12
-0.01624927*Z2X3X4Z5Y11Y12
0.00397346*Y3Y4Z8X9X10X11X12Z13
0.00397346*Z2X3X4Z5Z8X9X10X11X12Z13
0.00397346*Y3Y4Y9X10X11Y12
0.00397346*Z2X3X4Z5Y9X10X11Y12
-0.00300735*Y3Y4X7X8X9X10X11X12Z13
-0.00300735*Z2X3X4Z5X7X8X9X10X11X12Z13
-0.00300735*Y3Y4Y7X8X9X10X11Y12
-0.00300735*Z2X3X4Z5Y7X8X9X10X11Y12
-0.00219204*Y2X3Y4Z11X12Z13
-0.00219204*Z1X2X3X4Z5Z11X12Z13
0.00219204*Y2X3Y4X12
0.00219204*Z1X2X3X4Z5X12
0.01297453*Y2X3Y4Z9X10X11X12Z13
0.01297453*Z1X2X3X4Z5Z9X10X11X12Z13
0.01297453*Y2X3Y4Y10X11Y12
0.01297453*Z1X2X3X4Z5Y10X11Y12
-0.00534216*Y2X3Y4Z7X8X9X10X11X12Z13
-0.00534216*Z1X2X3X4Z5Z7X8X9X10X11X12Z13
-0.00534216*Y2X3Y4Y8X9X10X11Y12
-0.00534216*Z1X2X3X4Z5Y8X9X10X11Y12
0.01102811*Y1X2X3Y4Z12Z13
0.01102811*Z0X1X2X3X4Z5Z12Z13
-0.00102525*Y1X2X3Y4Z10X11X12Z13
-0.00102525*Z0X1X2X3X4Z5Z10X11X12Z13
-0.00102525*Y1X2X3Y4Y11Y12
-0.00102525*Z0X1X2X3X4Z5Y11Y12
-0.01204608*Y1X2X3Y4Z8X9X10X11X12Z13
-0.01204608*Z0X1X2X3X4Z5Z8X9X10X11X12Z13
-0.01204608*Y1X2X3Y4Y9X10X11Y12
-0.01204608*Z0X1X2X3X4Z5Y9X10X11Y12
0.00236682*Y1X2X3Y4X7X8X9X10X11X12Z13
0.00236682*Z0X1X2X3X4Z5X7X8X9X10X11X12Z13
0.00236682*Y1X2X3Y4Y7X8X9X10X11Y12
0.00236682*Z0X1X2X3X4Z5Y7X8X9X10X11Y12
0.00727871*Y0X1X2X3Y4Z11X12Z13
0.00727871*X0X1X2X3X4Z5Z11X12Z13
-0.00727871*Y0X1X2X3Y4X12
-0.00727871*X0X1X2X3X4Z5X12
-0.00378889*Y0X1X2X3Y4Z9X10X11X12Z13
-0.00378889*X0X1X2X3X4Z5Z9X10X11X12Z13
-0.00378889*Y0X1X2X3Y4Y10X11Y12
-0.00378889*X0X1X2X3X4Z5Y10X11Y12
0.00636779*Y0X1X2X3Y4Z7X8X9X10X11X12Z13
0.00636779*X0X1X2X3X4Z5Z7X8X9X10X11X12Z13
0.00636779*Y0X1X2X3Y4Y8X9X10X11Y12
0.00636779*X0X1X2X3X4Z5Y8X9X10X11Y12
0.09228987*Z3Z4Z12Z13
0.00640003*Z3Z4Z10X11X12Z13
0.00640003*Z3Z4Y11Y12
0.00201244*Z3Z4Z8X9X10X11X12Z13
0.00201244*Z3Z4Y9X10X11Y12
-0.00161311*Z3Z4X7X8X9X10X11X12Z13
-0.00161311*Z3Z4Y7X8X9X10X11Y12
0.02191602*X3Z11X12Z13
-0.02191602*Z2X3Z4Z11X12Z13
-0.02191602*X3X12
0.02191602*Z2X3Z4X12
-0.00308241*X3Z9X10X11X12Z13
0.00308241*Z2X3Z4Z9X10X11X12Z13
-0.00308241*X3Y10X11Y12
0.00308241*Z2X3Z4Y10X11Y12
-0.00513861*X3Z7X8X9X10X11X12Z13
0.00513861*Z2X3Z4Z7X8X9X10X11X12Z13
-0.00513861*X3Y8X9X10X11Y12
0.00513861*Z2X3Z4Y8X9X10X11Y12
0.00797967*Y2Y3Z12Z13
0.00797967*Z1X2X3Z4Z12Z13
0.01714368*Y2Y3Z10X11X12Z13
0.01714368*Z1X2X3Z4Z10X11X12Z13
0.01714368*Y2Y3Y11Y12
0.01714368*Z1X2X3Z4Y11Y12
-0.00089577*Y2Y3Z8X9X10X11X12Z13
-0.00089577*Z1X2X3Z4Z8X9X10X11X12Z13
-0.00089577*Y2Y3Y9X10X11Y12
-0.00089577*Z1X2X3Z4Y9X10X11Y12
0.00315584*Y2Y3X7X8X9X10X11X12Z13
0.00315584*Z1X2X3Z4X7X8X9X10X11X12Z13
0.00315584*Y2Y3Y7X8X9X10X11Y12
0.00315584*Z1X2X3Z4Y7X8X9X10X11Y12
-0.00314155*Y1X2Y3Z11X12Z13
-0.00314155*Z0X1X2X3Z4Z11X12Z13
0.00314155*Y1X2Y3X12
0.00314155*Z0X1X2X3Z4X12
0.01531292*Y1X2Y3Z9X10X11X12Z13
0.01531292*Z0X1X2X3Z4Z9X10X11X12Z13
0.01531292*Y1X2Y3Y10X11Y12
0.01531292*Z0X1X2X3Z4Y10X11Y12
0.00198444*Y1X2Y3Z7X8X9X10X11X12Z13
0.00198444*Z0X1X2X3Z4Z7X8X9X10X11X12Z13
0.00198444*Y1X2Y3Y8X9X10X11Y12
0.00198444*Z0X1X2X3Z4Y8X9X10X11Y12
-0.00999378*Y0X1X2Y3Z12Z13
-0.00999378*X0X1X2X3Z4Z12Z13
-0.00204156*Y0X1X2Y3Z10X11X12Z13
-0.00204156*X0X1X2X3Z4Z10X11X12Z13
-0.00204156*Y0X1X2Y3Y11Y12
-0.00204156*X0X1X2X3Z4Y11Y12
0.00933396*Y0X1X2Y3Z8X9X10X11X12Z13
0.00933396*X0X1X2X3Z4Z8X9X10X11X12Z13
0.00933396*Y0X1X2Y3Y9X10X11Y12
0.00933396*X0X1X2X3Z4Y9X10X11Y12
0.00612318*Y0X1X2Y3X7X8X9X10X11X12Z13
0.00612318*X0X1X2X3Z4X7X8X9X10X11X12Z13
0.00612318*Y0X1X2Y3Y7X8X9X10X11Y12
0.00612318*X0X1X2X3Z4Y7X8X9X10X11Y12
0.09436587*Z2Z3Z12Z13
0.00720026*Z2Z3Z10X11X12Z13
0.00720026*Z2Z3Y11Y12
-0.00145529*Z2Z3Z8X9X10X11X12Z13
-0.00145529*Z2Z3Y9X10X11Y12
-0.00167326*Z2Z3X7X8X9X10X11X12Z13
-0.00167326*Z2Z3Y7X8X9X10X11Y12
-0.02611438*X2Z11X12Z13
0.02611438*Z1X2Z3Z11X12Z13
0.02611438*X2X12
-0.02611438*Z1X2Z3X12
0.00335793*X2Z9X10X11X12Z13
-0.00335793*Z1X2Z3Z9X10X11X12Z13
0.00335793*X2Y10X11Y12
-0.00335793*Z1X2Z3Y10X11Y12
-0.00229547*X2Z7X8X9X10X11X12Z13
0.00229547*Z1X2Z3Z7X8X9X10X11X12Z13
-0.00229547*X2Y8X9X10X11Y12
0.00229547*Z1X2Z3Y8X9X10X11Y12
0.00570536*Y1Y2Z12Z13
0.00570536*Z0X1X2Z3Z12Z13
0.02086379*Y1Y2Z10X11X12Z13
0.02086379*Z0X1X2Z3Z10X11X12Z13
0.02086379*Y1Y2Y11Y12
0.02086379*Z0X1X2Z3Y11Y12
0.00370514*Y1Y2Z8X9X10X11X12Z13
0.00370514*Z0X1X2Z3Z8X9X10X11X12Z13
0.00370514*Y1Y2Y9X10X11Y12
0.00370514*Z0X1X2Z3Y9X10X11Y12
-0.00481745*Y1Y2X7X8X9X10X11X12Z13
-0.00481745*Z0X1X2Z3X7X8X9X10X11X12Z13
-0.00481745*Y1Y2Y7X8X9X10X11Y12
-0.00481745*Z0X1X2Z3Y7X8X9X10X11Y12
-0.00408087*Y0X1Y2Z11X12Z13
-0.00408087*X0X1X2Z3Z11X12Z13
0.00408087*Y0X1Y2X12
0.00408087*X0X1X2Z3X12
-0.01097811*Y0X1Y2Z9X10X11X12Z13
-0.01097811*X0X1X2Z3Z9X10X11X12Z13
-0.01097811*Y0X1Y2Y10X11Y12
-0.01097811*X0X1X2Z3Y10X11Y12
-0.00782146*Y0X1Y2Z7X8X9X10X11X12Z13
-0.00782146*X0X1X2Z3Z7X8X9X10X11X12Z13
-0.00782146*Y0X1Y2Y8X9X10X11Y12
-0.00782146*X0X1X2Z3Y8X9X10X11Y12
0.09667086*Z1Z2Z12Z13
0.00329763*Z1Z2Z10X11X12Z13
0.00329763*Z1Z2Y11Y12
-0.00479563*Z1Z2Z8X9X10X11X12Z13
-0.00479563*Z1Z2Y9X10X11Y12
0.00524285*Z1Z2X7X8X9X10X11X12Z13
0.00524285*Z1Z2Y7X8X9X10X11Y12
0.02949540*X1Z11X12Z13
-0.02949540*Z0X1Z2Z11X12Z13
-0.02949540*X1X12
0.02949540*Z0X1Z2X12
-0.00650795*X1Z9X10X11X12Z13
0.00650795*Z0X1Z2Z9X10X11X12Z13
-0.00650795*X1Y10X11Y12
0.00650795*Z0X1Z2Y10X11Y12
0.00630099*X1Z7X8X9X10X11X12Z13
-0.00630099*Z0X1Z2Z7X8X9X10X11X12Z13
0.00630099*X1Y8X9X10X11Y12
-0.00630099*Z0X1Z2Y8X9X10X11Y12
-0.00196997*Y0Y1Z12Z13
-0.00196997*X0X1Z2Z12Z13
0.01704845*Y0Y1Z10X11X12Z13
0.01704845*X0X1Z2Z10X11X12Z13
0.01704845*Y0Y1Y11Y12
0.01704845*X0X1Z2Y11Y12
0.01011604*Y0Y1Z8X9X10X11X12Z13
0.01011604*X0X1Z2Z8X9X10X11X12Z13
0.01011604*Y0Y1Y9X10X11Y12
0.01011604*X0X1Z2Y9X10X11Y12
0.00089430*Y0Y1X7X8X9X10X11X12Z13
0.00089430*X0X1Z2X7X8X9X10X11X12Z13
0.00089430*Y0Y1Y7X8X9X10X11Y12
0.00089430*X0X1Z2Y7X8X9X10X11Y12
0.10582419*Z0Z1Z12Z13
0.01002494*Z0Z1Z10X11X12Z13
0.01002494*Z0Z1Y11Y12
-0.01028688*Z0Z1Z8X9X10X11X12Z13
-0.01028688*Z0Z1Y9X10X11Y12
-0.00039204*Z0Z1X7X8X9X10X11X12Z13
-0.00039204*Z0Z1Y7X8X9X10X11Y12
-0.02471423*X0Z11X12Z13
0.02471423*X0Z1Z11X12Z13
0.02471423*X0X12
-0.02471423*X0Z1X12
0.01677696*X0Z9X10X11X12Z13
-0.01677696*X0Z1Z9X10X11X12Z13
0.01677696*X0Y10X11Y12
-0.01677696*X0Z1Y10X11Y12
0.00129912*X0Z7X8X9X10X11X12Z13
-0.00129912*X0Z1Z7X8X9X10X11X12Z13
0.00129912*X0Y8X9X10X11Y12
-0.00129912*X0Z1Y8X9X10X11Y12
0.10497847*Z0Z12Z13
0.02701190*Z0Z10X11X12Z13
0.02701190*Z0Y11Y12
-0.00018227*Z0Z8X9X10X11X12Z13
-0.00018227*Z0Y9X10X11Y12
0.00080952*Z0X7X8X9X10X11X12Z13
0.00080952*Z0Y7X8X9X10X11Y12
0.06070873*Z10Z12
0.00291991*Z8X9X10Z12
0.00291991*Y9Y10Z11Z12
-0.00028186*X7X8X9X10Z12
-0.00028186*Y7X8X9Y10Z11Z12
0.07218866*Z9Z10Z11Z12
0.00259971*Z7X8X9Z10Z11Z12
0.00259971*Y8Y9Z11Z12
0.07901907*Z8Z9Z11Z12
0.00217238*X7X8Z9Z11Z12
0.00217238*Y7Y8Z11Z12
0.08452657*Z7Z8Z11Z12
0.09029765*Z7Z11Z12
0.02603508*Z9Y10Y11Z12
0.02603508*X10X11
0.00056117*Z7X8X9Y10Y11Z12
-0.00056117*Y8X9Y10X11
-0.02464444*Z8X9X11Z12
0.00981103*X9Z10X11Z12
-0.01483341*Z8Y9Y11Z12
-0.01483341*Y9Y11
0.00981103*Z8X9Z10X11
-0.02464444*X9X11
-0.00079919*X7X8X9X11Z12
-0.00090891*Y7X8Y9Z10X11Z12
0.00010971*X7X8Y9Y11Z12
0.00010971*Y7X8X9Y11
0.00090891*X7X8X9Z10X11
0.00079919*Y7X8Y9X11
0.02329006*Z7X8Z9Z10X11Z12
-0.01321413*X8Z10X11Z12
0.01007593*Z7Y8Y11Z12
0.01007593*Y8Z9Z10Y11
-0.01321413*Z7X8Z9X11
0.02329006*X8X11
-0.02346121*X7Z8Z10X11Z12
0.01728514*X7Z10X11Z12
-0.00617607*Y7Y11Z12
-0.00617607*Y7Z8Z10Y11
0.01728514*X7Z8X11
-0.02346121*X7X11
-0.01682570*Z7X8Y9Y10X11Z12
-0.01682570*Y8Y9Y10Y11
-0.00404377*Z8X10X11Z12
-0.00404377*Z8Z9Y10Y11
-0.01458730*X7X8X10X11Z12
-0.00437162*Y7Y8Z9X10X11Z12
-0.01021568*X7Y8Y10X11Z12
-0.01021568*Y7X8X10Y11
-0.00437162*X7X8Z9Y10Y11
-0.01458730*Y7Y8Y10Y11
-0.00829353*Z7Z8Z9X10X11Z12
-0.00829353*Z7Z8Y10Y11
-0.02047597*Z7Z9X10X11Z12
-0.02047597*Z7Y10Y11
-0.00040422*Z7Y8Y9X10X11Z12
0.00040422*X8Y9X10Y11
-0.00819721*X7X9X10X11Z12
0.00546836*X7Z8X9X10X11Z12
-0.00272885*Y7Y9X10X11Z12
-0.00272885*Y7X9X10Y11
-0.00546836*X7Z8Y9X10Y11
0.00819721*X7Y9X10Y11
0.00081431*X8X9X10X11Z12
0.00081431*Z7Y8X9X10Y11
0.09062812*Z6Z11Z12
-0.02360483*Z6Z9X10X11Z12
-0.02360483*Z6Y10Y11
0.00085652*Z6Z7X8X9X10X11Z12
0.00085652*Z6Y8X9X10Y11
0.02422234*X6Z10X11Z12
-0.02422234*Z5X6Z10X11Z12
-0.02422234*X6X11
0.02422234*Z5X6X11
0.01358373*X6Z8X9X10X11Z12
-0.01358373*Z5X6Z8X9X10X11Z12
0.01358373*X6Y9X10Y11
-0.01358373*Z5X6Y9X10Y11
-0.00030765*X6X7X8X9X10X11Z12
0.00030765*Z5X6X7X8X9X10X11Z12
-0.00030765*X6Y7X8X9X10Y11
0.00030765*Z5X6Y7X8X9X10Y11
-0.00069909*Y5Y6Z11Z12
-0.00069909*Z4X5X6Z11Z12
0.01462466*Y5Y6Z9X10X11Z12
0.01462466*Z4X5X6Z9X10X11Z12
0.01462466*Y5Y6Y10Y11
0.01462466*Z4X5X6Y10Y11
0.00909942*Y5Y6Z7X8X9X10X11Z12
0.00909942*Z4X5X6Z7X8X9X10X11Z12
0.00909942*Y5Y6Y8X9X10Y11
0.00909942*Z4X5X6Y8X9X10Y11
-0.00208312*Y4X5Y6Z10X11Z12
-0.00208312*Z3X4X5X6Z10X11Z12
0.00208312*Y4X5Y6X11
0.00208312*Z3X4X5X6X11
-0.01135209*Y4X5Y6Z8X9X10X11Z12
-0.01135209*Z3X4X5X6Z8X9X10X11Z12
-0.01135209*Y4X5Y6Y9X10Y11
-0.01135209*Z3X4X5X6Y9X10Y11
-0.00650653*Y4X5Y6X7X8X9X10X11Z12
-0.00650653*Z3X4X5X6X7X8X9X10X11Z12
-0.00650653*Y4X5Y6Y7X8X9X10Y11
-0.00650653*Z3X4X5X6Y7X8X9X10Y11
0.00287505*Y3X4X5Y6Z11Z12
0.00287505*Z2X3X4X5X6Z11Z12
-0.00143127*Y3X4X5Y6Z9X10X11Z12
-0.00143127*Z2X3X4X5X6Z9X10X11Z12
-0.00143127*Y3X4X5Y6Y10Y11
-0.00143127*Z2X3X4X5X6Y10Y11
-0.00997863*Y3X4X5Y6Z7X8X9X10X11Z12
-0.00997863*Z2X3X4X5X6Z7X8X9X10X11Z12
-0.00997863*Y3X4X5Y6Y8X9X10Y11
-0.00997863*Z2X3X4X5X6Y8X9X10Y11
-0.00313173*Y2X3X4X5Y6Z10X11Z12
-0.00313173*Z1X2X3X4X5X6Z10X11Z12
0.00313173*Y2X3X4X5Y6X11
0.00313173*Z1X2X3X4X5X6X11
0.00053898*Y2X3X4X5Y6Z8X9X10X11Z12
0.00053898*Z1X2X3X4X5X6Z8X9X10X11Z12
0.00053898*Y2X3X4X5Y6Y9X10Y11
0.00053898*Z1X2X3X4X5X6Y9X10Y11
-0.00957845*Y2X3X4X5Y6X7X8X9X10X11Z12
-0.00957845*Z1X2X3X4X5X6X7X8X9X10X11Z12
-0.00957845*Y2X3X4X5Y6Y7X8X9X10Y11
-0.00957845*Z1X2X3X4X5X6Y7X8X9X10Y11
0.00575550*Y1X2X3X4X5Y6Z11Z12
0.00575550*Z0X1X2X3X4X5X6Z11Z12
-0.00424673*Y1X2X3X4X5Y6Z9X10X11Z12
-0.00424673*Z0X1X2X3X4X5X6Z9X10X11Z12
-0.00424673*Y1X2X3X4X5Y6Y10Y11
-0.00424673*Z0X1X2X3X4X5X6Y10Y11
0.00112321*Y1X2X3X4X5Y6Z7X8X9X10X11Z12
0.00112321*Z0X1X2X3X4X5X6Z7X8X9X10X11Z12
0.00112321*Y1X2X3X4X5Y6Y8X9X10Y11
0.00112321*Z0X1X2X3X4X5X6Y8X9X10Y11
-0.00427363*Y0X1X2X3X4X5Y6Z10X11Z12
-0.00427363*X0X1X2X3X4X5X6Z10X11Z12
0.00427363*Y0X1X2X3X4X5Y6X11
0.00427363*X0X1X2X3X4X5X6X11
-0.00537370*Y0X1X2X3X4X5Y6Z8X9X10X11Z12
-0.00537370*X0X1X2X3X4X5X6Z8X9X10X11Z12
-0.00537370*Y0X1X2X3X4X5Y6Y9X10Y11
-0.00537370*X0X1X2X3X4X5X6Y9X10Y11
-0.00463025*Y0X1X2X3X4X5Y6X7X8X9X10X11Z12
-0.00463025*X0X1X2X3X4X5X6X7X8X9X10X11Z12
-0.00463025*Y0X1X2X3X4X5Y6Y7X8X9X10Y11
-0.00463025*X0X1X2X3X4X5X6Y7X8X9X10Y11
0.09085886*Z5Z6Z11Z12
-0.00795841*Z5Z6Z9X10X11Z12
-0.00795841*Z5Z6Y10Y11
0.01102811*Z5Z6Z7X8X9X10X11Z12
0.01102811*Z5Z6Y8X9X10Y11
0.02522332*X5Z10X11Z12
-0.02522332*Z4X5Z6Z10X11Z12
-0.02522332*X5X11
0.02522332*Z4X5Z6X11
0.00219204*X5Z8X9X10X11Z12
-0.00219204*Z4X5Z6Z8X9X10X11Z12
0.00219204*X5Y9X10Y11
-0.00219204*Z4X5Z6Y9X10Y11
-0.00727871*X5X7X8X9X10X11Z12
0.00727871*Z4X5Z6X7X8X9X10X11Z12
-0.00727871*X5Y7X8X9X10Y11
0.00727871*Z4X5Z6Y7X8X9X10Y11
-0.00215959*Y4Y5Z11Z12
-0.00215959*Z3X4X5Z6Z11Z12
-0.01624927*Y4Y5Z9X10X11Z12
-0.01624927*Z3X4X5Z6Z9X10X11Z12
-0.01624927*Y4Y5Y10Y11
-0.01624927*Z3X4X5Z6Y10Y11
-0.00102525*Y4Y5Z7X8X9X10X11Z12
-0.00102525*Z3X4X5Z6Z7X8X9X10X11Z12
-0.00102525*Y4Y5Y8X9X10Y11
-0.00102525*Z3X4X5Z6Y8X9X10Y11
-0.00086706*Y3X4Y5Z10X11Z12
-0.00086706*Z2X3X4X5Z6Z10X11Z12
0.00086706*Y3X4Y5X11
0.00086706*Z2X3X4X5Z6X11
0.01297453*Y3X4Y5Z8X9X10X11Z12
0.01297453*Z2X3X4X5Z6Z8X9X10X11Z12
0.01297453*Y3X4Y5Y9X10Y11
0.01297453*Z2X3X4X5Z6Y9X10Y11
-0.00378889*Y3X4Y5X7X8X9X10X11Z12
-0.00378889*Z2X3X4X5Z6X7X8X9X10X11Z12
-0.00378889*Y3X4Y5Y7X8X9X10Y11
-0.00378889*Z2X3X4X5Z6Y7X8X9X10Y11
-0.00302935*Y2X3X4Y5Z11Z12
-0.00302935*Z1X2X3X4X5Z6Z11Z12
0.00397346*Y2X3X4Y5Z9X10X11Z12
0.00397346*Z1X2X3X4X5Z6Z9X10X11Z12
0.00397346*Y2X3X4Y5Y10Y11
0.00397346*Z1X2X3X4X5Z6Y10Y11
-0.01204608*Y2X3X4Y5Z7X8X9X10X11Z12
-0.01204608*Z1X2X3X4X5Z6Z7X8X9X10X11Z12
-0.01204608*Y2X3X4Y5Y8X9X10Y11
-0.01204608*Z1X2X3X4X5Z6Y8X9X10Y11
-0.00086218*Y1X2X3X4Y5Z10X11Z12
-0.00086218*Z0X1X2X3X4X5Z6Z10X11Z12
0.00086218*Y1X2X3X4Y5X11
0.00086218*Z0X1X2X3X4X5Z6X11
-0.00534216*Y1X2X3X4Y5Z8X9X10X11Z12
-0.00534216*Z0X1X2X3X4X5Z6Z8X9X10X11Z12
-0.00534216*Y1X2X3X4Y5Y9X10Y11
-0.00534216*Z0X1X2X3X4X5Z6Y9X10Y11
0.00636779*Y1X2X3X4Y5X7X8X9X10X11Z12
0.00636779*Z0X1X2X3X4X5Z6X7X8X9X10X11Z12
0.00636779*Y1X2X3X4Y5Y7X8X9X10Y11
0.00636779*Z0X1X2X3X4X5Z6Y7X8X9X10Y11
0.00571815*Y0X1X2X3X4Y5Z11Z12
0.00571815*X0X1X2X3X4X5Z6Z11Z12
-0.00300735*Y0X1X2X3X4Y5Z9X10X11Z12
-0.00300735*X0X1X2X3X4X5Z6Z9X10X11Z12
-0.00300735*Y0X1X2X3X4Y5Y10Y11
-0.00300735*X0X1X2X3X4X5Z6Y10Y11
0.00236682*Y0X1X2X3X4Y5Z7X8X9X10X11Z12
0.00236682*X0X1X2X3X4X5Z6Z7X8X9X10X11Z12
0.00236682*Y0X1X2X3X4Y5Y8X9X10Y11
0.00236682*X0X1X2X3X4X5Z6Y8X9X10Y11
0.09508763*Z4Z5Z11Z12
-0.00394141*Z4Z5Z9X10X11Z12
-0.00394141*Z4Z5Y10Y11
0.00339473*Z4Z5Z7X8X9X10X11Z12
0.00339473*Z4Z5Y8X9X10Y11
-0.03072272*X4Z10X11Z12
0.03072272*Z3X4Z5Z10X11Z12
0.03072272*X4X11
-0.03072272*Z3X4Z5X11
-0.00133276*X4Z8X9X10X11Z12
0.00133276*Z3X4Z5Z8X9X10X11Z12
-0.00133276*X4Y9X10Y11
0.00133276*Z3X4Z5Y9X10Y11
-0.00141921*X4X7X8X9X10X11Z12
0.00141921*Z3X4Z5X7X8X9X10X11Z12
-0.00141921*X4Y7X8X9X10Y11
0.00141921*Z3X4Z5Y7X8X9X10Y11
-0.00394141*Y3Y4Z11Z12
-0.00394141*Z2X3X4Z5Z11Z12
0.02079393*Y3Y4Z9X10X11Z12
0.02079393*Z2X3X4Z5Z9X10X11Z12
0.02079393*Y3Y4Y10Y11
0.02079393*Z2X3X4Z5Y10Y11
-0.00227788*Y3Y4Z7X8X9X10X11Z12
-0.00227788*Z2X3X4Z5Z7X8X9X10X11Z12
-0.00227788*Y3Y4Y8X9X10Y11
-0.00227788*Z2X3X4Z5Y8X9X10Y11
0.00133276*Y2X3Y4Z10X11Z12
0.00133276*Z1X2X3X4Z5Z10X11Z12
-0.00133276*Y2X3Y4X11
-0.00133276*Z1X2X3X4Z5X11
0.01819302*Y2X3Y4Z8X9X10X11Z12
0.01819302*Z1X2X3X4Z5Z8X9X10X11Z12
0.01819302*Y2X3Y4Y9X10Y11
0.01819302*Z1X2X3X4Z5Y9X10Y11
-0.00086044*Y2X3Y4X7X8X9X10X11Z12
-0.00086044*Z1X2X3X4Z5X7X8X9X10X11Z12
-0.00086044*Y2X3Y4Y7X8X9X10Y11
-0.00086044*Z1X2X3X4Z5Y7X8X9X10Y11
0.00339473*Y1X2X3Y4Z11Z12
0.00339473*Z0X1X2X3X4Z5Z11Z12
-0.00227788*Y1X2X3Y4Z9X10X11Z12
-0.00227788*Z0X1X2X3X4Z5Z9X10X11Z12
-0.00227788*Y1X2X3Y4Y10Y11
-0.00227788*Z0X1X2X3X4Z5Y10Y11
0.01328801*Y1X2X3Y4Z7X8X9X10X11Z12
0.01328801*Z0X1X2X3X4Z5Z7X8X9X10X11Z12
0.01328801*Y1X2X3Y4Y8X9X10Y11
0.01328801*Z0X1X2X3X4Z5Y8X9X10Y11
0.00141921*Y0X1X2X3Y4Z10X11Z12
0.00141921*X0X1X2X3X4Z5Z10X11Z12
-0.00141921*Y0X1X2X3Y4X11
-0.00141921*X0X1X2X3X4Z5X11
-0.00086044*Y0X1X2X3Y4Z8X9X10X11Z12
-0.00086044*X0X1X2X3X4Z5Z8X9X10X11Z12
-0.00086044*Y0X1X2X3Y4Y9X10Y11
-0.00086044*X0X1X2X3X4Z5Y9X10Y11
0.01017564*Y0X1X2X3Y4X7X8X9X10X11Z12
0.01017564*X0X1X2X3X4Z5X7X8X9X10X11Z12
0.01017564*Y0X1X2X3Y4Y7X8X9X10Y11
0.01017564*X0X1X2X3X4Z5Y7X8X9X10Y11
0.09143145*Z3Z4Z11Z12
-0.00301773*Z3Z4Z9X10X11Z12
-0.00301773*Z3Z4Y10Y11
0.00078635*Z3Z4Z7X8X9X10X11Z12
0.00078635*Z3Z4Y8X9X10Y11
-0.02301735*X3Z10X11Z12
0.02301735*Z2X3Z4Z10X11Z12
0.02301735*X3X11
-0.02301735*Z2X3Z4X11
0.00397285*X3Z8X9X10X11Z12
-0.00397285*Z2X3Z4Z8X9X10X11Z12
0.00397285*X3Y9X10Y11
-0.00397285*Z2X3Z4Y9X10Y11
0.00130339*X3X7X8X9X10X11Z12
-0.00130339*Z2X3Z4X7X8X9X10X11Z12
0.00130339*X3Y7X8X9X10Y11
-0.00130339*Z2X3Z4Y7X8X9X10Y11
0.00425268*Y2Y3Z11Z12
0.00425268*Z1X2X3Z4Z11Z12
-0.01880626*Y2Y3Z9X10X11Z12
-0.01880626*Z1X2X3Z4Z9X10X11Z12
-0.01880626*Y2Y3Y10Y11
-0.01880626*Z1X2X3Z4Y10Y11
0.00276297*Y2Y3Z7X8X9X10X11Z12
0.00276297*Z1X2X3Z4Z7X8X9X10X11Z12
0.00276297*Y2Y3Y8X9X10Y11
0.00276297*Z1X2X3Z4Y8X9X10Y11
0.00134752*Y1X2Y3Z10X11Z12
0.00134752*Z0X1X2X3Z4Z10X11Z12
-0.00134752*Y1X2Y3X11
-0.00134752*Z0X1X2X3Z4X11
0.01283890*Y1X2Y3Z8X9X10X11Z12
0.01283890*Z0X1X2X3Z4Z8X9X10X11Z12
0.01283890*Y1X2Y3Y9X10Y11
0.01283890*Z0X1X2X3Z4Y9X10Y11
-0.00357202*Y1X2Y3X7X8X9X10X11Z12
-0.00357202*Z0X1X2X3Z4X7X8X9X10X11Z12
-0.00357202*Y1X2Y3Y7X8X9X10Y11
-0.00357202*Z0X1X2X3Z4Y7X8X9X10Y11
0.00113734*Y0X1X2Y3Z11Z12
0.00113734*X0X1X2X3Z4Z11Z12
-0.00119368*Y0X1X2Y3Z9X10X11Z12
-0.00119368*X0X1X2X3Z4Z9X10X11Z12
-0.00119368*Y0X1X2Y3Y10Y11
-0.00119368*X0X1X2X3Z4Y10Y11
-0.00974809*Y0X1X2Y3Z7X8X9X10X11Z12
-0.00974809*X0X1X2X3Z4Z7X8X9X10X11Z12
-0.00974809*Y0X1X2Y3Y8X9X10Y11
-0.00974809*X0X1X2X3Z4Y8X9X10Y11
0.09298259*Z2Z3Z11Z12
-0.00722300*Z2Z3Z9X10X11Z12
-0.00722300*Z2Z3Y10Y11
0.00016363*Z2Z3Z7X8X9X10X11Z12
0.00016363*Z2Z3Y8X9X10Y11
0.02861729*X2Z10X11Z12
-0.02861729*Z1X2Z3Z10X11Z12
-0.02861729*X2X11
0.02861729*Z1X2Z3X11
0.00391330*X2Z8X9X10X11Z12
-0.00391330*Z1X2Z3Z8X9X10X11Z12
0.00391330*X2Y9X10Y11
-0.00391330*Z1X2Z3Y9X10Y11
0.00134328*X2X7X8X9X10X11Z12
-0.00134328*Z1X2Z3X7X8X9X10X11Z12
0.00134328*X2Y7X8X9X10Y11
-0.00134328*Z1X2Z3Y7X8X9X10Y11
0.00032183*Y1Y2Z11Z12
0.00032183*Z0X1X2Z3Z11Z12
-0.01666207*Y1Y2Z9X10X11Z12
-0.01666207*Z0X1X2Z3Z9X10X11Z12
-0.01666207*Y1Y2Y10Y11
-0.01666207*Z0X1X2Z3Y10Y11
-0.00322466*Y1Y2Z7X8X9X10X11Z12
-0.00322466*Z0X1X2Z3Z7X8X9X10X11Z12
-0.00322466*Y1Y2Y8X9X10Y11
-0.00322466*Z0X1X2Z3Y8X9X10Y11
-0.00210258*Y0X1Y2Z10X11Z12
-0.00210258*X0X1X2Z3Z10X11Z12
0.00210258*Y0X1Y2X11
0.00210258*X0X1X2Z3X11
-0.01155896*Y0X1Y2Z8X9X10X11Z12
-0.01155896*X0X1X2Z3Z8X9X10X11Z12
-0.01155896*Y0X1Y2Y9X10Y11
-0.01155896*X0X1X2Z3Y9X10Y11
-0.00716652*Y0X1Y2X7X8X9X10X11Z12
-0.00716652*X0X1X2Z3X7X8X9X10X11Z12
-0.00716652*Y0X1Y2Y7X8X9X10Y11
-0.00716652*X0X1X2Z3Y7X8X9X10Y11
0.09721209*Z1Z2Z11Z12
-0.00795706*Z1Z2Z9X10X11Z12
-0.00795706*Z1Z2Y10Y11
0.00511028*Z1Z2Z7X8X9X10X11Z12
0.00511028*Z1Z2Y8X9X10Y11
-0.02605303*X1Z10X11Z12
0.02605303*Z0X1Z2Z10X11Z12
0.02605303*X1X11
-0.02605303*Z0X1Z2X11
-0.00470605*X1Z8X9X10X11Z12
0.00470605*Z0X1Z2Z8X9X10X11Z12
-0.00470605*X1Y9X10Y11
0.00470605*Z0X1Z2Y9X10Y11
0.00740170*X1X7X8X9X10X11Z12
-0.00740170*Z0X1Z2X7X8X9X10X11Z12
0.00740170*X1Y7X8X9X10Y11
-0.00740170*Z0X1Z2Y7X8X9X10Y11
0.00131193*Y0Y1Z11Z12
0.00131193*X0X1Z2Z11Z12
-0.01593058*Y0Y1Z9X10X11Z12
-0.01593058*X0X1Z2Z9X10X11Z12
-0.01593058*Y0Y1Y10Y11
-0.01593058*X0X1Z2Y10Y11
-0.01013056*Y0Y1Z7X8X9X10X11Z12
-0.01013056*X0X1Z2Z7X8X9X10X11Z12
-0.01013056*Y0Y1Y8X9X10Y11
-0.01013056*X0X1Z2Y8X9X10Y11
0.09781458*Z0Z1Z11Z12
-0.01151819*Z0Z1Z9X10X11Z12
-0.01151819*Z0Z1Y10Y11
0.01139854*Z0Z1Z7X8X9X10X11Z12
0.01139854*Z0Z1Y8X9X10Y11
0.02703324*X0Z10X11Z12
-0.02703324*X0Z1Z10X11Z12
-0.02703324*X0X11
0.02703324*X0Z1X11
0.01559891*X0Z8X9X10X11Z12
-0.01559891*X0Z1Z8X9X10X11Z12
0.01559891*X0Y9X10Y11
-0.01559891*X0Z1Y9X10Y11
-0.00051231*X0X7X8X9X10X11Z12
0.00051231*X0Z1X7X8X9X10X11Z12
-0.00051231*X0Y7X8X9X10Y11
0.00051231*X0Z1Y7X8X9X10Y11
0.10047329*Z0Z11Z12
-0.02764249*Z0Z9X10X11Z12
-0.02764249*Z0Y10Y11
0.00132661*Z0Z7X8X9X10X11Z12
0.00132661*Z0Y8X9X10Y11
0.07023095*Z9Z11
0.00382787*Z7X8X9Z11
0.00382787*Y8Y9Z10Z11
0.07529070*Z8Z9Z10Z11
0.00375504*X7X8Z9Z10Z11
0.00375504*Y7Y8Z10Z11
0.08330182*Z7Z8Z10Z11
0.09233061*Z7Z10Z11
-0.02875388*Z8Y9Y10Z11
-0.02875388*X9X10
0.00032766*X7X8Y9Y10Z11
-0.00032766*Y7X8Y9X10
0.02467625*Z7X8X10Z11
-0.00538000*X8Z9X10Z11
0.01929625*Z7Y8Y10Z11
0.01929625*Y8Y10
-0.00538000*Z7X8Z9X10
0.02467625*X8X10
-0.02256754*X7Z8Z9X10Z11
0.01116415*X7Z9X10Z11
-0.01140339*Y7Y10Z11
-0.01140339*Y7Z8Z9Y10
0.01116415*X7Z8X10
-0.02256754*X7X10
0.01632290*X7Y8Y9X10Z11
0.01632290*Y7Y8Y9Y10
0.00573124*Z7X9X10Z11
0.00573124*Z7Z8Y9Y10
0.01801354*Z7Z8X9X10Z11
0.01801354*Z7Y9Y10
-0.00722370*Y7Y8X9X10Z11
0.00722370*X7Y8X9Y10
0.09576268*Z6Z10Z11
0.02451599*Z6Z8X9X10Z11
0.02451599*Z6Y9Y10
0.00075203*Z6X7X8X9X10Z11
0.00075203*Z6Y7X8X9Y10
0.02096570*X6Z9X10Z11
-0.02096570*Z5X6Z9X10Z11
-0.02096570*X6X10
0.02096570*Z5X6X10
0.01538162*X6Z7X8X9X10Z11
-0.01538162*Z5X6Z7X8X9X10Z11
0.01538162*X6Y8X9Y10
-0.01538162*Z5X6Y8X9Y10
-0.00448401*Y5Y6Z10Z11
-0.00448401*Z4X5X6Z10Z11
-0.01558051*Y5Y6Z8X9X10Z11
-0.01558051*Z4X5X6Z8X9X10Z11
-0.01558051*Y5Y6Y9Y10
-0.01558051*Z4X5X6Y9Y10
-0.00952407*Y5Y6X7X8X9X10Z11
-0.00952407*Z4X5X6X7X8X9X10Z11
-0.00952407*Y5Y6Y7X8X9Y10
-0.00952407*Z4X5X6Y7X8X9Y10
-0.00152752*Y4X5Y6Z9X10Z11
-0.00152752*Z3X4X5X6Z9X10Z11
0.00152752*Y4X5Y6X10
0.00152752*Z3X4X5X6X10
-0.01228136*Y4X5Y6Z7X8X9X10Z11
-0.01228136*Z3X4X5X6Z7X8X9X10Z11
-0.01228136*Y4X5Y6Y8X9Y10
-0.01228136*Z3X4X5X6Y8X9Y10
-0.00094521*Y3X4X5Y6Z10Z11
-0.00094521*Z2X3X4X5X6Z10Z11
0.00178475*Y3X4X5Y6Z8X9X10Z11
0.00178475*Z2X3X4X5X6Z8X9X10Z11
0.00178475*Y3X4X5Y6Y9Y10
0.00178475*Z2X3X4X5X6Y9Y10
0.01365094*Y3X4X5Y6X7X8X9X10Z11
0.01365094*Z2X3X4X5X6X7X8X9X10Z11
0.01365094*Y3X4X5Y6Y7X8X9Y10
0.01365094*Z2X3X4X5X6Y7X8X9Y10
0.00105564*Y2X3X4X5Y6Z9X10Z11
0.00105564*Z1X2X3X4X5X6Z9X10Z11
-0.00105564*Y2X3X4X5Y6X10
-0.00105564*Z1X2X3X4X5X6X10
0.00186340*Y2X3X4X5Y6Z7X8X9X10Z11
0.00186340*Z1X2X3X4X5X6Z7X8X9X10Z11
0.00186340*Y2X3X4X5Y6Y8X9Y10
0.00186340*Z1X2X3X4X5X6Y8X9Y10
-0.00332012*Y1X2X3X4X5Y6Z10Z11
-0.00332012*Z0X1X2X3X4X5X6Z10Z11
0.00181737*Y1X2X3X4X5Y6Z8X9X10Z11
0.00181737*Z0X1X2X3X4X5X6Z8X9X10Z11
0.00181737*Y1X2X3X4X5Y6Y9Y10
0.00181737*Z0X1X2X3X4X5X6Y9Y10
0.00604336*Y1X2X3X4X5Y6X7X8X9X10Z11
0.00604336*Z0X1X2X3X4X5X6X7X8X9X10Z11
0.00604336*Y1X2X3X4X5Y6Y7X8X9Y10
0.00604336*Z0X1X2X3X4X5X6Y7X8X9Y10
0.00626689*Y0X1X2X3X4X5Y6Z9X10Z11
0.00626689*X0X1X2X3X4X5X6Z9X10Z11
-0.00626689*Y0X1X2X3X4X5Y6X10
-0.00626689*X0X1X2X3X4X5X6X10
0.00443783*Y0X1X2X3X4X5Y6Z7X8X9X10Z11
0.00443783*X0X1X2X3X4X5X6Z7X8X9X10Z11
0.00443783*Y0X1X2X3X4X5Y6Y8X9Y10
0.00443783*X0X1X2X3X4X5X6Y8X9Y10
0.09228987*Z5Z6Z10Z11
0.00797967*Z5Z6Z8X9X10Z11
0.00797967*Z5Z6Y9Y10
-0.00999378*Z5Z6X7X8X9X10Z11
-0.00999378*Z5Z6Y7X8X9Y10
0.02191602*X5Z9X10Z11
-0.02191602*Z4X5Z6Z9X10Z11
-0.02191602*X5X10
0.02191602*Z4X5Z6X10
0.00314155*X5Z7X8X9X10Z11
-0.00314155*Z4X5Z6Z7X8X9X10Z11
0.00314155*X5Y8X9Y10
-0.00314155*Z4X5Z6Y8X9Y10
0.00640003*Y4Y5Z10Z11
0.00640003*Z3X4X5Z6Z10Z11
0.01714368*Y4Y5Z8X9X10Z11
0.01714368*Z3X4X5Z6Z8X9X10Z11
0.01714368*Y4Y5Y9Y10
0.01714368*Z3X4X5Z6Y9Y10
-0.00204156*Y4Y5X7X8X9X10Z11
-0.00204156*Z3X4X5Z6X7X8X9X10Z11
-0.00204156*Y4Y5Y7X8X9Y10
-0.00204156*Z3X4X5Z6Y7X8X9Y10
0.00308241*Y3X4Y5Z9X10Z11
0.00308241*Z2X3X4X5Z6Z9X10Z11
-0.00308241*Y3X4Y5X10
-0.00308241*Z2X3X4X5Z6X10
0.01531292*Y3X4Y5Z7X8X9X10Z11
0.01531292*Z2X3X4X5Z6Z7X8X9X10Z11
0.01531292*Y3X4Y5Y8X9Y10
0.01531292*Z2X3X4X5Z6Y8X9Y10
0.00201244*Y2X3X4Y5Z10Z11
0.00201244*Z1X2X3X4X5Z6Z10Z11
-0.00089577*Y2X3X4Y5Z8X9X10Z11
-0.00089577*Z1X2X3X4X5Z6Z8X9X10Z11
-0.00089577*Y2X3X4Y5Y9Y10
-0.00089577*Z1X2X3X4X5Z6Y9Y10
0.00933396*Y2X3X4Y5X7X8X9X10Z11
0.00933396*Z1X2X3X4X5Z6X7X8X9X10Z11
0.00933396*Y2X3X4Y5Y7X8X9Y10
0.00933396*Z1X2X3X4X5Z6Y7X8X9Y10
0.00513861*Y1X2X3X4Y5Z9X10Z11
0.00513861*Z0X1X2X3X4X5Z6Z9X10Z11
-0.00513861*Y1X2X3X4Y5X10
-0.00513861*Z0X1X2X3X4X5Z6X10
0.00198444*Y1X2X3X4Y5Z7X8X9X10Z11
0.00198444*Z0X1X2X3X4X5Z6Z7X8X9X10Z11
0.00198444*Y1X2X3X4Y5Y8X9Y10
0.00198444*Z0X1X2X3X4X5Z6Y8X9Y10
-0.00161311*Y0X1X2X3X4Y5Z10Z11
-0.00161311*X0X1X2X3X4X5Z6Z10Z11
0.00315584*Y0X1X2X3X4Y5Z8X9X10Z11
0.00315584*X0X1X2X3X4X5Z6Z8X9X10Z11
0.00315584*Y0X1X2X3X4Y5Y9Y10
0.00315584*X0X1X2X3X4X5Z6Y9Y10
0.00612318*Y0X1X2X3X4Y5X7X8X9X10Z11
0.00612318*X0X1X2X3X4X5Z6X7X8X9X10Z11
0.00612318*Y0X1X2X3X4Y5Y7X8X9Y10
0.00612318*X0X1X2X3X4X5Z6Y7X8X9Y10
0.09143145*Z4Z5Z10Z11
0.00425268*Z4Z5Z8X9X10Z11
0.00425268*Z4Z5Y9Y10
0.00113734*Z4Z5X7X8X9X10Z11
0.00113734*Z4Z5Y7X8X9Y10
-0.02301735*X4Z9X10Z11
0.02301735*Z3X4Z5Z9X10Z11
0.02301735*X4X10
-0.02301735*Z3X4Z5X10
-0.00134752*X4Z7X8X9X10Z11
0.00134752*Z3X4Z5Z7X8X9X10Z11
-0.00134752*X4Y8X9Y10
0.00134752*Z3X4Z5Y8X9Y10
-0.00301773*Y3Y4Z10Z11
-0.00301773*Z2X3X4Z5Z10Z11
-0.01880626*Y3Y4Z8X9X10Z11
-0.01880626*Z2X3X4Z5Z8X9X10Z11
-0.01880626*Y3Y4Y9Y10
-0.01880626*Z2X3X4Z5Y9Y10
-0.00119368*Y3Y4X7X8X9X10Z11
-0.00119368*Z2X3X4Z5X7X8X9X10Z11
-0.00119368*Y3Y4Y7X8X9Y10
-0.00119368*Z2X3X4Z5Y7X8X9Y10
-0.00397285*Y2X3Y4Z9X10Z11
-0.00397285*Z1X2X3X4Z5Z9X10Z11
0.00397285*Y2X3Y4X10
0.00397285*Z1X2X3X4Z5X10
0.01283890*Y2X3Y4Z7X8X9X10Z11
0.01283890*Z1X2X3X4Z5Z7X8X9X10Z11
0.01283890*Y2X3Y4Y8X9Y10
0.01283890*Z1X2X3X4Z5Y8X9Y10
0.00078635*Y1X2X3Y4Z10Z11
0.00078635*Z0X1X2X3X4Z5Z10Z11
0.00276297*Y1X2X3Y4Z8X9X10Z11
0.00276297*Z0X1X2X3X4Z5Z8X9X10Z11
0.00276297*Y1X2X3Y4Y9Y10
0.00276297*Z0X1X2X3X4Z5Y9Y10
-0.00974809*Y1X2X3Y4X7X8X9X10Z11
-0.00974809*Z0X1X2X3X4Z5X7X8X9X10Z11
-0.00974809*Y1X2X3Y4Y7X8X9Y10
-0.00974809*Z0X1X2X3X4Z5Y7X8X9Y10
-0.00130339*Y0X1X2X3Y4Z9X10Z11
-0.00130339*X0X1X2X3X4Z5Z9X10Z11
0.00130339*Y0X1X2X3Y4X10
0.00130339*X0X1X2X3X4Z5X10
-0.00357202*Y0X1X2X3Y4Z7X8X9X10Z11
-0.00357202*X0X1X2X3X4Z5Z7X8X9X10Z11
-0.00357202*Y0X1X2X3Y4Y8X9Y10
-0.00357202*X0X1X2X3X4Z5Y8X9Y10
0.09708718*Z3Z4Z10Z11
0.00620312*Z3Z4Z8X9X10Z11
0.00620312*Z3Z4Y9Y10
-0.00175833*Z3Z4X7X8X9X10Z11
-0.00175833*Z3Z4Y7X8X9Y10
-0.02558016*X3Z9X10Z11
0.02558016*Z2X3Z4Z9X10Z11
0.02558016*X3X10
-0.02558016*Z2X3Z4X10
-0.00353272*X3Z7X8X9X10Z11
0.00353272*Z2X3Z4Z7X8X9X10Z11
-0.00353272*X3Y8X9Y10
0.00353272*Z2X3Z4Y8X9Y10
0.00620312*Y2Y3Z10Z11
0.00620312*Z1X2X3Z4Z10Z11
0.02080526*Y2Y3Z8X9X10Z11
0.02080526*Z1X2X3Z4Z8X9X10Z11
0.02080526*Y2Y3Y9Y10
0.02080526*Z1X2X3Z4Y9Y10
0.00155944*Y2Y3X7X8X9X10Z11
0.00155944*Z1X2X3Z4X7X8X9X10Z11
0.00155944*Y2Y3Y7X8X9Y10
0.00155944*Z1X2X3Z4Y7X8X9Y10
0.00353272*Y1X2Y3Z9X10Z11
0.00353272*Z0X1X2X3Z4Z9X10Z11
-0.00353272*Y1X2Y3X10
-0.00353272*Z0X1X2X3Z4X10
0.01727889*Y1X2Y3Z7X8X9X10Z11
0.01727889*Z0X1X2X3Z4Z7X8X9X10Z11
0.01727889*Y1X2Y3Y8X9Y10
0.01727889*Z0X1X2X3Z4Y8X9Y10
-0.00175833*Y0X1X2Y3Z10Z11
-0.00175833*X0X1X2X3Z4Z10Z11
0.00155944*Y0X1X2Y3Z8X9X10Z11
0.00155944*X0X1X2X3Z4Z8X9X10Z11
0.00155944*Y0X1X2Y3Y9Y10
0.00155944*X0X1X2X3Z4Y9Y10
0.01498861*Y0X1X2Y3X7X8X9X10Z11
0.01498861*X0X1X2X3Z4X7X8X9X10Z11
0.01498861*Y0X1X2Y3Y7X8X9Y10
0.01498861*X0X1X2X3Z4Y7X8X9Y10
0.09581111*Z2Z3Z10Z11
0.00590019*Z2Z3Z8X9X10Z11
0.00590019*Z2Z3Y9Y10
-0.00187810*Z2Z3X7X8X9X10Z11
-0.00187810*Z2Z3Y7X8X9Y10
0.02285369*X2Z9X10Z11
-0.02285369*Z1X2Z3Z9X10Z11
-0.02285369*X2X10
0.02285369*Z1X2Z3X10
0.00176119*X2Z7X8X9X10Z11
-0.00176119*Z1X2Z3Z7X8X9X10Z11
0.00176119*X2Y8X9Y10
-0.00176119*Z1X2Z3Y8X9Y10
0.00736058*Y1Y2Z10Z11
0.00736058*Z0X1X2Z3Z10Z11
0.01753506*Y1Y2Z8X9X10Z11
0.01753506*Z0X1X2Z3Z8X9X10Z11
0.01753506*Y1Y2Y9Y10
0.01753506*Z0X1X2Z3Y9Y10
-0.00108442*Y1Y2X7X8X9X10Z11
-0.00108442*Z0X1X2Z3X7X8X9X10Z11
-0.00108442*Y1Y2Y7X8X9Y10
-0.00108442*Z0X1X2Z3Y7X8X9Y10
-0.00155044*Y0X1Y2Z9X10Z11
-0.00155044*X0X1X2Z3Z9X10Z11
0.00155044*Y0X1Y2X10
0.00155044*X0X1X2Z3X10
-0.01248781*Y0X1Y2Z7X8X9X10Z11
-0.01248781*X0X1X2Z3Z7X8X9X10Z11
-0.01248781*Y0X1Y2Y8X9Y10
-0.01248781*X0X1X2Z3Y8X9Y10
0.09609596*Z1Z2Z10Z11
0.00813498*Z1Z2Z8X9X10Z11
0.00813498*Z1Z2Y9Y10
0.00078125*Z1Z2X7X8X9X10Z11
0.00078125*Z1Z2Y7X8X9Y10
-0.02291507*X1Z9X10Z11
0.02291507*Z0X1Z2Z9X10Z11
0.02291507*X1X10
-0.02291507*Z0X1Z2X10
-0.00614154*X1Z7X8X9X10Z11
0.00614154*Z0X1Z2Z7X8X9X10Z11
-0.00614154*X1Y8X9Y10
0.00614154*Z0X1Z2Y8X9Y10
0.00531448*Y0Y1Z10Z11
0.00531448*X0X1Z2Z10Z11
0.01710415*Y0Y1Z8X9X10Z11
0.01710415*X0X1Z2Z8X9X10Z11
0.01710415*Y0Y1Y9Y10
0.01710415*X0X1Z2Y9Y10
0.01140175*Y0Y1X7X8X9X10Z11
0.01140175*X0X1Z2X7X8X9X10Z11
0.01140175*Y0Y1Y7X8X9Y10
0.01140175*X0X1Z2Y7X8X9Y10
0.10058070*Z0Z1Z10Z11
0.01187278*Z0Z1Z8X9X10Z11
0.01187278*Z0Z1Y9Y10
-0.01100802*Z0Z1X7X8X9X10Z11
-0.01100802*Z0Z1Y7X8X9Y10
0.02365196*X0Z9X10Z11
-0.02365196*X0Z1Z9X10Z11
-0.02365196*X0X10
0.02365196*X0Z1X10
0.01823173*X0Z7X8X9X10Z11
-0.01823173*X0Z1Z7X8X9X10Z11
0.01823173*X0Y8X9Y10
-0.01823173*X0Z1Y8X9Y10
0.10731922*Z0Z10Z11
0.02941529*Z0Z8X9X10Z11
0.02941529*Z0Y9Y10
0.00077208*Z0X7X8X9X10Z11
0.00077208*Z0Y7X8X9Y10
0.06755048*Z8Z10
0.00298436*X7X8Z10
0.00298436*Y7Y8Z9Z10
0.07999983*Z7Z8Z9Z10
0.09130685*Z7Z9Z10
-0.02996620*Z7Y8Y9Z10
-0.02996620*X8X9
0.02679552*X7X9Z10
-0.00980765*X7Z8X9Z10
0.01698787*Y7Y9Z10
0.01698787*Y7Y9
-0.00980765*X7Z8X9
0.02679552*X7X9
0.01295268*X8X9Z10
0.01295268*Z7Y8Y9
0.09845094*Z6Z9Z10
0.02458671*Z6Z7X8X9Z10
0.02458671*Z6Y8Y9
-0.02598123*X6Z8X9Z10
0.02598123*Z5X6Z8X9Z10
0.02598123*X6X9
-0.02598123*Z5X6X9
-0.01382138*X6X7X8X9Z10
0.01382138*Z5X6X7X8X9Z10
-0.01382138*X6Y7X8Y9
0.01382138*Z5X6Y7X8Y9
-0.00506169*Y5Y6Z9Z10
-0.00506169*Z4X5X6Z9Z10
-0.01783442*Y5Y6Z7X8X9Z10
-0.01783442*Z4X5X6Z7X8X9Z10
-0.01783442*Y5Y6Y8Y9
-0.01783442*Z4X5X6Y8Y9
0.00289324*Y4X5Y6Z8X9Z10
0.00289324*Z3X4X5X6Z8X9Z10
-0.00289324*Y4X5Y6X9
-0.00289324*Z3X4X5X6X9
0.01752999*Y4X5Y6X7X8X9Z10
0.01752999*Z3X4X5X6X7X8X9Z10
0.01752999*Y4X5Y6Y7X8Y9
0.01752999*Z3X4X5X6Y7X8Y9
-0.00110297*Y3X4X5Y6Z9Z10
-0.00110297*Z2X3X4X5X6Z9Z10
0.00080806*Y3X4X5Y6Z7X8X9Z10
0.00080806*Z2X3X4X5X6Z7X8X9Z10
0.00080806*Y3X4X5Y6Y8Y9
0.00080806*Z2X3X4X5X6Y8Y9
0.00024947*Y2X3X4X5Y6Z8X9Z10
0.00024947*Z1X2X3X4X5X6Z8X9Z10
-0.00024947*Y2X3X4X5Y6X9
-0.00024947*Z1X2X3X4X5X6X9
0.00722910*Y2X3X4X5Y6X7X8X9Z10
0.00722910*Z1X2X3X4X5X6X7X8X9Z10
0.00722910*Y2X3X4X5Y6Y7X8Y9
0.00722910*Z1X2X3X4X5X6Y7X8Y9
-0.00042143*Y1X2X3X4X5Y6Z9Z10
-0.00042143*Z0X1X2X3X4X5X6Z9Z10
-0.00436476*Y1X2X3X4X5Y6Z7X8X9Z10
-0.00436476*Z0X1X2X3X4X5X6Z7X8X9Z10
-0.00436476*Y1X2X3X4X5Y6Y8Y9
-0.00436476*Z0X1X2X3X4X5X6Y8Y9
0.00380509*Y0X1X2X3X4X5Y6Z8X9Z10
0.00380509*X0X1X2X3X4X5X6Z8X9Z10
-0.00380509*Y0X1X2X3X4X5Y6X9
-0.00380509*X0X1X2X3X4X5X6X9
0.00064292*Y0X1X2X3X4X5Y6X7X8X9Z10
0.00064292*X0X1X2X3X4X5X6X7X8X9Z10
0.00064292*Y0X1X2X3X4X5Y6Y7X8Y9
0.00064292*X0X1X2X3X4X5X6Y7X8Y9
0.09436587*Z5Z6Z9Z10
0.00570536*Z5Z6Z7X8X9Z10
0.00570536*Z5Z6Y8Y9
-0.02611438*X5Z8X9Z10
0.02611438*Z4X5Z6Z8X9Z10
0.02611438*X5X9
-0.02611438*Z4X5Z6X9
0.00408087*X5X7X8X9Z10
-0.00408087*Z4X5Z6X7X8X9Z10
0.00408087*X5Y7X8Y9
-0.00408087*Z4X5Z6Y7X8Y9
0.00720026*Y4Y5Z9Z10
0.00720026*Z3X4X5Z6Z9Z10
0.02086379*Y4Y5Z7X8X9Z10
0.02086379*Z3X4X5Z6Z7X8X9Z10
0.02086379*Y4Y5Y8Y9
0.02086379*Z3X4X5Z6Y8Y9
-0.00335793*Y3X4Y5Z8X9Z10
-0.00335793*Z2X3X4X5Z6Z8X9Z10
0.00335793*Y3X4Y5X9
0.00335793*Z2X3X4X5Z6X9
-0.01097811*Y3X4Y5X7X8X9Z10
-0.01097811*Z2X3X4X5Z6X7X8X9Z10
-0.01097811*Y3X4Y5Y7X8Y9
-0.01097811*Z2X3X4X5Z6Y7X8Y9
-0.00145529*Y2X3X4Y5Z9Z10
-0.00145529*Z1X2X3X4X5Z6Z9Z10
0.00370514*Y2X3X4Y5Z7X8X9Z10
0.00370514*Z1X2X3X4X5Z6Z7X8X9Z10
0.00370514*Y2X3X4Y5Y8Y9
0.00370514*Z1X2X3X4X5Z6Y8Y9
0.00229547*Y1X2X3X4Y5Z8X9Z10
0.00229547*Z0X1X2X3X4X5Z6Z8X9Z10
-0.00229547*Y1X2X3X4Y5X9
-0.00229547*Z0X1X2X3X4X5Z6X9
-0.00782146*Y1X2X3X4Y5X7X8X9Z10
-0.00782146*Z0X1X2X3X4X5Z6X7X8X9Z10
-0.00782146*Y1X2X3X4Y5Y7X8Y9
-0.00782146*Z0X1X2X3X4X5Z6Y7X8Y9
-0.00167326*Y0X1X2X3X4Y5Z9Z10
-0.00167326*X0X1X2X3X4X5Z6Z9Z10
-0.00481745*Y0X1X2X3X4Y5Z7X8X9Z10
-0.00481745*X0X1X2X3X4X5Z6Z7X8X9Z10
-0.00481745*Y0X1X2X3X4Y5Y8Y9
-0.00481745*X0X1X2X3X4X5Z6Y8Y9
0.09298259*Z4Z5Z9Z10
0.00032183*Z4Z5Z7X8X9Z10
0.00032183*Z4Z5Y8Y9
0.02861729*X4Z8X9Z10
-0.02861729*Z3X4Z5Z8X9Z10
-0.02861729*X4X9
0.02861729*Z3X4Z5X9
0.00210258*X4X7X8X9Z10
-0.00210258*Z3X4Z5X7X8X9Z10
0.00210258*X4Y7X8Y9
-0.00210258*Z3X4Z5Y7X8Y9
-0.00722300*Y3Y4Z9Z10
-0.00722300*Z2X3X4Z5Z9Z10
-0.01666207*Y3Y4Z7X8X9Z10
-0.01666207*Z2X3X4Z5Z7X8X9Z10
-0.01666207*Y3Y4Y8Y9
-0.01666207*Z2X3X4Z5Y8Y9
-0.00391330*Y2X3Y4Z8X9Z10
-0.00391330*Z1X2X3X4Z5Z8X9Z10
0.00391330*Y2X3Y4X9
0.00391330*Z1X2X3X4Z5X9
-0.01155896*Y2X3Y4X7X8X9Z10
-0.01155896*Z1X2X3X4Z5X7X8X9Z10
-0.01155896*Y2X3Y4Y7X8Y9
-0.01155896*Z1X2X3X4Z5Y7X8Y9
0.00016363*Y1X2X3Y4Z9Z10
0.00016363*Z0X1X2X3X4Z5Z9Z10
-0.00322466*Y1X2X3Y4Z7X8X9Z10
-0.00322466*Z0X1X2X3X4Z5Z7X8X9Z10
-0.00322466*Y1X2X3Y4Y8Y9
-0.00322466*Z0X1X2X3X4Z5Y8Y9
-0.00134328*Y0X1X2X3Y4Z8X9Z10
-0.00134328*X0X1X2X3X4Z5Z8X9Z10
0.00134328*Y0X1X2X3Y4X9
0.00134328*X0X1X2X3X4Z5X9
-0.00716652*Y0X1X2X3Y4X7X8X9Z10
-0.00716652*X0X1X2X3X4Z5X7X8X9Z10
-0.00716652*Y0X1X2X3Y4Y7X8Y9
-0.00716652*X0X1X2X3X4Z5Y7X8Y9
0.09581111*Z3Z4Z9Z10
0.00736058*Z3Z4Z7X8X9Z10
0.00736058*Z3Z4Y8Y9
0.02285369*X3Z8X9Z10
-0.02285369*Z2X3Z4Z8X9Z10
-0.02285369*X3X9
0.02285369*Z2X3Z4X9
0.00155044*X3X7X8X9Z10
-0.00155044*Z2X3Z4X7X8X9Z10
0.00155044*X3Y7X8Y9
-0.00155044*Z2X3Z4Y7X8Y9
0.00590019*Y2Y3Z9Z10
0.00590019*Z1X2X3Z4Z9Z10
0.01753506*Y2Y3Z7X8X9Z10
0.01753506*Z1X2X3Z4Z7X8X9Z10
0.01753506*Y2Y3Y8Y9
0.01753506*Z1X2X3Z4Y8Y9
-0.00176119*Y1X2Y3Z8X9Z10
-0.00176119*Z0X1X2X3Z4Z8X9Z10
0.00176119*Y1X2Y3X9
0.00176119*Z0X1X2X3Z4X9
-0.01248781*Y1X2Y3X7X8X9Z10
-0.01248781*Z0X1X2X3Z4X7X8X9Z10
-0.01248781*Y1X2Y3Y7X8Y9
-0.01248781*Z0X1X2X3Z4Y7X8Y9
-0.00187810*Y0X1X2Y3Z9Z10
-0.00187810*X0X1X2X3Z4Z9Z10
-0.00108442*Y0X1X2Y3Z7X8X9Z10
-0.00108442*X0X1X2X3Z4Z7X8X9Z10
-0.00108442*Y0X1X2Y3Y8Y9
-0.00108442*X0X1X2X3Z4Y8Y9
0.10015897*Z2Z3Z9Z10
0.00833267*Z2Z3Z7X8X9Z10
0.00833267*Z2Z3Y8Y9
-0.03138614*X2Z8X9Z10
0.03138614*Z1X2Z3Z8X9Z10
0.03138614*X2X9
-0.03138614*Z1X2Z3X9
-0.00306907*X2X7X8X9Z10
0.00306907*Z1X2Z3X7X8X9Z10
-0.00306907*X2Y7X8Y9
0.00306907*Z1X2Z3Y7X8Y9
0.00833267*Y1Y2Z9Z10
0.00833267*Z0X1X2Z3Z9Z10
0.02379525*Y1Y2Z7X8X9Z10
0.02379525*Z0X1X2Z3Z7X8X9Z10
0.02379525*Y1Y2Y8Y9
0.02379525*Z0X1X2Z3Y8Y9
0.00306907*Y0X1Y2Z8X9Z10
0.00306907*X0X1X2Z3Z8X9Z10
-0.00306907*Y0X1Y2X9
-0.00306907*X0X1X2Z3X9
0.02014018*Y0X1Y2X7X8X9Z10
0.02014018*X0X1X2Z3X7X8X9Z10
0.02014018*Y0X1Y2Y7X8Y9
0.02014018*X0X1X2Z3Y7X8Y9
0.09893661*Z1Z2Z9Z10
0.00217598*Z1Z2Z7X8X9Z10
0.00217598*Z1Z2Y8Y9
0.02779022*X1Z8X9Z10
-0.02779022*Z0X1Z2Z8X9Z10
-0.02779022*X1X9
0.02779022*Z0X1Z2X9
-0.00291769*X1X7X8X9Z10
0.00291769*Z0X1Z2X7X8X9Z10
-0.00291769*X1Y7X8Y9
0.00291769*Z0X1Z2Y7X8Y9
0.00605343*Y0Y1Z9Z10
0.00605343*X0X1Z2Z9Z10
0.01990556*Y0Y1Z7X8X9Z10
0.01990556*X0X1Z2Z7X8X9Z10
0.01990556*Y0Y1Y8Y9
0.01990556*X0X1Z2Y8Y9
0.10379508*Z0Z1Z9Z10
0.00980784*Z0Z1Z7X8X9Z10
0.00980784*Z0Z1Y8Y9
-0.02971321*X0Z8X9Z10
0.02971321*X0Z1Z8X9Z10
0.02971321*X0X9
-0.02971321*X0Z1X9
-0.01709814*X0X7X8X9Z10
0.01709814*X0Z1X7X8X9Z10
-0.01709814*X0Y7X8Y9
0.01709814*X0Z1Y7X8Y9
0.11144703*Z0Z9Z10
0.03005083*Z0Z7X8X9Z10
0.03005083*Z0Y8Y9
0.07329220*Z7Z9
0.08453227*Z7Z8Z9
-0.02902235*Y7Y8Z9
-0.02902235*X7X8
0.09810004*Z6Z8Z9
0.02251037*Z6X7X8Z9
0.02251037*Z6Y7Y8
0.02527956*X6Z7X8Z9
-0.02527956*Z5X6Z7X8Z9
-0.02527956*X6X8
0.02527956*Z5X6X8
-0.00263949*Y5Y6Z8Z9
-0.00263949*Z4X5X6Z8Z9
-0.02272106*Y5Y6X7X8Z9
-0.02272106*Z4X5X6X7X8Z9
-0.02272106*Y5Y6Y7Y8
-0.02272106*Z4X5X6Y7Y8
0.00103095*Y4X5Y6Z7X8Z9
0.00103095*Z3X4X5X6Z7X8Z9
-0.00103095*Y4X5Y6X8
-0.00103095*Z3X4X5X6X8
-0.00009208*Y3X4X5Y6Z8Z9
-0.00009208*Z2X3X4X5X6Z8Z9
0.01080316*Y3X4X5Y6X7X8Z9
0.01080316*Z2X3X4X5X6X7X8Z9
0.01080316*Y3X4X5Y6Y7Y8
0.01080316*Z2X3X4X5X6Y7Y8
0.00653131*Y2X3X4X5Y6Z7X8Z9
0.00653131*Z1X2X3X4X5X6Z7X8Z9
-0.00653131*Y2X3X4X5Y6X8
-0.00653131*Z1X2X3X4X5X6X8
0.00460233*Y1X2X3X4X5Y6Z8Z9
0.00460233*Z0X1X2X3X4X5X6Z8Z9
0.00097046*Y1X2X3X4X5Y6X7X8Z9
0.00097046*Z0X1X2X3X4X5X6X7X8Z9
0.00097046*Y1X2X3X4X5Y6Y7Y8
0.00097046*Z0X1X2X3X4X5X6Y7Y8
0.00071920*Y0X1X2X3X4X5Y6Z7X8Z9
0.00071920*X0X1X2X3X4X5X6Z7X8Z9
-0.00071920*Y0X1X2X3X4X5Y6X8
-0.00071920*X0X1X2X3X4X5X6X8
0.09667086*Z5Z6Z8Z9
-0.00196997*Z5Z6X7X8Z9
-0.00196997*Z5Z6Y7Y8
0.02949540*X5Z7X8Z9
-0.02949540*Z4X5Z6Z7X8Z9
-0.02949540*X5X8
0.02949540*Z4X5Z6X8
0.00329763*Y4Y5Z8Z9
0.00329763*Z3X4X5Z6Z8Z9
0.01704845*Y4Y5X7X8Z9
0.01704845*Z3X4X5Z6X7X8Z9
0.01704845*Y4Y5Y7Y8
0.01704845*Z3X4X5Z6Y7Y8
0.00650795*Y3X4Y5Z7X8Z9
0.00650795*Z2X3X4X5Z6Z7X8Z9
-0.00650795*Y3X4Y5X8
-0.00650795*Z2X3X4X5Z6X8
-0.00479563*Y2X3X4Y5Z8Z9
-0.00479563*Z1X2X3X4X5Z6Z8Z9
0.01011604*Y2X3X4Y5X7X8Z9
0.01011604*Z1X2X3X4X5Z6X7X8Z9
0.01011604*Y2X3X4Y5Y7Y8
0.01011604*Z1X2X3X4X5Z6Y7Y8
-0.00630099*Y1X2X3X4Y5Z7X8Z9
-0.00630099*Z0X1X2X3X4X5Z6Z7X8Z9
0.00630099*Y1X2X3X4Y5X8
0.00630099*Z0X1X2X3X4X5Z6X8
0.00524285*Y0X1X2X3X4Y5Z8Z9
0.00524285*X0X1X2X3X4X5Z6Z8Z9
0.00089430*Y0X1X2X3X4Y5X7X8Z9
0.00089430*X0X1X2X3X4X5Z6X7X8Z9
0.00089430*Y0X1X2X3X4Y5Y7Y8
0.00089430*X0X1X2X3X4X5Z6Y7Y8
0.09721209*Z4Z5Z8Z9
0.00131193*Z4Z5X7X8Z9
0.00131193*Z4Z5Y7Y8
-0.02605303*X4Z7X8Z9
0.02605303*Z3X4Z5Z7X8Z9
0.02605303*X4X8
-0.02605303*Z3X4Z5X8
-0.00795706*Y3Y4Z8Z9
-0.00795706*Z2X3X4Z5Z8Z9
-0.01593058*Y3Y4X7X8Z9
-0.01593058*Z2X3X4Z5X7X8Z9
-0.01593058*Y3Y4Y7Y8
-0.01593058*Z2X3X4Z5Y7Y8
0.00470605*Y2X3Y4Z7X8Z9
0.00470605*Z1X2X3X4Z5Z7X8Z9
-0.00470605*Y2X3Y4X8
-0.00470605*Z1X2X3X4Z5X8
0.00511028*Y1X2X3Y4Z8Z9
0.00511028*Z0X1X2X3X4Z5Z8Z9
-0.01013056*Y1X2X3Y4X7X8Z9
-0.01013056*Z0X1X2X3X4Z5X7X8Z9
-0.01013056*Y1X2X3Y4Y7Y8
-0.01013056*Z0X1X2X3X4Z5Y7Y8
-0.00740170*Y0X1X2X3Y4Z7X8Z9
-0.00740170*X0X1X2X3X4Z5Z7X8Z9
0.00740170*Y0X1X2X3Y4X8
0.00740170*X0X1X2X3X4Z5X8
0.09609596*Z3Z4Z8Z9
0.00531448*Z3Z4X7X8Z9
0.00531448*Z3Z4Y7Y8
-0.02291507*X3Z7X8Z9
0.02291507*Z2X3Z4Z7X8Z9
0.02291507*X3X8
-0.02291507*Z2X3Z4X8
0.00813498*Y2Y3Z8Z9
0.00813498*Z1X2X3Z4Z8Z9
0.01710415*Y2Y3X7X8Z9
0.01710415*Z1X2X3Z4X7X8Z9
0.01710415*Y2Y3Y7Y8
0.01710415*Z1X2X3Z4Y7Y8
0.00614154*Y1X2Y3Z7X8Z9
0.00614154*Z0X1X2X3Z4Z7X8Z9
-0.00614154*Y1X2Y3X8
-0.00614154*Z0X1X2X3Z4X8
0.00078125*Y0X1X2Y3Z8Z9
0.00078125*X0X1X2X3Z4Z8Z9
0.01140175*Y0X1X2Y3X7X8Z9
0.01140175*X0X1X2X3Z4X7X8Z9
0.01140175*Y0X1X2Y3Y7Y8
0.01140175*X0X1X2X3Z4Y7Y8
0.09893661*Z2Z3Z8Z9
0.00605343*Z2Z3X7X8Z9
0.00605343*Z2Z3Y7Y8
0.02779022*X2Z7X8Z9
-0.02779022*Z1X2Z3Z7X8Z9
-0.02779022*X2X8
0.02779022*Z1X2Z3X8
0.00217598*Y1Y2Z8Z9
0.00217598*Z0X1X2Z3Z8Z9
0.01990556*Y1Y2X7X8Z9
0.01990556*Z0X1X2Z3X7X8Z9
0.01990556*Y1Y2Y7Y8
0.01990556*Z0X1X2Z3Y7Y8
0.00291769*Y0X1Y2Z7X8Z9
0.00291769*X0X1X2Z3Z7X8Z9
-0.00291769*Y0X1Y2X8
-0.00291769*X0X1X2Z3X8
0.10546993*Z1Z2Z8Z9
0.00338366*Z1Z2X7X8Z9
0.00338366*Z1Z2Y7Y8
-0.03342761*X1Z7X8Z9
0.03342761*Z0X1Z2Z7X8Z9
0.03342761*X1X8
-0.03342761*Z0X1Z2X8
0.00338366*Y0Y1Z8Z9
0.00338366*X0X1Z2Z8Z9
0.02770169*Y0Y1X7X8Z9
0.02770169*X0X1Z2X7X8Z9
0.02770169*Y0Y1Y7Y8
0.02770169*X0X1Z2Y7Y8
0.10671980*Z0Z1Z8Z9
-0.00049367*Z0Z1X7X8Z9
-0.00049367*Z0Z1Y7Y8
0.02951602*X0Z7X8Z9
-0.02951602*X0Z1Z7X8Z9
-0.02951602*X0X8
0.02951602*X0Z1X8
0.11223396*Z0Z8Z9
0.02825916*Z0X7X8Z9
0.02825916*Z0Y7Y8
0.07577196*Z8
0.10493628*Z6Z7Z8
-0.03716648*X6X7Z8
0.03716648*Z5X6X7Z8
0.03716648*X6X7
-0.03716648*Z5X6X7
-0.00095554*Y5Y6Z7Z8
-0.00095554*Z4X5X6Z7Z8
0.01530441*Y4X5Y6X7Z8
0.01530441*Z3X4X5X6X7Z8
-0.01530441*Y4X5Y6X7
-0.01530441*Z3X4X5X6X7
-0.00906308*Y3X4X5Y6Z7Z8
-0.00906308*Z2X3X4X5X6Z7Z8
0.00031091*Y2X3X4X5Y6X7Z8
0.00031091*Z1X2X3X4X5X6X7Z8
-0.00031091*Y2X3X4X5Y6X7
-0.00031091*Z1X2X3X4X5X6X7
-0.00075221*Y1X2X3X4X5Y6Z7Z8
-0.00075221*Z0X1X2X3X4X5X6Z7Z8
-0.00027954*Y0X1X2X3X4X5Y6X7Z8
-0.00027954*X0X1X2X3X4X5X6X7Z8
0.00027954*Y0X1X2X3X4X5Y6X7
0.00027954*X0X1X2X3X4X5X6X7
0.10582419*Z5Z6Z7Z8
-0.02471423*X5X7Z8
0.02471423*Z4X5Z6X7Z8
0.02471423*X5X7
-0.02471423*Z4X5Z6X7
0.01002494*Y4Y5Z7Z8
0.01002494*Z3X4X5Z6Z7Z8
-0.01677696*Y3X4Y5X7Z8
-0.01677696*Z2X3X4X5Z6X7Z8
0.01677696*Y3X4Y5X7
0.01677696*Z2X3X4X5Z6X7
-0.01028688*Y2X3X4Y5Z7Z8
-0.01028688*Z1X2X3X4X5Z6Z7Z8
-0.00129912*Y1X2X3X4Y5X7Z8
-0.00129912*Z0X1X2X3X4X5Z6X7Z8
0.00129912*Y1X2X3X4Y5X7
0.00129912*Z0X1X2X3X4X5Z6X7
-0.00039204*Y0X1X2X3X4Y5Z7Z8
-0.00039204*X0X1X2X3X4X5Z6Z7Z8
0.09781458*Z4Z5Z7Z8
0.02703324*X4X7Z8
-0.02703324*Z3X4Z5X7Z8
-0.02703324*X4X7
0.02703324*Z3X4Z5X7
-0.01151819*Y3Y4Z7Z8
-0.01151819*Z2X3X4Z5Z7Z8
-0.01559891*Y2X3Y4X7Z8
-0.01559891*Z1X2X3X4Z5X7Z8
0.01559891*Y2X3Y4X7
0.01559891*Z1X2X3X4Z5X7
0.01139854*Y1X2X3Y4Z7Z8
0.01139854*Z0X1X2X3X4Z5Z7Z8
0.00051231*Y0X1X2X3Y4X7Z8
0.00051231*X0X1X2X3X4Z5X7Z8
-0.00051231*Y0X1X2X3Y4X7
-0.00051231*X0X1X2X3X4Z5X7
0.10058070*Z3Z4Z7Z8
0.02365196*X3X7Z8
-0.02365196*Z2X3Z4X7Z8
-0.02365196*X3X7
0.02365196*Z2X3Z4X7
0.01187278*Y2Y3Z7Z8
0.01187278*Z1X2X3Z4Z7Z8
-0.01823173*Y1X2Y3X7Z8
-0.01823173*Z0X1X2X3Z4X7Z8
0.01823173*Y1X2Y3X7
0.01823173*Z0X1X2X3Z4X7
-0.01100802*Y0X1X2Y3Z7Z8
-0.01100802*X0X1X2X3Z4Z7Z8
0.10379508*Z2Z3Z7Z8
-0.02971321*X2X7Z8
0.02971321*Z1X2Z3X7Z8
0.02971321*X2X7
-0.02971321*Z1X2Z3X7
0.00980784*Y1Y2Z7Z8
0.00980784*Z0X1X2Z3Z7Z8
0.01709814*Y0X1Y2X7Z8
0.01709814*X0X1X2Z3X7Z8
-0.01709814*Y0X1Y2X7
-0.01709814*X0X1X2Z3X7
0.10671980*Z1Z2Z7Z8
0.02951602*X1X7Z8
-0.02951602*Z0X1Z2X7Z8
-0.02951602*X1X7
0.02951602*Z0X1Z2X7
-0.00049367*Y0Y1Z7Z8
-0.00049367*X0X1Z2Z7Z8
0.12047789*Z0Z1Z7Z8
-0.04635332*X0X7Z8
0.04635332*X0Z1X7Z8
0.04635332*X0X7
-0.04635332*X0Z1X7
0.12212528*Z0Z7Z8
0.12832197*Z6Z7
-0.02361050*Y5Y6Z7
-0.02361050*Z4X5X6Z7
0.00184733*Y3X4X5Y6Z7
0.00184733*Z2X3X4X5X6Z7
0.00042206*Y1X2X3X4X5Y6Z7
0.00042206*Z0X1X2X3X4X5X6Z7
0.10497847*Z5Z6Z7
0.02701190*Y4Y5Z7
0.02701190*Z3X4X5Z6Z7
-0.00018227*Y2X3X4Y5Z7
-0.00018227*Z1X2X3X4X5Z6Z7
0.00080952*Y0X1X2X3X4Y5Z7
0.00080952*X0X1X2X3X4X5Z6Z7
0.10047329*Z4Z5Z7
-0.02764249*Y3Y4Z7
-0.02764249*Z2X3X4Z5Z7
0.00132661*Y1X2X3Y4Z7
0.00132661*Z0X1X2X3X4Z5Z7
0.10731922*Z3Z4Z7
0.02941529*Y2Y3Z7
0.02941529*Z1X2X3Z4Z7
0.00077208*Y0X1X2Y3Z7
0.00077208*X0X1X2X3Z4Z7
0.11144703*Z2Z3Z7
0.03005083*Y1Y2Z7
0.03005083*Z0X1X2Z3Z7
0.11223396*Z1Z2Z7
0.02825916*Y0Y1Z7
0.02825916*X0X1Z2Z7
0.12212528*Z0Z1Z7
0.15457982*Z0Z7
0.06068042*Z5
0.00930781*Z3X4X5
0.00930781*Y4Y5Z6
-0.00037279*Z1X2X3X4X5
-0.00037279*Y2X3X4Y5Z6
0.00084409*X0X1X2X3X4X5
0.00084409*Y0X1X2X3X4Y5Z6
0.06869477*Z4Z5Z6
-0.01318875*Z2X3X4Z5Z6
-0.01318875*Y3Y4Z6
0.00164208*Z0X1X2X3X4Z5Z6
0.00164208*Y1X2X3Y4Z6
0.07748633*Z3Z4Z6
0.01693381*Z1X2X3Z4Z6
0.01693381*Y2Y3Z6
0.00020562*X0X1X2X3Z4Z6
0.00020562*Y0X1X2Y3Z6
0.08327350*Z2Z3Z6
0.01799778*Z0X1X2Z3Z6
0.01799778*Y1Y2Z6
0.08677753*Z1Z2Z6
0.01750227*X0X1Z2Z6
0.01750227*Y0Y1Z6
0.09465105*Z0Z1Z6
0.11610503*Z0Z6
0.01940192*Z4Y5Y6
0.01940192*X5X6
-0.00506214*Z2X3X4Y5Y6
0.00506214*Y3X4Y5X6
-0.00044661*Z0X1X2X3X4Y5Y6
0.00044661*Y1X2X3X4Y5X6
-0.01942481*Z3X4X6
0.00827841*X4Z5X6
-0.01114640*Z3Y4Y6
-0.01114640*Y4Y6
0.00827841*Z3X4Z5X6
-0.01942481*X4X6
-0.00597997*Z1X2X3X4X6
-0.00403502*Y2X3Y4Z5X6
-0.00194496*Z1X2X3Y4Y6
-0.00194496*Y2X3X4Y6
0.00403502*Z1X2X3X4Z5X6
0.00597997*Y2X3Y4X6
0.00083403*X0X1X2X3X4X6
0.00098125*Y0X1X2X3Y4Z5X6
-0.00014722*X0X1X2X3Y4Y6
-0.00014722*Y0X1X2X3X4Y6
-0.00098125*X0X1X2X3X4Z5X6
-0.00083403*Y0X1X2X3Y4X6
-0.01816867*Z2X3Z4Z5X6
0.01011835*X3Z5X6
-0.00805032*Z2Y3Y6
-0.00805032*Y3Z4Z5Y6
0.01011835*Z2X3Z4X6
-0.01816867*X3X6
-0.00959942*Z0X1X2X3Z4Z5X6
-0.00755769*Y1X2Y3Z5X6
-0.00204173*Z0X1X2Y3Y6
-0.00204173*Y1X2X3Z4Z5Y6
0.00755769*Z0X1X2X3Z4X6
0.00959942*Y1X2Y3X6
0.02118804*Z1X2Z3Z5X6
-0.01621728*X2Z5X6
0.00497077*Z1Y2Y6
0.00497077*Y2Z3Z5Y6
-0.01621728*Z1X2Z3X6
0.02118804*X2X6
0.00893605*X0X1X2Z3Z5X6
0.00780717*Y0X1Y2Z5X6
0.00112888*X0X1Y2Y6
0.00112888*Y0X1X2Z3Z5Y6
-0.00780717*X0X1X2Z3X6
-0.00893605*Y0X1Y2X6
-0.02201322*Z0X1Z2Z5X6
0.01836107*X1Z5X6
-0.00365215*Z0Y1Y6
-0.00365215*Y1Z2Z5Y6
0.01836107*Z0X1Z2X6
-0.02201322*X1X6
0.03087161*X0Z1Z5X6
-0.02830694*X0Z5X6
0.00256468*Y0Y6
0.00256468*Y0Z1Z5Y6
-0.02830694*X0Z1X6
0.03087161*X0X6
0.01174961*Z2X3Y4Y5X6
0.01174961*Y3Y4Y5Y6
0.00334391*Z0X1X2X3Y4Y5X6
0.00334391*Y1X2X3Y4Y5Y6
-0.00240088*Z3X5X6
-0.00240088*Z3Z4Y5Y6
-0.01244879*Z1X2X3X5X6
-0.00422842*Y2Y3Z4X5X6
-0.00822037*Z1X2Y3Y5X6
-0.00822037*Y2X3X5Y6
-0.00422842*Z1X2X3Z4Y5Y6
-0.01244879*Y2Y3Y5Y6
-0.00525044*X0X1X2X3X5X6
-0.00301754*Y0X1X2Y3Z4X5X6
-0.00223290*X0X1X2Y3Y5X6
-0.00223290*Y0X1X2X3X5Y6
-0.00301754*X0X1X2X3Z4Y5Y6
-0.00525044*Y0X1X2Y3Y5Y6
-0.00363043*Z2Z3Z4X5X6
-0.00363043*Z2Z3Y5Y6
-0.01358769*Z0X1X2Z3Z4X5X6
-0.00785579*Y1Y2Z4X5X6
-0.00573190*Z0X1Y2Y5X6
-0.00573190*Y1X2Z3Z4X5Y6
-0.00785579*Z0X1X2Z3Y5Y6
-0.01358769*Y1Y2Y5Y6
-0.00317847*Z1Z2Z4X5X6
-0.00317847*Z1Z2Y5Y6
-0.01734736*X0X1Z2Z4X5X6
-0.01314261*Y0Y1Z4X5X6
-0.00420475*X0Y1Y5X6
-0.00420475*Y0X1Z2Z4X5Y6
-0.01314261*X0X1Z2Y5Y6
-0.01734736*Y0Y1Y5Y6
-0.00207875*Z0Z1Z4X5X6
-0.00207875*Z0Z1Y5Y6
-0.01898024*Z0Z4X5X6
-0.01898024*Z0Y5Y6
-0.00058231*Z2Y3Y4X5X6
0.00058231*X3Y4X5Y6
-0.00896123*Z0X1X2Y3Y4X5X6
-0.00896123*Y1X2Y3Y4X5Y6
0.00183760*Z1X2X4X5X6
-0.00110849*X2Z3X4X5X6
0.00072911*Z1Y2Y4X5X6
0.00072911*Y2X4X5Y6
0.00110849*Z1X2Z3Y4X5Y6
-0.00183760*X2Y4X5Y6
0.01126310*X0X1X2X4X5X6
0.00387905*Y0X1Y2Z3X4X5X6
0.00738404*X0X1Y2Y4X5X6
0.00738404*Y0X1X2X4X5Y6
0.00387905*X0X1X2Z3Y4X5Y6
0.01126310*Y0X1Y2Y4X5Y6
-0.00078642*Z0X1Z2Z3X4X5X6
0.00083244*X1Z3X4X5X6
0.00004602*Z0Y1Y4X5X6
0.00004602*Y1Z2Z3X4X5Y6
-0.00083244*Z0X1Z2Y4X5Y6
0.00078642*X1Y4X5Y6
0.01086659*X0Z1Z3X4X5X6
-0.00926105*X0Z3X4X5X6
0.00160554*Y0Y4X5X6
0.00160554*Y0Z1Z3X4X5Y6
0.00926105*X0Z1Y4X5Y6
-0.01086659*X0Y4X5Y6
0.00122949*Z0X1Y2Y3X4X5X6
0.00122949*Y1Y2Y3X4X5Y6
-0.00034156*Z1X3X4X5X6
-0.00034156*Z1Z2Y3X4X5Y6
0.00699807*X0X1X3X4X5X6
0.00357406*Y0Y1Z2X3X4X5X6
0.00342401*X0Y1Y3X4X5X6
0.00342401*Y0X1X3X4X5Y6
0.00357406*X0X1Z2Y3X4X5Y6
0.00699807*Y0Y1Y3X4X5Y6
-0.00469831*Z0Z1Z2X3X4X5X6
-0.00469831*Z0Z1Y3X4X5Y6
0.00120441*Z0Z2X3X4X5X6
0.00120441*Z0Y3X4X5Y6
0.00192898*Z0Y1Y2X3X4X5X6
-0.00192898*X1Y2X3X4X5Y6
-0.00040829*X0X2X3X4X5X6
0.00065955*X0Z1X2X3X4X5X6
0.00025126*Y0Y2X3X4X5X6
0.00025126*Y0X2X3X4X5Y6
-0.00065955*X0Z1Y2X3X4X5Y6
0.00040829*X0Y2X3X4X5Y6
0.00070160*X1X2X3X4X5X6
0.00070160*Z0Y1X2X3X4X5Y6
0.06059802*Z4Z6
-0.00391386*Z2X3X4Z6
-0.00391386*Y3Y4Z5Z6
0.00380200*Z0X1X2X3X4Z6
0.00380200*Y1X2X3Y4Z5Z6
0.07008672*Z3Z4Z5Z6
0.00620045*Z1X2X3Z4Z5Z6
0.00620045*Y2Y3Z5Z6
-0.00472805*X0X1X2X3Z4Z5Z6
-0.00472805*Y0X1X2Y3Z5Z6
0.07725093*Z2Z3Z5Z6
0.00535499*Z0X1X2Z3Z5Z6
0.00535499*Y1Y2Z5Z6
0.08254301*Z1Z2Z5Z6
0.00017354*X0X1Z2Z5Z6
0.00017354*Y0Y1Z5Z6
0.09243508*Z0Z1Z5Z6
0.09562322*Z0Z5Z6
-0.02306373*Z3Y4Y5Z6
-0.02306373*X4X5
0.00083732*Z1X2X3Y4Y5Z6
-0.00083732*Y2X3Y4X5
0.00156056*X0X1X2X3Y4Y5Z6
-0.00156056*Y0X1X2X3Y4X5
-0.02104896*Z2X3X5Z6
0.00566674*X3Z4X5Z6
-0.01538222*Z2Y3Y5Z6
-0.01538222*Y3Y5
0.00566674*Z2X3Z4X5
-0.02104896*X3X5
-0.00227937*Z0X1X2X3X5Z6
-0.00211629*Y1X2Y3Z4X5Z6
-0.00016308*Z0X1X2Y3Y5Z6
-0.00016308*Y1X2X3Y5
0.00211629*Z0X1X2X3Z4X5
0.00227937*Y1X2Y3X5
0.02214092*Z1X2Z3Z4X5Z6
-0.01313985*X2Z4X5Z6
0.00900107*Z1Y2Y5Z6
0.00900107*Y2Z3Z4Y5
-0.01313985*Z1X2Z3X5
0.02214092*X2X5
-0.00107352*X0X1X2Z3Z4X5Z6
-0.00029198*Y0X1Y2Z4X5Z6
-0.00078154*X0X1Y2Y5Z6
-0.00078154*Y0X1X2Z3Z4Y5
0.00029198*X0X1X2Z3X5
0.00107352*Y0X1Y2X5
-0.02415324*Z0X1Z2Z4X5Z6
0.01744932*X1Z4X5Z6
-0.00670393*Z0Y1Y5Z6
-0.00670393*Y1Z2Z4Y5
0.01744932*Z0X1Z2X5
-0.02415324*X1X5
0.02234741*X0Z1Z4X5Z6
-0.01834644*X0Z4X5Z6
0.00400097*Y0Y5Z6
0.00400097*Y0Z1Z4Y5
-0.01834644*X0Z1X5
0.02234741*X0X5
0.01513123*Z1X2Y3Y4X5Z6
0.01513123*Y2Y3Y4Y5
-0.00042846*X0X1X2Y3Y4X5Z6
-0.00042846*Y0X1X2Y3Y4Y5
0.00411785*Z2X4X5Z6
0.00411785*Z2Z3Y4Y5
0.01572519*Z0X1X2X4X5Z6
0.00555087*Y1Y2Z3X4X5Z6
0.01017431*Z0X1Y2Y4X5Z6
0.01017431*Y1X2X4Y5
0.00555087*Z0X1X2Z3Y4Y5
0.01572519*Y1Y2Y4Y5
0.00419340*Z1Z2Z3X4X5Z6
0.00419340*Z1Z2Y4Y5
0.01389261*X0X1Z2Z3X4X5Z6
0.00771449*Y0Y1Z3X4X5Z6
0.00617812*X0Y1Y4X5Z6
0.00617812*Y0X1Z2Z3X4Y5
0.00771449*X0X1Z2Y4Y5
0.01389261*Y0Y1Y4Y5
0.00804050*Z0Z1Z3X4X5Z6
0.00804050*Z0Z1Y4Y5
0.02088872*Z0Z3X4X5Z6
0.02088872*Z0Y4Y5
-0.00190264*Z1Y2Y3X4X5Z6
0.00190264*X2Y3X4Y5
-0.00930485*X0X1Y2Y3X4X5Z6
-0.00930485*Y0X1Y2Y3X4Y5
0.00421248*Z0X1X3X4X5Z6
-0.00280281*X1Z2X3X4X5Z6
0.00140968*Z0Y1Y3X4X5Z6
0.00140968*Y1X3X4Y5
0.00280281*Z0X1Z2Y3X4Y5
-0.00421248*X1Y3X4Y5
-0.01195950*X0Z1Z2X3X4X5Z6
0.00895549*X0Z2X3X4X5Z6
-0.00300401*Y0Y3X4X5Z6
-0.00300401*Y0Z1Z2X3X4Y5
-0.00895549*X0Z1Y3X4Y5
0.01195950*X0Y3X4Y5
0.00487319*X0Y1Y2X3X4X5Z6
0.00487319*Y0Y1Y2X3X4Y5
-0.00398589*Z0X2X3X4X5Z6
-0.00398589*Z0Z1Y2X3X4Y5
-0.00107657*Z0Z1X2X3X4X5Z6
-0.00107657*Z0Y2X3X4Y5
-0.00090708*Y0Y1X2X3X4X5Z6
0.00090708*X0Y1X2X3X4Y5
0.06070873*Z3Z5
0.00291991*Z1X2X3Z5
0.00291991*Y2Y3Z4Z5
-0.00028186*X0X1X2X3Z5
-0.00028186*Y0X1X2Y3Z4Z5
0.07218866*Z2Z3Z4Z5
0.00259971*Z0X1X2Z3Z4Z5
0.00259971*Y1Y2Z4Z5
0.07901907*Z1Z2Z4Z5
0.00217238*X0X1Z2Z4Z5
0.00217238*Y0Y1Z4Z5
0.08452657*Z0Z1Z4Z5
0.09029765*Z0Z4Z5
0.02603508*Z2Y3Y4Z5
0.02603508*X3X4
0.00056117*Z0X1X2Y3Y4Z5
-0.00056117*Y1X2Y3X4
-0.02464444*Z1X2X4Z5
0.00981103*X2Z3X4Z5
-0.01483341*Z1Y2Y4Z5
-0.01483341*Y2Y4
0.00981103*Z1X2Z3X4
-0.02464444*X2X4
-0.00079919*X0X1X2X4Z5
-0.00090891*Y0X1Y2Z3X4Z5
0.00010971*X0X1Y2Y4Z5
0.00010971*Y0X1X2Y4
0.00090891*X0X1X2Z3X4
0.00079919*Y0X1Y2X4
0.02329006*Z0X1Z2Z3X4Z5
-0.01321413*X1Z3X4Z5
0.01007593*Z0Y1Y4Z5
0.01007593*Y1Z2Z3Y4
-0.01321413*Z0X1Z2X4
0.02329006*X1X4
-0.02346121*X0Z1Z3X4Z5
0.01728514*X0Z3X4Z5
-0.00617607*Y0Y4Z5
-0.00617607*Y0Z1Z3Y4
0.01728514*X0Z1X4
-0.02346121*X0X4
-0.01682570*Z0X1Y2Y3X4Z5
-0.01682570*Y1Y2Y3Y4
-0.00404377*Z1X3X4Z5
-0.00404377*Z1Z2Y3Y4
-0.01458730*X0X1X3X4Z5
-0.00437162*Y0Y1Z2X3X4Z5
-0.01021568*X0Y1Y3X4Z5
-0.01021568*Y0X1X3Y4
-0.00437162*X0X1Z2Y3Y4
-0.01458730*Y0Y1Y3Y4
-0.00829353*Z0Z1Z2X3X4Z5
-0.00829353*Z0Z1Y3Y4
-0.02047597*Z0Z2X3X4Z5
-0.02047597*Z0Y3Y4
-0.00040422*Z0Y1Y2X3X4Z5
0.00040422*X1Y2X3Y4
-0.00819721*X0X2X3X4Z5
0.00546836*X0Z1X2X3X4Z5
-0.00272885*Y0Y2X3X4Z5
-0.00272885*Y0X2X3Y4
-0.00546836*X0Z1Y2X3Y4
0.00819721*X0Y2X3Y4
0.00081431*X1X2X3X4Z5
0.00081431*Z0Y1X2X3Y4
0.07023095*Z2Z4
0.00382787*Z0X1X2Z4
0.00382787*Y1Y2Z3Z4
0.07529070*Z1Z2Z3Z4
0.00375504*X0X1Z2Z3Z4
0.00375504*Y0Y1Z3Z4
0.08330182*Z0Z1Z3Z4
0.09233061*Z0Z3Z4
-0.02875388*Z1Y2Y3Z4
-0.02875388*X2X3
0.00032766*X0X1Y2Y3Z4
-0.00032766*Y0X1Y2X3
0.02467625*Z0X1X3Z4
-0.00538000*X1Z2X3Z4
0.01929625*Z0Y1Y3Z4
0.01929625*Y1Y3
-0.00538000*Z0X1Z2X3
0.02467625*X1X3
-0.02256754*X0Z1Z2X3Z4
0.01116415*X0Z2X3Z4
-0.01140339*Y0Y3Z4
-0.01140339*Y0Z1Z2Y3
0.01116415*X0Z1X3
-0.02256754*X0X3
0.01632290*X0Y1Y2X3Z4
0.01632290*Y0Y1Y2Y3
0.00573124*Z0X2X3Z4
0.00573124*Z0Z1Y2Y3
0.01801354*Z0Z1X2X3Z4
0.01801354*Z0Y2Y3
-0.00722370*Y0Y1X2X3Z4
0.00722370*X0Y1X2Y3
0.06755048*Z1Z3
0.00298436*X0X1Z3
0.00298436*Y0Y1Z2Z3
0.07999983*Z0Z1Z2Z3
0.09130685*Z0Z2Z3
-0.02996620*Z0Y1Y2Z3
-0.02996620*X1X2
0.02679552*X0X2Z3
-0.00980765*X0Z1X2Z3
0.01698787*Y0Y2Z3
0.01698787*Y0Y2
-0.00980765*X0Z1X2
0.02679552*X0X2
0.01295268*X1X2Z3
0.01295268*Z0Y1Y2
0.07329220*Z0Z2
0.08453227*Z0Z1Z2
-0.02902235*Y0Y1Z2
-0.02902235*X0X1
0.07577196*Z1
