1.76593032*I
0.27330322*Z5
0.00295997*Z3X4X5
0.00295997*Y4Y5
0.07824520*Z4Z5
-0.03027612*X3X4Z5
-0.03027612*Y3Y4
-0.27212423*Z3Z4
-0.97232884*Z3
0.27330322*Z2
0.00295997*Z0X1X2
0.00295997*Y1Y2
0.07824520*Z1Z2
-0.03027612*X0X1Z2
-0.03027612*Y0Y1
-0.27212423*Z0Z1
-0.97232884*Z0
0.21803854*Z4
-0.02086512*X3X4
-0.02086512*Y3Y4Z5
0.23890972*Z3Z4Z5
0.24908170*Z3Z5
0.01088263*Z3Y4Y5
0.01088263*X4X5
-0.05488843*X3X5
0.02399467*X3Z4X5
-0.03089376*Y3Y5
0.15460042*Z2Z5
-0.02606667*Z2Z3X4X5
-0.02606667*Z2Y4Y5
-0.03778253*X2Z4X5
0.03778253*Z1X2Z4X5
0.03778253*X2X5
-0.03778253*Z1X2X5
-0.01295990*X2X3X4X5
0.01295990*Z1X2X3X4X5
-0.01295990*X2Y3X4Y5
0.01295990*Z1X2Y3X4Y5
-0.02606667*Y1Y2Z5
-0.02606667*Z0X1X2Z5
0.02686306*Y1Y2Z3X4X5
0.02686306*Z0X1X2Z3X4X5
0.02686306*Y1Y2Y4Y5
0.02686306*Z0X1X2Y4Y5
0.01295990*Y0X1Y2Z4X5
0.01295990*X0X1X2Z4X5
-0.01295990*Y0X1Y2X5
-0.01295990*X0X1X2X5
0.02306547*Y0X1Y2X3X4X5
0.02306547*X0X1X2X3X4X5
0.02306547*Y0X1Y2Y3X4Y5
0.02306547*X0X1X2Y3X4Y5
0.13513941*Z1Z2Z5
-0.00127192*Z1Z2Z3X4X5
-0.00127192*Z1Z2Y4Y5
-0.02731527*X1Z4X5
0.02731527*Z0X1Z2Z4X5
0.02731527*X1X5
-0.02731527*Z0X1Z2X5
0.00728998*X1X3X4X5
-0.00728998*Z0X1Z2X3X4X5
0.00728998*X1Y3X4Y5
-0.00728998*Z0X1Z2Y3X4Y5
0.02703506*Y0Y1Z5
0.02703506*X0X1Z2Z5
-0.02273686*Y0Y1Z3X4X5
-0.02273686*X0X1Z2Z3X4X5
-0.02273686*Y0Y1Y4Y5
-0.02273686*X0X1Z2Y4Y5
0.14208908*Z0Z1Z5
-0.01011602*Z0Z1Z3X4X5
-0.01011602*Z0Z1Y4Y5
0.03473419*X0Z4X5
-0.03473419*X0Z1Z4X5
-0.03473419*X0X5
0.03473419*X0Z1X5
0.01336062*X0X3X4X5
-0.01336062*X0Z1X3X4X5
0.01336062*X0Y3X4Y5
-0.01336062*X0Z1Y3X4Y5
0.16866019*Z0Z5
-0.03106517*Z0Z3X4X5
-0.03106517*Z0Y4Y5
0.13513941*Z2Z4Z5
0.02703506*Z2X3X4Z5
0.02703506*Z2Y3Y4
-0.02731527*X2Z3X4Z5
0.02731527*Z1X2Z3X4Z5
0.02731527*X2X4
-0.02731527*Z1X2X4
-0.00127192*Y1Y2Z4Z5
-0.00127192*Z0X1X2Z4Z5
-0.02273686*Y1Y2X3X4Z5
-0.02273686*Z0X1X2X3X4Z5
-0.02273686*Y1Y2Y3Y4
-0.02273686*Z0X1X2Y3Y4
-0.00728998*Y0X1Y2Z3X4Z5
-0.00728998*X0X1X2Z3X4Z5
0.00728998*Y0X1Y2X4
0.00728998*X0X1X2X4
0.13975710*Z1Z2Z4Z5
0.00692335*Z1Z2X3X4Z5
0.00692335*Z1Z2Y3Y4
-0.03546516*X1Z3X4Z5
0.03546516*Z0X1Z2Z3X4Z5
0.03546516*X1X4
-0.03546516*Z0X1Z2X4
0.00692335*Y0Y1Z4Z5
0.00692335*X0X1Z2Z4Z5
0.02492496*Y0Y1X3X4Z5
0.02492496*X0X1Z2X3X4Z5
0.02492496*Y0Y1Y3Y4
0.02492496*X0X1Z2Y3Y4
0.13895214*Z0Z1Z4Z5
0.00899787*Z0Z1X3X4Z5
0.00899787*Z0Z1Y3Y4
0.02594241*X0Z3X4Z5
-0.02594241*X0Z1Z3X4Z5
-0.02594241*X0X4
0.02594241*X0Z1X4
0.14860866*Z0Z4Z5
0.03437155*Z0X3X4Z5
0.03437155*Z0Y3Y4
0.14208908*Z2Z3Z4
0.03473419*X2X3Z4
-0.03473419*Z1X2X3Z4
-0.03473419*X2X3
0.03473419*Z1X2X3
-0.01011602*Y1Y2Z3Z4
-0.01011602*Z0X1X2Z3Z4
-0.01336062*Y0X1Y2X3Z4
-0.01336062*X0X1X2X3Z4
0.01336062*Y0X1Y2X3
0.01336062*X0X1X2X3
0.13895214*Z1Z2Z3Z4
0.02594241*X1X3Z4
-0.02594241*Z0X1Z2X3Z4
-0.02594241*X1X3
0.02594241*Z0X1Z2X3
0.00899787*Y0Y1Z3Z4
0.00899787*X0X1Z2Z3Z4
0.14788886*Z0Z1Z3Z4
-0.03868784*X0X3Z4
0.03868784*X0Z1X3Z4
0.03868784*X0X3
-0.03868784*X0Z1X3
0.15936950*Z0Z3Z4
0.16866019*Z2Z3
-0.03106517*Y1Y2Z3
-0.03106517*Z0X1X2Z3
0.14860866*Z1Z2Z3
0.03437155*Y0Y1Z3
0.03437155*X0X1Z2Z3
0.15936950*Z0Z1Z3
0.20177012*Z0Z3
0.21803854*Z1
-0.02086512*X0X1
-0.02086512*Y0Y1Z2
0.23890972*Z0Z1Z2
0.24908170*Z0Z2
0.01088263*Z0Y1Y2
0.01088263*X1X2
-0.05488843*X0X2
0.02399467*X0Z1X2
-0.03089376*Y0Y2
