-14.12760618*I
-0.08094464*Z7
-0.04285026*Z5X6X7
-0.04285026*Y6Y7
-0.07844520*Z6Z7
-0.05528924*X4X5X6Z7
-0.05528924*Y4X5Y6
-0.14565377*Z5Z6
-0.23768877*Z4Z5
-0.26190840*Z4
-0.08094464*Z3
-0.04285026*Z1X2X3
-0.04285026*Y2Y3
-0.07844520*Z2Z3
-0.05528924*X0X1X2Z3
-0.05528924*Y0X1Y2
-0.14565377*Z1Z2
-0.23768877*Z0Z1
-0.26190840*Z0
0.04556666*Z6
0.01030100*X4X5X6
0.01030100*Y4X5Y6Z7
0.05370012*Z5Z6Z7
0.06948654*Z4Z5Z7
0.07002921*Z4Z7
-0.01402434*Z5Y6Y7
-0.01402434*X6X7
0.01318364*X4X5X7
0.00617573*Y4Y5Z6X7
0.00700791*X4Y5Y7
0.00700791*Y4X5Y7
-0.00617573*X4X5Z6X7
-0.01318364*Y4Y5X7
0.01438436*Z4X6X7
0.01438436*Z4Z5Y6Y7
0.01109188*Z4Z5X6X7
0.01109188*Z4Y6Y7
0.07948360*Z3Z7
0.00388775*Z3Z5X6X7
0.00388775*Z3Y6Y7
-0.03234007*X3Z6X7
0.03234007*Z2X3Z6X7
0.03234007*X3X7
-0.03234007*Z2X3X7
0.00538470*X3X4X5X6X7
-0.00538470*Z2X3X4X5X6X7
0.00538470*X3Y4X5X6Y7
-0.00538470*Z2X3Y4X5X6Y7
0.00388775*Y2Y3Z7
0.00388775*Z1X2X3Z7
0.02518004*Y2Y3Z5X6X7
0.02518004*Z1X2X3Z5X6X7
0.02518004*Y2Y3Y6Y7
0.02518004*Z1X2X3Y6Y7
0.01280140*Y1X2Y3Z4X5X6X7
0.01280140*Z0X1X2X3Z4X5X6X7
0.01280140*Y1X2Y3Y5X6Y7
0.01280140*Z0X1X2X3Y5X6Y7
-0.00538470*Y0X1X2Y3Z6X7
-0.00538470*X0X1X2X3Z6X7
0.00538470*Y0X1X2Y3X7
0.00538470*X0X1X2X3X7
0.01444777*Y0X1X2Y3X4X5X6X7
0.01444777*X0X1X2X3X4X5X6X7
0.01444777*Y0X1X2Y3Y4X5X6Y7
0.01444777*X0X1X2X3Y4X5X6Y7
0.07790673*Z2Z3Z7
-0.01210025*Z2Z3Z5X6X7
-0.01210025*Z2Z3Y6Y7
0.02612459*X2Z6X7
-0.02612459*Z1X2Z3Z6X7
-0.02612459*X2X7
0.02612459*Z1X2Z3X7
-0.01666413*X2X4X5X6X7
0.01666413*Z1X2Z3X4X5X6X7
-0.01666413*X2Y4X5X6Y7
0.01666413*Z1X2Z3Y4X5X6Y7
0.00491630*Y0X1Y2Z7
0.00491630*X0X1X2Z3Z7
0.02367203*Y0X1Y2Z5X6X7
0.02367203*X0X1X2Z3Z5X6X7
0.02367203*Y0X1Y2Y6Y7
0.02367203*X0X1X2Z3Y6Y7
0.07888016*Z1Z2Z7
-0.00817777*Z1Z2Z5X6X7
-0.00817777*Z1Z2Y6Y7
-0.01091498*X1Z4X5X6X7
0.01091498*Z0X1Z2Z4X5X6X7
-0.01091498*X1Y5X6Y7
0.01091498*Z0X1Z2Y5X6Y7
0.02984776*Y0Y1Z6X7
0.02984776*X0X1Z2Z6X7
-0.02984776*Y0Y1X7
-0.02984776*X0X1Z2X7
-0.00502761*Y0Y1X4X5X6X7
-0.00502761*X0X1Z2X4X5X6X7
-0.00502761*Y0Y1Y4X5X6Y7
-0.00502761*X0X1Z2Y4X5X6Y7
0.08228794*Z0Z1Z7
0.02529934*Z0Z1Z5X6X7
0.02529934*Z0Z1Y6Y7
0.08447698*Z0Z7
0.00606427*Z0Z5X6X7
0.00606427*Z0Y6Y7
0.05223710*Z5Z7
0.06434418*Z4Z5Z6Z7
0.05816283*Z4Z6Z7
-0.01678509*X4Y5Y6Z7
0.01678509*Y4Y5X6
-0.02011865*Y4Y5X6Z7
0.02011865*X4Y5Y6
0.07790673*Z3Z6Z7
0.00491630*Z3X4X5X6Z7
0.00491630*Z3Y4X5Y6
0.02612459*X3Z5X6Z7
-0.02612459*Z2X3Z5X6Z7
-0.02612459*X3X6
0.02612459*Z2X3X6
-0.01210025*Y2Y3Z6Z7
-0.01210025*Z1X2X3Z6Z7
0.02367203*Y2Y3X4X5X6Z7
0.02367203*Z1X2X3X4X5X6Z7
0.02367203*Y2Y3Y4X5Y6
0.02367203*Z1X2X3Y4X5Y6
0.01666413*Y0X1X2Y3Z5X6Z7
0.01666413*X0X1X2X3Z5X6Z7
-0.01666413*Y0X1X2Y3X6
-0.01666413*X0X1X2X3X6
0.08701405*Z2Z3Z6Z7
-0.00901323*Z2Z3X4X5X6Z7
-0.00901323*Z2Z3Y4X5Y6
-0.03231686*X2Z5X6Z7
0.03231686*Z1X2Z3Z5X6Z7
0.03231686*X2X6
-0.03231686*Z1X2Z3X6
0.00184042*Y1Y2Z4X5X6Z7
0.00184042*Z0X1X2Z3Z4X5X6Z7
0.00184042*Y1Y2Y5Y6
0.00184042*Z0X1X2Z3Y5Y6
-0.00901323*Y0X1Y2Z6Z7
-0.00901323*X0X1X2Z3Z6Z7
0.02460316*Y0X1Y2X4X5X6Z7
0.02460316*X0X1X2Z3X4X5X6Z7
0.02460316*Y0X1Y2Y4X5Y6
0.02460316*X0X1X2Z3Y4X5Y6
0.08455396*Z1Z2Z6Z7
-0.00753513*Z1Z2X4X5X6Z7
-0.00753513*Z1Z2Y4X5Y6
-0.02432022*Y0Y1Z5X6Z7
-0.02432022*X0X1Z2Z5X6Z7
0.02432022*Y0Y1X6
0.02432022*X0X1Z2X6
0.06618460*Z0Z1Z6Z7
0.02294563*Z0Z1X4X5X6Z7
0.02294563*Z0Z1Y4X5Y6
-0.00282697*X0Z4X5X6Z7
0.00282697*X0Z1Z4X5X6Z7
-0.00282697*X0Y5Y6
0.00282697*X0Z1Y5Y6
0.08276600*Z0Z6Z7
0.00917907*Z0X4X5X6Z7
0.00917907*Z0Y4X5Y6
0.06330473*Z4Z6
0.05444924*Z4Z5Z6
0.07888016*Z3Z5Z6
-0.02984776*X3X4X5Z6
0.02984776*Z2X3X4X5Z6
-0.02984776*X3Y4Y5
0.02984776*Z2X3Y4Y5
-0.00817777*Y2Y3Z5Z6
-0.00817777*Z1X2X3Z5Z6
0.01091498*Y1X2Y3Z4X5Z6
0.01091498*Z0X1X2X3Z4X5Z6
-0.01091498*Y1X2Y3X5
-0.01091498*Z0X1X2X3X5
-0.00502761*Y0X1X2Y3X4X5Z6
-0.00502761*X0X1X2X3X4X5Z6
-0.00502761*Y0X1X2Y3Y4Y5
-0.00502761*X0X1X2X3Y4Y5
0.08455396*Z2Z3Z5Z6
0.02432022*X2X4X5Z6
-0.02432022*Z1X2Z3X4X5Z6
0.02432022*X2Y4Y5
-0.02432022*Z1X2Z3Y4Y5
-0.00753513*Y0X1Y2Z5Z6
-0.00753513*X0X1X2Z3Z5Z6
0.08533939*Z1Z2Z5Z6
-0.00942092*X1Z4X5Z6
0.00942092*Z0X1Z2Z4X5Z6
0.00942092*X1X5
-0.00942092*Z0X1Z2X5
0.02880597*Y0Y1X4X5Z6
0.02880597*X0X1Z2X4X5Z6
0.02880597*Y0Y1Y4Y5
0.02880597*X0X1Z2Y4Y5
0.07272565*Z0Z1Z5Z6
0.08325521*Z0Z5Z6
0.08320151*Z5
0.08228794*Z3Z4Z5
0.02529934*Y2Y3Z4Z5
0.02529934*Z1X2X3Z4Z5
0.06618460*Z2Z3Z4Z5
0.00282697*Y1Y2X4Z5
0.00282697*Z0X1X2Z3X4Z5
-0.00282697*Y1Y2X4
-0.00282697*Z0X1X2Z3X4
0.02294563*Y0X1Y2Z4Z5
0.02294563*X0X1X2Z3Z4Z5
0.07272565*Z1Z2Z4Z5
0.11246476*Z0Z1Z4Z5
-0.00452047*X0X4Z5
0.00452047*X0Z1X4Z5
0.00452047*X0X4
-0.00452047*X0Z1X4
0.08772198*Z0Z4Z5
0.08447698*Z3Z4
0.00606427*Y2Y3Z4
0.00606427*Z1X2X3Z4
0.08276600*Z2Z3Z4
0.00917907*Y0X1Y2Z4
0.00917907*X0X1X2Z3Z4
0.08325521*Z1Z2Z4
0.08772198*Z0Z1Z4
0.09461546*Z0Z4
0.04556666*Z2
0.01030100*X0X1X2
0.01030100*Y0X1Y2Z3
0.05370012*Z1Z2Z3
0.06948654*Z0Z1Z3
0.07002921*Z0Z3
-0.01402434*Z1Y2Y3
-0.01402434*X2X3
0.01318364*X0X1X3
0.00617573*Y0Y1Z2X3
0.00700791*X0Y1Y3
0.00700791*Y0X1Y3
-0.00617573*X0X1Z2X3
-0.01318364*Y0Y1X3
0.01438436*Z0X2X3
0.01438436*Z0Z1Y2Y3
0.01109188*Z0Z1X2X3
0.01109188*Z0Y2Y3
0.05223710*Z1Z3
0.06434418*Z0Z1Z2Z3
0.05816283*Z0Z2Z3
-0.01678509*X0Y1Y2Z3
0.01678509*Y0Y1X2
-0.02011865*Y0Y1X2Z3
0.02011865*X0Y1Y2
0.06330473*Z0Z2
0.05444924*Z0Z1Z2
0.08320151*Z1
