-12.45063403*I
-0.05075794*Z7
0.01568587*Z4X5X6X7
0.01568587*Y5X6Y7
-0.06410591*Z6Z7
-0.01024641*X4X5X6Z7
-0.01024641*Y4X5Y6
-0.21435019*Z5Z6
-0.39654322*Z4Z5
-0.84448956*Z4
-0.05075794*Z3
0.01568587*Z0X1X2X3
0.01568587*Y1X2Y3
-0.06410591*Z2Z3
-0.01024641*X0X1X2Z3
-0.01024641*Y0X1Y2
-0.21435019*Z1Z2
-0.39654322*Z0Z1
-0.84448956*Z0
0.07112134*Z6
0.00663985*X4X5X6
0.00663985*Y4X5Y6Z7
0.08547565*Z5Z6Z7
0.08891823*Z4Z5Z7
0.10330049*Z4Z7
-0.00849192*Z4X5Y6Y7
0.00849192*Y5Y6X7
0.02083040*X4Z5Z6X7
-0.02004890*X4Z6X7
0.00078150*Y4Y7
0.00078150*Y4Z5Z6Y7
-0.02004890*X4Z5X7
0.02083040*X4X7
0.00652344*Z4Y5Y6X7
-0.00652344*X5Y6Y7
-0.00176955*X5X6X7
-0.00176955*Z4Y5X6Y7
0.11005156*Z3Z7
-0.01180333*Z3Z4X5X6X7
-0.01180333*Z3Y5X6Y7
-0.04198547*X3Z6X7
0.04198547*Z2X3Z6X7
0.04198547*X3X7
-0.04198547*Z2X3X7
0.01388805*X3X4X5X6X7
-0.01388805*Z2X3X4X5X6X7
0.01388805*X3Y4X5X6Y7
-0.01388805*Z2X3Y4X5X6Y7
0.01375985*Y2Y3Z5X6X7
0.01375985*Z1X2X3Z5X6X7
0.01375985*Y2Y3Y6Y7
0.01375985*Z1X2X3Y6Y7
-0.01180333*Y1X2Y3Z7
-0.01180333*Z0X1X2X3Z7
0.01789562*Y1X2Y3Z4X5X6X7
0.01789562*Z0X1X2X3Z4X5X6X7
0.01789562*Y1X2Y3Y5X6Y7
0.01789562*Z0X1X2X3Y5X6Y7
-0.01388805*Y0X1X2Y3Z6X7
-0.01388805*X0X1X2X3Z6X7
0.01388805*Y0X1X2Y3X7
0.01388805*X0X1X2X3X7
0.01433313*Y0X1X2Y3X4X5X6X7
0.01433313*X0X1X2X3X4X5X6X7
0.01433313*Y0X1X2Y3Y4X5X6Y7
0.01433313*X0X1X2X3Y4X5X6Y7
0.11310681*Z2Z3Z7
-0.01749294*Z2Z3Z4X5X6X7
-0.01749294*Z2Z3Y5X6Y7
-0.02598486*Y1Y2Z6X7
-0.02598486*Z0X1X2Z3Z6X7
0.02598486*Y1Y2X7
0.02598486*Z0X1X2Z3X7
0.01576339*Y1Y2X4X5X6X7
0.01576339*Z0X1X2Z3X4X5X6X7
0.01576339*Y1Y2Y4X5X6Y7
0.01576339*Z0X1X2Z3Y4X5X6Y7
-0.00724820*Y0X1Y2Z7
-0.00724820*X0X1X2Z3Z7
0.01654489*Y0X1Y2Z4X5X6X7
0.01654489*X0X1X2Z3Z4X5X6X7
0.01654489*Y0X1Y2Y5X6Y7
0.01654489*X0X1X2Z3Y5X6Y7
0.09923550*Z1Z2Z7
0.00531638*Z1Z2Z4X5X6X7
0.00531638*Z1Z2Y5X6Y7
-0.01183982*X1Z5X6X7
0.01183982*Z0X1Z2Z5X6X7
-0.01183982*X1Y6Y7
0.01183982*Z0X1Z2Y6Y7
0.10681385*Z0Z1Z7
-0.01388635*Z0Z1Z4X5X6X7
-0.01388635*Z0Z1Y5X6Y7
-0.03659379*X0Z6X7
0.03659379*X0Z1Z6X7
0.03659379*X0X7
-0.03659379*X0Z1X7
0.01785772*X0X4X5X6X7
-0.01785772*X0Z1X4X5X6X7
0.01785772*X0Y4X5X6Y7
-0.01785772*X0Z1Y4X5X6Y7
0.11763361*Z0Z7
-0.01962727*Z0Z4X5X6X7
-0.01962727*Z0Y5X6Y7
0.09208906*Z5Z7
0.08796872*Z4Z5Z6Z7
0.10400465*Z4Z6Z7
-0.00409462*X4Y5Y6Z7
0.00409462*Y4Y5X6
-0.01391254*Y4Y5X6Z7
0.01391254*X4Y5Y6
0.11310681*Z3Z6Z7
-0.00724820*Z3X4X5X6Z7
-0.00724820*Z3Y4X5Y6
0.02598486*X3Z4X5X6Z7
-0.02598486*Z2X3Z4X5X6Z7
0.02598486*X3Y5Y6
-0.02598486*Z2X3Y5Y6
-0.01749294*Y1X2Y3Z6Z7
-0.01749294*Z0X1X2X3Z6Z7
0.01654489*Y1X2Y3X4X5X6Z7
0.01654489*Z0X1X2X3X4X5X6Z7
0.01654489*Y1X2Y3Y4X5Y6
0.01654489*Z0X1X2X3Y4X5Y6
0.01576339*Y0X1X2Y3Z4X5X6Z7
0.01576339*X0X1X2X3Z4X5X6Z7
0.01576339*Y0X1X2Y3Y5Y6
0.01576339*X0X1X2X3Y5Y6
0.11861348*Z2Z3Z6Z7
-0.01134780*Z2Z3X4X5X6Z7
-0.01134780*Z2Z3Y4X5Y6
-0.00451694*X2Z5X6Z7
0.00451694*Z1X2Z3Z5X6Z7
0.00451694*X2X6
-0.00451694*Z1X2Z3X6
0.02156026*Y1Y2Z4X5X6Z7
0.02156026*Z0X1X2Z3Z4X5X6Z7
0.02156026*Y1Y2Y5Y6
0.02156026*Z0X1X2Z3Y5Y6
-0.01134780*Y0X1Y2Z6Z7
-0.01134780*X0X1X2Z3Z6Z7
0.01878480*Y0X1Y2X4X5X6Z7
0.01878480*X0X1X2Z3X4X5X6Z7
0.01878480*Y0X1Y2Y4X5Y6
0.01878480*X0X1X2Z3Y4X5Y6
0.09660600*Z1Z2Z6Z7
0.00754807*Z1Z2X4X5X6Z7
0.00754807*Z1Z2Y4X5Y6
0.00345345*Y0Y1Z5X6Z7
0.00345345*X0X1Z2Z5X6Z7
-0.00345345*Y0Y1X6
-0.00345345*X0X1Z2X6
0.10952899*Z0Z1Z6Z7
-0.01261662*Z0Z1X4X5X6Z7
-0.01261662*Z0Z1Y4X5Y6
0.02652916*X0Z4X5X6Z7
-0.02652916*X0Z1Z4X5X6Z7
0.02652916*X0Y5Y6
-0.02652916*X0Z1Y5Y6
0.12278945*Z0Z6Z7
-0.01464836*Z0X4X5X6Z7
-0.01464836*Z0Y4X5Y6
0.08362628*Z4Z6
0.09740704*Z4Z5Z6
0.09923550*Z3Z5Z6
0.01183982*Y2Y3Z4X5Z6
0.01183982*Z1X2X3Z4X5Z6
-0.01183982*Y2Y3X5
-0.01183982*Z1X2X3X5
0.00531638*Y1X2Y3Z5Z6
0.00531638*Z0X1X2X3Z5Z6
0.09660600*Z2Z3Z5Z6
-0.00345345*X2X4X5Z6
0.00345345*Z1X2Z3X4X5Z6
-0.00345345*X2Y4Y5
0.00345345*Z1X2Z3Y4Y5
0.00754807*Y0X1Y2Z5Z6
0.00754807*X0X1X2Z3Z5Z6
0.11246476*Z1Z2Z5Z6
-0.01235066*X1Z4X5Z6
0.01235066*Z0X1Z2Z4X5Z6
0.01235066*X1X5
-0.01235066*Z0X1Z2X5
0.00367145*Y0Y1X4X5Z6
0.00367145*X0X1Z2X4X5Z6
0.00367145*Y0Y1Y4Y5
0.00367145*X0X1Z2Y4Y5
0.09597694*Z0Z1Z5Z6
0.10107849*Z0Z5Z6
0.08014740*Z5
0.10681385*Z3Z4Z5
-0.03659379*X3X4Z5
0.03659379*Z2X3X4Z5
0.03659379*X3X4
-0.03659379*Z2X3X4
-0.01388635*Y1X2Y3Z4Z5
-0.01388635*Z0X1X2X3Z4Z5
-0.01785772*Y0X1X2Y3X4Z5
-0.01785772*X0X1X2X3X4Z5
0.01785772*Y0X1X2Y3X4
0.01785772*X0X1X2X3X4
0.10952899*Z2Z3Z4Z5
-0.02652916*Y1Y2X4Z5
-0.02652916*Z0X1X2Z3X4Z5
0.02652916*Y1Y2X4
0.02652916*Z0X1X2Z3X4
-0.01261662*Y0X1Y2Z4Z5
-0.01261662*X0X1X2Z3Z4Z5
0.09597694*Z1Z2Z4Z5
0.10858419*Z0Z1Z4Z5
-0.03760638*X0X4Z5
0.03760638*X0Z1X4Z5
0.03760638*X0X4
-0.03760638*X0Z1X4
0.11775379*Z0Z4Z5
0.11763361*Z3Z4
-0.01962727*Y1X2Y3Z4
-0.01962727*Z0X1X2X3Z4
0.12278945*Z2Z3Z4
-0.01464836*Y0X1Y2Z4
-0.01464836*X0X1X2Z3Z4
0.10107849*Z1Z2Z4
0.11775379*Z0Z1Z4
0.13458272*Z0Z4
0.07112134*Z2
0.00663985*X0X1X2
0.00663985*Y0X1Y2Z3
0.08547565*Z1Z2Z3
0.08891823*Z0Z1Z3
0.10330049*Z0Z3
-0.00849192*Z0X1Y2Y3
0.00849192*Y1Y2X3
0.02083040*X0Z1Z2X3
-0.02004890*X0Z2X3
0.00078150*Y0Y3
0.00078150*Y0Z1Z2Y3
-0.02004890*X0Z1X3
0.02083040*X0X3
0.00652344*Z0Y1Y2X3
-0.00652344*X1Y2Y3
-0.00176955*X1X2X3
-0.00176955*Z0Y1X2Y3
0.09208906*Z1Z3
0.08796872*Z0Z1Z2Z3
0.10400465*Z0Z2Z3
-0.00409462*X0Y1Y2Z3
0.00409462*Y0Y1X2
-0.01391254*Y0Y1X2Z3
0.01391254*X0Y1Y2
0.08362628*Z0Z2
0.09740704*Z0Z1Z2
0.08014740*Z1
