-7.26835012*I
-0.10280101*Z3
-0.02139186*Z2X3
0.02139186*X3
0.01168380*X2X3
-0.01168380*Y2Y3
-0.14836939*Z2Z3
-0.02189465*X2Z3
-0.02189465*X2
0.19337294*Z2
0.10280101*Z1
0.02139186*Z0X1
0.02139186*X1
0.01168380*X0X1
-0.01168380*Y0Y1
-0.14836939*Z0Z1
0.02189465*X0Z1
-0.02189465*X0
-0.19337294*Z0
-0.09357771*Z1Z3
0.02893848*Z1Z2X3
-0.02893848*Z1X3
-0.01678049*Z1X2X3
0.01678049*Z1Y2Y3
0.02893848*X1Z3
0.02893848*Z0X1Z3
-0.02948775*X1Z2X3
-0.02948775*Z0X1Z2X3
0.02948775*X1X3
0.02948775*Z0X1X3
0.02050247*X1X2X3
0.02050247*Z0X1X2X3
-0.02050247*X1Y2Y3
-0.02050247*Z0X1Y2Y3
-0.01678049*Y0Y1Z3
0.01678049*X0X1Z3
0.02050247*Y0Y1Z2X3
-0.02050247*X0X1Z2X3
-0.02050247*Y0Y1X3
0.02050247*X0X1X3
-0.02136450*Y0Y1X2X3
0.02136450*X0X1X2X3
0.02136450*Y0Y1Y2Y3
-0.02136450*X0X1Y2Y3
0.06643283*Z0Z1Z3
-0.00478230*Z0Z1Z2X3
0.00478230*Z0Z1X3
0.00792384*Z0Z1X2X3
-0.00792384*Z0Z1Y2Y3
-0.02168597*X0Z3
0.02168597*X0Z1Z3
0.01921831*X0Z2X3
-0.01921831*X0Z1Z2X3
-0.01921831*X0X3
0.01921831*X0Z1X3
-0.00856218*X0X2X3
0.00856218*X0Z1X2X3
0.00856218*X0Y2Y3
-0.00856218*X0Z1Y2Y3
0.07019788*Z0Z3
-0.00276415*Z0Z2X3
0.00276415*Z0X3
-0.00282737*Z0X2X3
0.00282737*Z0Y2Y3
-0.06643283*Z1Z2Z3
0.02168597*Z1X2Z3
0.02168597*Z1X2
0.00478230*X1Z2Z3
0.00478230*Z0X1Z2Z3
-0.01921831*X1X2Z3
-0.01921831*Z0X1X2Z3
-0.01921831*X1X2
-0.01921831*Z0X1X2
-0.00792384*Y0Y1Z2Z3
0.00792384*X0X1Z2Z3
0.00856218*Y0Y1X2Z3
-0.00856218*X0X1X2Z3
0.00856218*Y0Y1X2
-0.00856218*X0X1X2
0.06905800*Z0Z1Z2Z3
0.00100382*Z0Z1X2Z3
0.00100382*Z0Z1X2
0.00100382*X0Z2Z3
-0.00100382*X0Z1Z2Z3
0.01835271*X0X2Z3
-0.01835271*X0Z1X2Z3
0.01835271*X0X2
-0.01835271*X0Z1X2
0.06488321*Z0Z2Z3
-0.00316182*Z0X2Z3
-0.00316182*Z0X2
0.07019788*Z1Z2
-0.00276415*X1Z2
-0.00276415*Z0X1Z2
-0.00282737*Y0Y1Z2
0.00282737*X0X1Z2
-0.06488321*Z0Z1Z2
0.00316182*X0Z2
-0.00316182*X0Z1Z2
-0.07419740*Z0Z2
