-95.21806577*I
0.89486945*Z5
0.22432235*X3X4X5
-0.22432235*Y3X4Y5
0.95428089*Z4Z5
0.95428089*Z3Z4
-0.46685532*Z3
-0.89486945*Z2
0.22432235*X0X1X2
-0.22432235*Y0X1Y2
0.95428089*Z1Z2
0.95428089*Z0Z1
0.46685532*Z0
0.01935460*Z4
0.01935460*Z3Z4Z5
0.08951016*Z3Z5
-0.09552015*X3Y4Y5
-0.09552015*Y3Y4X5
-0.18616051*Z2Z5
-0.02921741*Z2X3X4X5
0.02921741*Z2Y3X4Y5
-0.01120400*X2Z4X5
-0.01120400*Z1X2Z4X5
0.01120400*X2X5
0.01120400*Z1X2X5
0.01120400*Y1Y2Z3X4X5
-0.01120400*Z0X1X2Z3X4X5
0.01120400*Y1Y2Y4Y5
-0.01120400*Z0X1X2Y4Y5
-0.02921741*Y0X1Y2Z5
0.02921741*X0X1X2Z5
-0.04731262*Y0X1Y2X3X4X5
0.04731262*X0X1X2X3X4X5
0.04731262*Y0X1Y2Y3X4Y5
-0.04731262*X0X1X2Y3X4Y5
0.18438256*Z1Z2Z5
0.05191142*Z1Z2X3X4X5
-0.05191142*Z1Z2Y3X4Y5
-0.00415134*Y0Y1Z4X5
-0.00415134*X0X1Z2Z4X5
0.00415134*Y0Y1X5
0.00415134*X0X1Z2X5
0.18438256*Z0Z1Z5
0.05191142*Z0Z1X3X4X5
-0.05191142*Z0Z1Y3X4Y5
0.00415134*X0Z3X4X5
-0.00415134*X0Z1Z3X4X5
0.00415134*X0Y4Y5
-0.00415134*X0Z1Y4Y5
0.16685308*Z0Z5
0.00423804*Z0X3X4X5
-0.00423804*Z0Y3X4Y5
-0.18438256*Z2Z4Z5
-0.00415134*X2X3X4Z5
-0.00415134*Z1X2X3X4Z5
0.00415134*X2Y3Y4
0.00415134*Z1X2Y3Y4
-0.05191142*Y0X1Y2Z4Z5
0.05191142*X0X1X2Z4Z5
0.24937841*Z1Z2Z4Z5
-0.01344259*X1Z3X4Z5
0.01344259*Z0X1Z2Z3X4Z5
0.01344259*X1X4
-0.01344259*Z0X1Z2X4
-0.00774306*Y0Y1X3X4Z5
-0.00774306*X0X1Z2X3X4Z5
0.00774306*Y0Y1Y3Y4
0.00774306*X0X1Z2Y3Y4
0.22249322*Z0Z1Z4Z5
0.16156703*Z0Z4Z5
-0.18438256*Z2Z3Z4
0.00415134*Y1Y2X3Z4
-0.00415134*Z0X1X2X3Z4
0.00415134*Y1Y2X3
-0.00415134*Z0X1X2X3
-0.05191142*Y0X1Y2Z3Z4
0.05191142*X0X1X2Z3Z4
0.22249322*Z1Z2Z3Z4
0.24937841*Z0Z1Z3Z4
0.00774306*X0X3Z4
-0.00774306*X0Z1X3Z4
0.00774306*X0X3
-0.00774306*X0Z1X3
0.16156703*Z0Z3Z4
0.16685308*Z2Z3
0.00423804*Y0X1Y2Z3
-0.00423804*X0X1X2Z3
-0.16156703*Z1Z2Z3
-0.16156703*Z0Z1Z3
-0.17682942*Z0Z3
-0.01935460*Z1
-0.01935460*Z0Z1Z2
0.08951016*Z0Z2
-0.09552015*X0Y1Y2
-0.09552015*Y0Y1X2
