Y5X6X7
Y4X5X6X7
Y5X6Z7
Y4X5X6Z7
Y5Z6
Y4X5Z6
Y1X2X3
Y0X1X2X3
Y1X2Z3
Y0X1X2Z3
Y1Z2
Y0X1Z2
Y1X2X3Z4X5X6X7
Y0X1X2X3Z4X5X6X7
Y1X2Z3Z4X5X6X7
Y0X1X2Z3Z4X5X6X7
Y1Z2Z4X5X6X7
Y0X1Z2Z4X5X6X7
Y1X2X3X4X5X6X7
Y0X1X2X3X4X5X6X7
Y1X2Z3X4X5X6X7
Y0X1X2Z3X4X5X6X7
Y1Z2X4X5X6X7
Y0X1Z2X4X5X6X7
Y1X2X3Z4X5X6Z7
Y0X1X2X3Z4X5X6Z7
Y1X2Z3Z4X5X6Z7
Y0X1X2Z3Z4X5X6Z7
Y1Z2Z4X5X6Z7
Y0X1Z2Z4X5X6Z7
Y1X2X3X4X5X6Z7
Y0X1X2X3X4X5X6Z7
Y1X2Z3X4X5X6Z7
Y0X1X2Z3X4X5X6Z7
Y1Z2X4X5X6Z7
Y0X1Z2X4X5X6Z7
Y1X2X3Z4X5Z6
Y0X1X2X3Z4X5Z6
Y1X2Z3Z4X5Z6
Y0X1X2Z3Z4X5Z6
Y1Z2Z4X5Z6
Y0X1Z2Z4X5Z6
Y1X2X3X4X5Z6
Y0X1X2X3X4X5Z6
Y1X2Z3X4X5Z6
Y0X1X2Z3X4X5Z6
Y1Z2X4X5Z6
Y0X1Z2X4X5Z6
X4Y7
X4Y6X7
X4Y6Z7
X0Y3
X0Y2X3
X0Y2Z3
