1.93949703*I
0.25351666*Z9
0.01486537*Z7X8X9
0.01486537*Y8Y9
0.00824318*Z5X6X7X8X9
0.00824318*Y6X7X8Y9
0.17801316*Z8Z9
0.00344894*Z6X7X8Z9
0.00344894*Y7Y8
0.00942656*X5X6X7X8Z9
-0.00942656*Y5X6X7Y8
0.03305922*Z7Z8
-0.03540967*Z5X6X7Z8
-0.03540967*Y6Y7
-0.18145409*Z6Z7
0.01990548*X5X6Z7
-0.01990548*Y5Y6
-0.50391847*Z5Z6
0.97614589*Z5
-0.25351666*Z4
-0.01486537*Z2X3X4
0.01486537*Y3Y4
-0.00824318*Z0X1X2X3X4
0.00824318*Y1X2X3Y4
0.17801316*Z3Z4
0.00344894*Z1X2X3Z4
0.00344894*Y2Y3
-0.00942656*X0X1X2X3Z4
-0.00942656*Y0X1X2Y3
0.03305922*Z2Z3
-0.03540967*Z0X1X2Z3
-0.03540967*Y1Y2
-0.18145409*Z1Z2
-0.01990548*X0X1Z2
-0.01990548*Y0Y1
-0.50391847*Z0Z1
-0.97614589*Z0
0.07178127*Z8
-0.01026392*Z6X7X8
-0.01026392*Y7Y8Z9
-0.00167306*X5X6X7X8
0.00167306*Y5X6X7Y8Z9
0.08397877*Z7Z8Z9
0.01624420*Z5X6X7Z8Z9
0.01624420*Y6Y7Z9
0.09319269*Z6Z7Z9
-0.01654547*X5X6Z7Z9
0.01654547*Y5Y6Z9
0.10213706*Z5Z6Z9
-0.12657565*Z5Z9
0.02248506*Z7Y8Y9
0.02248506*X8X9
0.00329466*Z5X6X7Y8Y9
-0.00329466*Y6X7Y8X9
0.02068086*Z6X7X9
-0.00721617*X7Z8X9
0.01346469*Z6Y7Y9
0.01346469*Y7Y9
-0.00721617*Z6X7Z8X9
0.02068086*X7X9
-0.00748986*X5X6X7X9
0.00528121*Y5X6Y7Z8X9
-0.00220865*X5X6Y7Y9
0.00220865*Y5X6X7Y9
0.00528121*X5X6X7Z8X9
-0.00748986*Y5X6Y7X9
-0.02279367*Z5X6Z7Z8X9
0.01498931*X6Z8X9
-0.00780435*Z5Y6Y9
-0.00780435*Y6Z7Z8Y9
0.01498931*Z5X6Z7X9
-0.02279367*X6X9
-0.02877449*X5Z6Z8X9
-0.02354347*X5Z8X9
-0.00523102*Y5Y9
0.00523102*Y5Z6Z8Y9
0.02354347*X5Z6X9
0.02877449*X5X9
-0.01377083*Z5X6Y7Y8X9
-0.01377083*Y6Y7Y8Y9
-0.00365899*Z6X8X9
-0.00365899*Z6Z7Y8Y9
0.01601402*X5X6X8X9
-0.00649451*Y5Y6Z7X8X9
0.00951951*X5Y6Y8X9
-0.00951951*Y5X6X8Y9
0.00649451*X5X6Z7Y8Y9
-0.01601402*Y5Y6Y8Y9
-0.00409472*Z5Z6Z7X8X9
-0.00409472*Z5Z6Y8Y9
0.01913872*Z5Z7X8X9
0.01913872*Z5Y8Y9
0.00175190*Z5Y6Y7X8X9
-0.00175190*X6Y7X8Y9
0.00953789*X5X7X8X9
0.00607448*X5Z6X7X8X9
0.00346342*Y5Y7X8X9
-0.00346342*Y5X7X8Y9
0.00607448*X5Z6Y7X8Y9
0.00953789*X5Y7X8Y9
-0.00102906*X6X7X8X9
-0.00102906*Z5Y6X7X8Y9
-0.12991032*Z4Z9
0.02300401*Z4Z7X8X9
0.02300401*Z4Y8Y9
0.00011503*Z4Z5X6X7X8X9
0.00011503*Z4Y6X7X8Y9
-0.03450250*X4Z8X9
-0.03450250*Z3X4Z8X9
0.03450250*X4X9
0.03450250*Z3X4X9
0.01441673*X4Z6X7X8X9
0.01441673*Z3X4Z6X7X8X9
0.01441673*X4Y7X8Y9
0.01441673*Z3X4Y7X8Y9
-0.00086392*X4X5X6X7X8X9
-0.00086392*Z3X4X5X6X7X8X9
0.00086392*X4Y5X6X7X8Y9
0.00086392*Z3X4Y5X6X7X8Y9
-0.02300401*Y3Y4Z9
0.02300401*Z2X3X4Z9
0.02459406*Y3Y4Z7X8X9
-0.02459406*Z2X3X4Z7X8X9
0.02459406*Y3Y4Y8Y9
-0.02459406*Z2X3X4Y8Y9
0.00957071*Y3Y4Z5X6X7X8X9
-0.00957071*Z2X3X4Z5X6X7X8X9
0.00957071*Y3Y4Y6X7X8Y9
-0.00957071*Z2X3X4Y6X7X8Y9
-0.01441673*Y2X3Y4Z8X9
0.01441673*Z1X2X3X4Z8X9
0.01441673*Y2X3Y4X9
-0.01441673*Z1X2X3X4X9
0.01925042*Y2X3Y4Z6X7X8X9
-0.01925042*Z1X2X3X4Z6X7X8X9
0.01925042*Y2X3Y4Y7X8Y9
-0.01925042*Z1X2X3X4Y7X8Y9
-0.00745518*Y2X3Y4X5X6X7X8X9
0.00745518*Z1X2X3X4X5X6X7X8X9
0.00745518*Y2X3Y4Y5X6X7X8Y9
-0.00745518*Z1X2X3X4Y5X6X7X8Y9
-0.00011503*Y1X2X3Y4Z9
0.00011503*Z0X1X2X3X4Z9
0.00957071*Y1X2X3Y4Z7X8X9
-0.00957071*Z0X1X2X3X4Z7X8X9
0.00957071*Y1X2X3Y4Y8Y9
-0.00957071*Z0X1X2X3X4Y8Y9
0.01438431*Y1X2X3Y4Z5X6X7X8X9
-0.01438431*Z0X1X2X3X4Z5X6X7X8X9
0.01438431*Y1X2X3Y4Y6X7X8Y9
-0.01438431*Z0X1X2X3X4Y6X7X8Y9
-0.00086392*Y0X1X2X3Y4Z8X9
0.00086392*X0X1X2X3X4Z8X9
0.00086392*Y0X1X2X3Y4X9
-0.00086392*X0X1X2X3X4X9
0.00745518*Y0X1X2X3Y4Z6X7X8X9
-0.00745518*X0X1X2X3X4Z6X7X8X9
0.00745518*Y0X1X2X3Y4Y7X8Y9
-0.00745518*X0X1X2X3X4Y7X8Y9
-0.01618347*Y0X1X2X3Y4X5X6X7X8X9
0.01618347*X0X1X2X3X4X5X6X7X8X9
0.01618347*Y0X1X2X3Y4Y5X6X7X8Y9
-0.01618347*X0X1X2X3X4Y5X6X7X8Y9
0.10628377*Z3Z4Z9
0.00380059*Z3Z4Z7X8X9
0.00380059*Z3Z4Y8Y9
0.00985832*Z3Z4Z5X6X7X8X9
0.00985832*Z3Z4Y6X7X8Y9
-0.02628565*X3Z8X9
0.02628565*Z2X3Z4Z8X9
0.02628565*X3X9
-0.02628565*Z2X3Z4X9
-0.00243181*X3Z6X7X8X9
0.00243181*Z2X3Z4Z6X7X8X9
-0.00243181*X3Y7X8Y9
0.00243181*Z2X3Z4Y7X8Y9
0.00641417*X3X5X6X7X8X9
-0.00641417*Z2X3Z4X5X6X7X8X9
-0.00641417*X3Y5X6X7X8Y9
0.00641417*Z2X3Z4Y5X6X7X8Y9
-0.02468064*Y2Y3Z9
-0.02468064*Z1X2X3Z4Z9
0.01589650*Y2Y3Z7X8X9
0.01589650*Z1X2X3Z4Z7X8X9
0.01589650*Y2Y3Y8Y9
0.01589650*Z1X2X3Z4Y8Y9
-0.00540863*Y2Y3Z5X6X7X8X9
-0.00540863*Z1X2X3Z4Z5X6X7X8X9
-0.00540863*Y2Y3Y6X7X8Y9
-0.00540863*Z1X2X3Z4Y6X7X8Y9
0.01315297*Y1X2Y3Z8X9
0.01315297*Z0X1X2X3Z4Z8X9
-0.01315297*Y1X2Y3X9
-0.01315297*Z0X1X2X3Z4X9
-0.01321298*Y1X2Y3Z6X7X8X9
-0.01321298*Z0X1X2X3Z4Z6X7X8X9
-0.01321298*Y1X2Y3Y7X8Y9
-0.01321298*Z0X1X2X3Z4Y7X8Y9
-0.00672874*Y1X2Y3X5X6X7X8X9
-0.00672874*Z0X1X2X3Z4X5X6X7X8X9
0.00672874*Y1X2Y3Y5X6X7X8Y9
0.00672874*Z0X1X2X3Z4Y5X6X7X8Y9
0.00080914*Y0X1X2Y3Z9
0.00080914*X0X1X2X3Z4Z9
0.00862282*Y0X1X2Y3Z7X8X9
0.00862282*X0X1X2X3Z4Z7X8X9
0.00862282*Y0X1X2Y3Y8Y9
0.00862282*X0X1X2X3Z4Y8Y9
0.01195977*Y0X1X2Y3Z5X6X7X8X9
0.01195977*X0X1X2X3Z4Z5X6X7X8X9
0.01195977*Y0X1X2Y3Y6X7X8Y9
0.01195977*X0X1X2X3Z4Y6X7X8Y9
0.10857284*Z2Z3Z9
-0.00520132*Z2Z3Z7X8X9
-0.00520132*Z2Z3Y8Y9
-0.00340701*Z2Z3Z5X6X7X8X9
-0.00340701*Z2Z3Y6X7X8Y9
-0.02311267*X2Z8X9
0.02311267*Z1X2Z3Z8X9
0.02311267*X2X9
-0.02311267*Z1X2Z3X9
0.00256275*X2Z6X7X8X9
-0.00256275*Z1X2Z3Z6X7X8X9
0.00256275*X2Y7X8Y9
-0.00256275*Z1X2Z3Y7X8Y9
-0.00750283*X2X5X6X7X8X9
0.00750283*Z1X2Z3X5X6X7X8X9
0.00750283*X2Y5X6X7X8Y9
-0.00750283*Z1X2Z3Y5X6X7X8Y9
0.02581491*Y1Y2Z9
0.02581491*Z0X1X2Z3Z9
-0.01717784*Y1Y2Z7X8X9
-0.01717784*Z0X1X2Z3Z7X8X9
-0.01717784*Y1Y2Y8Y9
-0.01717784*Z0X1X2Z3Y8Y9
0.00168954*Y1Y2Z5X6X7X8X9
0.00168954*Z0X1X2Z3Z5X6X7X8X9
0.00168954*Y1Y2Y6X7X8Y9
0.00168954*Z0X1X2Z3Y6X7X8Y9
0.01390403*Y0X1Y2Z8X9
0.01390403*X0X1X2Z3Z8X9
-0.01390403*Y0X1Y2X9
-0.01390403*X0X1X2Z3X9
-0.01702234*Y0X1Y2Z6X7X8X9
-0.01702234*X0X1X2Z3Z6X7X8X9
-0.01702234*Y0X1Y2Y7X8Y9
-0.01702234*X0X1X2Z3Y7X8Y9
0.00709713*Y0X1Y2X5X6X7X8X9
0.00709713*X0X1X2Z3X5X6X7X8X9
-0.00709713*Y0X1Y2Y5X6X7X8Y9
-0.00709713*X0X1X2Z3Y5X6X7X8Y9
0.11244311*Z1Z2Z9
-0.00622173*Z1Z2Z7X8X9
-0.00622173*Z1Z2Y8Y9
0.00069416*Z1Z2Z5X6X7X8X9
0.00069416*Z1Z2Y6X7X8Y9
0.02820230*X1Z8X9
-0.02820230*Z0X1Z2Z8X9
-0.02820230*X1X9
0.02820230*Z0X1Z2X9
-0.00244606*X1Z6X7X8X9
0.00244606*Z0X1Z2Z6X7X8X9
-0.00244606*X1Y7X8Y9
0.00244606*Z0X1Z2Y7X8Y9
-0.00556073*X1X5X6X7X8X9
0.00556073*Z0X1Z2X5X6X7X8X9
0.00556073*X1Y5X6X7X8Y9
-0.00556073*Z0X1Z2Y5X6X7X8Y9
0.02400065*Y0Y1Z9
0.02400065*X0X1Z2Z9
-0.02351685*Y0Y1Z7X8X9
-0.02351685*X0X1Z2Z7X8X9
-0.02351685*Y0Y1Y8Y9
-0.02351685*X0X1Z2Y8Y9
-0.00902415*Y0Y1Z5X6X7X8X9
-0.00902415*X0X1Z2Z5X6X7X8X9
-0.00902415*Y0Y1Y6X7X8Y9
-0.00902415*X0X1Z2Y6X7X8Y9
0.11652137*Z0Z1Z9
-0.00240518*Z0Z1Z7X8X9
-0.00240518*Z0Z1Y8Y9
0.00871156*Z0Z1Z5X6X7X8X9
0.00871156*Z0Z1Y6X7X8Y9
-0.03550323*X0Z8X9
0.03550323*X0Z1Z8X9
0.03550323*X0X9
-0.03550323*X0Z1X9
0.01509862*X0Z6X7X8X9
-0.01509862*X0Z1Z6X7X8X9
0.01509862*X0Y7X8Y9
-0.01509862*X0Z1Y7X8Y9
-0.00114267*X0X5X6X7X8X9
0.00114267*X0Z1X5X6X7X8X9
0.00114267*X0Y5X6X7X8Y9
-0.00114267*X0Z1Y5X6X7X8Y9
0.14275911*Z0Z9
-0.02623585*Z0Z7X8X9
-0.02623585*Z0Y8Y9
-0.00011361*Z0Z5X6X7X8X9
-0.00011361*Z0Y6X7X8Y9
0.07141062*Z7Z9
0.00484017*Z5X6X7Z9
0.00484017*Y6Y7Z8Z9
0.08477021*Z6Z7Z8Z9
-0.00227418*X5X6Z7Z8Z9
0.00227418*Y5Y6Z8Z9
0.09596989*Z5Z6Z8Z9
-0.10443552*Z5Z8Z9
0.02710566*Z6Y7Y8Z9
0.02710566*X7X8
-0.00016752*X5X6Y7Y8Z9
-0.00016752*Y5X6Y7X8
-0.02576944*Z5X6X8Z9
0.01073682*X6Z7X8Z9
-0.01503263*Z5Y6Y8Z9
-0.01503263*Y6Y8
0.01073682*Z5X6Z7X8
-0.02576944*X6X8
-0.02399671*X5Z6Z7X8Z9
-0.01513425*X5Z7X8Z9
-0.00886246*Y5Y8Z9
0.00886246*Y5Z6Z7Y8
0.01513425*X5Z6X8
0.02399671*X5X8
0.01550352*X5Y6Y7X8Z9
-0.01550352*Y5Y6Y7Y8
-0.00644889*Z5X7X8Z9
-0.00644889*Z5Z6Y7Y8
0.01979847*Z5Z6X7X8Z9
0.01979847*Z5Y7Y8
-0.00451238*Y5Y6X7X8Z9
-0.00451238*X5Y6X7Y8
-0.10628377*Z4Z8Z9
0.02468064*Z4Z6X7X8Z9
0.02468064*Z4Y7Y8
0.00080914*Z4X5X6X7X8Z9
-0.00080914*Z4Y5X6X7Y8
-0.02628565*X4Z7X8Z9
-0.02628565*Z3X4Z7X8Z9
0.02628565*X4X8
0.02628565*Z3X4X8
-0.01315297*X4Z5X6X7X8Z9
-0.01315297*Z3X4Z5X6X7X8Z9
-0.01315297*X4Y6X7Y8
-0.01315297*Z3X4Y6X7Y8
0.00380059*Y3Y4Z8Z9
-0.00380059*Z2X3X4Z8Z9
0.01589650*Y3Y4Z6X7X8Z9
-0.01589650*Z2X3X4Z6X7X8Z9
0.01589650*Y3Y4Y7Y8
-0.01589650*Z2X3X4Y7Y8
-0.00862282*Y3Y4X5X6X7X8Z9
0.00862282*Z2X3X4X5X6X7X8Z9
0.00862282*Y3Y4Y5X6X7Y8
-0.00862282*Z2X3X4Y5X6X7Y8
0.00243181*Y2X3Y4Z7X8Z9
-0.00243181*Z1X2X3X4Z7X8Z9
-0.00243181*Y2X3Y4X8
0.00243181*Z1X2X3X4X8
-0.01321298*Y2X3Y4Z5X6X7X8Z9
0.01321298*Z1X2X3X4Z5X6X7X8Z9
-0.01321298*Y2X3Y4Y6X7Y8
0.01321298*Z1X2X3X4Y6X7Y8
0.00985832*Y1X2X3Y4Z8Z9
-0.00985832*Z0X1X2X3X4Z8Z9
-0.00540863*Y1X2X3Y4Z6X7X8Z9
0.00540863*Z0X1X2X3X4Z6X7X8Z9
-0.00540863*Y1X2X3Y4Y7Y8
0.00540863*Z0X1X2X3X4Y7Y8
-0.01195977*Y1X2X3Y4X5X6X7X8Z9
0.01195977*Z0X1X2X3X4X5X6X7X8Z9
0.01195977*Y1X2X3Y4Y5X6X7Y8
-0.01195977*Z0X1X2X3X4Y5X6X7Y8
0.00641417*Y0X1X2X3Y4Z7X8Z9
-0.00641417*X0X1X2X3X4Z7X8Z9
-0.00641417*Y0X1X2X3Y4X8
0.00641417*X0X1X2X3X4X8
0.00672874*Y0X1X2X3Y4Z5X6X7X8Z9
-0.00672874*X0X1X2X3X4Z5X6X7X8Z9
0.00672874*Y0X1X2X3Y4Y6X7Y8
-0.00672874*X0X1X2X3X4Y6X7Y8
0.11213979*Z3Z4Z8Z9
-0.00693865*Z3Z4Z6X7X8Z9
-0.00693865*Z3Z4Y7Y8
-0.00998906*Z3Z4X5X6X7X8Z9
0.00998906*Z3Z4Y5X6X7Y8
-0.03384754*X3Z7X8Z9
0.03384754*Z2X3Z4Z7X8Z9
0.03384754*X3X8
-0.03384754*Z2X3Z4X8
-0.00225145*X3Z5X6X7X8Z9
0.00225145*Z2X3Z4Z5X6X7X8Z9
-0.00225145*X3Y6X7Y8
0.00225145*Z2X3Z4Y6X7Y8
-0.00693865*Y2Y3Z8Z9
-0.00693865*Z1X2X3Z4Z8Z9
0.02310627*Y2Y3Z6X7X8Z9
0.02310627*Z1X2X3Z4Z6X7X8Z9
0.02310627*Y2Y3Y7Y8
0.02310627*Z1X2X3Z4Y7Y8
0.00362489*Y2Y3X5X6X7X8Z9
0.00362489*Z1X2X3Z4X5X6X7X8Z9
-0.00362489*Y2Y3Y5X6X7Y8
-0.00362489*Z1X2X3Z4Y5X6X7Y8
0.00225145*Y1X2Y3Z7X8Z9
0.00225145*Z0X1X2X3Z4Z7X8Z9
-0.00225145*Y1X2Y3X8
-0.00225145*Z0X1X2X3Z4X8
0.02026800*Y1X2Y3Z5X6X7X8Z9
0.02026800*Z0X1X2X3Z4Z5X6X7X8Z9
0.02026800*Y1X2Y3Y6X7Y8
0.02026800*Z0X1X2X3Z4Y6X7Y8
0.00998906*Y0X1X2Y3Z8Z9
0.00998906*X0X1X2X3Z4Z8Z9
-0.00362489*Y0X1X2Y3Z6X7X8Z9
-0.00362489*X0X1X2X3Z4Z6X7X8Z9
-0.00362489*Y0X1X2Y3Y7Y8
-0.00362489*X0X1X2X3Z4Y7Y8
-0.01277946*Y0X1X2Y3X5X6X7X8Z9
-0.01277946*X0X1X2X3Z4X5X6X7X8Z9
0.01277946*Y0X1X2Y3Y5X6X7Y8
0.01277946*X0X1X2X3Z4Y5X6X7Y8
0.10525816*Z2Z3Z8Z9
-0.00200089*Z2Z3Z6X7X8Z9
-0.00200089*Z2Z3Y7Y8
0.00054652*Z2Z3X5X6X7X8Z9
-0.00054652*Z2Z3Y5X6X7Y8
-0.02510477*X2Z7X8Z9
0.02510477*Z1X2Z3Z7X8Z9
0.02510477*X2X8
-0.02510477*Z1X2Z3X8
0.00544964*X2Z5X6X7X8Z9
-0.00544964*Z1X2Z3Z5X6X7X8Z9
0.00544964*X2Y6X7Y8
-0.00544964*Z1X2Z3Y6X7Y8
0.00709163*Y1Y2Z8Z9
0.00709163*Z0X1X2Z3Z8Z9
-0.02048227*Y1Y2Z6X7X8Z9
-0.02048227*Z0X1X2Z3Z6X7X8Z9
-0.02048227*Y1Y2Y7Y8
-0.02048227*Z0X1X2Z3Y7Y8
-0.00373612*Y1Y2X5X6X7X8Z9
-0.00373612*Z0X1X2Z3X5X6X7X8Z9
0.00373612*Y1Y2Y5X6X7Y8
0.00373612*Z0X1X2Z3Y5X6X7Y8
-0.00037900*Y0X1Y2Z7X8Z9
-0.00037900*X0X1X2Z3Z7X8Z9
0.00037900*Y0X1Y2X8
0.00037900*X0X1X2Z3X8
0.01259858*Y0X1Y2Z5X6X7X8Z9
0.01259858*X0X1X2Z3Z5X6X7X8Z9
0.01259858*Y0X1Y2Y6X7Y8
0.01259858*X0X1X2Z3Y6X7Y8
0.10787648*Z1Z2Z8Z9
-0.00758357*Z1Z2Z6X7X8Z9
-0.00758357*Z1Z2Y7Y8
0.00071720*Z1Z2X5X6X7X8Z9
-0.00071720*Z1Z2Y5X6X7Y8
0.03121908*X1Z7X8Z9
-0.03121908*Z0X1Z2Z7X8Z9
-0.03121908*X1X8
0.03121908*Z0X1Z2X8
0.00531264*X1Z5X6X7X8Z9
-0.00531264*Z0X1Z2Z5X6X7X8Z9
0.00531264*X1Y6X7Y8
-0.00531264*Z0X1Z2Y6X7Y8
-0.00135070*Y0Y1Z8Z9
-0.00135070*X0X1Z2Z8Z9
-0.01622072*Y0Y1Z6X7X8Z9
-0.01622072*X0X1Z2Z6X7X8Z9
-0.01622072*Y0Y1Y7Y8
-0.01622072*X0X1Z2Y7Y8
0.00904779*Y0Y1X5X6X7X8Z9
0.00904779*X0X1Z2X5X6X7X8Z9
-0.00904779*Y0Y1Y5X6X7Y8
-0.00904779*X0X1Z2Y5X6X7Y8
0.11623789*Z0Z1Z8Z9
-0.01176153*Z0Z1Z6X7X8Z9
-0.01176153*Z0Z1Y7Y8
-0.00982592*Z0Z1X5X6X7X8Z9
0.00982592*Z0Z1Y5X6X7Y8
-0.02773283*X0Z7X8Z9
0.02773283*X0Z1Z7X8Z9
0.02773283*X0X8
-0.02773283*X0Z1X8
-0.01433830*X0Z5X6X7X8Z9
0.01433830*X0Z1Z5X6X7X8Z9
-0.01433830*X0Y6X7Y8
0.01433830*X0Z1Y6X7Y8
0.11721498*Z0Z8Z9
-0.02884626*Z0Z6X7X8Z9
-0.02884626*Z0Y7Y8
-0.00108391*Z0X5X6X7X8Z9
0.00108391*Z0Y5X6X7Y8
0.08032822*Z6Z8
-0.00355342*X5X6Z8
0.00355342*Y5Y6Z7Z8
0.08919125*Z5Z6Z7Z8
-0.10237027*Z5Z7Z8
-0.03091480*Z5Y6Y7Z8
-0.03091480*X6X7
-0.02539020*X5X7Z8
-0.00728543*X5Z6X7Z8
-0.01810477*Y5Y7Z8
0.01810477*Y5Y7
0.00728543*X5Z6X7
0.02539020*X5X7
-0.01480694*X6X7Z8
-0.01480694*Z5Y6Y7
-0.10857284*Z4Z7Z8
-0.02581491*Z4Z5X6X7Z8
-0.02581491*Z4Y6Y7
-0.02311267*X4Z6X7Z8
-0.02311267*Z3X4Z6X7Z8
0.02311267*X4X7
0.02311267*Z3X4X7
0.01390403*X4X5X6X7Z8
0.01390403*Z3X4X5X6X7Z8
-0.01390403*X4Y5X6Y7
-0.01390403*Z3X4Y5X6Y7
-0.00520132*Y3Y4Z7Z8
0.00520132*Z2X3X4Z7Z8
-0.01717784*Y3Y4Z5X6X7Z8
0.01717784*Z2X3X4Z5X6X7Z8
-0.01717784*Y3Y4Y6Y7
0.01717784*Z2X3X4Y6Y7
-0.00256275*Y2X3Y4Z6X7Z8
0.00256275*Z1X2X3X4Z6X7Z8
0.00256275*Y2X3Y4X7
-0.00256275*Z1X2X3X4X7
0.01702234*Y2X3Y4X5X6X7Z8
-0.01702234*Z1X2X3X4X5X6X7Z8
-0.01702234*Y2X3Y4Y5X6Y7
0.01702234*Z1X2X3X4Y5X6Y7
-0.00340701*Y1X2X3Y4Z7Z8
0.00340701*Z0X1X2X3X4Z7Z8
0.00168954*Y1X2X3Y4Z5X6X7Z8
-0.00168954*Z0X1X2X3X4Z5X6X7Z8
0.00168954*Y1X2X3Y4Y6Y7
-0.00168954*Z0X1X2X3X4Y6Y7
-0.00750283*Y0X1X2X3Y4Z6X7Z8
0.00750283*X0X1X2X3X4Z6X7Z8
0.00750283*Y0X1X2X3Y4X7
-0.00750283*X0X1X2X3X4X7
0.00709713*Y0X1X2X3Y4X5X6X7Z8
-0.00709713*X0X1X2X3X4X5X6X7Z8
-0.00709713*Y0X1X2X3Y4Y5X6Y7
0.00709713*X0X1X2X3X4Y5X6Y7
0.10525816*Z3Z4Z7Z8
0.00709163*Z3Z4Z5X6X7Z8
0.00709163*Z3Z4Y6Y7
-0.02510477*X3Z6X7Z8
0.02510477*Z2X3Z4Z6X7Z8
0.02510477*X3X7
-0.02510477*Z2X3Z4X7
-0.00037900*X3X5X6X7Z8
0.00037900*Z2X3Z4X5X6X7Z8
0.00037900*X3Y5X6Y7
-0.00037900*Z2X3Z4Y5X6Y7
-0.00200089*Y2Y3Z7Z8
-0.00200089*Z1X2X3Z4Z7Z8
-0.02048227*Y2Y3Z5X6X7Z8
-0.02048227*Z1X2X3Z4Z5X6X7Z8
-0.02048227*Y2Y3Y6Y7
-0.02048227*Z1X2X3Z4Y6Y7
-0.00544964*Y1X2Y3Z6X7Z8
-0.00544964*Z0X1X2X3Z4Z6X7Z8
0.00544964*Y1X2Y3X7
0.00544964*Z0X1X2X3Z4X7
-0.01259858*Y1X2Y3X5X6X7Z8
-0.01259858*Z0X1X2X3Z4X5X6X7Z8
0.01259858*Y1X2Y3Y5X6Y7
0.01259858*Z0X1X2X3Z4Y5X6Y7
-0.00054652*Y0X1X2Y3Z7Z8
-0.00054652*X0X1X2X3Z4Z7Z8
0.00373612*Y0X1X2Y3Z5X6X7Z8
0.00373612*X0X1X2X3Z4Z5X6X7Z8
0.00373612*Y0X1X2Y3Y6Y7
0.00373612*X0X1X2X3Z4Y6Y7
0.11105047*Z2Z3Z7Z8
0.00603482*Z2Z3Z5X6X7Z8
0.00603482*Z2Z3Y6Y7
-0.02944418*X2Z6X7Z8
0.02944418*Z1X2Z3Z6X7Z8
0.02944418*X2X7
-0.02944418*Z1X2Z3X7
0.00301134*X2X5X6X7Z8
-0.00301134*Z1X2Z3X5X6X7Z8
-0.00301134*X2Y5X6Y7
0.00301134*Z1X2Z3Y5X6Y7
0.00603482*Y1Y2Z7Z8
0.00603482*Z0X1X2Z3Z7Z8
0.02274115*Y1Y2Z5X6X7Z8
0.02274115*Z0X1X2Z3Z5X6X7Z8
0.02274115*Y1Y2Y6Y7
0.02274115*Z0X1X2Z3Y6Y7
0.00301134*Y0X1Y2Z6X7Z8
0.00301134*X0X1X2Z3Z6X7Z8
-0.00301134*Y0X1Y2X7
-0.00301134*X0X1X2Z3X7
-0.01857753*Y0X1Y2X5X6X7Z8
-0.01857753*X0X1X2Z3X5X6X7Z8
0.01857753*Y0X1Y2Y5X6Y7
0.01857753*X0X1X2Z3Y5X6Y7
0.10977240*Z1Z2Z7Z8
0.00623351*Z1Z2Z5X6X7Z8
0.00623351*Z1Z2Y6Y7
0.02468129*X1Z6X7Z8
-0.02468129*Z0X1Z2Z6X7Z8
-0.02468129*X1X7
0.02468129*Z0X1Z2X7
-0.00063470*X1X5X6X7Z8
0.00063470*Z0X1Z2X5X6X7Z8
0.00063470*X1Y5X6Y7
-0.00063470*Z0X1Z2Y5X6Y7
0.00656476*Y0Y1Z7Z8
0.00656476*X0X1Z2Z7Z8
0.01747007*Y0Y1Z5X6X7Z8
0.01747007*X0X1Z2Z5X6X7Z8
0.01747007*Y0Y1Y6Y7
0.01747007*X0X1Z2Y6Y7
0.11193240*Z0Z1Z7Z8
0.01229709*Z0Z1Z5X6X7Z8
0.01229709*Z0Z1Y6Y7
-0.02475549*X0Z6X7Z8
0.02475549*X0Z1Z6X7Z8
0.02475549*X0X7
-0.02475549*X0Z1X7
0.01637611*X0X5X6X7Z8
-0.01637611*X0Z1X5X6X7Z8
-0.01637611*X0Y5X6Y7
0.01637611*X0Z1Y5X6Y7
0.12094781*Z0Z7Z8
0.03118305*Z0Z5X6X7Z8
0.03118305*Z0Y6Y7
0.08189290*Z5Z7
-0.09998554*Z5Z6Z7
0.03209920*Y5Y6Z7
-0.03209920*X5X6
-0.11244311*Z4Z6Z7
0.02400065*Z4X5X6Z7
-0.02400065*Z4Y5Y6
0.02820230*X4Z5X6Z7
0.02820230*Z3X4Z5X6Z7
-0.02820230*X4X6
-0.02820230*Z3X4X6
-0.00622173*Y3Y4Z6Z7
0.00622173*Z2X3X4Z6Z7
0.02351685*Y3Y4X5X6Z7
-0.02351685*Z2X3X4X5X6Z7
-0.02351685*Y3Y4Y5Y6
0.02351685*Z2X3X4Y5Y6
0.00244606*Y2X3Y4Z5X6Z7
-0.00244606*Z1X2X3X4Z5X6Z7
-0.00244606*Y2X3Y4X6
0.00244606*Z1X2X3X4X6
0.00069416*Y1X2X3Y4Z6Z7
-0.00069416*Z0X1X2X3X4Z6Z7
0.00902415*Y1X2X3Y4X5X6Z7
-0.00902415*Z0X1X2X3X4X5X6Z7
-0.00902415*Y1X2X3Y4Y5Y6
0.00902415*Z0X1X2X3X4Y5Y6
-0.00556073*Y0X1X2X3Y4Z5X6Z7
0.00556073*X0X1X2X3X4Z5X6Z7
0.00556073*Y0X1X2X3Y4X6
-0.00556073*X0X1X2X3X4X6
0.10787648*Z3Z4Z6Z7
0.00135070*Z3Z4X5X6Z7
-0.00135070*Z3Z4Y5Y6
0.03121908*X3Z5X6Z7
-0.03121908*Z2X3Z4Z5X6Z7
-0.03121908*X3X6
0.03121908*Z2X3Z4X6
-0.00758357*Y2Y3Z6Z7
-0.00758357*Z1X2X3Z4Z6Z7
0.01622072*Y2Y3X5X6Z7
0.01622072*Z1X2X3Z4X5X6Z7
-0.01622072*Y2Y3Y5Y6
-0.01622072*Z1X2X3Z4Y5Y6
-0.00531264*Y1X2Y3Z5X6Z7
-0.00531264*Z0X1X2X3Z4Z5X6Z7
0.00531264*Y1X2Y3X6
0.00531264*Z0X1X2X3Z4X6
-0.00071720*Y0X1X2Y3Z6Z7
-0.00071720*X0X1X2X3Z4Z6Z7
0.00904779*Y0X1X2Y3X5X6Z7
0.00904779*X0X1X2X3Z4X5X6Z7
-0.00904779*Y0X1X2Y3Y5Y6
-0.00904779*X0X1X2X3Z4Y5Y6
0.10977240*Z2Z3Z6Z7
-0.00656476*Z2Z3X5X6Z7
0.00656476*Z2Z3Y5Y6
0.02468129*X2Z5X6Z7
-0.02468129*Z1X2Z3Z5X6Z7
-0.02468129*X2X6
0.02468129*Z1X2Z3X6
0.00623351*Y1Y2Z6Z7
0.00623351*Z0X1X2Z3Z6Z7
-0.01747007*Y1Y2X5X6Z7
-0.01747007*Z0X1X2Z3X5X6Z7
0.01747007*Y1Y2Y5Y6
0.01747007*Z0X1X2Z3Y5Y6
-0.00063470*Y0X1Y2Z5X6Z7
-0.00063470*X0X1X2Z3Z5X6Z7
0.00063470*Y0X1Y2X6
0.00063470*X0X1X2Z3X6
0.11537520*Z1Z2Z6Z7
-0.00782350*Z1Z2X5X6Z7
0.00782350*Z1Z2Y5Y6
-0.03433897*X1Z5X6Z7
0.03433897*Z0X1Z2Z5X6Z7
0.03433897*X1X6
-0.03433897*Z0X1Z2X6
0.00782350*Y0Y1Z6Z7
0.00782350*X0X1Z2Z6Z7
-0.02685216*Y0Y1X5X6Z7
-0.02685216*X0X1Z2X5X6Z7
0.02685216*Y0Y1Y5Y6
0.02685216*X0X1Z2Y5Y6
0.11623187*Z0Z1Z6Z7
-0.00143621*Z0Z1X5X6Z7
0.00143621*Z0Z1Y5Y6
0.03066299*X0Z5X6Z7
-0.03066299*X0Z1Z5X6Z7
-0.03066299*X0X6
0.03066299*X0Z1X6
0.12683769*Z0Z6Z7
-0.03013435*Z0X5X6Z7
0.03013435*Z0Y5Y6
-0.09107658*Z6
-0.11652137*Z4Z5Z6
0.03550323*X4X5Z6
0.03550323*Z3X4X5Z6
0.03550323*X4X5
0.03550323*Z3X4X5
-0.00240518*Y3Y4Z5Z6
0.00240518*Z2X3X4Z5Z6
0.01509862*Y2X3Y4X5Z6
-0.01509862*Z1X2X3X4X5Z6
0.01509862*Y2X3Y4X5
-0.01509862*Z1X2X3X4X5
0.00871156*Y1X2X3Y4Z5Z6
-0.00871156*Z0X1X2X3X4Z5Z6
0.00114267*Y0X1X2X3Y4X5Z6
-0.00114267*X0X1X2X3X4X5Z6
0.00114267*Y0X1X2X3Y4X5
-0.00114267*X0X1X2X3X4X5
0.11623789*Z3Z4Z5Z6
0.02773283*X3X5Z6
-0.02773283*Z2X3Z4X5Z6
0.02773283*X3X5
-0.02773283*Z2X3Z4X5
-0.01176153*Y2Y3Z5Z6
-0.01176153*Z1X2X3Z4Z5Z6
-0.01433830*Y1X2Y3X5Z6
-0.01433830*Z0X1X2X3Z4X5Z6
-0.01433830*Y1X2Y3X5
-0.01433830*Z0X1X2X3Z4X5
0.00982592*Y0X1X2Y3Z5Z6
0.00982592*X0X1X2X3Z4Z5Z6
0.11193240*Z2Z3Z5Z6
0.02475549*X2X5Z6
-0.02475549*Z1X2Z3X5Z6
0.02475549*X2X5
-0.02475549*Z1X2Z3X5
0.01229709*Y1Y2Z5Z6
0.01229709*Z0X1X2Z3Z5Z6
-0.01637611*Y0X1Y2X5Z6
-0.01637611*X0X1X2Z3X5Z6
-0.01637611*Y0X1Y2X5
-0.01637611*X0X1X2Z3X5
0.11623187*Z1Z2Z5Z6
-0.03066299*X1X5Z6
0.03066299*Z0X1Z2X5Z6
-0.03066299*X1X5
0.03066299*Z0X1Z2X5
0.00143621*Y0Y1Z5Z6
0.00143621*X0X1Z2Z5Z6
0.12860163*Z0Z1Z5Z6
0.04245951*X0X5Z6
-0.04245951*X0Z1X5Z6
0.04245951*X0X5
-0.04245951*X0Z1X5
0.13353608*Z0Z5Z6
0.14275911*Z4Z5
0.02623585*Y3Y4Z5
-0.02623585*Z2X3X4Z5
0.00011361*Y1X2X3Y4Z5
-0.00011361*Z0X1X2X3X4Z5
-0.11721498*Z3Z4Z5
0.02884626*Y2Y3Z5
0.02884626*Z1X2X3Z4Z5
-0.00108391*Y0X1X2Y3Z5
-0.00108391*X0X1X2X3Z4Z5
-0.12094781*Z2Z3Z5
-0.03118305*Y1Y2Z5
-0.03118305*Z0X1X2Z3Z5
-0.12683769*Z1Z2Z5
-0.03013435*Y0Y1Z5
-0.03013435*X0X1Z2Z5
-0.13353608*Z0Z1Z5
-0.17115642*Z0Z5
-0.07178127*Z3
0.01026392*Z1X2X3
0.01026392*Y2Y3Z4
-0.00167306*X0X1X2X3
-0.00167306*Y0X1X2Y3Z4
-0.08397877*Z2Z3Z4
-0.01624420*Z0X1X2Z3Z4
-0.01624420*Y1Y2Z4
-0.09319269*Z1Z2Z4
-0.01654547*X0X1Z2Z4
-0.01654547*Y0Y1Z4
-0.10213706*Z0Z1Z4
-0.12657565*Z0Z4
-0.02248506*Z2Y3Y4
0.02248506*X3X4
-0.00329466*Z0X1X2Y3Y4
-0.00329466*Y1X2Y3X4
-0.02068086*Z1X2X4
0.00721617*X2Z3X4
-0.01346469*Z1Y2Y4
0.01346469*Y2Y4
-0.00721617*Z1X2Z3X4
0.02068086*X2X4
-0.00748986*X0X1X2X4
-0.00528121*Y0X1Y2Z3X4
-0.00220865*X0X1Y2Y4
0.00220865*Y0X1X2Y4
-0.00528121*X0X1X2Z3X4
-0.00748986*Y0X1Y2X4
0.02279367*Z0X1Z2Z3X4
-0.01498931*X1Z3X4
0.00780435*Z0Y1Y4
-0.00780435*Y1Z2Z3Y4
0.01498931*Z0X1Z2X4
-0.02279367*X1X4
-0.02877449*X0Z1Z3X4
0.02354347*X0Z3X4
-0.00523102*Y0Y4
0.00523102*Y0Z1Z3Y4
-0.02354347*X0Z1X4
0.02877449*X0X4
0.01377083*Z0X1Y2Y3X4
-0.01377083*Y1Y2Y3Y4
0.00365899*Z1X3X4
-0.00365899*Z1Z2Y3Y4
0.01601402*X0X1X3X4
0.00649451*Y0Y1Z2X3X4
0.00951951*X0Y1Y3X4
-0.00951951*Y0X1X3Y4
-0.00649451*X0X1Z2Y3Y4
-0.01601402*Y0Y1Y3Y4
0.00409472*Z0Z1Z2X3X4
-0.00409472*Z0Z1Y3Y4
0.01913872*Z0Z2X3X4
-0.01913872*Z0Y3Y4
-0.00175190*Z0Y1Y2X3X4
-0.00175190*X1Y2X3Y4
0.00953789*X0X2X3X4
-0.00607448*X0Z1X2X3X4
0.00346342*Y0Y2X3X4
-0.00346342*Y0X2X3Y4
-0.00607448*X0Z1Y2X3Y4
0.00953789*X0Y2X3Y4
-0.00102906*X1X2X3X4
0.00102906*Z0Y1X2X3Y4
0.07141062*Z2Z4
0.00484017*Z0X1X2Z4
0.00484017*Y1Y2Z3Z4
0.08477021*Z1Z2Z3Z4
0.00227418*X0X1Z2Z3Z4
0.00227418*Y0Y1Z3Z4
0.09596989*Z0Z1Z3Z4
0.10443552*Z0Z3Z4
0.02710566*Z1Y2Y3Z4
0.02710566*X2X3
0.00016752*X0X1Y2Y3Z4
-0.00016752*Y0X1Y2X3
-0.02576944*Z0X1X3Z4
0.01073682*X1Z2X3Z4
-0.01503263*Z0Y1Y3Z4
-0.01503263*Y1Y3
0.01073682*Z0X1Z2X3
-0.02576944*X1X3
0.02399671*X0Z1Z2X3Z4
-0.01513425*X0Z2X3Z4
0.00886246*Y0Y3Z4
0.00886246*Y0Z1Z2Y3
-0.01513425*X0Z1X3
0.02399671*X0X3
-0.01550352*X0Y1Y2X3Z4
-0.01550352*Y0Y1Y2Y3
-0.00644889*Z0X2X3Z4
-0.00644889*Z0Z1Y2Y3
-0.01979847*Z0Z1X2X3Z4
-0.01979847*Z0Y2Y3
0.00451238*Y0Y1X2X3Z4
-0.00451238*X0Y1X2Y3
0.08032822*Z1Z3
0.00355342*X0X1Z3
0.00355342*Y0Y1Z2Z3
0.08919125*Z0Z1Z2Z3
0.10237027*Z0Z2Z3
-0.03091480*Z0Y1Y2Z3
-0.03091480*X1X2
0.02539020*X0X2Z3
-0.00728543*X0Z1X2Z3
0.01810477*Y0Y2Z3
0.01810477*Y0Y2
-0.00728543*X0Z1X2
0.02539020*X0X2
0.01480694*X1X2Z3
0.01480694*Z0Y1Y2
0.08189290*Z0Z2
0.09998554*Z0Z1Z2
-0.03209920*Y0Y1Z2
-0.03209920*X0X1
0.09107658*Z1
