-95.50196464*I
0.78908296*Z5
0.25703691*X3X4X5
-0.25703691*Y3X4Y5
0.93640445*Z4Z5
0.93640445*Z3Z4
-0.53564879*Z3
-0.78908296*Z2
0.25703691*X0X1X2
-0.25703691*Y0X1Y2
0.93640445*Z1Z2
0.93640445*Z0Z1
0.53564879*Z0
0.01105478*Z4
0.01105478*Z3Z4Z5
0.10824034*Z3Z5
-0.11497644*X3Y4Y5
-0.11497644*Y3Y4X5
-0.16629112*Z2Z5
-0.02248979*Z2X3X4X5
0.02248979*Z2Y3X4Y5
-0.00851735*X2Z4X5
-0.00851735*Z1X2Z4X5
0.00851735*X2X5
0.00851735*Z1X2X5
0.00851735*Y1Y2Z3X4X5
-0.00851735*Z0X1X2Z3X4X5
0.00851735*Y1Y2Y4Y5
-0.00851735*Z0X1X2Y4Y5
-0.02248979*Y0X1Y2Z5
0.02248979*X0X1X2Z5
-0.05979957*Y0X1Y2X3X4X5
0.05979957*X0X1X2X3X4X5
0.05979957*Y0X1Y2Y3X4Y5
-0.05979957*X0X1X2Y3X4Y5
0.16700379*Z1Z2Z5
0.06323764*Z1Z2X3X4X5
-0.06323764*Z1Z2Y3X4Y5
-0.00574942*Y0Y1Z4X5
-0.00574942*X0X1Z2Z4X5
0.00574942*Y0Y1X5
0.00574942*X0X1Z2X5
0.16700379*Z0Z1Z5
0.06323764*Z0Z1X3X4X5
-0.06323764*Z0Z1Y3X4Y5
0.00574942*X0Z3X4X5
-0.00574942*X0Z1Z3X4X5
0.00574942*X0Y4Y5
-0.00574942*X0Z1Y4Y5
0.16060986*Z0Z5
0.00690461*Z0X3X4X5
-0.00690461*Z0Y3X4Y5
-0.16700379*Z2Z4Z5
-0.00574942*X2X3X4Z5
-0.00574942*Z1X2X3X4Z5
0.00574942*X2Y3Y4
0.00574942*Z1X2Y3Y4
-0.06323764*Y0X1Y2Z4Z5
0.06323764*X0X1X2Z4Z5
0.24937841*Z1Z2Z4Z5
-0.01344259*X1Z3X4Z5
0.01344259*Z0X1Z2Z3X4Z5
0.01344259*X1X4
-0.01344259*Z0X1Z2X4
-0.00718207*Y0Y1X3X4Z5
-0.00718207*X0X1Z2X3X4Z5
0.00718207*Y0Y1Y3Y4
0.00718207*X0X1Z2Y3Y4
0.22249322*Z0Z1Z4Z5
0.15461373*Z0Z4Z5
-0.16700379*Z2Z3Z4
0.00574942*Y1Y2X3Z4
-0.00574942*Z0X1X2X3Z4
0.00574942*Y1Y2X3
-0.00574942*Z0X1X2X3
-0.06323764*Y0X1Y2Z3Z4
0.06323764*X0X1X2Z3Z4
0.22249322*Z1Z2Z3Z4
0.24937841*Z0Z1Z3Z4
0.00718207*X0X3Z4
-0.00718207*X0Z1X3Z4
0.00718207*X0X3
-0.00718207*X0Z1X3
0.15461373*Z0Z3Z4
0.16060986*Z2Z3
0.00690461*Y0X1Y2Z3
-0.00690461*X0X1X2Z3
-0.15461373*Z1Z2Z3
-0.15461373*Z0Z1Z3
-0.16674513*Z0Z3
-0.01105478*Z1
-0.01105478*Z0Z1Z2
0.10824034*Z0Z2
-0.11497644*X0Y1Y2
-0.11497644*Y0Y1X2
