3.63413150*I
0.28188616*Z9
0.02271778*Z7X8X9
0.02271778*Y8Y9
0.00958929*Z5X6X7X8X9
0.00958929*Y6X7X8Y9
0.18757014*Z8Z9
0.01097986*Z6X7X8Z9
0.01097986*Y7Y8
0.00911016*X5X6X7X8Z9
-0.00911016*Y5X6X7Y8
0.00666655*Z7Z8
-0.04474104*Z5X6X7Z8
-0.04474104*Y6Y7
-0.26519095*Z6Z7
0.02605822*X5X6Z7
-0.02605822*Y5Y6
-0.69364786*Z5Z6
1.38193555*Z5
-0.28188616*Z4
-0.02271778*Z2X3X4
0.02271778*Y3Y4
-0.00958929*Z0X1X2X3X4
0.00958929*Y1X2X3Y4
0.18757014*Z3Z4
0.01097986*Z1X2X3Z4
0.01097986*Y2Y3
-0.00911016*X0X1X2X3Z4
-0.00911016*Y0X1X2Y3
0.00666655*Z2Z3
-0.04474104*Z0X1X2Z3
-0.04474104*Y1Y2
-0.26519095*Z1Z2
-0.02605822*X0X1Z2
-0.02605822*Y0Y1
-0.69364786*Z0Z1
-1.38193555*Z0
0.08072556*Z8
-0.01193736*Z6X7X8
-0.01193736*Y7Y8Z9
-0.00159350*X5X6X7X8
0.00159350*Y5X6X7Y8Z9
0.09252569*Z7Z8Z9
0.01815459*Z5X6X7Z8Z9
0.01815459*Y6Y7Z9
0.10273753*Z6Z7Z9
-0.01791334*X5X6Z7Z9
0.01791334*Y5Y6Z9
0.11417301*Z5Z6Z9
-0.14147102*Z5Z9
0.02429706*Z7Y8Y9
0.02429706*X8X9
0.00402603*Z5X6X7Y8Y9
-0.00402603*Y6X7Y8X9
0.02205036*Z6X7X9
-0.00764406*X7Z8X9
0.01440630*Z6Y7Y9
0.01440630*Y7Y9
-0.00764406*Z6X7Z8X9
0.02205036*X7X9
-0.00778850*X5X6X7X9
0.00544221*Y5X6Y7Z8X9
-0.00234629*X5X6Y7Y9
0.00234629*Y5X6X7Y9
0.00544221*X5X6X7Z8X9
-0.00778850*Y5X6Y7X9
-0.02407855*Z5X6Z7Z8X9
0.01550109*X6Z8X9
-0.00857746*Z5Y6Y9
-0.00857746*Y6Z7Z8Y9
0.01550109*Z5X6Z7X9
-0.02407855*X6X9
-0.02997404*X5Z6Z8X9
-0.02428629*X5Z8X9
-0.00568775*Y5Y9
0.00568775*Y5Z6Z8Y9
0.02428629*X5Z6X9
0.02997404*X5X9
-0.01451454*Z5X6Y7Y8X9
-0.01451454*Y6Y7Y8Y9
-0.00415154*Z6X8X9
-0.00415154*Z6Z7Y8Y9
0.01635354*X5X6X8X9
-0.00640616*Y5Y6Z7X8X9
0.00994739*X5Y6Y8X9
-0.00994739*Y5X6X8Y9
0.00640616*X5X6Z7Y8Y9
-0.01635354*Y5Y6Y8Y9
-0.00600672*Z5Z6Z7X8X9
-0.00600672*Z5Z6Y8Y9
0.02225956*Z5Z7X8X9
0.02225956*Z5Y8Y9
0.00254519*Z5Y6Y7X8X9
-0.00254519*X6Y7X8Y9
0.01100316*X5X7X8X9
0.00679309*X5Z6X7X8X9
0.00421007*Y5Y7X8X9
-0.00421007*Y5X7X8Y9
0.00679309*X5Z6Y7X8Y9
0.01100316*X5Y7X8Y9
-0.00045532*X6X7X8X9
-0.00045532*Z5Y6X7X8Y9
-0.14020978*Z4Z9
0.02446145*Z4Z7X8X9
0.02446145*Z4Y8Y9
0.00081039*Z4Z5X6X7X8X9
0.00081039*Z4Y6X7X8Y9
-0.03456974*X4Z8X9
-0.03456974*Z3X4Z8X9
0.03456974*X4X9
0.03456974*Z3X4X9
0.01513505*X4Z6X7X8X9
0.01513505*Z3X4Z6X7X8X9
0.01513505*X4Y7X8Y9
0.01513505*Z3X4Y7X8Y9
-0.00110248*X4X5X6X7X8X9
-0.00110248*Z3X4X5X6X7X8X9
0.00110248*X4Y5X6X7X8Y9
0.00110248*Z3X4Y5X6X7X8Y9
-0.02446145*Y3Y4Z9
0.02446145*Z2X3X4Z9
0.02392935*Y3Y4Z7X8X9
-0.02392935*Z2X3X4Z7X8X9
0.02392935*Y3Y4Y8Y9
-0.02392935*Z2X3X4Y8Y9
0.01001348*Y3Y4Z5X6X7X8X9
-0.01001348*Z2X3X4Z5X6X7X8X9
0.01001348*Y3Y4Y6X7X8Y9
-0.01001348*Z2X3X4Y6X7X8Y9
-0.01513505*Y2X3Y4Z8X9
0.01513505*Z1X2X3X4Z8X9
0.01513505*Y2X3Y4X9
-0.01513505*Z1X2X3X4X9
0.01906991*Y2X3Y4Z6X7X8X9
-0.01906991*Z1X2X3X4Z6X7X8X9
0.01906991*Y2X3Y4Y7X8Y9
-0.01906991*Z1X2X3X4Y7X8Y9
-0.00744692*Y2X3Y4X5X6X7X8X9
0.00744692*Z1X2X3X4X5X6X7X8X9
0.00744692*Y2X3Y4Y5X6X7X8Y9
-0.00744692*Z1X2X3X4Y5X6X7X8Y9
-0.00081039*Y1X2X3Y4Z9
0.00081039*Z0X1X2X3X4Z9
0.01001348*Y1X2X3Y4Z7X8X9
-0.01001348*Z0X1X2X3X4Z7X8X9
0.01001348*Y1X2X3Y4Y8Y9
-0.01001348*Z0X1X2X3X4Y8Y9
0.01467701*Y1X2X3Y4Z5X6X7X8X9
-0.01467701*Z0X1X2X3X4Z5X6X7X8X9
0.01467701*Y1X2X3Y4Y6X7X8Y9
-0.01467701*Z0X1X2X3X4Y6X7X8Y9
-0.00110248*Y0X1X2X3Y4Z8X9
0.00110248*X0X1X2X3X4Z8X9
0.00110248*Y0X1X2X3Y4X9
-0.00110248*X0X1X2X3X4X9
0.00744692*Y0X1X2X3Y4Z6X7X8X9
-0.00744692*X0X1X2X3X4Z6X7X8X9
0.00744692*Y0X1X2X3Y4Y7X8Y9
-0.00744692*X0X1X2X3X4Y7X8Y9
-0.01590953*Y0X1X2X3Y4X5X6X7X8X9
0.01590953*X0X1X2X3X4X5X6X7X8X9
0.01590953*Y0X1X2X3Y4Y5X6X7X8Y9
-0.01590953*X0X1X2X3X4Y5X6X7X8Y9
0.11529530*Z3Z4Z9
0.00213537*Z3Z4Z7X8X9
0.00213537*Z3Z4Y8Y9
0.01005642*Z3Z4Z5X6X7X8X9
0.01005642*Z3Z4Y6X7X8Y9
-0.02643243*X3Z8X9
0.02643243*Z2X3Z4Z8X9
0.02643243*X3X9
-0.02643243*Z2X3Z4X9
-0.00169675*X3Z6X7X8X9
0.00169675*Z2X3Z4Z6X7X8X9
-0.00169675*X3Y7X8Y9
0.00169675*Z2X3Z4Y7X8Y9
0.00642980*X3X5X6X7X8X9
-0.00642980*Z2X3Z4X5X6X7X8X9
-0.00642980*X3Y5X6X7X8Y9
0.00642980*Z2X3Z4Y5X6X7X8Y9
-0.02707241*Y2Y3Z9
-0.02707241*Z1X2X3Z4Z9
0.01610305*Y2Y3Z7X8X9
0.01610305*Z1X2X3Z4Z7X8X9
0.01610305*Y2Y3Y8Y9
0.01610305*Z1X2X3Z4Y8Y9
-0.00483400*Y2Y3Z5X6X7X8X9
-0.00483400*Z1X2X3Z4Z5X6X7X8X9
-0.00483400*Y2Y3Y6X7X8Y9
-0.00483400*Z1X2X3Z4Y6X7X8Y9
0.01408244*Y1X2Y3Z8X9
0.01408244*Z0X1X2X3Z4Z8X9
-0.01408244*Y1X2Y3X9
-0.01408244*Z0X1X2X3Z4X9
-0.01341146*Y1X2Y3Z6X7X8X9
-0.01341146*Z0X1X2X3Z4Z6X7X8X9
-0.01341146*Y1X2Y3Y7X8Y9
-0.01341146*Z0X1X2X3Z4Y7X8Y9
-0.00620578*Y1X2Y3X5X6X7X8X9
-0.00620578*Z0X1X2X3Z4X5X6X7X8X9
0.00620578*Y1X2Y3Y5X6X7X8Y9
0.00620578*Z0X1X2X3Z4Y5X6X7X8Y9
0.00049101*Y0X1X2Y3Z9
0.00049101*X0X1X2X3Z4Z9
0.00877609*Y0X1X2Y3Z7X8X9
0.00877609*X0X1X2X3Z4Z7X8X9
0.00877609*Y0X1X2Y3Y8Y9
0.00877609*X0X1X2X3Z4Y8Y9
0.01189352*Y0X1X2Y3Z5X6X7X8X9
0.01189352*X0X1X2X3Z4Z5X6X7X8X9
0.01189352*Y0X1X2Y3Y6X7X8Y9
0.01189352*X0X1X2X3Z4Y6X7X8Y9
0.11645503*Z2Z3Z9
-0.00545731*Z2Z3Z7X8X9
-0.00545731*Z2Z3Y8Y9
-0.00309076*Z2Z3Z5X6X7X8X9
-0.00309076*Z2Z3Y6X7X8Y9
-0.02374711*X2Z8X9
0.02374711*Z1X2Z3Z8X9
0.02374711*X2X9
-0.02374711*Z1X2Z3X9
0.00291216*X2Z6X7X8X9
-0.00291216*Z1X2Z3Z6X7X8X9
0.00291216*X2Y7X8Y9
-0.00291216*Z1X2Z3Y7X8Y9
-0.00673489*X2X5X6X7X8X9
0.00673489*Z1X2Z3X5X6X7X8X9
0.00673489*X2Y5X6X7X8Y9
-0.00673489*Z1X2Z3Y5X6X7X8Y9
0.02816807*Y1Y2Z9
0.02816807*Z0X1X2Z3Z9
-0.01760529*Y1Y2Z7X8X9
-0.01760529*Z0X1X2Z3Z7X8X9
-0.01760529*Y1Y2Y8Y9
-0.01760529*Z0X1X2Z3Y8Y9
0.00039492*Y1Y2Z5X6X7X8X9
0.00039492*Z0X1X2Z3Z5X6X7X8X9
0.00039492*Y1Y2Y6X7X8Y9
0.00039492*Z0X1X2Z3Y6X7X8Y9
0.01421830*Y0X1Y2Z8X9
0.01421830*X0X1X2Z3Z8X9
-0.01421830*Y0X1Y2X9
-0.01421830*X0X1X2Z3X9
-0.01668227*Y0X1Y2Z6X7X8X9
-0.01668227*X0X1X2Z3Z6X7X8X9
-0.01668227*Y0X1Y2Y7X8Y9
-0.01668227*X0X1X2Z3Y7X8Y9
0.00744538*Y0X1Y2X5X6X7X8X9
0.00744538*X0X1X2Z3X5X6X7X8X9
-0.00744538*Y0X1Y2Y5X6X7X8Y9
-0.00744538*X0X1X2Z3Y5X6X7X8Y9
0.12180745*Z1Z2Z9
-0.00706369*Z1Z2Z7X8X9
-0.00706369*Z1Z2Y8Y9
0.00156718*Z1Z2Z5X6X7X8X9
0.00156718*Z1Z2Y6X7X8Y9
0.02891255*X1Z8X9
-0.02891255*Z0X1Z2Z8X9
-0.02891255*X1X9
0.02891255*Z0X1Z2X9
-0.00411237*X1Z6X7X8X9
0.00411237*Z0X1Z2Z6X7X8X9
-0.00411237*X1Y7X8Y9
0.00411237*Z0X1Z2Y7X8Y9
-0.00579813*X1X5X6X7X8X9
0.00579813*Z0X1Z2X5X6X7X8X9
0.00579813*X1Y5X6X7X8Y9
-0.00579813*Z0X1Z2Y5X6X7X8Y9
0.02536026*Y0Y1Z9
0.02536026*X0X1Z2Z9
-0.02308843*Y0Y1Z7X8X9
-0.02308843*X0X1Z2Z7X8X9
-0.02308843*Y0Y1Y8Y9
-0.02308843*X0X1Z2Y8Y9
-0.01000820*Y0Y1Z5X6X7X8X9
-0.01000820*X0X1Z2Z5X6X7X8X9
-0.01000820*Y0Y1Y6X7X8Y9
-0.01000820*X0X1Z2Y6X7X8Y9
0.12885002*Z0Z1Z9
-0.00561179*Z0Z1Z7X8X9
-0.00561179*Z0Z1Y8Y9
0.00884803*Z0Z1Z5X6X7X8X9
0.00884803*Z0Z1Y6X7X8Y9
-0.03617981*X0Z8X9
0.03617981*X0Z1Z8X9
0.03617981*X0X9
-0.03617981*X0Z1X9
0.01680130*X0Z6X7X8X9
-0.01680130*X0Z1Z6X7X8X9
0.01680130*X0Y7X8Y9
-0.01680130*X0Z1Y7X8Y9
-0.00172616*X0X5X6X7X8X9
0.00172616*X0Z1X5X6X7X8X9
0.00172616*X0Y5X6X7X8Y9
-0.00172616*X0Z1Y5X6X7X8Y9
0.15738055*Z0Z9
-0.02970493*Z0Z7X8X9
-0.02970493*Z0Y8Y9
-0.00127084*Z0Z5X6X7X8X9
-0.00127084*Z0Y6X7X8Y9
0.07905064*Z7Z9
0.00577973*Z5X6X7Z9
0.00577973*Y6Y7Z8Z9
0.09342546*Z6Z7Z8Z9
-0.00315614*X5X6Z7Z8Z9
0.00315614*Y5Y6Z8Z9
0.10613291*Z5Z6Z8Z9
-0.11653312*Z5Z8Z9
0.02955193*Z6Y7Y8Z9
0.02955193*X7X8
-0.00008742*X5X6Y7Y8Z9
-0.00008742*Y5X6Y7X8
-0.02744050*Z5X6X8Z9
0.01084134*X6Z7X8Z9
-0.01659916*Z5Y6Y8Z9
-0.01659916*Y6Y8
0.01084134*Z5X6Z7X8
-0.02744050*X6X8
-0.02507922*X5Z6Z7X8Z9
-0.01543284*X5Z7X8Z9
-0.00964638*Y5Y8Z9
0.00964638*Y5Z6Z7Y8
0.01543284*X5Z6X8
0.02507922*X5X8
0.01637283*X5Y6Y7X8Z9
-0.01637283*Y5Y6Y7Y8
-0.00853383*Z5X7X8Z9
-0.00853383*Z5Z6Y7Y8
0.02368231*Z5Z6X7X8Z9
0.02368231*Z5Y7Y8
-0.00593000*Y5Y6X7X8Z9
-0.00593000*X5Y6X7Y8
-0.11529530*Z4Z8Z9
0.02707241*Z4Z6X7X8Z9
0.02707241*Z4Y7Y8
0.00049101*Z4X5X6X7X8Z9
-0.00049101*Z4Y5X6X7Y8
-0.02643243*X4Z7X8Z9
-0.02643243*Z3X4Z7X8Z9
0.02643243*X4X8
0.02643243*Z3X4X8
-0.01408244*X4Z5X6X7X8Z9
-0.01408244*Z3X4Z5X6X7X8Z9
-0.01408244*X4Y6X7Y8
-0.01408244*Z3X4Y6X7Y8
0.00213537*Y3Y4Z8Z9
-0.00213537*Z2X3X4Z8Z9
0.01610305*Y3Y4Z6X7X8Z9
-0.01610305*Z2X3X4Z6X7X8Z9
0.01610305*Y3Y4Y7Y8
-0.01610305*Z2X3X4Y7Y8
-0.00877609*Y3Y4X5X6X7X8Z9
0.00877609*Z2X3X4X5X6X7X8Z9
0.00877609*Y3Y4Y5X6X7Y8
-0.00877609*Z2X3X4Y5X6X7Y8
0.00169675*Y2X3Y4Z7X8Z9
-0.00169675*Z1X2X3X4Z7X8Z9
-0.00169675*Y2X3Y4X8
0.00169675*Z1X2X3X4X8
-0.01341146*Y2X3Y4Z5X6X7X8Z9
0.01341146*Z1X2X3X4Z5X6X7X8Z9
-0.01341146*Y2X3Y4Y6X7Y8
0.01341146*Z1X2X3X4Y6X7Y8
0.01005642*Y1X2X3Y4Z8Z9
-0.01005642*Z0X1X2X3X4Z8Z9
-0.00483400*Y1X2X3Y4Z6X7X8Z9
0.00483400*Z0X1X2X3X4Z6X7X8Z9
-0.00483400*Y1X2X3Y4Y7Y8
0.00483400*Z0X1X2X3X4Y7Y8
-0.01189352*Y1X2X3Y4X5X6X7X8Z9
0.01189352*Z0X1X2X3X4X5X6X7X8Z9
0.01189352*Y1X2X3Y4Y5X6X7Y8
-0.01189352*Z0X1X2X3X4Y5X6X7Y8
0.00642980*Y0X1X2X3Y4Z7X8Z9
-0.00642980*X0X1X2X3X4Z7X8Z9
-0.00642980*Y0X1X2X3Y4X8
0.00642980*X0X1X2X3X4X8
0.00620578*Y0X1X2X3Y4Z5X6X7X8Z9
-0.00620578*X0X1X2X3X4Z5X6X7X8Z9
0.00620578*Y0X1X2X3Y4Y6X7Y8
-0.00620578*X0X1X2X3X4Y6X7Y8
0.12040252*Z3Z4Z8Z9
-0.00900983*Z3Z4Z6X7X8Z9
-0.00900983*Z3Z4Y7Y8
-0.01021127*Z3Z4X5X6X7X8Z9
0.01021127*Z3Z4Y5X6X7Y8
-0.03467477*X3Z7X8Z9
0.03467477*Z2X3Z4Z7X8Z9
0.03467477*X3X8
-0.03467477*Z2X3Z4X8
-0.00308849*X3Z5X6X7X8Z9
0.00308849*Z2X3Z4Z5X6X7X8Z9
-0.00308849*X3Y6X7Y8
0.00308849*Z2X3Z4Y6X7Y8
-0.00900983*Y2Y3Z8Z9
-0.00900983*Z1X2X3Z4Z8Z9
0.02389990*Y2Y3Z6X7X8Z9
0.02389990*Z1X2X3Z4Z6X7X8Z9
0.02389990*Y2Y3Y7Y8
0.02389990*Z1X2X3Z4Y7Y8
0.00305371*Y2Y3X5X6X7X8Z9
0.00305371*Z1X2X3Z4X5X6X7X8Z9
-0.00305371*Y2Y3Y5X6X7Y8
-0.00305371*Z1X2X3Z4Y5X6X7Y8
0.00308849*Y1X2Y3Z7X8Z9
0.00308849*Z0X1X2X3Z4Z7X8Z9
-0.00308849*Y1X2Y3X8
-0.00308849*Z0X1X2X3Z4X8
0.02026308*Y1X2Y3Z5X6X7X8Z9
0.02026308*Z0X1X2X3Z4Z5X6X7X8Z9
0.02026308*Y1X2Y3Y6X7Y8
0.02026308*Z0X1X2X3Z4Y6X7Y8
0.01021127*Y0X1X2Y3Z8Z9
0.01021127*X0X1X2X3Z4Z8Z9
-0.00305371*Y0X1X2Y3Z6X7X8Z9
-0.00305371*X0X1X2X3Z4Z6X7X8Z9
-0.00305371*Y0X1X2Y3Y7Y8
-0.00305371*X0X1X2X3Z4Y7Y8
-0.01270773*Y0X1X2Y3X5X6X7X8Z9
-0.01270773*X0X1X2X3Z4X5X6X7X8Z9
0.01270773*Y0X1X2Y3Y5X6X7Y8
0.01270773*X0X1X2X3Z4Y5X6X7Y8
0.11372541*Z2Z3Z8Z9
-0.00293568*Z2Z3Z6X7X8Z9
-0.00293568*Z2Z3Y7Y8
-0.00005298*Z2Z3X5X6X7X8Z9
0.00005298*Z2Z3Y5X6X7Y8
-0.02661625*X2Z7X8Z9
0.02661625*Z1X2Z3Z7X8Z9
0.02661625*X2X8
-0.02661625*Z1X2Z3X8
0.00429179*X2Z5X6X7X8Z9
-0.00429179*Z1X2Z3Z5X6X7X8Z9
0.00429179*X2Y6X7Y8
-0.00429179*Z1X2Z3Y6X7Y8
0.00886822*Y1Y2Z8Z9
0.00886822*Z0X1X2Z3Z8Z9
-0.02089095*Y1Y2Z6X7X8Z9
-0.02089095*Z0X1X2Z3Z6X7X8Z9
-0.02089095*Y1Y2Y7Y8
-0.02089095*Z0X1X2Z3Y7Y8
-0.00281790*Y1Y2X5X6X7X8Z9
-0.00281790*Z0X1X2Z3X5X6X7X8Z9
0.00281790*Y1Y2Y5X6X7Y8
0.00281790*Z0X1X2Z3Y5X6X7Y8
0.00014041*Y0X1Y2Z7X8Z9
0.00014041*X0X1X2Z3Z7X8Z9
-0.00014041*Y0X1Y2X8
-0.00014041*X0X1X2Z3X8
0.01246428*Y0X1Y2Z5X6X7X8Z9
0.01246428*X0X1X2Z3Z5X6X7X8Z9
0.01246428*Y0X1Y2Y6X7Y8
0.01246428*X0X1X2Z3Y6X7Y8
0.11732536*Z1Z2Z8Z9
-0.00982041*Z1Z2Z6X7X8Z9
-0.00982041*Z1Z2Y7Y8
-0.00017653*Z1Z2X5X6X7X8Z9
0.00017653*Z1Z2Y5X6X7Y8
0.03173229*X1Z7X8Z9
-0.03173229*Z0X1Z2Z7X8Z9
-0.03173229*X1X8
0.03173229*Z0X1Z2X8
0.00736325*X1Z5X6X7X8Z9
-0.00736325*Z0X1Z2Z5X6X7X8Z9
0.00736325*X1Y6X7Y8
-0.00736325*Z0X1Z2Y6X7Y8
0.00010243*Y0Y1Z8Z9
0.00010243*X0X1Z2Z8Z9
-0.01619630*Y0Y1Z6X7X8Z9
-0.01619630*X0X1Z2Z6X7X8Z9
-0.01619630*Y0Y1Y7Y8
-0.01619630*X0X1Z2Y7Y8
0.00987112*Y0Y1X5X6X7X8Z9
0.00987112*X0X1Z2X5X6X7X8Z9
-0.00987112*Y0Y1Y5X6X7Y8
-0.00987112*X0X1Z2Y5X6X7Y8
0.12639598*Z0Z1Z8Z9
-0.01589708*Z0Z1Z6X7X8Z9
-0.01589708*Z0Z1Y7Y8
-0.01034395*Z0Z1X5X6X7X8Z9
0.01034395*Z0Z1Y5X6X7Y8
-0.02789712*X0Z7X8Z9
0.02789712*X0Z1Z7X8Z9
0.02789712*X0X8
-0.02789712*X0Z1X8
-0.01627394*X0Z5X6X7X8Z9
0.01627394*X0Z1Z5X6X7X8Z9
-0.01627394*X0Y6X7Y8
0.01627394*X0Z1Y6X7Y8
0.12924085*Z0Z8Z9
-0.03355343*Z0Z6X7X8Z9
-0.03355343*Z0Y7Y8
-0.00040820*Z0X5X6X7X8Z9
0.00040820*Z0Y5X6X7Y8
0.08799694*Z6Z8
-0.00373785*X5X6Z8
0.00373785*Y5Y6Z7Z8
0.09880847*Z5Z6Z7Z8
-0.11394243*Z5Z7Z8
-0.03399743*Z5Y6Y7Z8
-0.03399743*X6X7
-0.02737848*X5X7Z8
-0.00776499*X5Z6X7Z8
-0.01961349*Y5Y7Z8
0.01961349*Y5Y7
0.00776499*X5Z6X7
0.02737848*X5X7
-0.01819888*X6X7Z8
-0.01819888*Z5Y6Y7
-0.11645503*Z4Z7Z8
-0.02816807*Z4Z5X6X7Z8
-0.02816807*Z4Y6Y7
-0.02374711*X4Z6X7Z8
-0.02374711*Z3X4Z6X7Z8
0.02374711*X4X7
0.02374711*Z3X4X7
0.01421830*X4X5X6X7Z8
0.01421830*Z3X4X5X6X7Z8
-0.01421830*X4Y5X6Y7
-0.01421830*Z3X4Y5X6Y7
-0.00545731*Y3Y4Z7Z8
0.00545731*Z2X3X4Z7Z8
-0.01760529*Y3Y4Z5X6X7Z8
0.01760529*Z2X3X4Z5X6X7Z8
-0.01760529*Y3Y4Y6Y7
0.01760529*Z2X3X4Y6Y7
-0.00291216*Y2X3Y4Z6X7Z8
0.00291216*Z1X2X3X4Z6X7Z8
0.00291216*Y2X3Y4X7
-0.00291216*Z1X2X3X4X7
0.01668227*Y2X3Y4X5X6X7Z8
-0.01668227*Z1X2X3X4X5X6X7Z8
-0.01668227*Y2X3Y4Y5X6Y7
0.01668227*Z1X2X3X4Y5X6Y7
-0.00309076*Y1X2X3Y4Z7Z8
0.00309076*Z0X1X2X3X4Z7Z8
0.00039492*Y1X2X3Y4Z5X6X7Z8
-0.00039492*Z0X1X2X3X4Z5X6X7Z8
0.00039492*Y1X2X3Y4Y6Y7
-0.00039492*Z0X1X2X3X4Y6Y7
-0.00673489*Y0X1X2X3Y4Z6X7Z8
0.00673489*X0X1X2X3X4Z6X7Z8
0.00673489*Y0X1X2X3Y4X7
-0.00673489*X0X1X2X3X4X7
0.00744538*Y0X1X2X3Y4X5X6X7Z8
-0.00744538*X0X1X2X3X4X5X6X7Z8
-0.00744538*Y0X1X2X3Y4Y5X6Y7
0.00744538*X0X1X2X3X4Y5X6Y7
0.11372541*Z3Z4Z7Z8
0.00886822*Z3Z4Z5X6X7Z8
0.00886822*Z3Z4Y6Y7
-0.02661625*X3Z6X7Z8
0.02661625*Z2X3Z4Z6X7Z8
0.02661625*X3X7
-0.02661625*Z2X3Z4X7
0.00014041*X3X5X6X7Z8
-0.00014041*Z2X3Z4X5X6X7Z8
-0.00014041*X3Y5X6Y7
0.00014041*Z2X3Z4Y5X6Y7
-0.00293568*Y2Y3Z7Z8
-0.00293568*Z1X2X3Z4Z7Z8
-0.02089095*Y2Y3Z5X6X7Z8
-0.02089095*Z1X2X3Z4Z5X6X7Z8
-0.02089095*Y2Y3Y6Y7
-0.02089095*Z1X2X3Z4Y6Y7
-0.00429179*Y1X2Y3Z6X7Z8
-0.00429179*Z0X1X2X3Z4Z6X7Z8
0.00429179*Y1X2Y3X7
0.00429179*Z0X1X2X3Z4X7
-0.01246428*Y1X2Y3X5X6X7Z8
-0.01246428*Z0X1X2X3Z4X5X6X7Z8
0.01246428*Y1X2Y3Y5X6Y7
0.01246428*Z0X1X2X3Z4Y5X6Y7
0.00005298*Y0X1X2Y3Z7Z8
0.00005298*X0X1X2X3Z4Z7Z8
0.00281790*Y0X1X2Y3Z5X6X7Z8
0.00281790*X0X1X2X3Z4Z5X6X7Z8
0.00281790*Y0X1X2Y3Y6Y7
0.00281790*X0X1X2X3Z4Y6Y7
0.11953069*Z2Z3Z7Z8
0.00721979*Z2Z3Z5X6X7Z8
0.00721979*Z2Z3Y6Y7
-0.03069041*X2Z6X7Z8
0.03069041*Z1X2Z3Z6X7Z8
0.03069041*X2X7
-0.03069041*Z1X2Z3X7
0.00332662*X2X5X6X7Z8
-0.00332662*Z1X2Z3X5X6X7Z8
-0.00332662*X2Y5X6Y7
0.00332662*Z1X2Z3Y5X6Y7
0.00721979*Y1Y2Z7Z8
0.00721979*Z0X1X2Z3Z7Z8
0.02332116*Y1Y2Z5X6X7Z8
0.02332116*Z0X1X2Z3Z5X6X7Z8
0.02332116*Y1Y2Y6Y7
0.02332116*Z0X1X2Z3Y6Y7
0.00332662*Y0X1Y2Z6X7Z8
0.00332662*X0X1X2Z3Z6X7Z8
-0.00332662*Y0X1Y2X7
-0.00332662*X0X1X2Z3X7
-0.01841328*Y0X1Y2X5X6X7Z8
-0.01841328*X0X1X2Z3X5X6X7Z8
0.01841328*Y0X1Y2Y5X6Y7
0.01841328*X0X1X2Z3Y5X6Y7
0.11868736*Z1Z2Z7Z8
0.00824516*Z1Z2Z5X6X7Z8
0.00824516*Z1Z2Y6Y7
0.02575228*X1Z6X7Z8
-0.02575228*Z0X1Z2Z6X7Z8
-0.02575228*X1X7
0.02575228*Z0X1Z2X7
-0.00178734*X1X5X6X7Z8
0.00178734*Z0X1Z2X5X6X7Z8
0.00178734*X1Y5X6Y7
-0.00178734*Z0X1Z2Y5X6Y7
0.00706447*Y0Y1Z7Z8
0.00706447*X0X1Z2Z7Z8
0.01782615*Y0Y1Z5X6X7Z8
0.01782615*X0X1Z2Z5X6X7Z8
0.01782615*Y0Y1Y6Y7
0.01782615*X0X1Z2Y6Y7
0.12212962*Z0Z1Z7Z8
0.01628797*Z0Z1Z5X6X7Z8
0.01628797*Z0Z1Y6Y7
-0.02559113*X0Z6X7Z8
0.02559113*X0Z1Z6X7Z8
0.02559113*X0X7
-0.02559113*X0Z1X7
0.01800312*X0X5X6X7Z8
-0.01800312*X0Z1X5X6X7Z8
-0.01800312*X0Y5X6Y7
0.01800312*X0Z1Y5X6Y7
0.13235571*Z0Z7Z8
0.03620200*Z0Z5X6X7Z8
0.03620200*Z0Y6Y7
0.09274271*Z5Z7
-0.11355998*Z5Z6Z7
0.03611344*Y5Y6Z7
-0.03611344*X5X6
-0.12180745*Z4Z6Z7
0.02536026*Z4X5X6Z7
-0.02536026*Z4Y5Y6
0.02891255*X4Z5X6Z7
0.02891255*Z3X4Z5X6Z7
-0.02891255*X4X6
-0.02891255*Z3X4X6
-0.00706369*Y3Y4Z6Z7
0.00706369*Z2X3X4Z6Z7
0.02308843*Y3Y4X5X6Z7
-0.02308843*Z2X3X4X5X6Z7
-0.02308843*Y3Y4Y5Y6
0.02308843*Z2X3X4Y5Y6
0.00411237*Y2X3Y4Z5X6Z7
-0.00411237*Z1X2X3X4Z5X6Z7
-0.00411237*Y2X3Y4X6
0.00411237*Z1X2X3X4X6
0.00156718*Y1X2X3Y4Z6Z7
-0.00156718*Z0X1X2X3X4Z6Z7
0.01000820*Y1X2X3Y4X5X6Z7
-0.01000820*Z0X1X2X3X4X5X6Z7
-0.01000820*Y1X2X3Y4Y5Y6
0.01000820*Z0X1X2X3X4Y5Y6
-0.00579813*Y0X1X2X3Y4Z5X6Z7
0.00579813*X0X1X2X3X4Z5X6Z7
0.00579813*Y0X1X2X3Y4X6
-0.00579813*X0X1X2X3X4X6
0.11732536*Z3Z4Z6Z7
-0.00010243*Z3Z4X5X6Z7
0.00010243*Z3Z4Y5Y6
0.03173229*X3Z5X6Z7
-0.03173229*Z2X3Z4Z5X6Z7
-0.03173229*X3X6
0.03173229*Z2X3Z4X6
-0.00982041*Y2Y3Z6Z7
-0.00982041*Z1X2X3Z4Z6Z7
0.01619630*Y2Y3X5X6Z7
0.01619630*Z1X2X3Z4X5X6Z7
-0.01619630*Y2Y3Y5Y6
-0.01619630*Z1X2X3Z4Y5Y6
-0.00736325*Y1X2Y3Z5X6Z7
-0.00736325*Z0X1X2X3Z4Z5X6Z7
0.00736325*Y1X2Y3X6
0.00736325*Z0X1X2X3Z4X6
0.00017653*Y0X1X2Y3Z6Z7
0.00017653*X0X1X2X3Z4Z6Z7
0.00987112*Y0X1X2Y3X5X6Z7
0.00987112*X0X1X2X3Z4X5X6Z7
-0.00987112*Y0X1X2Y3Y5Y6
-0.00987112*X0X1X2X3Z4Y5Y6
0.11868736*Z2Z3Z6Z7
-0.00706447*Z2Z3X5X6Z7
0.00706447*Z2Z3Y5Y6
0.02575228*X2Z5X6Z7
-0.02575228*Z1X2Z3Z5X6Z7
-0.02575228*X2X6
0.02575228*Z1X2Z3X6
0.00824516*Y1Y2Z6Z7
0.00824516*Z0X1X2Z3Z6Z7
-0.01782615*Y1Y2X5X6Z7
-0.01782615*Z0X1X2Z3X5X6Z7
0.01782615*Y1Y2Y5Y6
0.01782615*Z0X1X2Z3Y5Y6
-0.00178734*Y0X1Y2Z5X6Z7
-0.00178734*X0X1X2Z3Z5X6Z7
0.00178734*Y0X1Y2X6
0.00178734*X0X1X2Z3X6
0.12547501*Z1Z2Z6Z7
-0.00874121*Z1Z2X5X6Z7
0.00874121*Z1Z2Y5Y6
-0.03543582*X1Z5X6Z7
0.03543582*Z0X1Z2Z5X6Z7
0.03543582*X1X6
-0.03543582*Z0X1Z2X6
0.00874121*Y0Y1Z6Z7
0.00874121*X0X1Z2Z6Z7
-0.02717292*Y0Y1X5X6Z7
-0.02717292*X0X1Z2X5X6Z7
0.02717292*Y0Y1Y5Y6
0.02717292*X0X1Z2Y5Y6
0.12817852*Z0Z1Z6Z7
-0.00421074*Z0Z1X5X6Z7
0.00421074*Z0Z1Y5Y6
0.03190269*X0Z5X6Z7
-0.03190269*X0Z1Z5X6Z7
-0.03190269*X0X6
0.03190269*X0Z1X6
0.14073290*Z0Z6Z7
-0.03432733*Z0X5X6Z7
0.03432733*Z0Y5Y6
-0.10677532*Z6
-0.12885002*Z4Z5Z6
0.03617981*X4X5Z6
0.03617981*Z3X4X5Z6
0.03617981*X4X5
0.03617981*Z3X4X5
-0.00561179*Y3Y4Z5Z6
0.00561179*Z2X3X4Z5Z6
0.01680130*Y2X3Y4X5Z6
-0.01680130*Z1X2X3X4X5Z6
0.01680130*Y2X3Y4X5
-0.01680130*Z1X2X3X4X5
0.00884803*Y1X2X3Y4Z5Z6
-0.00884803*Z0X1X2X3X4Z5Z6
0.00172616*Y0X1X2X3Y4X5Z6
-0.00172616*X0X1X2X3X4X5Z6
0.00172616*Y0X1X2X3Y4X5
-0.00172616*X0X1X2X3X4X5
0.12639598*Z3Z4Z5Z6
0.02789712*X3X5Z6
-0.02789712*Z2X3Z4X5Z6
0.02789712*X3X5
-0.02789712*Z2X3Z4X5
-0.01589708*Y2Y3Z5Z6
-0.01589708*Z1X2X3Z4Z5Z6
-0.01627394*Y1X2Y3X5Z6
-0.01627394*Z0X1X2X3Z4X5Z6
-0.01627394*Y1X2Y3X5
-0.01627394*Z0X1X2X3Z4X5
0.01034395*Y0X1X2Y3Z5Z6
0.01034395*X0X1X2X3Z4Z5Z6
0.12212962*Z2Z3Z5Z6
0.02559113*X2X5Z6
-0.02559113*Z1X2Z3X5Z6
0.02559113*X2X5
-0.02559113*Z1X2Z3X5
0.01628797*Y1Y2Z5Z6
0.01628797*Z0X1X2Z3Z5Z6
-0.01800312*Y0X1Y2X5Z6
-0.01800312*X0X1X2Z3X5Z6
-0.01800312*Y0X1Y2X5
-0.01800312*X0X1X2Z3X5
0.12817852*Z1Z2Z5Z6
-0.03190269*X1X5Z6
0.03190269*Z0X1Z2X5Z6
-0.03190269*X1X5
0.03190269*Z0X1Z2X5
0.00421074*Y0Y1Z5Z6
0.00421074*X0X1Z2Z5Z6
0.14307494*Z0Z1Z5Z6
0.04525336*X0X5Z6
-0.04525336*X0Z1X5Z6
0.04525336*X0X5
-0.04525336*X0Z1X5
0.15202867*Z0Z5Z6
0.15738055*Z4Z5
0.02970493*Y3Y4Z5
-0.02970493*Z2X3X4Z5
0.00127084*Y1X2X3Y4Z5
-0.00127084*Z0X1X2X3X4Z5
-0.12924085*Z3Z4Z5
0.03355343*Y2Y3Z5
0.03355343*Z1X2X3Z4Z5
-0.00040820*Y0X1X2Y3Z5
-0.00040820*X0X1X2X3Z4Z5
-0.13235571*Z2Z3Z5
-0.03620200*Y1Y2Z5
-0.03620200*Z0X1X2Z3Z5
-0.14073290*Z1Z2Z5
-0.03432733*Y0Y1Z5
-0.03432733*X0X1Z2Z5
-0.15202867*Z0Z1Z5
-0.19716913*Z0Z5
-0.08072556*Z3
0.01193736*Z1X2X3
0.01193736*Y2Y3Z4
-0.00159350*X0X1X2X3
-0.00159350*Y0X1X2Y3Z4
-0.09252569*Z2Z3Z4
-0.01815459*Z0X1X2Z3Z4
-0.01815459*Y1Y2Z4
-0.10273753*Z1Z2Z4
-0.01791334*X0X1Z2Z4
-0.01791334*Y0Y1Z4
-0.11417301*Z0Z1Z4
-0.14147102*Z0Z4
-0.02429706*Z2Y3Y4
0.02429706*X3X4
-0.00402603*Z0X1X2Y3Y4
-0.00402603*Y1X2Y3X4
-0.02205036*Z1X2X4
0.00764406*X2Z3X4
-0.01440630*Z1Y2Y4
0.01440630*Y2Y4
-0.00764406*Z1X2Z3X4
0.02205036*X2X4
-0.00778850*X0X1X2X4
-0.00544221*Y0X1Y2Z3X4
-0.00234629*X0X1Y2Y4
0.00234629*Y0X1X2Y4
-0.00544221*X0X1X2Z3X4
-0.00778850*Y0X1Y2X4
0.02407855*Z0X1Z2Z3X4
-0.01550109*X1Z3X4
0.00857746*Z0Y1Y4
-0.00857746*Y1Z2Z3Y4
0.01550109*Z0X1Z2X4
-0.02407855*X1X4
-0.02997404*X0Z1Z3X4
0.02428629*X0Z3X4
-0.00568775*Y0Y4
0.00568775*Y0Z1Z3Y4
-0.02428629*X0Z1X4
0.02997404*X0X4
0.01451454*Z0X1Y2Y3X4
-0.01451454*Y1Y2Y3Y4
0.00415154*Z1X3X4
-0.00415154*Z1Z2Y3Y4
0.01635354*X0X1X3X4
0.00640616*Y0Y1Z2X3X4
0.00994739*X0Y1Y3X4
-0.00994739*Y0X1X3Y4
-0.00640616*X0X1Z2Y3Y4
-0.01635354*Y0Y1Y3Y4
0.00600672*Z0Z1Z2X3X4
-0.00600672*Z0Z1Y3Y4
0.02225956*Z0Z2X3X4
-0.02225956*Z0Y3Y4
-0.00254519*Z0Y1Y2X3X4
-0.00254519*X1Y2X3Y4
0.01100316*X0X2X3X4
-0.00679309*X0Z1X2X3X4
0.00421007*Y0Y2X3X4
-0.00421007*Y0X2X3Y4
-0.00679309*X0Z1Y2X3Y4
0.01100316*X0Y2X3Y4
-0.00045532*X1X2X3X4
0.00045532*Z0Y1X2X3Y4
0.07905064*Z2Z4
0.00577973*Z0X1X2Z4
0.00577973*Y1Y2Z3Z4
0.09342546*Z1Z2Z3Z4
0.00315614*X0X1Z2Z3Z4
0.00315614*Y0Y1Z3Z4
0.10613291*Z0Z1Z3Z4
0.11653312*Z0Z3Z4
0.02955193*Z1Y2Y3Z4
0.02955193*X2X3
0.00008742*X0X1Y2Y3Z4
-0.00008742*Y0X1Y2X3
-0.02744050*Z0X1X3Z4
0.01084134*X1Z2X3Z4
-0.01659916*Z0Y1Y3Z4
-0.01659916*Y1Y3
0.01084134*Z0X1Z2X3
-0.02744050*X1X3
0.02507922*X0Z1Z2X3Z4
-0.01543284*X0Z2X3Z4
0.00964638*Y0Y3Z4
0.00964638*Y0Z1Z2Y3
-0.01543284*X0Z1X3
0.02507922*X0X3
-0.01637283*X0Y1Y2X3Z4
-0.01637283*Y0Y1Y2Y3
-0.00853383*Z0X2X3Z4
-0.00853383*Z0Z1Y2Y3
-0.02368231*Z0Z1X2X3Z4
-0.02368231*Z0Y2Y3
0.00593000*Y0Y1X2X3Z4
-0.00593000*X0Y1X2Y3
0.08799694*Z1Z3
0.00373785*X0X1Z3
0.00373785*Y0Y1Z2Z3
0.09880847*Z0Z1Z2Z3
0.11394243*Z0Z2Z3
-0.03399743*Z0Y1Y2Z3
-0.03399743*X1X2
0.02737848*X0X2Z3
-0.00776499*X0Z1X2Z3
0.01961349*Y0Y2Z3
0.01961349*Y0Y2
-0.00776499*X0Z1X2
0.02737848*X0X2
0.01819888*X1X2Z3
0.01819888*Z0Y1Y2
0.09274271*Z0Z2
0.11355998*Z0Z1Z2
-0.03611344*Y0Y1Z2
-0.03611344*X0X1
0.10677532*Z1
