-1.62150923*I
0.06573628*Z9
0.00047327*Z7X8X9
0.00047327*Y8Y9
0.00332209*Z5X6X7X8X9
0.00332209*Y6X7X8Y9
0.05735992*Z8Z9
0.00441689*Z6X7X8Z9
0.00441689*Y7Y8
-0.00351931*X5X6X7X8Z9
0.00351931*Y5X6X7Y8
0.04573995*Z7Z8
0.00480444*Z5X6X7Z8
0.00480444*Y6Y7
0.03299042*Z6Z7
0.00093801*X5X6Z7
-0.00093801*Y5Y6
0.01941871*Z5Z6
-0.00824962*Z5
-0.06573628*Z4
-0.00047327*Z2X3X4
0.00047327*Y3Y4
-0.00332209*Z0X1X2X3X4
0.00332209*Y1X2X3Y4
0.05735992*Z3Z4
0.00441689*Z1X2X3Z4
0.00441689*Y2Y3
0.00351931*X0X1X2X3Z4
0.00351931*Y0X1X2Y3
0.04573995*Z2Z3
0.00480444*Z0X1X2Z3
0.00480444*Y1Y2
0.03299042*Z1Z2
-0.00093801*X0X1Z2
-0.00093801*Y0Y1
0.01941871*Z0Z1
0.00824962*Z0
0.02310074*Z8
0.00204352*Z6X7X8
0.00204352*Y7Y8Z9
0.00352308*X5X6X7X8
-0.00352308*Y5X6X7Y8Z9
0.03144593*Z7Z8Z9
-0.00626668*Z5X6X7Z8Z9
-0.00626668*Y6Y7Z9
0.03559647*Z6Z7Z9
-0.00634180*X5X6Z7Z9
0.00634180*Y5Y6Z9
0.03475563*Z5Z6Z9
-0.04374232*Z5Z9
-0.00902848*Z7Y8Y9
-0.00902848*X8X9
-0.00047804*Z5X6X7Y8Y9
0.00047804*Y6X7Y8X9
0.00802866*Z6X7X9
-0.00168883*X7Z8X9
0.00633983*Z6Y7Y9
0.00633983*Y7Y9
-0.00168883*Z6X7Z8X9
0.00802866*X7X9
-0.00468081*X5X6X7X9
0.00417429*Y5X6Y7Z8X9
-0.00050653*X5X6Y7Y9
0.00050653*Y5X6X7Y9
0.00417429*X5X6X7Z8X9
-0.00468081*Y5X6Y7X9
0.00998752*Z5X6Z7Z8X9
-0.00748236*X6Z8X9
0.00250516*Z5Y6Y9
0.00250516*Y6Z7Z8Y9
-0.00748236*Z5X6Z7X9
0.00998752*X6X9
0.01352570*X5Z6Z8X9
0.01164245*X5Z8X9
0.00188325*Y5Y9
-0.00188325*Y5Z6Z8Y9
-0.01164245*X5Z6X9
-0.01352570*X5X9
-0.00635959*Z5X6Y7Y8X9
-0.00635959*Y6Y7Y8Y9
0.00313596*Z6X8X9
0.00313596*Z6Z7Y8Y9
-0.00861984*X5X6X8X9
0.00406742*Y5Y6Z7X8X9
-0.00455242*X5Y6Y8X9
0.00455242*Y5X6X8Y9
-0.00406742*X5X6Z7Y8Y9
0.00861984*Y5Y6Y8Y9
-0.00097745*Z5Z6Z7X8X9
-0.00097745*Z5Z6Y8Y9
-0.00624266*Z5Z7X8X9
-0.00624266*Z5Y8Y9
-0.00001573*Z5Y6Y7X8X9
0.00001573*X6Y7X8Y9
0.00473828*X5X7X8X9
0.00419984*X5Z6X7X8X9
0.00053844*Y5Y7X8X9
-0.00053844*Y5X7X8Y9
0.00419984*X5Z6Y7X8Y9
0.00473828*X5Y7X8Y9
-0.00347891*X6X7X8X9
-0.00347891*Z5Y6X7X8Y9
-0.06651226*Z4Z9
-0.01516968*Z4Z7X8X9
-0.01516968*Z4Y8Y9
-0.00288677*Z4Z5X6X7X8X9
-0.00288677*Z4Y6X7X8Y9
-0.02732509*X4Z8X9
-0.02732509*Z3X4Z8X9
0.02732509*X4X9
0.02732509*Z3X4X9
-0.00858206*X4Z6X7X8X9
-0.00858206*Z3X4Z6X7X8X9
-0.00858206*X4Y7X8Y9
-0.00858206*Z3X4Y7X8Y9
0.00035683*X4X5X6X7X8X9
0.00035683*Z3X4X5X6X7X8X9
-0.00035683*X4Y5X6X7X8Y9
-0.00035683*Z3X4Y5X6X7X8Y9
0.01516968*Y3Y4Z9
-0.01516968*Z2X3X4Z9
0.02990181*Y3Y4Z7X8X9
-0.02990181*Z2X3X4Z7X8X9
0.02990181*Y3Y4Y8Y9
-0.02990181*Z2X3X4Y8Y9
-0.00469656*Y3Y4Z5X6X7X8X9
0.00469656*Z2X3X4Z5X6X7X8X9
-0.00469656*Y3Y4Y6X7X8Y9
0.00469656*Z2X3X4Y6X7X8Y9
0.00858206*Y2X3Y4Z8X9
-0.00858206*Z1X2X3X4Z8X9
-0.00858206*Y2X3Y4X9
0.00858206*Z1X2X3X4X9
0.02621751*Y2X3Y4Z6X7X8X9
-0.02621751*Z1X2X3X4Z6X7X8X9
0.02621751*Y2X3Y4Y7X8Y9
-0.02621751*Z1X2X3X4Y7X8Y9
-0.00923256*Y2X3Y4X5X6X7X8X9
0.00923256*Z1X2X3X4X5X6X7X8X9
0.00923256*Y2X3Y4Y5X6X7X8Y9
-0.00923256*Z1X2X3X4Y5X6X7X8Y9
0.00288677*Y1X2X3Y4Z9
-0.00288677*Z0X1X2X3X4Z9
-0.00469656*Y1X2X3Y4Z7X8X9
0.00469656*Z0X1X2X3X4Z7X8X9
-0.00469656*Y1X2X3Y4Y8Y9
0.00469656*Z0X1X2X3X4Y8Y9
0.01643783*Y1X2X3Y4Z5X6X7X8X9
-0.01643783*Z0X1X2X3X4Z5X6X7X8X9
0.01643783*Y1X2X3Y4Y6X7X8Y9
-0.01643783*Z0X1X2X3X4Y6X7X8Y9
0.00035683*Y0X1X2X3Y4Z8X9
-0.00035683*X0X1X2X3X4Z8X9
-0.00035683*Y0X1X2X3Y4X9
0.00035683*X0X1X2X3X4X9
0.00923256*Y0X1X2X3Y4Z6X7X8X9
-0.00923256*X0X1X2X3X4Z6X7X8X9
0.00923256*Y0X1X2X3Y4Y7X8Y9
-0.00923256*X0X1X2X3X4Y7X8Y9
-0.02431112*Y0X1X2X3Y4X5X6X7X8X9
0.02431112*X0X1X2X3X4X5X6X7X8X9
0.02431112*Y0X1X2X3Y4Y5X6X7X8Y9
-0.02431112*X0X1X2X3X4Y5X6X7X8Y9
0.05042583*Z3Z4Z9
-0.01568520*Z3Z4Z7X8X9
-0.01568520*Z3Z4Y8Y9
0.00589776*Z3Z4Z5X6X7X8X9
0.00589776*Z3Z4Y6X7X8Y9
0.02471368*X3Z8X9
-0.02471368*Z2X3Z4Z8X9
-0.02471368*X3X9
0.02471368*Z2X3Z4X9
-0.00378928*X3Z6X7X8X9
0.00378928*Z2X3Z4Z6X7X8X9
-0.00378928*X3Y7X8Y9
0.00378928*Z2X3Z4Y7X8Y9
0.00412158*X3X5X6X7X8X9
-0.00412158*Z2X3Z4X5X6X7X8X9
-0.00412158*X3Y5X6X7X8Y9
0.00412158*Z2X3Z4Y5X6X7X8Y9
0.01062558*Y2Y3Z9
0.01062558*Z1X2X3Z4Z9
0.01012911*Y2Y3Z7X8X9
0.01012911*Z1X2X3Z4Z7X8X9
0.01012911*Y2Y3Y8Y9
0.01012911*Z1X2X3Z4Y8Y9
0.01481508*Y2Y3Z5X6X7X8X9
0.01481508*Z1X2X3Z4Z5X6X7X8X9
0.01481508*Y2Y3Y6X7X8Y9
0.01481508*Z1X2X3Z4Y6X7X8Y9
0.00541972*Y1X2Y3Z8X9
0.00541972*Z0X1X2X3Z4Z8X9
-0.00541972*Y1X2Y3X9
-0.00541972*Z0X1X2X3Z4X9
0.01732024*Y1X2Y3Z6X7X8X9
0.01732024*Z0X1X2X3Z4Z6X7X8X9
0.01732024*Y1X2Y3Y7X8Y9
0.01732024*Z0X1X2X3Z4Y7X8Y9
0.01475770*Y1X2Y3X5X6X7X8X9
0.01475770*Z0X1X2X3Z4X5X6X7X8X9
-0.01475770*Y1X2Y3Y5X6X7X8Y9
-0.01475770*Z0X1X2X3Z4Y5X6X7X8Y9
-0.00316624*Y0X1X2Y3Z9
-0.00316624*X0X1X2X3Z4Z9
0.00462810*Y0X1X2Y3Z7X8X9
0.00462810*X0X1X2X3Z4Z7X8X9
0.00462810*Y0X1X2Y3Y8Y9
0.00462810*X0X1X2X3Z4Y8Y9
-0.01664095*Y0X1X2Y3Z5X6X7X8X9
-0.01664095*X0X1X2X3Z4Z5X6X7X8X9
-0.01664095*Y0X1X2Y3Y6X7X8Y9
-0.01664095*X0X1X2X3Z4Y6X7X8Y9
0.06134774*Z2Z3Z9
0.00916394*Z2Z3Z7X8X9
0.00916394*Z2Z3Y8Y9
-0.00381337*Z2Z3Z5X6X7X8X9
-0.00381337*Z2Z3Y6X7X8Y9
-0.01181794*X2Z8X9
0.01181794*Z1X2Z3Z8X9
0.01181794*X2X9
-0.01181794*Z1X2Z3X9
-0.00644680*X2Z6X7X8X9
0.00644680*Z1X2Z3Z6X7X8X9
-0.00644680*X2Y7X8Y9
0.00644680*Z1X2Z3Y7X8Y9
0.02194251*X2X5X6X7X8X9
-0.02194251*Z1X2Z3X5X6X7X8X9
-0.02194251*X2Y5X6X7X8Y9
0.02194251*Z1X2Z3Y5X6X7X8Y9
-0.01096324*Y1Y2Z9
-0.01096324*Z0X1X2Z3Z9
-0.01017296*Y1Y2Z7X8X9
-0.01017296*Z0X1X2Z3Z7X8X9
-0.01017296*Y1Y2Y8Y9
-0.01017296*Z0X1X2Z3Y8Y9
-0.01505703*Y1Y2Z5X6X7X8X9
-0.01505703*Z0X1X2Z3Z5X6X7X8X9
-0.01505703*Y1Y2Y6X7X8Y9
-0.01505703*Z0X1X2Z3Y6X7X8Y9
0.00880239*Y0X1Y2Z8X9
0.00880239*X0X1X2Z3Z8X9
-0.00880239*Y0X1Y2X9
-0.00880239*X0X1X2Z3X9
0.02649493*Y0X1Y2Z6X7X8X9
0.02649493*X0X1X2Z3Z6X7X8X9
0.02649493*Y0X1Y2Y7X8Y9
0.02649493*X0X1X2Z3Y7X8Y9
-0.00901150*Y0X1Y2X5X6X7X8X9
-0.00901150*X0X1X2Z3X5X6X7X8X9
0.00901150*Y0X1Y2Y5X6X7X8Y9
0.00901150*X0X1X2Z3Y5X6X7X8Y9
0.06181399*Z1Z2Z9
0.00958276*Z1Z2Z7X8X9
0.00958276*Z1Z2Y8Y9
-0.00404840*Z1Z2Z5X6X7X8X9
-0.00404840*Z1Z2Y6X7X8Y9
-0.02480259*X1Z8X9
0.02480259*Z0X1Z2Z8X9
0.02480259*X1X9
-0.02480259*Z0X1Z2X9
0.00406413*X1Z6X7X8X9
-0.00406413*Z0X1Z2Z6X7X8X9
0.00406413*X1Y7X8Y9
-0.00406413*Z0X1Z2Y7X8Y9
-0.00413475*X1X5X6X7X8X9
0.00413475*Z0X1Z2X5X6X7X8X9
0.00413475*X1Y5X6X7X8Y9
-0.00413475*Z0X1Z2Y5X6X7X8Y9
0.01557437*Y0Y1Z9
0.01557437*X0X1Z2Z9
0.03056235*Y0Y1Z7X8X9
0.03056235*X0X1Z2Z7X8X9
0.03056235*Y0Y1Y8Y9
0.03056235*X0X1Z2Y8Y9
-0.00467319*Y0Y1Z5X6X7X8X9
-0.00467319*X0X1Z2Z5X6X7X8X9
-0.00467319*Y0Y1Y6X7X8Y9
-0.00467319*X0X1Z2Y6X7X8Y9
0.05119346*Z0Z1Z9
-0.01603448*Z0Z1Z7X8X9
-0.01603448*Z0Z1Y8Y9
0.00594730*Z0Z1Z5X6X7X8X9
0.00594730*Z0Z1Y6X7X8Y9
0.02828339*X0Z8X9
-0.02828339*X0Z1Z8X9
-0.02828339*X0X9
0.02828339*X0Z1X9
0.00887304*X0Z6X7X8X9
-0.00887304*X0Z1Z6X7X8X9
0.00887304*X0Y7X8Y9
-0.00887304*X0Z1Y7X8Y9
-0.00038581*X0X5X6X7X8X9
0.00038581*X0Z1X5X6X7X8X9
0.00038581*X0Y5X6X7X8Y9
-0.00038581*X0Z1Y5X6X7X8Y9
0.06805344*Z0Z9
0.01525416*Z0Z7X8X9
0.01525416*Z0Y8Y9
0.00309310*Z0Z5X6X7X8X9
0.00309310*Z0Y6X7X8Y9
0.02432964*Z7Z9
-0.00132312*Z5X6X7Z9
-0.00132312*Y6Y7Z8Z9
0.03182553*Z6Z7Z8Z9
0.00091966*X5X6Z7Z8Z9
-0.00091966*Y5Y6Z8Z9
0.03507346*Z5Z6Z8Z9
-0.03499386*Z5Z8Z9
-0.00998019*Z6Y7Y8Z9
-0.00998019*X7X8
-0.00004766*X5X6Y7Y8Z9
-0.00004766*Y5X6Y7X8
-0.01156316*Z5X6X8Z9
0.00739878*X6Z7X8Z9
-0.00416439*Z5Y6Y8Z9
-0.00416439*Y6Y8
0.00739878*Z5X6Z7X8
-0.01156316*X6X8
-0.01026035*X5Z6Z7X8Z9
-0.00776526*X5Z7X8Z9
-0.00249509*Y5Y8Z9
0.00249509*Y5Z6Z7Y8
0.00776526*X5Z6X8
0.01026035*X5X8
-0.00658142*X5Y6Y7X8Z9
0.00658142*Y5Y6Y7Y8
0.00122883*Z5X7X8Z9
0.00122883*Z5Z6Y7Y8
-0.00627603*Z5Z6X7X8Z9
-0.00627603*Z5Y7Y8
-0.00054882*Y5Y6X7X8Z9
-0.00054882*X5Y6X7Y8
-0.05042583*Z4Z8Z9
-0.01062558*Z4Z6X7X8Z9
-0.01062558*Z4Y7Y8
-0.00316624*Z4X5X6X7X8Z9
0.00316624*Z4Y5X6X7Y8
0.02471368*X4Z7X8Z9
0.02471368*Z3X4Z7X8Z9
-0.02471368*X4X8
-0.02471368*Z3X4X8
-0.00541972*X4Z5X6X7X8Z9
-0.00541972*Z3X4Z5X6X7X8Z9
-0.00541972*X4Y6X7Y8
-0.00541972*Z3X4Y6X7Y8
-0.01568520*Y3Y4Z8Z9
0.01568520*Z2X3X4Z8Z9
0.01012911*Y3Y4Z6X7X8Z9
-0.01012911*Z2X3X4Z6X7X8Z9
0.01012911*Y3Y4Y7Y8
-0.01012911*Z2X3X4Y7Y8
-0.00462810*Y3Y4X5X6X7X8Z9
0.00462810*Z2X3X4X5X6X7X8Z9
0.00462810*Y3Y4Y5X6X7Y8
-0.00462810*Z2X3X4Y5X6X7Y8
0.00378928*Y2X3Y4Z7X8Z9
-0.00378928*Z1X2X3X4Z7X8Z9
-0.00378928*Y2X3Y4X8
0.00378928*Z1X2X3X4X8
0.01732024*Y2X3Y4Z5X6X7X8Z9
-0.01732024*Z1X2X3X4Z5X6X7X8Z9
0.01732024*Y2X3Y4Y6X7Y8
-0.01732024*Z1X2X3X4Y6X7Y8
0.00589776*Y1X2X3Y4Z8Z9
-0.00589776*Z0X1X2X3X4Z8Z9
0.01481508*Y1X2X3Y4Z6X7X8Z9
-0.01481508*Z0X1X2X3X4Z6X7X8Z9
0.01481508*Y1X2X3Y4Y7Y8
-0.01481508*Z0X1X2X3X4Y7Y8
0.01664095*Y1X2X3Y4X5X6X7X8Z9
-0.01664095*Z0X1X2X3X4X5X6X7X8Z9
-0.01664095*Y1X2X3Y4Y5X6X7Y8
0.01664095*Z0X1X2X3X4Y5X6X7Y8
0.00412158*Y0X1X2X3Y4Z7X8Z9
-0.00412158*X0X1X2X3X4Z7X8Z9
-0.00412158*Y0X1X2X3Y4X8
0.00412158*X0X1X2X3X4X8
-0.01475770*Y0X1X2X3Y4Z5X6X7X8Z9
0.01475770*X0X1X2X3X4Z5X6X7X8Z9
-0.01475770*Y0X1X2X3Y4Y6X7Y8
0.01475770*X0X1X2X3X4Y6X7Y8
0.06640256*Z3Z4Z8Z9
-0.00174586*Z3Z4Z6X7X8Z9
-0.00174586*Z3Z4Y7Y8
0.00610232*Z3Z4X5X6X7X8Z9
-0.00610232*Z3Z4Y5X6X7Y8
-0.02804927*X3Z7X8Z9
0.02804927*Z2X3Z4Z7X8Z9
0.02804927*X3X8
-0.02804927*Z2X3Z4X8
-0.00277857*X3Z5X6X7X8Z9
0.00277857*Z2X3Z4Z5X6X7X8Z9
-0.00277857*X3Y6X7Y8
0.00277857*Z2X3Z4Y6X7Y8
-0.00174586*Y2Y3Z8Z9
-0.00174586*Z1X2X3Z4Z8Z9
0.02058152*Y2Y3Z6X7X8Z9
0.02058152*Z1X2X3Z4Z6X7X8Z9
0.02058152*Y2Y3Y7Y8
0.02058152*Z1X2X3Z4Y7Y8
0.01505277*Y2Y3X5X6X7X8Z9
0.01505277*Z1X2X3Z4X5X6X7X8Z9
-0.01505277*Y2Y3Y5X6X7Y8
-0.01505277*Z1X2X3Z4Y5X6X7Y8
0.00277857*Y1X2Y3Z7X8Z9
0.00277857*Z0X1X2X3Z4Z7X8Z9
-0.00277857*Y1X2Y3X8
-0.00277857*Z0X1X2X3Z4X8
0.03247171*Y1X2Y3Z5X6X7X8Z9
0.03247171*Z0X1X2X3Z4Z5X6X7X8Z9
0.03247171*Y1X2Y3Y6X7Y8
0.03247171*Z0X1X2X3Z4Y6X7Y8
-0.00610232*Y0X1X2Y3Z8Z9
-0.00610232*X0X1X2X3Z4Z8Z9
-0.01505277*Y0X1X2Y3Z6X7X8Z9
-0.01505277*X0X1X2X3Z4Z6X7X8Z9
-0.01505277*Y0X1X2Y3Y7Y8
-0.01505277*X0X1X2X3Z4Y7Y8
-0.01690414*Y0X1X2Y3X5X6X7X8Z9
-0.01690414*X0X1X2X3Z4X5X6X7X8Z9
0.01690414*Y0X1X2Y3Y5X6X7Y8
0.01690414*X0X1X2X3Z4Y5X6X7Y8
0.05237890*Z2Z3Z8Z9
0.00059651*Z2Z3Z6X7X8Z9
0.00059651*Z2Z3Y7Y8
-0.00359343*Z2Z3X5X6X7X8Z9
0.00359343*Z2Z3Y5X6X7Y8
0.00938368*X2Z7X8Z9
-0.00938368*Z1X2Z3Z7X8Z9
-0.00938368*X2X8
0.00938368*Z1X2Z3X8
0.01668307*X2Z5X6X7X8Z9
-0.01668307*Z1X2Z3Z5X6X7X8Z9
0.01668307*X2Y6X7Y8
-0.01668307*Z1X2Z3Y6X7Y8
0.00145544*Y1Y2Z8Z9
0.00145544*Z0X1X2Z3Z8Z9
-0.02084746*Y1Y2Z6X7X8Z9
-0.02084746*Z0X1X2Z3Z6X7X8Z9
-0.02084746*Y1Y2Y7Y8
-0.02084746*Z0X1X2Z3Y7Y8
-0.01537022*Y1Y2X5X6X7X8Z9
-0.01537022*Z0X1X2Z3X5X6X7X8Z9
0.01537022*Y1Y2Y5X6X7Y8
0.01537022*Z0X1X2Z3Y5X6X7Y8
0.00364109*Y0X1Y2Z7X8Z9
0.00364109*X0X1X2Z3Z7X8Z9
-0.00364109*Y0X1Y2X8
-0.00364109*X0X1X2Z3X8
0.01786531*Y0X1Y2Z5X6X7X8Z9
0.01786531*X0X1X2Z3Z5X6X7X8Z9
0.01786531*Y0X1Y2Y6X7Y8
0.01786531*X0X1X2Z3Y6X7Y8
0.05240705*Z1Z2Z8Z9
0.00057991*Z1Z2Z6X7X8Z9
0.00057991*Z1Z2Y7Y8
-0.00393596*Z1Z2X5X6X7X8Z9
0.00393596*Z1Z2Y5X6X7Y8
0.02824624*X1Z7X8Z9
-0.02824624*Z0X1Z2Z7X8Z9
-0.02824624*X1X8
0.02824624*Z0X1Z2X8
0.00312089*X1Z5X6X7X8Z9
-0.00312089*Z0X1Z2Z5X6X7X8Z9
0.00312089*X1Y6X7Y8
-0.00312089*Z0X1Z2Y6X7Y8
-0.01597243*Y0Y1Z8Z9
-0.01597243*X0X1Z2Z8Z9
0.01051738*Y0Y1Z6X7X8Z9
0.01051738*X0X1Z2Z6X7X8Z9
0.01051738*Y0Y1Y7Y8
0.01051738*X0X1Z2Y7Y8
-0.00461421*Y0Y1X5X6X7X8Z9
-0.00461421*X0X1Z2X5X6X7X8Z9
0.00461421*Y0Y1Y5X6X7Y8
0.00461421*X0X1Z2Y5X6X7Y8
0.06754517*Z0Z1Z8Z9
-0.00189206*Z0Z1Z6X7X8Z9
-0.00189206*Z0Z1Y7Y8
0.00615456*Z0Z1X5X6X7X8Z9
-0.00615456*Z0Z1Y5X6X7Y8
-0.02563057*X0Z7X8Z9
0.02563057*X0Z1Z7X8Z9
0.02563057*X0X8
-0.02563057*X0Z1X8
0.00560574*X0Z5X6X7X8Z9
-0.00560574*X0Z1Z5X6X7X8Z9
0.00560574*X0Y6X7Y8
-0.00560574*X0Z1Y6X7Y8
0.05189800*Z0Z8Z9
0.01089024*Z0Z6X7X8Z9
0.01089024*Z0Y7Y8
0.00341637*Z0X5X6X7X8Z9
-0.00341637*Z0Y5X6X7Y8
0.03544626*Z6Z8
-0.00310878*X5X6Z8
0.00310878*Y5Y6Z7Z8
0.03205029*Z5Z6Z7Z8
-0.03597026*Z5Z7Z8
0.01024095*Z5Y6Y7Z8
0.01024095*X6X7
0.00826001*X5X7Z8
0.00172103*X5Z6X7Z8
0.00653899*Y5Y7Z8
-0.00653899*Y5Y7
-0.00172103*X5Z6X7
-0.00826001*X5X7
0.00212731*X6X7Z8
0.00212731*Z5Y6Y7
-0.06134774*Z4Z7Z8
0.01096324*Z4Z5X6X7Z8
0.01096324*Z4Y6Y7
-0.01181794*X4Z6X7Z8
-0.01181794*Z3X4Z6X7Z8
0.01181794*X4X7
0.01181794*Z3X4X7
0.00880239*X4X5X6X7Z8
0.00880239*Z3X4X5X6X7Z8
-0.00880239*X4Y5X6Y7
-0.00880239*Z3X4Y5X6Y7
0.00916394*Y3Y4Z7Z8
-0.00916394*Z2X3X4Z7Z8
-0.01017296*Y3Y4Z5X6X7Z8
0.01017296*Z2X3X4Z5X6X7Z8
-0.01017296*Y3Y4Y6Y7
0.01017296*Z2X3X4Y6Y7
0.00644680*Y2X3Y4Z6X7Z8
-0.00644680*Z1X2X3X4Z6X7Z8
-0.00644680*Y2X3Y4X7
0.00644680*Z1X2X3X4X7
-0.02649493*Y2X3Y4X5X6X7Z8
0.02649493*Z1X2X3X4X5X6X7Z8
0.02649493*Y2X3Y4Y5X6Y7
-0.02649493*Z1X2X3X4Y5X6Y7
-0.00381337*Y1X2X3Y4Z7Z8
0.00381337*Z0X1X2X3X4Z7Z8
-0.01505703*Y1X2X3Y4Z5X6X7Z8
0.01505703*Z0X1X2X3X4Z5X6X7Z8
-0.01505703*Y1X2X3Y4Y6Y7
0.01505703*Z0X1X2X3X4Y6Y7
0.02194251*Y0X1X2X3Y4Z6X7Z8
-0.02194251*X0X1X2X3X4Z6X7Z8
-0.02194251*Y0X1X2X3Y4X7
0.02194251*X0X1X2X3X4X7
-0.00901150*Y0X1X2X3Y4X5X6X7Z8
0.00901150*X0X1X2X3X4X5X6X7Z8
0.00901150*Y0X1X2X3Y4Y5X6Y7
-0.00901150*X0X1X2X3X4Y5X6Y7
0.05237890*Z3Z4Z7Z8
0.00145544*Z3Z4Z5X6X7Z8
0.00145544*Z3Z4Y6Y7
0.00938368*X3Z6X7Z8
-0.00938368*Z2X3Z4Z6X7Z8
-0.00938368*X3X7
0.00938368*Z2X3Z4X7
0.00364109*X3X5X6X7Z8
-0.00364109*Z2X3Z4X5X6X7Z8
-0.00364109*X3Y5X6Y7
0.00364109*Z2X3Z4Y5X6Y7
0.00059651*Y2Y3Z7Z8
0.00059651*Z1X2X3Z4Z7Z8
-0.02084746*Y2Y3Z5X6X7Z8
-0.02084746*Z1X2X3Z4Z5X6X7Z8
-0.02084746*Y2Y3Y6Y7
-0.02084746*Z1X2X3Z4Y6Y7
-0.01668307*Y1X2Y3Z6X7Z8
-0.01668307*Z0X1X2X3Z4Z6X7Z8
0.01668307*Y1X2Y3X7
0.01668307*Z0X1X2X3Z4X7
-0.01786531*Y1X2Y3X5X6X7Z8
-0.01786531*Z0X1X2X3Z4X5X6X7Z8
0.01786531*Y1X2Y3Y5X6Y7
0.01786531*Z0X1X2X3Z4Y5X6Y7
0.00359343*Y0X1X2Y3Z7Z8
0.00359343*X0X1X2X3Z4Z7Z8
0.01537022*Y0X1X2Y3Z5X6X7Z8
0.01537022*X0X1X2X3Z4Z5X6X7Z8
0.01537022*Y0X1X2Y3Y6Y7
0.01537022*X0X1X2X3Z4Y6Y7
0.06118281*Z2Z3Z7Z8
-0.00087910*Z2Z3Z5X6X7Z8
-0.00087910*Z2Z3Y6Y7
-0.02612126*X2Z6X7Z8
0.02612126*Z1X2Z3Z6X7Z8
0.02612126*X2X7
-0.02612126*Z1X2Z3X7
0.00626234*X2X5X6X7Z8
-0.00626234*Z1X2Z3X5X6X7Z8
-0.00626234*X2Y5X6Y7
0.00626234*Z1X2Z3Y5X6Y7
-0.00087910*Y1Y2Z7Z8
-0.00087910*Z0X1X2Z3Z7Z8
0.02120949*Y1Y2Z5X6X7Z8
0.02120949*Z0X1X2Z3Z5X6X7Z8
0.02120949*Y1Y2Y6Y7
0.02120949*Z0X1X2Z3Y6Y7
0.00626234*Y0X1Y2Z6X7Z8
0.00626234*X0X1X2Z3Z6X7Z8
-0.00626234*Y0X1Y2X7
-0.00626234*X0X1X2Z3X7
-0.02689797*Y0X1Y2X5X6X7Z8
-0.02689797*X0X1X2Z3X5X6X7Z8
0.02689797*Y0X1Y2Y5X6Y7
0.02689797*X0X1X2Z3Y5X6Y7
0.06156751*Z1Z2Z7Z8
-0.00072812*Z1Z2Z5X6X7Z8
-0.00072812*Z1Z2Y6Y7
-0.00951284*X1Z6X7Z8
0.00951284*Z0X1Z2Z6X7Z8
0.00951284*X1X7
-0.00951284*Z0X1Z2X7
-0.00402268*X1X5X6X7Z8
0.00402268*Z0X1Z2X5X6X7Z8
0.00402268*X1Y5X6Y7
-0.00402268*Z0X1Z2Y5X6Y7
0.00937112*Y0Y1Z7Z8
0.00937112*X0X1Z2Z7Z8
-0.01056167*Y0Y1Z5X6X7Z8
-0.01056167*X0X1Z2Z5X6X7Z8
-0.01056167*Y0Y1Y6Y7
-0.01056167*X0X1Z2Y6Y7
0.05325978*Z0Z1Z7Z8
0.00160600*Z0Z1Z5X6X7Z8
0.00160600*Z0Z1Y6Y7
0.01228269*X0Z6X7Z8
-0.01228269*X0Z1Z6X7Z8
-0.01228269*X0X7
0.01228269*X0Z1X7
-0.00916351*X0X5X6X7Z8
0.00916351*X0Z1X5X6X7Z8
0.00916351*X0Y5X6Y7
-0.00916351*X0Z1Y5X6Y7
0.06286823*Z0Z7Z8
-0.01129082*Z0Z5X6X7Z8
-0.01129082*Z0Y6Y7
0.02475354*Z5Z7
-0.03199015*Z5Z6Z7
0.00932689*Y5Y6Z7
-0.00932689*X5X6
-0.06181399*Z4Z6Z7
0.01557437*Z4X5X6Z7
-0.01557437*Z4Y5Y6
-0.02480259*X4Z5X6Z7
-0.02480259*Z3X4Z5X6Z7
0.02480259*X4X6
0.02480259*Z3X4X6
0.00958276*Y3Y4Z6Z7
-0.00958276*Z2X3X4Z6Z7
-0.03056235*Y3Y4X5X6Z7
0.03056235*Z2X3X4X5X6Z7
0.03056235*Y3Y4Y5Y6
-0.03056235*Z2X3X4Y5Y6
-0.00406413*Y2X3Y4Z5X6Z7
0.00406413*Z1X2X3X4Z5X6Z7
0.00406413*Y2X3Y4X6
-0.00406413*Z1X2X3X4X6
-0.00404840*Y1X2X3Y4Z6Z7
0.00404840*Z0X1X2X3X4Z6Z7
0.00467319*Y1X2X3Y4X5X6Z7
-0.00467319*Z0X1X2X3X4X5X6Z7
-0.00467319*Y1X2X3Y4Y5Y6
0.00467319*Z0X1X2X3X4Y5Y6
-0.00413475*Y0X1X2X3Y4Z5X6Z7
0.00413475*X0X1X2X3X4Z5X6Z7
0.00413475*Y0X1X2X3Y4X6
-0.00413475*X0X1X2X3X4X6
0.05240705*Z3Z4Z6Z7
0.01597243*Z3Z4X5X6Z7
-0.01597243*Z3Z4Y5Y6
0.02824624*X3Z5X6Z7
-0.02824624*Z2X3Z4Z5X6Z7
-0.02824624*X3X6
0.02824624*Z2X3Z4X6
0.00057991*Y2Y3Z6Z7
0.00057991*Z1X2X3Z4Z6Z7
-0.01051738*Y2Y3X5X6Z7
-0.01051738*Z1X2X3Z4X5X6Z7
0.01051738*Y2Y3Y5Y6
0.01051738*Z1X2X3Z4Y5Y6
-0.00312089*Y1X2Y3Z5X6Z7
-0.00312089*Z0X1X2X3Z4Z5X6Z7
0.00312089*Y1X2Y3X6
0.00312089*Z0X1X2X3Z4X6
0.00393596*Y0X1X2Y3Z6Z7
0.00393596*X0X1X2X3Z4Z6Z7
-0.00461421*Y0X1X2Y3X5X6Z7
-0.00461421*X0X1X2X3Z4X5X6Z7
0.00461421*Y0X1X2Y3Y5Y6
0.00461421*X0X1X2X3Z4Y5Y6
0.06156751*Z2Z3Z6Z7
-0.00937112*Z2Z3X5X6Z7
0.00937112*Z2Z3Y5Y6
-0.00951284*X2Z5X6Z7
0.00951284*Z1X2Z3Z5X6Z7
0.00951284*X2X6
-0.00951284*Z1X2Z3X6
-0.00072812*Y1Y2Z6Z7
-0.00072812*Z0X1X2Z3Z6Z7
0.01056167*Y1Y2X5X6Z7
0.01056167*Z0X1X2Z3X5X6Z7
-0.01056167*Y1Y2Y5Y6
-0.01056167*Z0X1X2Z3Y5Y6
-0.00402268*Y0X1Y2Z5X6Z7
-0.00402268*X0X1X2Z3Z5X6Z7
0.00402268*Y0X1Y2X6
0.00402268*X0X1X2Z3X6
0.06222493*Z1Z2Z6Z7
-0.00983296*Z1Z2X5X6Z7
0.00983296*Z1Z2Y5Y6
-0.02861881*X1Z5X6Z7
0.02861881*Z0X1Z2Z5X6Z7
0.02861881*X1X6
-0.02861881*Z0X1Z2X6
0.00983296*Y0Y1Z6Z7
0.00983296*X0X1Z2Z6Z7
-0.03140748*Y0Y1X5X6Z7
-0.03140748*X0X1Z2X5X6Z7
0.03140748*Y0Y1Y5Y6
0.03140748*X0X1Z2Y5Y6
0.05337235*Z0Z1Z6Z7
0.01644850*Z0Z1X5X6Z7
-0.01644850*Z0Z1Y5Y6
0.02577539*X0Z5X6Z7
-0.02577539*X0Z1Z5X6Z7
-0.02577539*X0X6
0.02577539*X0Z1X6
0.06339763*Z0Z6Z7
-0.01573059*Z0X5X6Z7
0.01573059*Z0Y5Y6
-0.02336910*Z6
-0.05119346*Z4Z5Z6
-0.02828339*X4X5Z6
-0.02828339*Z3X4X5Z6
-0.02828339*X4X5
-0.02828339*Z3X4X5
-0.01603448*Y3Y4Z5Z6
0.01603448*Z2X3X4Z5Z6
0.00887304*Y2X3Y4X5Z6
-0.00887304*Z1X2X3X4X5Z6
0.00887304*Y2X3Y4X5
-0.00887304*Z1X2X3X4X5
0.00594730*Y1X2X3Y4Z5Z6
-0.00594730*Z0X1X2X3X4Z5Z6
0.00038581*Y0X1X2X3Y4X5Z6
-0.00038581*X0X1X2X3X4X5Z6
0.00038581*Y0X1X2X3Y4X5
-0.00038581*X0X1X2X3X4X5
0.06754517*Z3Z4Z5Z6
0.02563057*X3X5Z6
-0.02563057*Z2X3Z4X5Z6
0.02563057*X3X5
-0.02563057*Z2X3Z4X5
-0.00189206*Y2Y3Z5Z6
-0.00189206*Z1X2X3Z4Z5Z6
0.00560574*Y1X2Y3X5Z6
0.00560574*Z0X1X2X3Z4X5Z6
0.00560574*Y1X2Y3X5
0.00560574*Z0X1X2X3Z4X5
-0.00615456*Y0X1X2Y3Z5Z6
-0.00615456*X0X1X2X3Z4Z5Z6
0.05325978*Z2Z3Z5Z6
-0.01228269*X2X5Z6
0.01228269*Z1X2Z3X5Z6
-0.01228269*X2X5
0.01228269*Z1X2Z3X5
0.00160600*Y1Y2Z5Z6
0.00160600*Z0X1X2Z3Z5Z6
0.00916351*Y0X1Y2X5Z6
0.00916351*X0X1X2Z3X5Z6
0.00916351*Y0X1Y2X5
0.00916351*X0X1X2Z3X5
0.05337235*Z1Z2Z5Z6
-0.02577539*X1X5Z6
0.02577539*Z0X1Z2X5Z6
-0.02577539*X1X5
0.02577539*Z0X1Z2X5
-0.01644850*Y0Y1Z5Z6
-0.01644850*X0X1Z2Z5Z6
0.06893900*Z0Z1Z5Z6
0.02945369*X0X5Z6
-0.02945369*X0Z1X5Z6
0.02945369*X0X5
-0.02945369*X0Z1X5
0.05282279*Z0Z5Z6
0.06805344*Z4Z5
-0.01525416*Y3Y4Z5
0.01525416*Z2X3X4Z5
-0.00309310*Y1X2X3Y4Z5
0.00309310*Z0X1X2X3X4Z5
-0.05189800*Z3Z4Z5
-0.01089024*Y2Y3Z5
-0.01089024*Z1X2X3Z4Z5
0.00341637*Y0X1X2Y3Z5
0.00341637*X0X1X2X3Z4Z5
-0.06286823*Z2Z3Z5
0.01129082*Y1Y2Z5
0.01129082*Z0X1X2Z3Z5
-0.06339763*Z1Z2Z5
-0.01573059*Y0Y1Z5
-0.01573059*X0X1Z2Z5
-0.05282279*Z0Z1Z5
-0.06993520*Z0Z5
-0.02310074*Z3
-0.00204352*Z1X2X3
-0.00204352*Y2Y3Z4
0.00352308*X0X1X2X3
0.00352308*Y0X1X2Y3Z4
-0.03144593*Z2Z3Z4
0.00626668*Z0X1X2Z3Z4
0.00626668*Y1Y2Z4
-0.03559647*Z1Z2Z4
-0.00634180*X0X1Z2Z4
-0.00634180*Y0Y1Z4
-0.03475563*Z0Z1Z4
-0.04374232*Z0Z4
0.00902848*Z2Y3Y4
-0.00902848*X3X4
0.00047804*Z0X1X2Y3Y4
0.00047804*Y1X2Y3X4
-0.00802866*Z1X2X4
0.00168883*X2Z3X4
-0.00633983*Z1Y2Y4
0.00633983*Y2Y4
-0.00168883*Z1X2Z3X4
0.00802866*X2X4
-0.00468081*X0X1X2X4
-0.00417429*Y0X1Y2Z3X4
-0.00050653*X0X1Y2Y4
0.00050653*Y0X1X2Y4
-0.00417429*X0X1X2Z3X4
-0.00468081*Y0X1Y2X4
-0.00998752*Z0X1Z2Z3X4
0.00748236*X1Z3X4
-0.00250516*Z0Y1Y4
0.00250516*Y1Z2Z3Y4
-0.00748236*Z0X1Z2X4
0.00998752*X1X4
0.01352570*X0Z1Z3X4
-0.01164245*X0Z3X4
0.00188325*Y0Y4
-0.00188325*Y0Z1Z3Y4
0.01164245*X0Z1X4
-0.01352570*X0X4
0.00635959*Z0X1Y2Y3X4
-0.00635959*Y1Y2Y3Y4
-0.00313596*Z1X3X4
0.00313596*Z1Z2Y3Y4
-0.00861984*X0X1X3X4
-0.00406742*Y0Y1Z2X3X4
-0.00455242*X0Y1Y3X4
0.00455242*Y0X1X3Y4
0.00406742*X0X1Z2Y3Y4
0.00861984*Y0Y1Y3Y4
0.00097745*Z0Z1Z2X3X4
-0.00097745*Z0Z1Y3Y4
-0.00624266*Z0Z2X3X4
0.00624266*Z0Y3Y4
0.00001573*Z0Y1Y2X3X4
0.00001573*X1Y2X3Y4
0.00473828*X0X2X3X4
-0.00419984*X0Z1X2X3X4
0.00053844*Y0Y2X3X4
-0.00053844*Y0X2X3Y4
-0.00419984*X0Z1Y2X3Y4
0.00473828*X0Y2X3Y4
-0.00347891*X1X2X3X4
0.00347891*Z0Y1X2X3Y4
0.02432964*Z2Z4
-0.00132312*Z0X1X2Z4
-0.00132312*Y1Y2Z3Z4
0.03182553*Z1Z2Z3Z4
-0.00091966*X0X1Z2Z3Z4
-0.00091966*Y0Y1Z3Z4
0.03507346*Z0Z1Z3Z4
0.03499386*Z0Z3Z4
-0.00998019*Z1Y2Y3Z4
-0.00998019*X2X3
0.00004766*X0X1Y2Y3Z4
-0.00004766*Y0X1Y2X3
-0.01156316*Z0X1X3Z4
0.00739878*X1Z2X3Z4
-0.00416439*Z0Y1Y3Z4
-0.00416439*Y1Y3
0.00739878*Z0X1Z2X3
-0.01156316*X1X3
0.01026035*X0Z1Z2X3Z4
-0.00776526*X0Z2X3Z4
0.00249509*Y0Y3Z4
0.00249509*Y0Z1Z2Y3
-0.00776526*X0Z1X3
0.01026035*X0X3
0.00658142*X0Y1Y2X3Z4
0.00658142*Y0Y1Y2Y3
0.00122883*Z0X2X3Z4
0.00122883*Z0Z1Y2Y3
0.00627603*Z0Z1X2X3Z4
0.00627603*Z0Y2Y3
0.00054882*Y0Y1X2X3Z4
-0.00054882*X0Y1X2Y3
0.03544626*Z1Z3
0.00310878*X0X1Z3
0.00310878*Y0Y1Z2Z3
0.03205029*Z0Z1Z2Z3
0.03597026*Z0Z2Z3
0.01024095*Z0Y1Y2Z3
0.01024095*X1X2
-0.00826001*X0X2Z3
0.00172103*X0Z1X2Z3
-0.00653899*Y0Y2Z3
-0.00653899*Y0Y2
0.00172103*X0Z1X2
-0.00826001*X0X2
-0.00212731*X1X2Z3
-0.00212731*Z0Y1Y2
0.02475354*Z0Z2
0.03199015*Z0Z1Z2
-0.00932689*Y0Y1Z2
-0.00932689*X0X1
0.02336910*Z1
