-14.16205142*I
-0.08723868*Z7
-0.04608746*Z5X6X7
-0.04608746*Y6Y7
-0.07524746*Z6Z7
0.05606893*X4X5X6Z7
0.05606893*Y4X5Y6
-0.12551913*Z5Z6
-0.23685008*Z4Z5
-0.24510259*Z4
-0.08723868*Z3
-0.04608746*Z1X2X3
-0.04608746*Y2Y3
-0.07524746*Z2Z3
0.05606893*X0X1X2Z3
0.05606893*Y0X1Y2
-0.12551913*Z1Z2
-0.23685008*Z0Z1
-0.24510259*Z0
0.04392764*Z6
-0.01031394*X4X5X6
-0.01031394*Y4X5Y6Z7
0.05006080*Z5Z6Z7
0.06938569*Z4Z5Z7
0.06881643*Z4Z7
-0.01384955*Z5Y6Y7
-0.01384955*X6X7
-0.01180508*X4X5X7
-0.00415509*Y4Y5Z6X7
-0.00764999*X4Y5Y7
-0.00764999*Y4X5Y7
0.00415509*X4X5Z6X7
0.01180508*Y4Y5X7
0.01565030*Z4X6X7
0.01565030*Z4Z5Y6Y7
0.01170713*Z4Z5X6X7
0.01170713*Z4Y6Y7
0.07824239*Z3Z7
0.00650337*Z3Z5X6X7
0.00650337*Z3Y6Y7
-0.02980811*X3Z6X7
0.02980811*Z2X3Z6X7
0.02980811*X3X7
-0.02980811*Z2X3X7
-0.00344975*X3X4X5X6X7
0.00344975*Z2X3X4X5X6X7
-0.00344975*X3Y4X5X6Y7
0.00344975*Z2X3Y4X5X6Y7
0.00650337*Y2Y3Z7
0.00650337*Z1X2X3Z7
0.02525010*Y2Y3Z5X6X7
0.02525010*Z1X2X3Z5X6X7
0.02525010*Y2Y3Y6Y7
0.02525010*Z1X2X3Y6Y7
0.01368588*Y1X2Y3Z4X5X6X7
0.01368588*Z0X1X2X3Z4X5X6X7
0.01368588*Y1X2Y3Y5X6Y7
0.01368588*Z0X1X2X3Y5X6Y7
0.00344975*Y0X1X2Y3Z6X7
0.00344975*X0X1X2X3Z6X7
-0.00344975*Y0X1X2Y3X7
-0.00344975*X0X1X2X3X7
0.01427683*Y0X1X2Y3X4X5X6X7
0.01427683*X0X1X2X3X4X5X6X7
0.01427683*Y0X1X2Y3Y4X5X6Y7
0.01427683*X0X1X2X3Y4X5X6Y7
0.07373575*Z2Z3Z7
-0.01384108*Z2Z3Z5X6X7
-0.01384108*Z2Z3Y6Y7
0.02769064*X2Z6X7
-0.02769064*Z1X2Z3Z6X7
-0.02769064*X2X7
0.02769064*Z1X2Z3X7
0.01583651*X2X4X5X6X7
-0.01583651*Z1X2Z3X4X5X6X7
0.01583651*X2Y4X5X6Y7
-0.01583651*Z1X2Z3Y4X5X6Y7
-0.00686419*Y0X1Y2Z7
-0.00686419*X0X1X2Z3Z7
-0.02348650*Y0X1Y2Z5X6X7
-0.02348650*X0X1X2Z3Z5X6X7
-0.02348650*Y0X1Y2Y6Y7
-0.02348650*X0X1X2Z3Y6Y7
0.07531090*Z1Z2Z7
-0.01001967*Z1Z2Z5X6X7
-0.01001967*Z1Z2Y6Y7
-0.01064486*X1Z4X5X6X7
0.01064486*Z0X1Z2Z4X5X6X7
-0.01064486*X1Y5X6Y7
0.01064486*Z0X1Z2Y5X6Y7
-0.02764159*Y0Y1Z6X7
-0.02764159*X0X1Z2Z6X7
0.02764159*Y0Y1X7
0.02764159*X0X1Z2X7
-0.00274079*Y0Y1X4X5X6X7
-0.00274079*X0X1Z2X4X5X6X7
-0.00274079*Y0Y1Y4X5X6Y7
-0.00274079*X0X1Z2Y4X5X6Y7
0.08307158*Z0Z1Z7
0.02629516*Z0Z1Z5X6X7
0.02629516*Z0Z1Y6Y7
0.08309327*Z0Z7
0.00896634*Z0Z5X6X7
0.00896634*Z0Y6Y7
0.04660809*Z5Z7
0.06026642*Z4Z5Z6Z7
0.05385026*Z4Z6Z7
0.01604128*X4Y5Y6Z7
-0.01604128*Y4Y5X6
0.02061658*Y4Y5X6Z7
-0.02061658*X4Y5Y6
0.07373575*Z3Z6Z7
-0.00686419*Z3X4X5X6Z7
-0.00686419*Z3Y4X5Y6
0.02769064*X3Z5X6Z7
-0.02769064*Z2X3Z5X6Z7
-0.02769064*X3X6
0.02769064*Z2X3X6
-0.01384108*Y2Y3Z6Z7
-0.01384108*Z1X2X3Z6Z7
-0.02348650*Y2Y3X4X5X6Z7
-0.02348650*Z1X2X3X4X5X6Z7
-0.02348650*Y2Y3Y4X5Y6
-0.02348650*Z1X2X3Y4X5Y6
-0.01583651*Y0X1X2Y3Z5X6Z7
-0.01583651*X0X1X2X3Z5X6Z7
0.01583651*Y0X1X2Y3X6
0.01583651*X0X1X2X3X6
0.08602515*Z2Z3Z6Z7
0.01115950*Z2Z3X4X5X6Z7
0.01115950*Z2Z3Y4X5Y6
-0.03726216*X2Z5X6Z7
0.03726216*Z1X2Z3Z5X6Z7
0.03726216*X2X6
-0.03726216*Z1X2Z3X6
0.00157875*Y1Y2Z4X5X6Z7
0.00157875*Z0X1X2Z3Z4X5X6Z7
0.00157875*Y1Y2Y5Y6
0.00157875*Z0X1X2Z3Y5Y6
0.01115950*Y0X1Y2Z6Z7
0.01115950*X0X1X2Z3Z6Z7
0.02400796*Y0X1Y2X4X5X6Z7
0.02400796*X0X1X2Z3X4X5X6Z7
0.02400796*Y0X1Y2Y4X5Y6
0.02400796*X0X1X2Z3Y4X5Y6
0.08387025*Z1Z2Z6Z7
0.00941003*Z1Z2X4X5X6Z7
0.00941003*Z1Z2Y4X5Y6
0.02545131*Y0Y1Z5X6Z7
0.02545131*X0X1Z2Z5X6Z7
-0.02545131*Y0Y1X6
-0.02545131*X0X1Z2X6
0.06184517*Z0Z1Z6Z7
-0.02329894*Z0Z1X4X5X6Z7
-0.02329894*Z0Z1Y4X5Y6
0.00268236*X0Z4X5X6Z7
-0.00268236*X0Z1Z4X5X6Z7
0.00268236*X0Y5Y6
-0.00268236*X0Z1Y5Y6
0.07785822*Z0Z6Z7
-0.01154078*Z0X4X5X6Z7
-0.01154078*Z0Y4X5Y6
0.05986301*Z4Z6
0.05214889*Z4Z5Z6
0.07531090*Z3Z5Z6
0.02764159*X3X4X5Z6
-0.02764159*Z2X3X4X5Z6
0.02764159*X3Y4Y5
-0.02764159*Z2X3Y4Y5
-0.01001967*Y2Y3Z5Z6
-0.01001967*Z1X2X3Z5Z6
0.01064486*Y1X2Y3Z4X5Z6
0.01064486*Z0X1X2X3Z4X5Z6
-0.01064486*Y1X2Y3X5
-0.01064486*Z0X1X2X3X5
-0.00274079*Y0X1X2Y3X4X5Z6
-0.00274079*X0X1X2X3X4X5Z6
-0.00274079*Y0X1X2Y3Y4Y5
-0.00274079*X0X1X2X3Y4Y5
0.08387025*Z2Z3Z5Z6
-0.02545131*X2X4X5Z6
0.02545131*Z1X2Z3X4X5Z6
-0.02545131*X2Y4Y5
0.02545131*Z1X2Z3Y4Y5
0.00941003*Y0X1Y2Z5Z6
0.00941003*X0X1X2Z3Z5Z6
0.08414761*Z1Z2Z5Z6
-0.00834205*X1Z4X5Z6
0.00834205*Z0X1Z2Z4X5Z6
0.00834205*X1X5
-0.00834205*Z0X1Z2X5
0.02657880*Y0Y1X4X5Z6
0.02657880*X0X1Z2X4X5Z6
0.02657880*Y0Y1Y4Y5
0.02657880*X0X1Z2Y4Y5
0.06820506*Z0Z1Z5Z6
0.07872769*Z0Z5Z6
0.08335561*Z5
0.08307158*Z3Z4Z5
0.02629516*Y2Y3Z4Z5
0.02629516*Z1X2X3Z4Z5
0.06184517*Z2Z3Z4Z5
-0.00268236*Y1Y2X4Z5
-0.00268236*Z0X1X2Z3X4Z5
0.00268236*Y1Y2X4
0.00268236*Z0X1X2Z3X4
-0.02329894*Y0X1Y2Z4Z5
-0.02329894*X0X1X2Z3Z4Z5
0.06820506*Z1Z2Z4Z5
0.11246476*Z0Z1Z4Z5
-0.00468077*X0X4Z5
0.00468077*X0Z1X4Z5
0.00468077*X0X4
-0.00468077*X0Z1X4
0.08803638*Z0Z4Z5
0.08309327*Z3Z4
0.00896634*Y2Y3Z4
0.00896634*Z1X2X3Z4
0.07785822*Z2Z3Z4
-0.01154078*Y0X1Y2Z4
-0.01154078*X0X1X2Z3Z4
0.07872769*Z1Z2Z4
0.08803638*Z0Z1Z4
0.09322364*Z0Z4
0.04392764*Z2
-0.01031394*X0X1X2
-0.01031394*Y0X1Y2Z3
0.05006080*Z1Z2Z3
0.06938569*Z0Z1Z3
0.06881643*Z0Z3
-0.01384955*Z1Y2Y3
-0.01384955*X2X3
-0.01180508*X0X1X3
-0.00415509*Y0Y1Z2X3
-0.00764999*X0Y1Y3
-0.00764999*Y0X1Y3
0.00415509*X0X1Z2X3
0.01180508*Y0Y1X3
0.01565030*Z0X2X3
0.01565030*Z0Z1Y2Y3
0.01170713*Z0Z1X2X3
0.01170713*Z0Y2Y3
0.04660809*Z1Z3
0.06026642*Z0Z1Z2Z3
0.05385026*Z0Z2Z3
0.01604128*X0Y1Y2Z3
-0.01604128*Y0Y1X2
0.02061658*Y0Y1X2Z3
-0.02061658*X0Y1Y2
0.05986301*Z0Z2
0.05214889*Z0Z1Z2
0.08335561*Z1
