-0.92479576*I
0.16062275*Z9
0.00172761*Z7X8X9
0.00172761*Y8Y9
0.00590227*Z5X6X7X8X9
0.00590227*Y6X7X8Y9
0.12655828*Z8Z9
0.00689204*Z6X7X8Z9
0.00689204*Y7Y8
-0.00789490*X5X6X7X8Z9
0.00789490*Y5X6X7Y8
0.06414747*Z7Z8
-0.01642615*Z5X6X7Z8
-0.01642615*Y6Y7
-0.02390988*Z6Z7
0.00707288*X5X6Z7
-0.00707288*Y5Y6
-0.13846482*Z5Z6
0.26011308*Z5
-0.16062275*Z4
-0.00172761*Z2X3X4
0.00172761*Y3Y4
-0.00590227*Z0X1X2X3X4
0.00590227*Y1X2X3Y4
0.12655828*Z3Z4
0.00689204*Z1X2X3Z4
0.00689204*Y2Y3
0.00789490*X0X1X2X3Z4
0.00789490*Y0X1X2Y3
0.06414747*Z2Z3
-0.01642615*Z0X1X2Z3
-0.01642615*Y1Y2
-0.02390988*Z1Z2
-0.00707288*X0X1Z2
-0.00707288*Y0Y1
-0.13846482*Z0Z1
-0.26011308*Z0
0.04539795*Z8
0.00586952*Z6X7X8
0.00586952*Y7Y8Z9
0.00218327*X5X6X7X8
-0.00218327*Y5X6X7Y8Z9
0.05686258*Z7Z8Z9
0.01080036*Z5X6X7Z8Z9
0.01080036*Y6Y7Z9
0.06363444*Z6Z7Z9
-0.01176538*X5X6Z7Z9
0.01176538*Y5Y6Z9
0.06683422*Z5Z6Z9
-0.08414929*Z5Z9
0.01618045*Z7Y8Y9
0.01618045*X8X9
0.00130192*Z5X6X7Y8Y9
-0.00130192*Y6X7Y8X9
-0.01527286*Z6X7X9
0.00497853*X7Z8X9
-0.01029433*Z6Y7Y9
-0.01029433*Y7Y9
0.00497853*Z6X7Z8X9
-0.01527286*X7X9
0.00617472*X5X6X7X9
-0.00471492*Y5X6Y7Z8X9
0.00145980*X5X6Y7Y9
-0.00145980*Y5X6X7Y9
-0.00471492*X5X6X7Z8X9
0.00617472*Y5X6Y7X9
0.01733669*Z5X6Z7Z8X9
-0.01200465*X6Z8X9
0.00533204*Z5Y6Y9
0.00533204*Y6Z7Z8Y9
-0.01200465*Z5X6Z7X9
0.01733669*X6X9
0.02352379*X5Z6Z8X9
0.02002222*X5Z8X9
0.00350157*Y5Y9
-0.00350157*Y5Z6Z8Y9
-0.02002222*X5Z6X9
-0.02352379*X5X9
-0.01062906*Z5X6Y7Y8X9
-0.01062906*Y6Y7Y8Y9
-0.00295093*Z6X8X9
-0.00295093*Z6Z7Y8Y9
0.01380252*X5X6X8X9
-0.00620706*Y5Y6Z7X8X9
0.00759545*X5Y6Y8X9
-0.00759545*Y5X6X8Y9
0.00620706*X5X6Z7Y8Y9
-0.01380252*Y5Y6Y8Y9
0.00014898*Z5Z6Z7X8X9
0.00014898*Z5Z6Y8Y9
0.01241845*Z5Z7X8X9
0.01241845*Z5Y8Y9
0.00015631*Z5Y6Y7X8X9
-0.00015631*X6Y7X8Y9
0.00665147*X5X7X8X9
0.00491774*X5Z6X7X8X9
0.00173373*Y5Y7X8X9
-0.00173373*Y5X7X8Y9
0.00491774*X5Z6Y7X8Y9
0.00665147*X5Y7X8Y9
-0.00212135*X6X7X8X9
-0.00212135*Z5Y6X7X8Y9
-0.09681861*Z4Z9
0.01853971*Z4Z7X8X9
0.01853971*Z4Y8Y9
-0.00159393*Z4Z5X6X7X8X9
-0.00159393*Z4Y6X7X8Y9
-0.03213868*X4Z8X9
-0.03213868*Z3X4Z8X9
0.03213868*X4X9
0.03213868*Z3X4X9
-0.01202673*X4Z6X7X8X9
-0.01202673*Z3X4Z6X7X8X9
-0.01202673*X4Y7X8Y9
-0.01202673*Z3X4Y7X8Y9
0.00029629*X4X5X6X7X8X9
0.00029629*Z3X4X5X6X7X8X9
-0.00029629*X4Y5X6X7X8Y9
-0.00029629*Z3X4Y5X6X7X8Y9
-0.01853971*Y3Y4Z9
0.01853971*Z2X3X4Z9
0.02602826*Y3Y4Z7X8X9
-0.02602826*Z2X3X4Z7X8X9
0.02602826*Y3Y4Y8Y9
-0.02602826*Z2X3X4Y8Y9
0.00771566*Y3Y4Z5X6X7X8X9
-0.00771566*Z2X3X4Z5X6X7X8X9
0.00771566*Y3Y4Y6X7X8Y9
-0.00771566*Z2X3X4Y6X7X8Y9
0.01202673*Y2X3Y4Z8X9
-0.01202673*Z1X2X3X4Z8X9
-0.01202673*Y2X3Y4X9
0.01202673*Z1X2X3X4X9
0.02032176*Y2X3Y4Z6X7X8X9
-0.02032176*Z1X2X3X4Z6X7X8X9
0.02032176*Y2X3Y4Y7X8Y9
-0.02032176*Z1X2X3X4Y7X8Y9
-0.00748121*Y2X3Y4X5X6X7X8X9
0.00748121*Z1X2X3X4X5X6X7X8X9
0.00748121*Y2X3Y4Y5X6X7X8Y9
-0.00748121*Z1X2X3X4Y5X6X7X8Y9
0.00159393*Y1X2X3Y4Z9
-0.00159393*Z0X1X2X3X4Z9
0.00771566*Y1X2X3Y4Z7X8X9
-0.00771566*Z0X1X2X3X4Z7X8X9
0.00771566*Y1X2X3Y4Y8Y9
-0.00771566*Z0X1X2X3X4Y8Y9
0.01388984*Y1X2X3Y4Z5X6X7X8X9
-0.01388984*Z0X1X2X3X4Z5X6X7X8X9
0.01388984*Y1X2X3Y4Y6X7X8Y9
-0.01388984*Z0X1X2X3X4Y6X7X8Y9
0.00029629*Y0X1X2X3Y4Z8X9
-0.00029629*X0X1X2X3X4Z8X9
-0.00029629*Y0X1X2X3Y4X9
0.00029629*X0X1X2X3X4X9
0.00748121*Y0X1X2X3Y4Z6X7X8X9
-0.00748121*X0X1X2X3X4Z6X7X8X9
0.00748121*Y0X1X2X3Y4Y7X8Y9
-0.00748121*X0X1X2X3X4Y7X8Y9
-0.01818561*Y0X1X2X3Y4X5X6X7X8X9
0.01818561*X0X1X2X3X4X5X6X7X8X9
0.01818561*Y0X1X2X3Y4Y5X6X7X8Y9
-0.01818561*X0X1X2X3X4Y5X6X7X8Y9
0.07753663*Z3Z4Z9
0.00846026*Z3Z4Z7X8X9
0.00846026*Z3Z4Y8Y9
0.00866169*Z3Z4Z5X6X7X8X9
0.00866169*Z3Z4Y6X7X8Y9
-0.02464071*X3Z8X9
0.02464071*Z2X3Z4Z8X9
0.02464071*X3X9
-0.02464071*Z2X3Z4X9
0.00426069*X3Z6X7X8X9
-0.00426069*Z2X3Z4Z6X7X8X9
0.00426069*X3Y7X8Y9
-0.00426069*Z2X3Z4Y7X8Y9
-0.00599368*X3X5X6X7X8X9
0.00599368*Z2X3Z4X5X6X7X8X9
0.00599368*X3Y5X6X7X8Y9
-0.00599368*Z2X3Z4Y5X6X7X8Y9
0.01789625*Y2Y3Z9
0.01789625*Z1X2X3Z4Z9
-0.01455501*Y2Y3Z7X8X9
-0.01455501*Z1X2X3Z4Z7X8X9
-0.01455501*Y2Y3Y8Y9
-0.01455501*Z1X2X3Z4Y8Y9
0.00788604*Y2Y3Z5X6X7X8X9
0.00788604*Z1X2X3Z4Z5X6X7X8X9
0.00788604*Y2Y3Y6X7X8Y9
0.00788604*Z1X2X3Z4Y6X7X8Y9
0.00996361*Y1X2Y3Z8X9
0.00996361*Z0X1X2X3Z4Z8X9
-0.00996361*Y1X2Y3X9
-0.00996361*Z0X1X2X3Z4X9
0.01321808*Y1X2Y3Z6X7X8X9
0.01321808*Z0X1X2X3Z4Z6X7X8X9
0.01321808*Y1X2Y3Y7X8Y9
0.01321808*Z0X1X2X3Z4Y7X8Y9
0.00960045*Y1X2Y3X5X6X7X8X9
0.00960045*Z0X1X2X3Z4X5X6X7X8X9
-0.00960045*Y1X2Y3Y5X6X7X8Y9
-0.00960045*Z0X1X2X3Z4Y5X6X7X8Y9
-0.00188698*Y0X1X2Y3Z9
-0.00188698*X0X1X2X3Z4Z9
-0.00745348*Y0X1X2Y3Z7X8X9
-0.00745348*X0X1X2X3Z4Z7X8X9
-0.00745348*Y0X1X2Y3Y8Y9
-0.00745348*X0X1X2X3Z4Y8Y9
-0.01310202*Y0X1X2Y3Z5X6X7X8X9
-0.01310202*X0X1X2X3Z4Z5X6X7X8X9
-0.01310202*Y0X1X2Y3Y6X7X8Y9
-0.01310202*X0X1X2X3Z4Y6X7X8Y9
0.08289083*Z2Z3Z9
-0.00556148*Z2Z3Z7X8X9
-0.00556148*Z2Z3Y8Y9
-0.00432409*Z2Z3Z5X6X7X8X9
-0.00432409*Z2Z3Y6X7X8Y9
0.01953355*X2Z8X9
-0.01953355*Z1X2Z3Z8X9
-0.01953355*X2X9
0.01953355*Z1X2Z3X9
0.00267387*X2Z6X7X8X9
-0.00267387*Z1X2Z3Z6X7X8X9
0.00267387*X2Y7X8Y9
-0.00267387*Z1X2Z3Y7X8Y9
-0.01178586*X2X5X6X7X8X9
0.01178586*Z1X2Z3X5X6X7X8X9
0.01178586*X2Y5X6X7X8Y9
-0.01178586*Z1X2Z3Y5X6X7X8Y9
0.01851602*Y1Y2Z9
0.01851602*Z0X1X2Z3Z9
-0.01495316*Y1Y2Z7X8X9
-0.01495316*Z0X1X2Z3Z7X8X9
-0.01495316*Y1Y2Y8Y9
-0.01495316*Z0X1X2Z3Y8Y9
0.00676185*Y1Y2Z5X6X7X8X9
0.00676185*Z0X1X2Z3Z5X6X7X8X9
0.00676185*Y1Y2Y6X7X8Y9
0.00676185*Z0X1X2Z3Y6X7X8Y9
-0.01216840*Y0X1Y2Z8X9
-0.01216840*X0X1X2Z3Z8X9
0.01216840*Y0X1Y2X9
0.01216840*X0X1X2Z3X9
-0.01938131*Y0X1Y2Z6X7X8X9
-0.01938131*X0X1X2Z3Z6X7X8X9
-0.01938131*Y0X1Y2Y7X8Y9
-0.01938131*X0X1X2Z3Y7X8Y9
0.00719617*Y0X1Y2X5X6X7X8X9
0.00719617*X0X1X2Z3X5X6X7X8X9
-0.00719617*Y0X1Y2Y5X6X7X8Y9
-0.00719617*X0X1X2Z3Y5X6X7X8Y9
0.08395620*Z1Z2Z9
-0.00562480*Z1Z2Z7X8X9
-0.00562480*Z1Z2Y8Y9
-0.00280316*Z1Z2Z5X6X7X8X9
-0.00280316*Z1Z2Y6X7X8Y9
-0.02522274*X1Z8X9
0.02522274*Z0X1Z2Z8X9
0.02522274*X1X9
-0.02522274*Z0X1Z2X9
0.00264686*X1Z6X7X8X9
-0.00264686*Z0X1Z2Z6X7X8X9
0.00264686*X1Y7X8Y9
-0.00264686*Z0X1Z2Y7X8Y9
-0.00553633*X1X5X6X7X8X9
0.00553633*Z0X1Z2X5X6X7X8X9
0.00553633*X1Y5X6X7X8Y9
-0.00553633*Z0X1Z2Y5X6X7X8Y9
0.01924659*Y0Y1Z9
0.01924659*X0X1Z2Z9
-0.02558837*Y0Y1Z7X8X9
-0.02558837*X0X1Z2Z7X8X9
-0.02558837*Y0Y1Y8Y9
-0.02558837*X0X1Z2Y8Y9
-0.00727006*Y0Y1Z5X6X7X8X9
-0.00727006*X0X1Z2Z5X6X7X8X9
-0.00727006*Y0Y1Y6X7X8Y9
-0.00727006*X0X1Z2Y6X7X8Y9
0.08072406*Z0Z1Z9
0.00691083*Z0Z1Z7X8X9
0.00691083*Z0Z1Y8Y9
0.00842227*Z0Z1Z5X6X7X8X9
0.00842227*Z0Z1Y6X7X8Y9
0.03312424*X0Z8X9
-0.03312424*X0Z1Z8X9
-0.03312424*X0X9
0.03312424*X0Z1X9
0.01218780*X0Z6X7X8X9
-0.01218780*X0Z1Z6X7X8X9
0.01218780*X0Y7X8Y9
-0.01218780*X0Z1Y7X8Y9
-0.00034910*X0X5X6X7X8X9
0.00034910*X0Z1X5X6X7X8X9
0.00034910*X0Y5X6X7X8Y9
-0.00034910*X0Z1Y5X6X7X8Y9
0.10233490*Z0Z9
-0.01961462*Z0Z7X8X9
-0.01961462*Z0Y8Y9
0.00177225*Z0Z5X6X7X8X9
0.00177225*Z0Y6X7X8Y9
0.04748792*Z7Z9
0.00262217*Z5X6X7Z9
0.00262217*Y6Y7Z8Z9
0.05763550*Z6Z7Z8Z9
0.00017440*X5X6Z7Z8Z9
-0.00017440*Y5Y6Z8Z9
0.06541438*Z5Z6Z8Z9
-0.06871219*Z5Z8Z9
-0.01924495*Z6Y7Y8Z9
-0.01924495*X7X8
0.00004377*X5X6Y7Y8Z9
0.00004377*Y5X6Y7X8
0.01948483*Z5X6X8Z9
-0.00946027*X6Z7X8Z9
0.01002456*Z5Y6Y8Z9
0.01002456*Y6Y8
-0.00946027*Z5X6Z7X8
0.01948483*X6X8
0.01845811*X5Z6Z7X8Z9
0.01267378*X5Z7X8Z9
0.00578433*Y5Y8Z9
-0.00578433*Y5Z6Z7Y8
-0.01267378*X5Z6X8
-0.01845811*X5X8
-0.01167989*X5Y6Y7X8Z9
0.01167989*Y5Y6Y7Y8
0.00249523*Z5X7X8Z9
0.00249523*Z5Z6Y7Y8
-0.01179675*Z5Z6X7X8Z9
-0.01179675*Z5Y7Y8
0.00146897*Y5Y6X7X8Z9
0.00146897*X5Y6X7Y8
-0.07753663*Z4Z8Z9
-0.01789625*Z4Z6X7X8Z9
-0.01789625*Z4Y7Y8
-0.00188698*Z4X5X6X7X8Z9
0.00188698*Z4Y5X6X7Y8
-0.02464071*X4Z7X8Z9
-0.02464071*Z3X4Z7X8Z9
0.02464071*X4X8
0.02464071*Z3X4X8
-0.00996361*X4Z5X6X7X8Z9
-0.00996361*Z3X4Z5X6X7X8Z9
-0.00996361*X4Y6X7Y8
-0.00996361*Z3X4Y6X7Y8
0.00846026*Y3Y4Z8Z9
-0.00846026*Z2X3X4Z8Z9
-0.01455501*Y3Y4Z6X7X8Z9
0.01455501*Z2X3X4Z6X7X8Z9
-0.01455501*Y3Y4Y7Y8
0.01455501*Z2X3X4Y7Y8
0.00745348*Y3Y4X5X6X7X8Z9
-0.00745348*Z2X3X4X5X6X7X8Z9
-0.00745348*Y3Y4Y5X6X7Y8
0.00745348*Z2X3X4Y5X6X7Y8
-0.00426069*Y2X3Y4Z7X8Z9
0.00426069*Z1X2X3X4Z7X8Z9
0.00426069*Y2X3Y4X8
-0.00426069*Z1X2X3X4X8
0.01321808*Y2X3Y4Z5X6X7X8Z9
-0.01321808*Z1X2X3X4Z5X6X7X8Z9
0.01321808*Y2X3Y4Y6X7Y8
-0.01321808*Z1X2X3X4Y6X7Y8
0.00866169*Y1X2X3Y4Z8Z9
-0.00866169*Z0X1X2X3X4Z8Z9
0.00788604*Y1X2X3Y4Z6X7X8Z9
-0.00788604*Z0X1X2X3X4Z6X7X8Z9
0.00788604*Y1X2X3Y4Y7Y8
-0.00788604*Z0X1X2X3X4Y7Y8
0.01310202*Y1X2X3Y4X5X6X7X8Z9
-0.01310202*Z0X1X2X3X4X5X6X7X8Z9
-0.01310202*Y1X2X3Y4Y5X6X7Y8
0.01310202*Z0X1X2X3X4Y5X6X7Y8
-0.00599368*Y0X1X2X3Y4Z7X8Z9
0.00599368*X0X1X2X3X4Z7X8Z9
0.00599368*Y0X1X2X3Y4X8
-0.00599368*X0X1X2X3X4X8
-0.00960045*Y0X1X2X3Y4Z5X6X7X8Z9
0.00960045*X0X1X2X3X4Z5X6X7X8Z9
-0.00960045*Y0X1X2X3Y4Y6X7Y8
0.00960045*X0X1X2X3X4Y6X7Y8
0.08638255*Z3Z4Z8Z9
0.00181820*Z3Z4Z6X7X8Z9
0.00181820*Z3Z4Y7Y8
0.00885359*Z3Z4X5X6X7X8Z9
-0.00885359*Z3Z4Y5X6X7Y8
-0.03049236*X3Z7X8Z9
0.03049236*Z2X3Z4Z7X8Z9
0.03049236*X3X8
-0.03049236*Z2X3Z4X8
0.00034034*X3Z5X6X7X8Z9
-0.00034034*Z2X3Z4Z5X6X7X8Z9
0.00034034*X3Y6X7Y8
-0.00034034*Z2X3Z4Y6X7Y8
0.00181820*Y2Y3Z8Z9
0.00181820*Z1X2X3Z4Z8Z9
0.02110790*Y2Y3Z6X7X8Z9
0.02110790*Z1X2X3Z4Z6X7X8Z9
0.02110790*Y2Y3Y7Y8
0.02110790*Z1X2X3Z4Y7Y8
0.00705594*Y2Y3X5X6X7X8Z9
0.00705594*Z1X2X3Z4X5X6X7X8Z9
-0.00705594*Y2Y3Y5X6X7Y8
-0.00705594*Z1X2X3Z4Y5X6X7Y8
-0.00034034*Y1X2Y3Z7X8Z9
-0.00034034*Z0X1X2X3Z4Z7X8Z9
0.00034034*Y1X2Y3X8
0.00034034*Z0X1X2X3Z4X8
0.02267053*Y1X2Y3Z5X6X7X8Z9
0.02267053*Z0X1X2X3Z4Z5X6X7X8Z9
0.02267053*Y1X2Y3Y6X7Y8
0.02267053*Z0X1X2X3Z4Y6X7Y8
-0.00885359*Y0X1X2Y3Z8Z9
-0.00885359*X0X1X2X3Z4Z8Z9
-0.00705594*Y0X1X2Y3Z6X7X8Z9
-0.00705594*X0X1X2X3Z4Z6X7X8Z9
-0.00705594*Y0X1X2Y3Y7Y8
-0.00705594*X0X1X2X3Z4Y7Y8
-0.01360245*Y0X1X2Y3X5X6X7X8Z9
-0.01360245*X0X1X2X3Z4X5X6X7X8Z9
0.01360245*Y0X1X2Y3Y5X6X7Y8
0.01360245*X0X1X2X3Z4Y5X6X7Y8
0.07798027*Z2Z3Z8Z9
0.00024798*Z2Z3Z6X7X8Z9
0.00024798*Z2Z3Y7Y8
-0.00296848*Z2Z3X5X6X7X8Z9
0.00296848*Z2Z3Y5X6X7Y8
0.01899697*X2Z7X8Z9
-0.01899697*Z1X2Z3Z7X8Z9
-0.01899697*X2X8
0.01899697*Z1X2Z3X8
-0.01006320*X2Z5X6X7X8Z9
0.01006320*Z1X2Z3Z5X6X7X8Z9
-0.01006320*X2Y6X7Y8
0.01006320*Z1X2Z3Y6X7Y8
0.00228182*Y1Y2Z8Z9
0.00228182*Z0X1X2Z3Z8Z9
0.02008776*Y1Y2Z6X7X8Z9
0.02008776*Z0X1X2Z3Z6X7X8Z9
0.02008776*Y1Y2Y7Y8
0.02008776*Z0X1X2Z3Y7Y8
0.00756730*Y1Y2X5X6X7X8Z9
0.00756730*Z0X1X2Z3X5X6X7X8Z9
-0.00756730*Y1Y2Y5X6X7Y8
-0.00756730*Z0X1X2Z3Y5X6X7Y8
0.00292471*Y0X1Y2Z7X8Z9
0.00292471*X0X1X2Z3Z7X8Z9
-0.00292471*Y0X1Y2X8
-0.00292471*X0X1X2Z3X8
-0.01335163*Y0X1Y2Z5X6X7X8Z9
-0.01335163*X0X1X2Z3Z5X6X7X8Z9
-0.01335163*Y0X1Y2Y6X7Y8
-0.01335163*X0X1X2Z3Y6X7Y8
0.07874340*Z1Z2Z8Z9
0.00217549*Z1Z2Z6X7X8Z9
0.00217549*Z1Z2Y7Y8
-0.00350032*Z1Z2X5X6X7X8Z9
0.00350032*Z1Z2Y5X6X7Y8
-0.02954803*X1Z7X8Z9
0.02954803*Z0X1Z2Z7X8Z9
0.02954803*X1X8
-0.02954803*Z0X1Z2X8
-0.00000166*X1Z5X6X7X8Z9
0.00000166*Z0X1Z2Z5X6X7X8Z9
-0.00000166*X1Y6X7Y8
0.00000166*Z0X1Z2Y6X7Y8
-0.00723034*Y0Y1Z8Z9
-0.00723034*X0X1Z2Z8Z9
0.01518021*Y0Y1Z6X7X8Z9
0.01518021*X0X1Z2Z6X7X8Z9
0.01518021*Y0Y1Y7Y8
0.01518021*X0X1Z2Y7Y8
-0.00742376*Y0Y1X5X6X7X8Z9
-0.00742376*X0X1Z2X5X6X7X8Z9
0.00742376*Y0Y1Y5X6X7Y8
0.00742376*X0X1Z2Y5X6X7Y8
0.08808491*Z0Z1Z8Z9
0.00249689*Z0Z1Z6X7X8Z9
0.00249689*Z0Z1Y7Y8
0.00885916*Z0Z1X5X6X7X8Z9
-0.00885916*Z0Z1Y5X6X7Y8
0.02602541*X0Z7X8Z9
-0.02602541*X0Z1Z7X8Z9
-0.02602541*X0X8
0.02602541*X0Z1X8
0.01032813*X0Z5X6X7X8Z9
-0.01032813*X0Z1Z5X6X7X8Z9
0.01032813*X0Y6X7Y8
-0.01032813*X0Z1Y6X7Y8
0.08231463*Z0Z8Z9
0.01922051*Z0Z6X7X8Z9
0.01922051*Z0Y7Y8
0.00223673*Z0X5X6X7X8Z9
-0.00223673*Z0Y5X6X7Y8
0.05683682*Z6Z8
-0.00310822*X5X6Z8
0.00310822*Y5Y6Z7Z8
0.05966486*Z5Z6Z7Z8
-0.06797555*Z5Z7Z8
-0.02097121*Z5Y6Y7Z8
-0.02097121*X6X7
-0.01758420*X5X7Z8
-0.00526438*X5Z6X7Z8
-0.01231982*Y5Y7Z8
0.01231982*Y5Y7
0.00526438*X5Z6X7
0.01758420*X5X7
-0.00718200*X6X7Z8
-0.00718200*Z5Y6Y7
-0.08289083*Z4Z7Z8
-0.01851602*Z4Z5X6X7Z8
-0.01851602*Z4Y6Y7
0.01953355*X4Z6X7Z8
0.01953355*Z3X4Z6X7Z8
-0.01953355*X4X7
-0.01953355*Z3X4X7
-0.01216840*X4X5X6X7Z8
-0.01216840*Z3X4X5X6X7Z8
0.01216840*X4Y5X6Y7
0.01216840*Z3X4Y5X6Y7
-0.00556148*Y3Y4Z7Z8
0.00556148*Z2X3X4Z7Z8
-0.01495316*Y3Y4Z5X6X7Z8
0.01495316*Z2X3X4Z5X6X7Z8
-0.01495316*Y3Y4Y6Y7
0.01495316*Z2X3X4Y6Y7
-0.00267387*Y2X3Y4Z6X7Z8
0.00267387*Z1X2X3X4Z6X7Z8
0.00267387*Y2X3Y4X7
-0.00267387*Z1X2X3X4X7
0.01938131*Y2X3Y4X5X6X7Z8
-0.01938131*Z1X2X3X4X5X6X7Z8
-0.01938131*Y2X3Y4Y5X6Y7
0.01938131*Z1X2X3X4Y5X6Y7
-0.00432409*Y1X2X3Y4Z7Z8
0.00432409*Z0X1X2X3X4Z7Z8
0.00676185*Y1X2X3Y4Z5X6X7Z8
-0.00676185*Z0X1X2X3X4Z5X6X7Z8
0.00676185*Y1X2X3Y4Y6Y7
-0.00676185*Z0X1X2X3X4Y6Y7
-0.01178586*Y0X1X2X3Y4Z6X7Z8
0.01178586*X0X1X2X3X4Z6X7Z8
0.01178586*Y0X1X2X3Y4X7
-0.01178586*X0X1X2X3X4X7
0.00719617*Y0X1X2X3Y4X5X6X7Z8
-0.00719617*X0X1X2X3X4X5X6X7Z8
-0.00719617*Y0X1X2X3Y4Y5X6Y7
0.00719617*X0X1X2X3X4Y5X6Y7
0.07798027*Z3Z4Z7Z8
0.00228182*Z3Z4Z5X6X7Z8
0.00228182*Z3Z4Y6Y7
0.01899697*X3Z6X7Z8
-0.01899697*Z2X3Z4Z6X7Z8
-0.01899697*X3X7
0.01899697*Z2X3Z4X7
0.00292471*X3X5X6X7Z8
-0.00292471*Z2X3Z4X5X6X7Z8
-0.00292471*X3Y5X6Y7
0.00292471*Z2X3Z4Y5X6Y7
0.00024798*Y2Y3Z7Z8
0.00024798*Z1X2X3Z4Z7Z8
0.02008776*Y2Y3Z5X6X7Z8
0.02008776*Z1X2X3Z4Z5X6X7Z8
0.02008776*Y2Y3Y6Y7
0.02008776*Z1X2X3Z4Y6Y7
0.01006320*Y1X2Y3Z6X7Z8
0.01006320*Z0X1X2X3Z4Z6X7Z8
-0.01006320*Y1X2Y3X7
-0.01006320*Z0X1X2X3Z4X7
0.01335163*Y1X2Y3X5X6X7Z8
0.01335163*Z0X1X2X3Z4X5X6X7Z8
-0.01335163*Y1X2Y3Y5X6Y7
-0.01335163*Z0X1X2X3Z4Y5X6Y7
0.00296848*Y0X1X2Y3Z7Z8
0.00296848*X0X1X2X3Z4Z7Z8
-0.00756730*Y0X1X2Y3Z5X6X7Z8
-0.00756730*X0X1X2X3Z4Z5X6X7Z8
-0.00756730*Y0X1X2Y3Y6Y7
-0.00756730*X0X1X2X3Z4Y6Y7
0.08411869*Z2Z3Z7Z8
0.00226722*Z2Z3Z5X6X7Z8
0.00226722*Z2Z3Y6Y7
-0.02632410*X2Z6X7Z8
0.02632410*Z1X2Z3Z6X7Z8
0.02632410*X2X7
-0.02632410*Z1X2Z3X7
0.00288353*X2X5X6X7Z8
-0.00288353*Z1X2Z3X5X6X7Z8
-0.00288353*X2Y5X6Y7
0.00288353*Z1X2Z3Y5X6Y7
0.00226722*Y1Y2Z7Z8
0.00226722*Z0X1X2Z3Z7Z8
0.02126410*Y1Y2Z5X6X7Z8
0.02126410*Z0X1X2Z3Z5X6X7Z8
0.02126410*Y1Y2Y6Y7
0.02126410*Z0X1X2Z3Y6Y7
0.00288353*Y0X1Y2Z6X7Z8
0.00288353*X0X1X2Z3Z6X7Z8
-0.00288353*Y0X1Y2X7
-0.00288353*X0X1X2Z3X7
-0.02041277*Y0X1Y2X5X6X7Z8
-0.02041277*X0X1X2Z3X5X6X7Z8
0.02041277*Y0X1Y2Y5X6Y7
0.02041277*X0X1X2Z3Y5X6Y7
0.08316092*Z1Z2Z7Z8
0.00150008*Z1Z2Z5X6X7Z8
0.00150008*Z1Z2Y6Y7
0.01947112*X1Z6X7Z8
-0.01947112*Z0X1Z2Z6X7Z8
-0.01947112*X1X7
0.01947112*Z0X1Z2X7
0.00325214*X1X5X6X7Z8
-0.00325214*Z0X1Z2X5X6X7Z8
-0.00325214*X1Y5X6Y7
0.00325214*Z0X1Z2Y5X6Y7
0.00599175*Y0Y1Z7Z8
0.00599175*X0X1Z2Z7Z8
0.01557196*Y0Y1Z5X6X7Z8
0.01557196*X0X1Z2Z5X6X7Z8
0.01557196*Y0Y1Y6Y7
0.01557196*X0X1Z2Y6Y7
0.08092896*Z0Z1Z7Z8
0.00288753*Z0Z1Z5X6X7Z8
0.00288753*Z0Z1Y6Y7
-0.02083633*X0Z6X7Z8
0.02083633*X0Z1Z6X7Z8
0.02083633*X0X7
-0.02083633*X0Z1X7
0.01319092*X0X5X6X7Z8
-0.01319092*X0Z1X5X6X7Z8
-0.01319092*X0Y5X6Y7
0.01319092*X0Z1Y5X6Y7
0.08838832*Z0Z7Z8
0.02037292*Z0Z5X6X7Z8
0.02037292*Z0Y6Y7
0.05107719*Z5Z7
-0.06257901*Z5Z6Z7
0.01959692*Y5Y6Z7
-0.01959692*X5X6
-0.08395620*Z4Z6Z7
0.01924659*Z4X5X6Z7
-0.01924659*Z4Y5Y6
-0.02522274*X4Z5X6Z7
-0.02522274*Z3X4Z5X6Z7
0.02522274*X4X6
0.02522274*Z3X4X6
-0.00562480*Y3Y4Z6Z7
0.00562480*Z2X3X4Z6Z7
0.02558837*Y3Y4X5X6Z7
-0.02558837*Z2X3X4X5X6Z7
-0.02558837*Y3Y4Y5Y6
0.02558837*Z2X3X4Y5Y6
-0.00264686*Y2X3Y4Z5X6Z7
0.00264686*Z1X2X3X4Z5X6Z7
0.00264686*Y2X3Y4X6
-0.00264686*Z1X2X3X4X6
-0.00280316*Y1X2X3Y4Z6Z7
0.00280316*Z0X1X2X3X4Z6Z7
0.00727006*Y1X2X3Y4X5X6Z7
-0.00727006*Z0X1X2X3X4X5X6Z7
-0.00727006*Y1X2X3Y4Y5Y6
0.00727006*Z0X1X2X3X4Y5Y6
-0.00553633*Y0X1X2X3Y4Z5X6Z7
0.00553633*X0X1X2X3X4Z5X6Z7
0.00553633*Y0X1X2X3Y4X6
-0.00553633*X0X1X2X3X4X6
0.07874340*Z3Z4Z6Z7
0.00723034*Z3Z4X5X6Z7
-0.00723034*Z3Z4Y5Y6
-0.02954803*X3Z5X6Z7
0.02954803*Z2X3Z4Z5X6Z7
0.02954803*X3X6
-0.02954803*Z2X3Z4X6
0.00217549*Y2Y3Z6Z7
0.00217549*Z1X2X3Z4Z6Z7
-0.01518021*Y2Y3X5X6Z7
-0.01518021*Z1X2X3Z4X5X6Z7
0.01518021*Y2Y3Y5Y6
0.01518021*Z1X2X3Z4Y5Y6
0.00000166*Y1X2Y3Z5X6Z7
0.00000166*Z0X1X2X3Z4Z5X6Z7
-0.00000166*Y1X2Y3X6
-0.00000166*Z0X1X2X3Z4X6
0.00350032*Y0X1X2Y3Z6Z7
0.00350032*X0X1X2X3Z4Z6Z7
-0.00742376*Y0X1X2Y3X5X6Z7
-0.00742376*X0X1X2X3Z4X5X6Z7
0.00742376*Y0X1X2Y3Y5Y6
0.00742376*X0X1X2X3Z4Y5Y6
0.08316092*Z2Z3Z6Z7
-0.00599175*Z2Z3X5X6Z7
0.00599175*Z2Z3Y5Y6
0.01947112*X2Z5X6Z7
-0.01947112*Z1X2Z3Z5X6Z7
-0.01947112*X2X6
0.01947112*Z1X2Z3X6
0.00150008*Y1Y2Z6Z7
0.00150008*Z0X1X2Z3Z6Z7
-0.01557196*Y1Y2X5X6Z7
-0.01557196*Z0X1X2Z3X5X6Z7
0.01557196*Y1Y2Y5Y6
0.01557196*Z0X1X2Z3Y5Y6
0.00325214*Y0X1Y2Z5X6Z7
0.00325214*X0X1X2Z3Z5X6Z7
-0.00325214*Y0X1Y2X6
-0.00325214*X0X1X2Z3X6
0.08589705*Z1Z2Z6Z7
-0.00628774*Z1Z2X5X6Z7
0.00628774*Z1Z2Y5Y6
-0.03137504*X1Z5X6Z7
0.03137504*Z0X1Z2Z5X6Z7
0.03137504*X1X6
-0.03137504*Z0X1Z2X6
0.00628774*Y0Y1Z6Z7
0.00628774*X0X1Z2Z6Z7
-0.02760198*Y0Y1X5X6Z7
-0.02760198*X0X1Z2X5X6Z7
0.02760198*Y0Y1Y5Y6
0.02760198*X0X1Z2Y5Y6
0.08245223*Z0Z1Z6Z7
0.00759273*Z0Z1X5X6Z7
-0.00759273*Z0Z1Y5Y6
0.02718966*X0Z5X6Z7
-0.02718966*X0Z1Z5X6Z7
-0.02718966*X0X6
0.02718966*X0Z1X6
0.09018099*Z0Z6Z7
-0.02148815*Z0X5X6Z7
0.02148815*Z0Y5Y6
-0.05063687*Z6
-0.08072406*Z4Z5Z6
-0.03312424*X4X5Z6
-0.03312424*Z3X4X5Z6
-0.03312424*X4X5
-0.03312424*Z3X4X5
0.00691083*Y3Y4Z5Z6
-0.00691083*Z2X3X4Z5Z6
0.01218780*Y2X3Y4X5Z6
-0.01218780*Z1X2X3X4X5Z6
0.01218780*Y2X3Y4X5
-0.01218780*Z1X2X3X4X5
0.00842227*Y1X2X3Y4Z5Z6
-0.00842227*Z0X1X2X3X4Z5Z6
0.00034910*Y0X1X2X3Y4X5Z6
-0.00034910*X0X1X2X3X4X5Z6
0.00034910*Y0X1X2X3Y4X5
-0.00034910*X0X1X2X3X4X5
0.08808491*Z3Z4Z5Z6
-0.02602541*X3X5Z6
0.02602541*Z2X3Z4X5Z6
-0.02602541*X3X5
0.02602541*Z2X3Z4X5
0.00249689*Y2Y3Z5Z6
0.00249689*Z1X2X3Z4Z5Z6
0.01032813*Y1X2Y3X5Z6
0.01032813*Z0X1X2X3Z4X5Z6
0.01032813*Y1X2Y3X5
0.01032813*Z0X1X2X3Z4X5
-0.00885916*Y0X1X2Y3Z5Z6
-0.00885916*X0X1X2X3Z4Z5Z6
0.08092896*Z2Z3Z5Z6
0.02083633*X2X5Z6
-0.02083633*Z1X2Z3X5Z6
0.02083633*X2X5
-0.02083633*Z1X2Z3X5
0.00288753*Y1Y2Z5Z6
0.00288753*Z0X1X2Z3Z5Z6
-0.01319092*Y0X1Y2X5Z6
-0.01319092*X0X1X2Z3X5Z6
-0.01319092*Y0X1Y2X5
-0.01319092*X0X1X2Z3X5
0.08245223*Z1Z2Z5Z6
-0.02718966*X1X5Z6
0.02718966*Z0X1Z2X5Z6
-0.02718966*X1X5
0.02718966*Z0X1Z2X5
-0.00759273*Y0Y1Z5Z6
-0.00759273*X0X1Z2Z5Z6
0.09323207*Z0Z1Z5Z6
0.03688377*X0X5Z6
-0.03688377*X0Z1X5Z6
0.03688377*X0X5
-0.03688377*X0Z1X5
0.08752064*Z0Z5Z6
0.10233490*Z4Z5
0.01961462*Y3Y4Z5
-0.01961462*Z2X3X4Z5
-0.00177225*Y1X2X3Y4Z5
0.00177225*Z0X1X2X3X4Z5
-0.08231463*Z3Z4Z5
-0.01922051*Y2Y3Z5
-0.01922051*Z1X2X3Z4Z5
0.00223673*Y0X1X2Y3Z5
0.00223673*X0X1X2X3Z4Z5
-0.08838832*Z2Z3Z5
-0.02037292*Y1Y2Z5
-0.02037292*Z0X1X2Z3Z5
-0.09018099*Z1Z2Z5
-0.02148815*Y0Y1Z5
-0.02148815*X0X1Z2Z5
-0.08752064*Z0Z1Z5
-0.11300676*Z0Z5
-0.04539795*Z3
-0.00586952*Z1X2X3
-0.00586952*Y2Y3Z4
0.00218327*X0X1X2X3
0.00218327*Y0X1X2Y3Z4
-0.05686258*Z2Z3Z4
-0.01080036*Z0X1X2Z3Z4
-0.01080036*Y1Y2Z4
-0.06363444*Z1Z2Z4
-0.01176538*X0X1Z2Z4
-0.01176538*Y0Y1Z4
-0.06683422*Z0Z1Z4
-0.08414929*Z0Z4
-0.01618045*Z2Y3Y4
0.01618045*X3X4
-0.00130192*Z0X1X2Y3Y4
-0.00130192*Y1X2Y3X4
0.01527286*Z1X2X4
-0.00497853*X2Z3X4
0.01029433*Z1Y2Y4
-0.01029433*Y2Y4
0.00497853*Z1X2Z3X4
-0.01527286*X2X4
0.00617472*X0X1X2X4
0.00471492*Y0X1Y2Z3X4
0.00145980*X0X1Y2Y4
-0.00145980*Y0X1X2Y4
0.00471492*X0X1X2Z3X4
0.00617472*Y0X1Y2X4
-0.01733669*Z0X1Z2Z3X4
0.01200465*X1Z3X4
-0.00533204*Z0Y1Y4
0.00533204*Y1Z2Z3Y4
-0.01200465*Z0X1Z2X4
0.01733669*X1X4
0.02352379*X0Z1Z3X4
-0.02002222*X0Z3X4
0.00350157*Y0Y4
-0.00350157*Y0Z1Z3Y4
0.02002222*X0Z1X4
-0.02352379*X0X4
0.01062906*Z0X1Y2Y3X4
-0.01062906*Y1Y2Y3Y4
0.00295093*Z1X3X4
-0.00295093*Z1Z2Y3Y4
0.01380252*X0X1X3X4
0.00620706*Y0Y1Z2X3X4
0.00759545*X0Y1Y3X4
-0.00759545*Y0X1X3Y4
-0.00620706*X0X1Z2Y3Y4
-0.01380252*Y0Y1Y3Y4
-0.00014898*Z0Z1Z2X3X4
0.00014898*Z0Z1Y3Y4
0.01241845*Z0Z2X3X4
-0.01241845*Z0Y3Y4
-0.00015631*Z0Y1Y2X3X4
-0.00015631*X1Y2X3Y4
0.00665147*X0X2X3X4
-0.00491774*X0Z1X2X3X4
0.00173373*Y0Y2X3X4
-0.00173373*Y0X2X3Y4
-0.00491774*X0Z1Y2X3Y4
0.00665147*X0Y2X3Y4
-0.00212135*X1X2X3X4
0.00212135*Z0Y1X2X3Y4
0.04748792*Z2Z4
0.00262217*Z0X1X2Z4
0.00262217*Y1Y2Z3Z4
0.05763550*Z1Z2Z3Z4
-0.00017440*X0X1Z2Z3Z4
-0.00017440*Y0Y1Z3Z4
0.06541438*Z0Z1Z3Z4
0.06871219*Z0Z3Z4
-0.01924495*Z1Y2Y3Z4
-0.01924495*X2X3
-0.00004377*X0X1Y2Y3Z4
0.00004377*Y0X1Y2X3
0.01948483*Z0X1X3Z4
-0.00946027*X1Z2X3Z4
0.01002456*Z0Y1Y3Z4
0.01002456*Y1Y3
-0.00946027*Z0X1Z2X3
0.01948483*X1X3
-0.01845811*X0Z1Z2X3Z4
0.01267378*X0Z2X3Z4
-0.00578433*Y0Y3Z4
-0.00578433*Y0Z1Z2Y3
0.01267378*X0Z1X3
-0.01845811*X0X3
0.01167989*X0Y1Y2X3Z4
0.01167989*Y0Y1Y2Y3
0.00249523*Z0X2X3Z4
0.00249523*Z0Z1Y2Y3
0.01179675*Z0Z1X2X3Z4
0.01179675*Z0Y2Y3
-0.00146897*Y0Y1X2X3Z4
0.00146897*X0Y1X2Y3
0.05683682*Z1Z3
0.00310822*X0X1Z3
0.00310822*Y0Y1Z2Z3
0.05966486*Z0Z1Z2Z3
0.06797555*Z0Z2Z3
-0.02097121*Z0Y1Y2Z3
-0.02097121*X1X2
0.01758420*X0X2Z3
-0.00526438*X0Z1X2Z3
0.01231982*Y0Y2Z3
0.01231982*Y0Y2
-0.00526438*X0Z1X2
0.01758420*X0X2
0.00718200*X1X2Z3
0.00718200*Z0Y1Y2
0.05107719*Z0Z2
0.06257901*Z0Z1Z2
-0.01959692*Y0Y1Z2
-0.01959692*X0X1
0.05063687*Z1
