Y10X11X12X13
Y8X9X10X11X12X13
Y9X10X11X12Z13
Y7X8X9X10X11X12Z13
Y10X11Z12
Y8X9X10X11Z12
Y9X10Z11
Y7X8X9X10Z11
Y3X4X5X6
Y1X2X3X4X5X6
Y2X3X4X5Z6
Y0X1X2X3X4X5Z6
Y3X4Z5
Y1X2X3X4Z5
Y2X3Z4
Y0X1X2X3Z4
Y3X4X5X6Z9X10X11X12X13
Y1X2X3X4X5X6Z9X10X11X12X13
Y2X3X4X5Z6Z9X10X11X12X13
Y0X1X2X3X4X5Z6Z9X10X11X12X13
Y3X4Z5Z9X10X11X12X13
Y1X2X3X4Z5Z9X10X11X12X13
Y2X3Z4Z9X10X11X12X13
Y0X1X2X3Z4Z9X10X11X12X13
Y2X3X4X5X6Z8X9X10X11X12X13
Y0X1X2X3X4X5X6Z8X9X10X11X12X13
Y3X4X5Z6Z8X9X10X11X12X13
Y1X2X3X4X5Z6Z8X9X10X11X12X13
Y2X3X4Z5Z8X9X10X11X12X13
Y0X1X2X3X4Z5Z8X9X10X11X12X13
Y3Z4Z8X9X10X11X12X13
Y1X2X3Z4Z8X9X10X11X12X13
Y3X4X5X6Z7X8X9X10X11X12X13
Y1X2X3X4X5X6Z7X8X9X10X11X12X13
Y2X3X4X5Z6Z7X8X9X10X11X12X13
Y0X1X2X3X4X5Z6Z7X8X9X10X11X12X13
Y3X4Z5Z7X8X9X10X11X12X13
Y1X2X3X4Z5Z7X8X9X10X11X12X13
Y2X3Z4Z7X8X9X10X11X12X13
Y0X1X2X3Z4Z7X8X9X10X11X12X13
Y2X3X4X5X6X7X8X9X10X11X12X13
Y0X1X2X3X4X5X6X7X8X9X10X11X12X13
Y3X4X5Z6X7X8X9X10X11X12X13
Y1X2X3X4X5Z6X7X8X9X10X11X12X13
Y2X3X4Z5X7X8X9X10X11X12X13
Y0X1X2X3X4Z5X7X8X9X10X11X12X13
Y3Z4X7X8X9X10X11X12X13
Y1X2X3Z4X7X8X9X10X11X12X13
Y2X3X4X5X6Z9X10X11X12Z13
Y0X1X2X3X4X5X6Z9X10X11X12Z13
Y3X4X5Z6Z9X10X11X12Z13
Y1X2X3X4X5Z6Z9X10X11X12Z13
Y2X3X4Z5Z9X10X11X12Z13
Y0X1X2X3X4Z5Z9X10X11X12Z13
Y3Z4Z9X10X11X12Z13
Y1X2X3Z4Z9X10X11X12Z13
Y3X4X5X6Z8X9X10X11X12Z13
Y1X2X3X4X5X6Z8X9X10X11X12Z13
Y2X3X4X5Z6Z8X9X10X11X12Z13
Y0X1X2X3X4X5Z6Z8X9X10X11X12Z13
Y3X4Z5Z8X9X10X11X12Z13
Y1X2X3X4Z5Z8X9X10X11X12Z13
Y2X3Z4Z8X9X10X11X12Z13
Y0X1X2X3Z4Z8X9X10X11X12Z13
Y2X3X4X5X6Z7X8X9X10X11X12Z13
Y0X1X2X3X4X5X6Z7X8X9X10X11X12Z13
Y3X4X5Z6Z7X8X9X10X11X12Z13
Y1X2X3X4X5Z6Z7X8X9X10X11X12Z13
Y2X3X4Z5Z7X8X9X10X11X12Z13
Y0X1X2X3X4Z5Z7X8X9X10X11X12Z13
Y3Z4Z7X8X9X10X11X12Z13
Y1X2X3Z4Z7X8X9X10X11X12Z13
Y3X4X5X6X7X8X9X10X11X12Z13
Y1X2X3X4X5X6X7X8X9X10X11X12Z13
Y2X3X4X5Z6X7X8X9X10X11X12Z13
Y0X1X2X3X4X5Z6X7X8X9X10X11X12Z13
Y3X4Z5X7X8X9X10X11X12Z13
Y1X2X3X4Z5X7X8X9X10X11X12Z13
Y2X3Z4X7X8X9X10X11X12Z13
Y0X1X2X3Z4X7X8X9X10X11X12Z13
Y3X4X5X6Z9X10X11Z12
Y1X2X3X4X5X6Z9X10X11Z12
Y2X3X4X5Z6Z9X10X11Z12
Y0X1X2X3X4X5Z6Z9X10X11Z12
Y3X4Z5Z9X10X11Z12
Y1X2X3X4Z5Z9X10X11Z12
Y2X3Z4Z9X10X11Z12
Y0X1X2X3Z4Z9X10X11Z12
Y2X3X4X5X6Z8X9X10X11Z12
Y0X1X2X3X4X5X6Z8X9X10X11Z12
Y3X4X5Z6Z8X9X10X11Z12
Y1X2X3X4X5Z6Z8X9X10X11Z12
Y2X3X4Z5Z8X9X10X11Z12
Y0X1X2X3X4Z5Z8X9X10X11Z12
Y3Z4Z8X9X10X11Z12
Y1X2X3Z4Z8X9X10X11Z12
Y3X4X5X6Z7X8X9X10X11Z12
Y1X2X3X4X5X6Z7X8X9X10X11Z12
Y2X3X4X5Z6Z7X8X9X10X11Z12
Y0X1X2X3X4X5Z6Z7X8X9X10X11Z12
Y3X4Z5Z7X8X9X10X11Z12
Y1X2X3X4Z5Z7X8X9X10X11Z12
Y2X3Z4Z7X8X9X10X11Z12
Y0X1X2X3Z4Z7X8X9X10X11Z12
Y2X3X4X5X6X7X8X9X10X11Z12
Y0X1X2X3X4X5X6X7X8X9X10X11Z12
Y3X4X5Z6X7X8X9X10X11Z12
Y1X2X3X4X5Z6X7X8X9X10X11Z12
Y2X3X4Z5X7X8X9X10X11Z12
Y0X1X2X3X4Z5X7X8X9X10X11Z12
Y3Z4X7X8X9X10X11Z12
Y1X2X3Z4X7X8X9X10X11Z12
Y2X3X4X5X6Z9X10Z11
Y0X1X2X3X4X5X6Z9X10Z11
Y3X4X5Z6Z9X10Z11
Y1X2X3X4X5Z6Z9X10Z11
Y2X3X4Z5Z9X10Z11
Y0X1X2X3X4Z5Z9X10Z11
Y3Z4Z9X10Z11
Y1X2X3Z4Z9X10Z11
Y3X4X5X6Z8X9X10Z11
Y1X2X3X4X5X6Z8X9X10Z11
Y2X3X4X5Z6Z8X9X10Z11
Y0X1X2X3X4X5Z6Z8X9X10Z11
Y3X4Z5Z8X9X10Z11
Y1X2X3X4Z5Z8X9X10Z11
Y2X3Z4Z8X9X10Z11
Y0X1X2X3Z4Z8X9X10Z11
Y2X3X4X5X6Z7X8X9X10Z11
Y0X1X2X3X4X5X6Z7X8X9X10Z11
Y3X4X5Z6Z7X8X9X10Z11
Y1X2X3X4X5Z6Z7X8X9X10Z11
Y2X3X4Z5Z7X8X9X10Z11
Y0X1X2X3X4Z5Z7X8X9X10Z11
Y3Z4Z7X8X9X10Z11
Y1X2X3Z4Z7X8X9X10Z11
Y3X4X5X6X7X8X9X10Z11
Y1X2X3X4X5X6X7X8X9X10Z11
Y2X3X4X5Z6X7X8X9X10Z11
Y0X1X2X3X4X5Z6X7X8X9X10Z11
Y3X4Z5X7X8X9X10Z11
Y1X2X3X4Z5X7X8X9X10Z11
Y2X3Z4X7X8X9X10Z11
Y0X1X2X3Z4X7X8X9X10Z11
X9Y13
Y7X8Y9Y13
Y8Y9Y12X13
X9Y11X12X13
Y7X8Y9Y11X12X13
X8Y13
Y7Y8Y12X13
X8Y11X12X13
X7Y13
X7Y11X12X13
X9Y12Z13
Y7X8Y9Y12Z13
Y8Y9Y11X12Z13
X8Y12Z13
Y7Y8Y11X12Z13
X7Y12Z13
X9Y11Z12
Y7X8Y9Y11Z12
X8Y11Z12
X7Y11Z12
X2Y6
Y0X1Y2Y6
Y1Y2Y5X6
X2Y4X5X6
Y0X1Y2Y4X5X6
X1Y6
Y0Y1Y5X6
X1Y4X5X6
X0Y6
X0Y4X5X6
X2Y5Z6
Y0X1Y2Y5Z6
Y1Y2Y4X5Z6
X1Y5Z6
Y0Y1Y4X5Z6
X0Y5Z6
X2Y4Z5
Y0X1Y2Y4Z5
X1Y4Z5
X0Y4Z5
