-11.73033452*I
-0.04383396*Z7
0.00958931*X4X5X6X7
0.00958931*Y4X5X6Y7
-0.03916376*Z6Z7
0.03169061*Z4X5X6Z7
0.03169061*Y5Y6
-0.18737479*Z5Z6
-0.41613573*Z4Z5
-1.00884042*Z4
-0.04383396*Z3
0.00958931*X0X1X2X3
0.00958931*Y0X1X2Y3
-0.03916376*Z2Z3
0.03169061*Z0X1X2Z3
0.03169061*Y1Y2
-0.18737479*Z1Z2
-0.41613573*Z0Z1
-1.00884042*Z0
0.07865274*Z6
0.00393110*Z4X5X6
0.00393110*Y5Y6Z7
0.09596342*Z5Z6Z7
0.09055297*Z4Z5Z7
0.10664829*Z4Z7
0.00012534*X4X5Y6Y7
-0.00012534*Y4X5Y6X7
0.02009265*X4Z5Z6X7
-0.02003731*X4Z6X7
0.00005534*Y4Y7
0.00005534*Y4Z5Z6Y7
-0.02003731*X4Z5X7
0.02009265*X4X7
0.00438722*X4Y5Y6X7
0.00438722*Y4Y5Y6Y7
-0.00821164*Y4Y5X6X7
0.00821164*X4Y5X6Y7
0.12567254*Z3Z7
-0.02062672*Z3X4X5X6X7
-0.02062672*Z3Y4X5X6Y7
-0.04091069*X3Z6X7
0.04091069*Z2X3Z6X7
0.04091069*X3X7
-0.04091069*Z2X3X7
0.02738217*X3Z4X5X6X7
-0.02738217*Z2X3Z4X5X6X7
0.02738217*X3Y5X6Y7
-0.02738217*Z2X3Y5X6Y7
0.00496416*Y2Y3Z5X6X7
0.00496416*Z1X2X3Z5X6X7
0.00496416*Y2Y3Y6Y7
0.00496416*Z1X2X3Y6Y7
-0.02738217*Y1X2Y3Z6X7
-0.02738217*Z0X1X2X3Z6X7
0.02738217*Y1X2Y3X7
0.02738217*Z0X1X2X3X7
0.02356438*Y1X2Y3Z4X5X6X7
0.02356438*Z0X1X2X3Z4X5X6X7
0.02356438*Y1X2Y3Y5X6Y7
0.02356438*Z0X1X2X3Y5X6Y7
-0.02062672*Y0X1X2Y3Z7
-0.02062672*X0X1X2X3Z7
0.01870719*Y0X1X2Y3X4X5X6X7
0.01870719*X0X1X2X3X4X5X6X7
0.01870719*Y0X1X2Y3Y4X5X6Y7
0.01870719*X0X1X2X3Y4X5X6Y7
0.11956343*Z2Z3Z7
-0.01511279*Z2Z3X4X5X6X7
-0.01511279*Z2Z3Y4X5X6Y7
-0.02345107*Y1Y2Z7
-0.02345107*Z0X1X2Z3Z7
0.01662186*Y1Y2X4X5X6X7
0.01662186*Z0X1X2Z3X4X5X6X7
0.01662186*Y1Y2Y4X5X6Y7
0.01662186*Z0X1X2Z3Y4X5X6Y7
-0.01498744*Y0X1Y2Z6X7
-0.01498744*X0X1X2Z3Z6X7
0.01498744*Y0X1Y2X7
0.01498744*X0X1X2Z3X7
0.01667719*Y0X1Y2Z4X5X6X7
0.01667719*X0X1X2Z3Z4X5X6X7
0.01667719*Y0X1Y2Y5X6Y7
0.01667719*X0X1X2Z3Y5X6Y7
0.10092758*Z1Z2Z7
-0.00130652*Z1Z2X4X5X6X7
-0.00130652*Z1Z2Y4X5X6Y7
0.00308070*Y0Y1Z5X6X7
0.00308070*X0X1Z2Z5X6X7
0.00308070*Y0Y1Y6Y7
0.00308070*X0X1Z2Y6Y7
0.11411735*Z0Z1Z7
-0.02041872*Z0Z1X4X5X6X7
-0.02041872*Z0Z1Y4X5X6Y7
-0.03671451*X0Z6X7
0.03671451*X0Z1Z6X7
0.03671451*X0X7
-0.03671451*X0Z1X7
0.02863036*X0Z4X5X6X7
-0.02863036*X0Z1Z4X5X6X7
0.02863036*X0Y5X6Y7
-0.02863036*X0Z1Y5X6Y7
0.12535548*Z0Z7
-0.02755335*Z0X4X5X6X7
-0.02755335*Z0Y4X5X6Y7
0.08884616*Z5Z7
0.09300922*Z4Z5Z6Z7
0.10462314*Z4Z6Z7
0.01272166*Z4Y5Y6Z7
0.01272166*X5X6
-0.00774226*X5X6Z7
-0.00774226*Z4Y5Y6
0.11956343*Z3Z6Z7
-0.02345107*Z3Z4X5X6Z7
-0.02345107*Z3Y5Y6
0.01498744*X3X4X5X6Z7
-0.01498744*Z2X3X4X5X6Z7
0.01498744*X3Y4X5Y6
-0.01498744*Z2X3Y4X5Y6
0.01667719*Y1X2Y3X4X5X6Z7
0.01667719*Z0X1X2X3X4X5X6Z7
0.01667719*Y1X2Y3Y4X5Y6
0.01667719*Z0X1X2X3Y4X5Y6
-0.01511279*Y0X1X2Y3Z6Z7
-0.01511279*X0X1X2X3Z6Z7
0.01662186*Y0X1X2Y3Z4X5X6Z7
0.01662186*X0X1X2X3Z4X5X6Z7
0.01662186*Y0X1X2Y3Y5Y6
0.01662186*X0X1X2X3Y5Y6
0.11701159*Z2Z3Z6Z7
-0.01706545*Z2Z3Z4X5X6Z7
-0.01706545*Z2Z3Y5Y6
-0.01530770*X2Z5X6Z7
0.01530770*Z1X2Z3Z5X6Z7
0.01530770*X2X6
-0.01530770*Z1X2Z3X6
-0.01706545*Y1Y2Z6Z7
-0.01706545*Z0X1X2Z3Z6Z7
0.01752446*Y1Y2Z4X5X6Z7
0.01752446*Z0X1X2Z3Z4X5X6Z7
0.01752446*Y1Y2Y5Y6
0.01752446*Z0X1X2Z3Y5Y6
0.01434531*Y0X1Y2X4X5X6Z7
0.01434531*X0X1X2Z3X4X5X6Z7
0.01434531*Y0X1Y2Y4X5Y6
0.01434531*X0X1X2Z3Y4X5Y6
0.10415386*Z1Z2Z6Z7
-0.00163639*Z1Z2Z4X5X6Z7
-0.00163639*Z1Z2Y5Y6
-0.01108527*X1Z5X6Z7
0.01108527*Z0X1Z2Z5X6Z7
0.01108527*X1X6
-0.01108527*Z0X1Z2X6
0.11053368*Z0Z1Z6Z7
-0.01889725*Z0Z1Z4X5X6Z7
-0.01889725*Z0Z1Y5Y6
0.01953623*X0X4X5X6Z7
-0.01953623*X0Z1X4X5X6Z7
0.01953623*X0Y4X5Y6
-0.01953623*X0Z1Y4X5Y6
0.11896846*Z0Z6Z7
-0.02727849*Z0Z4X5X6Z7
-0.02727849*Z0Y5Y6
0.08661767*Z4Z6
0.09557076*Z4Z5Z6
0.10092758*Z3Z5Z6
0.00308070*Y2Y3X4X5Z6
0.00308070*Z1X2X3X4X5Z6
0.00308070*Y2Y3Y4Y5
0.00308070*Z1X2X3Y4Y5
-0.00130652*Y0X1X2Y3Z5Z6
-0.00130652*X0X1X2X3Z5Z6
0.10415386*Z2Z3Z5Z6
-0.01108527*X2Z4X5Z6
0.01108527*Z1X2Z3Z4X5Z6
0.01108527*X2X5
-0.01108527*Z1X2Z3X5
-0.00163639*Y1Y2Z5Z6
-0.00163639*Z0X1X2Z3Z5Z6
0.11246476*Z1Z2Z5Z6
-0.01072569*X1Z4X5Z6
0.01072569*Z0X1Z2Z4X5Z6
0.01072569*X1X5
-0.01072569*Z0X1Z2X5
0.00297079*Y0Y1X4X5Z6
0.00297079*X0X1Z2X4X5Z6
0.00297079*Y0Y1Y4Y5
0.00297079*X0X1Z2Y4Y5
0.09734336*Z0Z1Z5Z6
0.09854155*Z0Z5Z6
0.07954221*Z5
0.11411735*Z3Z4Z5
-0.03671451*X3X4Z5
0.03671451*Z2X3X4Z5
0.03671451*X3X4
-0.03671451*Z2X3X4
-0.02863036*Y1X2Y3X4Z5
-0.02863036*Z0X1X2X3X4Z5
0.02863036*Y1X2Y3X4
0.02863036*Z0X1X2X3X4
-0.02041872*Y0X1X2Y3Z4Z5
-0.02041872*X0X1X2X3Z4Z5
0.11053368*Z2Z3Z4Z5
-0.01889725*Y1Y2Z4Z5
-0.01889725*Z0X1X2Z3Z4Z5
-0.01953623*Y0X1Y2X4Z5
-0.01953623*X0X1X2Z3X4Z5
0.01953623*Y0X1Y2X4
0.01953623*X0X1X2Z3X4
0.09734336*Z1Z2Z4Z5
0.11078165*Z0Z1Z4Z5
-0.03976170*X0X4Z5
0.03976170*X0Z1X4Z5
0.03976170*X0X4
-0.03976170*X0Z1X4
0.11930392*Z0Z4Z5
0.12535548*Z3Z4
-0.02755335*Y0X1X2Y3Z4
-0.02755335*X0X1X2X3Z4
0.11896846*Z2Z3Z4
-0.02727849*Y1Y2Z4
-0.02727849*Z0X1X2Z3Z4
0.09854155*Z1Z2Z4
0.11930392*Z0Z1Z4
0.13423913*Z0Z4
0.07865274*Z2
0.00393110*Z0X1X2
0.00393110*Y1Y2Z3
0.09596342*Z1Z2Z3
0.09055297*Z0Z1Z3
0.10664829*Z0Z3
0.00012534*X0X1Y2Y3
-0.00012534*Y0X1Y2X3
0.02009265*X0Z1Z2X3
-0.02003731*X0Z2X3
0.00005534*Y0Y3
0.00005534*Y0Z1Z2Y3
-0.02003731*X0Z1X3
0.02009265*X0X3
0.00438722*X0Y1Y2X3
0.00438722*Y0Y1Y2Y3
-0.00821164*Y0Y1X2X3
0.00821164*X0Y1X2Y3
0.08884616*Z1Z3
0.09300922*Z0Z1Z2Z3
0.10462314*Z0Z2Z3
0.01272166*Z0Y1Y2Z3
0.01272166*X1X2
-0.00774226*X1X2Z3
-0.00774226*Z0Y1Y2
0.08661767*Z0Z2
0.09557076*Z0Z1Z2
0.07954221*Z1
