5.41333973*I
0.35070538*Z5
0.02264855*Z3X4X5
0.02264855*Y4Y5
0.02984366*Z4Z5
0.04660820*X3X4Z5
0.04660820*Y3Y4
-0.54198910*Z3Z4
-2.00917519*Z3
0.35070538*Z2
0.02264855*Z0X1X2
0.02264855*Y1Y2
0.02984366*Z1Z2
0.04660820*X0X1Z2
0.04660820*Y0Y1
-0.54198910*Z0Z1
-2.00917519*Z0
0.28108613*Z4
0.02414030*X3X4
0.02414030*Y3Y4Z5
0.29098940*Z3Z4Z5
0.30474152*Z3Z5
0.00480361*Z3Y4Y5
0.00480361*X4X5
0.05576749*X3X5
-0.01840775*X3Z4X5
0.03735974*Y3Y5
0.17715485*Z2Z5
-0.03189714*Z2Z3X4X5
-0.03189714*Z2Y4Y5
-0.03527410*X2Z4X5
0.03527410*Z1X2Z4X5
0.03527410*X2X5
-0.03527410*Z1X2X5
0.01386326*X2X3X4X5
-0.01386326*Z1X2X3X4X5
0.01386326*X2Y3X4Y5
-0.01386326*Z1X2Y3X4Y5
-0.03189714*Y1Y2Z5
-0.03189714*Z0X1X2Z5
0.02819000*Y1Y2Z3X4X5
0.02819000*Z0X1X2Z3X4X5
0.02819000*Y1Y2Y4Y5
0.02819000*Z0X1X2Y4Y5
-0.01386326*Y0X1Y2Z4X5
-0.01386326*X0X1X2Z4X5
0.01386326*Y0X1Y2X5
0.01386326*X0X1X2X5
0.02362505*Y0X1Y2X3X4X5
0.02362505*X0X1X2X3X4X5
0.02362505*Y0X1Y2Y3X4Y5
0.02362505*X0X1X2Y3X4Y5
0.15443747*Z1Z2Z5
-0.00565761*Z1Z2Z3X4X5
-0.00565761*Z1Z2Y4Y5
-0.02798100*X1Z4X5
0.02798100*Z0X1Z2Z4X5
0.02798100*X1X5
-0.02798100*Z0X1Z2X5
-0.00410299*X1X3X4X5
0.00410299*Z0X1Z2X3X4X5
-0.00410299*X1Y3X4Y5
0.00410299*Z0X1Z2Y3X4Y5
-0.03157685*Y0Y1Z5
-0.03157685*X0X1Z2Z5
0.02278286*Y0Y1Z3X4X5
0.02278286*X0X1Z2Z3X4X5
0.02278286*Y0Y1Y4Y5
0.02278286*X0X1Z2Y4Y5
0.16693950*Z0Z1Z5
-0.01938405*Z0Z1Z3X4X5
-0.01938405*Z0Z1Y4Y5
-0.03198674*X0Z4X5
0.03198674*X0Z1Z4X5
0.03198674*X0X5
-0.03198674*X0Z1X5
0.01678786*X0X3X4X5
-0.01678786*X0Z1X3X4X5
0.01678786*X0Y3X4Y5
-0.01678786*X0Z1Y3X4Y5
0.20437330*Z0Z5
-0.04562286*Z0Z3X4X5
-0.04562286*Z0Y4Y5
0.15443747*Z2Z4Z5
-0.03157685*Z2X3X4Z5
-0.03157685*Z2Y3Y4
-0.02798100*X2Z3X4Z5
0.02798100*Z1X2Z3X4Z5
0.02798100*X2X4
-0.02798100*Z1X2X4
-0.00565761*Y1Y2Z4Z5
-0.00565761*Z0X1X2Z4Z5
0.02278286*Y1Y2X3X4Z5
0.02278286*Z0X1X2X3X4Z5
0.02278286*Y1Y2Y3Y4
0.02278286*Z0X1X2Y3Y4
0.00410299*Y0X1Y2Z3X4Z5
0.00410299*X0X1X2Z3X4Z5
-0.00410299*Y0X1Y2X4
-0.00410299*X0X1X2X4
0.15912168*Z1Z2Z4Z5
-0.01137635*Z1Z2X3X4Z5
-0.01137635*Z1Z2Y3Y4
-0.03637190*X1Z3X4Z5
0.03637190*Z0X1Z2Z3X4Z5
0.03637190*X1X4
-0.03637190*Z0X1Z2X4
-0.01137635*Y0Y1Z4Z5
-0.01137635*X0X1Z2Z4Z5
0.02483150*Y0Y1X3X4Z5
0.02483150*X0X1Z2X3X4Z5
0.02483150*Y0Y1Y3Y4
0.02483150*X0X1Z2Y3Y4
0.16036518*Z0Z1Z4Z5
-0.01689433*Z0Z1X3X4Z5
-0.01689433*Z0Z1Y3Y4
-0.02495956*X0Z3X4Z5
0.02495956*X0Z1Z3X4Z5
0.02495956*X0X4
-0.02495956*X0Z1X4
0.17707139*Z0Z4Z5
-0.04852678*Z0X3X4Z5
-0.04852678*Z0Y3Y4
0.16693950*Z2Z3Z4
-0.03198674*X2X3Z4
0.03198674*Z1X2X3Z4
0.03198674*X2X3
-0.03198674*Z1X2X3
-0.01938405*Y1Y2Z3Z4
-0.01938405*Z0X1X2Z3Z4
-0.01678786*Y0X1Y2X3Z4
-0.01678786*X0X1X2X3Z4
0.01678786*Y0X1Y2X3
0.01678786*X0X1X2X3
0.16036518*Z1Z2Z3Z4
-0.02495956*X1X3Z4
0.02495956*Z0X1Z2X3Z4
0.02495956*X1X3
-0.02495956*Z0X1Z2X3
-0.01689433*Y0Y1Z3Z4
-0.01689433*X0X1Z2Z3Z4
0.17571269*Z0Z1Z3Z4
-0.03729844*X0X3Z4
0.03729844*X0Z1X3Z4
0.03729844*X0X3
-0.03729844*X0Z1X3
0.19922119*Z0Z3Z4
0.20437330*Z2Z3
-0.04562286*Y1Y2Z3
-0.04562286*Z0X1X2Z3
0.17707139*Z1Z2Z3
-0.04852678*Y0Y1Z3
-0.04852678*X0X1Z2Z3
0.19922119*Z0Z1Z3
0.27020445*Z0Z3
0.28108613*Z1
0.02414030*X0X1
0.02414030*Y0Y1Z2
0.29098940*Z0Z1Z2
0.30474152*Z0Z2
0.00480361*Z0Y1Y2
0.00480361*X1X2
0.05576749*X0X2
-0.01840775*X0Z1X2
0.03735974*Y0Y2
