-14.21672554*I
-0.13311249*Z7
0.02388975*Z5X6X7
0.02388975*Y6Y7
-0.03244682*Z6Z7
-0.01590862*X4X5X6Z7
-0.01590862*Y4X5Y6
-0.03685393*Z5Z6
-0.23465890*Z4Z5
-0.23441694*Z4
-0.13311249*Z3
0.02388975*Z1X2X3
0.02388975*Y2Y3
-0.03244682*Z2Z3
-0.01590862*X0X1X2Z3
-0.01590862*Y0X1Y2
-0.03685393*Z1Z2
-0.23465890*Z0Z1
-0.23441694*Z0
0.03468751*Z6
0.00449632*X4X5X6
0.00449632*Y4X5Y6Z7
0.03479747*Z5Z6Z7
0.07925734*Z4Z5Z7
0.07890063*Z4Z7
0.00377899*Z5Y6Y7
0.00377899*X6X7
-0.00609959*X4X5X7
0.00031642*Y4Y5Z6X7
-0.00641602*X4Y5Y7
-0.00641602*Y4X5Y7
-0.00031642*X4X5Z6X7
0.00609959*Y4Y5X7
-0.00809879*Z4X6X7
-0.00809879*Z4Z5Y6Y7
-0.00707145*Z4Z5X6X7
-0.00707145*Z4Y6Y7
0.09703345*Z3Z7
-0.01085198*Z3Z5X6X7
-0.01085198*Z3Y6Y7
-0.00309870*X3Z6X7
0.00309870*Z2X3Z6X7
0.00309870*X3X7
-0.00309870*Z2X3X7
-0.00327807*X3X4X5X6X7
0.00327807*Z2X3X4X5X6X7
-0.00327807*X3Y4X5X6Y7
0.00327807*Z2X3Y4X5X6Y7
-0.01085198*Y2Y3Z7
-0.01085198*Z1X2X3Z7
0.00398214*Y2Y3Z5X6X7
0.00398214*Z1X2X3Z5X6X7
0.00398214*Y2Y3Y6Y7
0.00398214*Z1X2X3Y6Y7
0.02100096*Y1X2Y3Z4X5X6X7
0.02100096*Z0X1X2X3Z4X5X6X7
0.02100096*Y1X2Y3Y5X6Y7
0.02100096*Z0X1X2X3Y5X6Y7
0.00327807*Y0X1X2Y3Z6X7
0.00327807*X0X1X2X3Z6X7
-0.00327807*Y0X1X2Y3X7
-0.00327807*X0X1X2X3X7
0.02055454*Y0X1X2Y3X4X5X6X7
0.02055454*X0X1X2X3X4X5X6X7
0.02055454*Y0X1X2Y3Y4X5X6Y7
0.02055454*X0X1X2X3Y4X5X6Y7
0.03778620*Z2Z3Z7
0.01138495*Z2Z3Z5X6X7
0.01138495*Z2Z3Y6Y7
-0.01516394*X2Z6X7
0.01516394*Z1X2Z3Z6X7
0.01516394*X2X7
-0.01516394*Z1X2Z3X7
-0.00341198*X2X4X5X6X7
0.00341198*Z1X2Z3X4X5X6X7
-0.00341198*X2Y4X5X6Y7
0.00341198*Z1X2Z3Y4X5X6Y7
0.00777439*Y0X1Y2Z7
0.00777439*X0X1X2Z3Z7
-0.00300404*Y0X1Y2Z5X6X7
-0.00300404*X0X1X2Z3Z5X6X7
-0.00300404*Y0X1Y2Y6Y7
-0.00300404*X0X1X2Z3Y6Y7
0.03877961*Z1Z2Z7
0.01107552*Z1Z2Z5X6X7
0.01107552*Z1Z2Y6Y7
0.00386036*X1Z4X5X6X7
-0.00386036*Z0X1Z2Z4X5X6X7
0.00386036*X1Y5X6Y7
-0.00386036*Z0X1Z2Y5X6Y7
-0.00268761*Y0Y1Z6X7
-0.00268761*X0X1Z2Z6X7
0.00268761*Y0Y1X7
0.00268761*X0X1Z2X7
-0.00401046*Y0Y1X4X5X6X7
-0.00401046*X0X1Z2X4X5X6X7
-0.00401046*Y0Y1Y4X5X6Y7
-0.00401046*X0X1Z2Y4X5X6Y7
0.10025830*Z0Z1Z7
-0.01195915*Z0Z1Z5X6X7
-0.01195915*Z0Z1Y6Y7
0.09945517*Z0Z7
-0.01108191*Z0Z5X6X7
-0.01108191*Z0Y6Y7
0.01850163*Z5Z7
0.03496037*Z4Z5Z6Z7
0.03629778*Z4Z6Z7
-0.00344934*X4Y5Y6Z7
0.00344934*Y4Y5X6
-0.00738847*Y4Y5X6Z7
0.00738847*X4Y5Y6
0.03778620*Z3Z6Z7
0.00777439*Z3X4X5X6Z7
0.00777439*Z3Y4X5Y6
-0.01516394*X3Z5X6Z7
0.01516394*Z2X3Z5X6Z7
0.01516394*X3X6
-0.01516394*Z2X3X6
0.01138495*Y2Y3Z6Z7
0.01138495*Z1X2X3Z6Z7
-0.00300404*Y2Y3X4X5X6Z7
-0.00300404*Z1X2X3X4X5X6Z7
-0.00300404*Y2Y3Y4X5Y6
-0.00300404*Z1X2X3Y4X5Y6
0.00341198*Y0X1X2Y3Z5X6Z7
0.00341198*X0X1X2X3Z5X6Z7
-0.00341198*Y0X1X2Y3X6
-0.00341198*X0X1X2X3X6
0.10300311*Z2Z3Z6Z7
-0.00915558*Z2Z3X4X5X6Z7
-0.00915558*Z2Z3Y4X5Y6
-0.08380752*X2Z5X6Z7
0.08380752*Z1X2Z3Z5X6Z7
0.08380752*X2X6
-0.08380752*Z1X2Z3X6
0.00008641*Y1Y2Z4X5X6Z7
0.00008641*Z0X1X2Z3Z4X5X6Z7
0.00008641*Y1Y2Y5Y6
0.00008641*Z0X1X2Z3Y5Y6
-0.00915558*Y0X1Y2Z6Z7
-0.00915558*X0X1X2Z3Z6Z7
0.00247170*Y0X1Y2X4X5X6Z7
0.00247170*X0X1X2Z3X4X5X6Z7
0.00247170*Y0X1Y2Y4X5Y6
0.00247170*X0X1X2Z3Y4X5Y6
0.10230914*Z1Z2Z6Z7
-0.00895901*Z1Z2X4X5X6Z7
-0.00895901*Z1Z2Y4X5Y6
-0.01240835*Y0Y1Z5X6Z7
-0.01240835*X0X1Z2Z5X6Z7
0.01240835*Y0Y1X6
0.01240835*X0X1Z2X6
0.03504678*Z0Z1Z6Z7
0.00810445*Z0Z1X4X5X6Z7
0.00810445*Z0Z1Y4X5Y6
-0.00071598*X0Z4X5X6Z7
0.00071598*X0Z1Z4X5X6Z7
-0.00071598*X0Y5Y6
0.00071598*X0Z1Y5Y6
0.03876949*Z0Z6Z7
0.00904049*Z0X4X5X6Z7
0.00904049*Z0Y4X5Y6
0.03549395*Z4Z6
0.03717012*Z4Z5Z6
0.03877961*Z3Z5Z6
0.00268761*X3X4X5Z6
-0.00268761*Z2X3X4X5Z6
0.00268761*X3Y4Y5
-0.00268761*Z2X3Y4Y5
0.01107552*Y2Y3Z5Z6
0.01107552*Z1X2X3Z5Z6
-0.00386036*Y1X2Y3Z4X5Z6
-0.00386036*Z0X1X2X3Z4X5Z6
0.00386036*Y1X2Y3X5
0.00386036*Z0X1X2X3X5
-0.00401046*Y0X1X2Y3X4X5Z6
-0.00401046*X0X1X2X3X4X5Z6
-0.00401046*Y0X1X2Y3Y4Y5
-0.00401046*X0X1X2X3Y4Y5
0.10230914*Z2Z3Z5Z6
0.01240835*X2X4X5Z6
-0.01240835*Z1X2Z3X4X5Z6
0.01240835*X2Y4Y5
-0.01240835*Z1X2Z3Y4Y5
-0.00895901*Y0X1Y2Z5Z6
-0.00895901*X0X1X2Z3Z5Z6
0.10164677*Z1Z2Z5Z6
-0.00071043*X1Z4X5Z6
0.00071043*Z0X1Z2Z4X5Z6
0.00071043*X1X5
-0.00071043*Z0X1Z2X5
0.00246430*Y0Y1X4X5Z6
0.00246430*X0X1Z2X4X5Z6
0.00246430*Y0Y1Y4Y5
0.00246430*X0X1Z2Y4Y5
0.03620438*Z0Z1Z5Z6
0.03963441*Z0Z5Z6
0.09341260*Z5
0.10025830*Z3Z4Z5
-0.01195915*Y2Y3Z4Z5
-0.01195915*Z1X2X3Z4Z5
0.03504678*Z2Z3Z4Z5
0.00071598*Y1Y2X4Z5
0.00071598*Z0X1X2Z3X4Z5
-0.00071598*Y1Y2X4
-0.00071598*Z0X1X2Z3X4
0.00810445*Y0X1Y2Z4Z5
0.00810445*X0X1X2Z3Z4Z5
0.03620438*Z1Z2Z4Z5
0.11246476*Z0Z1Z4Z5
-0.00598398*X0X4Z5
0.00598398*X0Z1X4Z5
0.00598398*X0X4
-0.00598398*X0Z1X4
0.09939658*Z0Z4Z5
0.09945517*Z3Z4
-0.01108191*Y2Y3Z4
-0.01108191*Z1X2X3Z4
0.03876949*Z2Z3Z4
0.00904049*Y0X1Y2Z4
0.00904049*X0X1X2Z3Z4
0.03963441*Z1Z2Z4
0.09939658*Z0Z1Z4
0.11030552*Z0Z4
0.03468751*Z2
0.00449632*X0X1X2
0.00449632*Y0X1Y2Z3
0.03479747*Z1Z2Z3
0.07925734*Z0Z1Z3
0.07890063*Z0Z3
0.00377899*Z1Y2Y3
0.00377899*X2X3
-0.00609959*X0X1X3
0.00031642*Y0Y1Z2X3
-0.00641602*X0Y1Y3
-0.00641602*Y0X1Y3
-0.00031642*X0X1Z2X3
0.00609959*Y0Y1X3
-0.00809879*Z0X2X3
-0.00809879*Z0Z1Y2Y3
-0.00707145*Z0Z1X2X3
-0.00707145*Z0Y2Y3
0.01850163*Z1Z3
0.03496037*Z0Z1Z2Z3
0.03629778*Z0Z2Z3
-0.00344934*X0Y1Y2Z3
0.00344934*Y0Y1X2
-0.00738847*Y0Y1X2Z3
0.00738847*X0Y1Y2
0.03549395*Z0Z2
0.03717012*Z0Z1Z2
0.09341260*Z1
