Y6X7
Y5X6X7
Y4X5X6X7
Y6Z7
Y5X6Z7
Y4X5X6Z7
Y2X3
Y1X2X3
Y0X1X2X3
Y2Z3
Y1X2Z3
Y0X1X2Z3
Y2X3Z5X6X7
Y1X2X3Z5X6X7
Y0X1X2X3Z5X6X7
Y2Z3Z5X6X7
Y1X2Z3Z5X6X7
Y0X1X2Z3Z5X6X7
Y2X3Z4X5X6X7
Y1X2X3Z4X5X6X7
Y0X1X2X3Z4X5X6X7
Y2Z3Z4X5X6X7
Y1X2Z3Z4X5X6X7
Y0X1X2Z3Z4X5X6X7
Y2X3X4X5X6X7
Y1X2X3X4X5X6X7
Y0X1X2X3X4X5X6X7
Y2Z3X4X5X6X7
Y1X2Z3X4X5X6X7
Y0X1X2Z3X4X5X6X7
Y2X3Z5X6Z7
Y1X2X3Z5X6Z7
Y0X1X2X3Z5X6Z7
Y2Z3Z5X6Z7
Y1X2Z3Z5X6Z7
Y0X1X2Z3Z5X6Z7
Y2X3Z4X5X6Z7
Y1X2X3Z4X5X6Z7
Y0X1X2X3Z4X5X6Z7
Y2Z3Z4X5X6Z7
Y1X2Z3Z4X5X6Z7
Y0X1X2Z3Z4X5X6Z7
Y2X3X4X5X6Z7
Y1X2X3X4X5X6Z7
Y0X1X2X3X4X5X6Z7
Y2Z3X4X5X6Z7
Y1X2Z3X4X5X6Z7
Y0X1X2Z3X4X5X6Z7
X5Y7
Y4Y5Y7
X4Y7
X1Y3
Y0Y1Y3
X0Y3
