1.50000000*I
0.25000000*Z4
0.25000000*Z3Z4Z5
0.25000000*Z3Z5
-0.37500000*Z2Z5
-0.12500000*Z1Z2Z5
-0.12500000*Z0Z1Z5
-0.12500000*Z0Z5
-0.12500000*Y2Y5
0.12500000*X2Z4X5
0.12500000*Z1Y2Y5
-0.12500000*Z1X2Z4X5
-0.12500000*X2X5
0.12500000*Y2Z4Y5
0.12500000*Z1X2X5
-0.12500000*Z1Y2Z4Y5
-0.12500000*Y1X2Y4X5
-0.12500000*Y1Y2Z3X4X5
0.12500000*Z0X1Y2Y4X5
-0.12500000*Z0X1X2Z3X4X5
-0.12500000*Y1Y2Y4Y5
0.12500000*Y1X2Z3X4Y5
-0.12500000*Z0X1X2Y4Y5
-0.12500000*Z0X1Y2Z3X4Y5
-0.12500000*Y0X1X2Y3X4X5
-0.12500000*Y0X1Y2X3X4X5
0.12500000*X0X1Y2Y3X4X5
-0.12500000*X0X1X2X3X4X5
-0.12500000*Y0X1Y2Y3X4Y5
0.12500000*Y0X1X2X3X4Y5
-0.12500000*X0X1X2Y3X4Y5
-0.12500000*X0X1Y2X3X4Y5
-0.12500000*Z2Z4Z5
-0.37500000*Z1Z2Z4Z5
-0.12500000*Z0Z1Z4Z5
-0.12500000*Z0Z4Z5
-0.12500000*Y1Z2Y4Z5
0.12500000*X1Z3X4Z5
0.12500000*Z0Y1Y4Z5
-0.12500000*Z0X1Z2Z3X4Z5
-0.12500000*X1X4
0.12500000*Y1Z2Z3Y4
0.12500000*Z0X1Z2X4
-0.12500000*Z0Y1Z3Y4
-0.12500000*Y0X1Z2Y3X4Z5
-0.12500000*Y0Y1X3X4Z5
0.12500000*X0Y1Y3X4Z5
-0.12500000*X0X1Z2X3X4Z5
-0.12500000*Y0Y1Y3Y4
0.12500000*Y0X1Z2X3Y4
-0.12500000*X0X1Z2Y3Y4
-0.12500000*X0Y1X3Y4
-0.12500000*Z2Z3Z4
-0.12500000*Z1Z2Z3Z4
-0.37500000*Z0Z1Z3Z4
-0.12500000*Z0Z3Z4
-0.12500000*Y0Z1Y3Z4
0.12500000*X0X3Z4
0.12500000*Y0Y3Z4
-0.12500000*X0Z1X3Z4
-0.12500000*X0X3
0.12500000*Y0Z1Y3
0.12500000*X0Z1X3
-0.12500000*Y0Y3
-0.12500000*Z2Z3
-0.12500000*Z1Z2Z3
-0.12500000*Z0Z1Z3
-0.37500000*Z0Z3
0.25000000*Z1
0.25000000*Z0Z1Z2
0.25000000*Z0Z2
