0.16304372*I
0.20820480*Z9
0.00673302*Z7X8X9
0.00673302*Y8Y9
0.00684495*Z5X6X7X8X9
0.00684495*Y6X7X8Y9
0.15629545*Z8Z9
0.00349856*Z6X7X8Z9
0.00349856*Y7Y8
-0.00896876*X5X6X7X8Z9
0.00896876*Y5X6X7Y8
0.05734498*Z7Z8
-0.02457394*Z5X6X7Z8
-0.02457394*Y6Y7
-0.08675727*Z6Z7
0.01259052*X5X6Z7
-0.01259052*Y5Y6
-0.29122527*Z5Z6
0.54736833*Z5
-0.20820480*Z4
-0.00673302*Z2X3X4
0.00673302*Y3Y4
-0.00684495*Z0X1X2X3X4
0.00684495*Y1X2X3Y4
0.15629545*Z3Z4
0.00349856*Z1X2X3Z4
0.00349856*Y2Y3
0.00896876*X0X1X2X3Z4
0.00896876*Y0X1X2Y3
0.05734498*Z2Z3
-0.02457394*Z0X1X2Z3
-0.02457394*Y1Y2
-0.08675727*Z1Z2
-0.01259052*X0X1Z2
-0.01259052*Y0Y1
-0.29122527*Z0Z1
-0.54736833*Z0
0.05847356*Z8
0.00797358*Z6X7X8
0.00797358*Y7Y8Z9
0.00185687*X5X6X7X8
-0.00185687*Y5X6X7Y8Z9
0.07066339*Z7Z8Z9
0.01342653*Z5X6X7Z8Z9
0.01342653*Y6Y7Z9
0.07856525*Z6Z7Z9
-0.01420517*X5X6Z7Z9
0.01420517*Y5Y6Z9
0.08433392*Z5Z6Z9
-0.10546989*Z5Z9
0.01951812*Z7Y8Y9
0.01951812*X8X9
0.00225345*Z5X6X7Y8Y9
-0.00225345*Y6X7Y8X9
-0.01823328*Z6X7X9
0.00626294*X7Z8X9
-0.01197034*Z6Y7Y9
-0.01197034*Y7Y9
0.00626294*Z6X7Z8X9
-0.01823328*X7X9
0.00687404*X5X6X7X9
-0.00498908*Y5X6Y7Z8X9
0.00188496*X5X6Y7Y9
-0.00188496*Y5X6X7Y9
-0.00498908*X5X6X7Z8X9
0.00687404*Y5X6Y7X9
0.02036405*Z5X6Z7Z8X9
-0.01376419*X6Z8X9
0.00659986*Z5Y6Y9
0.00659986*Y6Z7Z8Y9
-0.01376419*Z5X6Z7X9
0.02036405*X6X9
0.02668333*X5Z6Z8X9
0.02229515*X5Z8X9
0.00438818*Y5Y9
-0.00438818*Y5Z6Z8Y9
-0.02229515*X5Z6X9
-0.02668333*X5X9
-0.01236375*Z5X6Y7Y8X9
-0.01236375*Y6Y7Y8Y9
-0.00317525*Z6X8X9
-0.00317525*Z6Z7Y8Y9
0.01517759*X5X6X8X9
-0.00651198*Y5Y6Z7X8X9
0.00866561*X5Y6Y8X9
-0.00866561*Y5X6X8Y9
0.00651198*X5X6Z7Y8Y9
-0.01517759*Y5Y6Y8Y9
-0.00156779*Z5Z6Z7X8X9
-0.00156779*Z5Z6Y8Y9
0.01563821*Z5Z7X8X9
0.01563821*Z5Y8Y9
0.00075558*Z5Y6Y7X8X9
-0.00075558*X6Y7X8Y9
0.00795314*X5X7X8X9
0.00542343*X5Z6X7X8X9
0.00252971*Y5Y7X8X9
-0.00252971*Y5X7X8Y9
0.00542343*X5Z6Y7X8Y9
0.00795314*X5Y7X8Y9
-0.00162853*X6X7X8X9
-0.00162853*Z5Y6X7X8Y9
-0.11381419*Z4Z9
0.02079991*Z4Z7X8X9
0.02079991*Z4Y8Y9
-0.00082181*Z4Z5X6X7X8X9
-0.00082181*Z4Y6X7X8Y9
-0.03381365*X4Z8X9
-0.03381365*Z3X4Z8X9
0.03381365*X4X9
0.03381365*Z3X4X9
-0.01327100*X4Z6X7X8X9
-0.01327100*Z3X4Z6X7X8X9
-0.01327100*X4Y7X8Y9
-0.01327100*Z3X4Y7X8Y9
0.00054303*X4X5X6X7X8X9
0.00054303*Z3X4X5X6X7X8X9
-0.00054303*X4Y5X6X7X8Y9
-0.00054303*Z3X4Y5X6X7X8Y9
-0.02079991*Y3Y4Z9
0.02079991*Z2X3X4Z9
0.02543577*Y3Y4Z7X8X9
-0.02543577*Z2X3X4Z7X8X9
0.02543577*Y3Y4Y8Y9
-0.02543577*Z2X3X4Y8Y9
0.00872231*Y3Y4Z5X6X7X8X9
-0.00872231*Z2X3X4Z5X6X7X8X9
0.00872231*Y3Y4Y6X7X8Y9
-0.00872231*Z2X3X4Y6X7X8Y9
0.01327100*Y2X3Y4Z8X9
-0.01327100*Z1X2X3X4Z8X9
-0.01327100*Y2X3Y4X9
0.01327100*Z1X2X3X4X9
0.01963758*Y2X3Y4Z6X7X8X9
-0.01963758*Z1X2X3X4Z6X7X8X9
0.01963758*Y2X3Y4Y7X8Y9
-0.01963758*Z1X2X3X4Y7X8Y9
-0.00740416*Y2X3Y4X5X6X7X8X9
0.00740416*Z1X2X3X4X5X6X7X8X9
0.00740416*Y2X3Y4Y5X6X7X8Y9
-0.00740416*Z1X2X3X4Y5X6X7X8Y9
0.00082181*Y1X2X3Y4Z9
-0.00082181*Z0X1X2X3X4Z9
0.00872231*Y1X2X3Y4Z7X8X9
-0.00872231*Z0X1X2X3X4Z7X8X9
0.00872231*Y1X2X3Y4Y8Y9
-0.00872231*Z0X1X2X3X4Y8Y9
0.01397873*Y1X2X3Y4Z5X6X7X8X9
-0.01397873*Z0X1X2X3X4Z5X6X7X8X9
0.01397873*Y1X2X3Y4Y6X7X8Y9
-0.01397873*Z0X1X2X3X4Y6X7X8Y9
0.00054303*Y0X1X2X3Y4Z8X9
-0.00054303*X0X1X2X3X4Z8X9
-0.00054303*Y0X1X2X3Y4X9
0.00054303*X0X1X2X3X4X9
0.00740416*Y0X1X2X3Y4Z6X7X8X9
-0.00740416*X0X1X2X3X4Z6X7X8X9
0.00740416*Y0X1X2X3Y4Y7X8Y9
-0.00740416*X0X1X2X3X4Y7X8Y9
-0.01688523*Y0X1X2X3Y4X5X6X7X8X9
0.01688523*X0X1X2X3X4X5X6X7X8X9
0.01688523*Y0X1X2X3Y4Y5X6X7X8Y9
-0.01688523*X0X1X2X3X4Y5X6X7X8Y9
0.09228721*Z3Z4Z9
0.00614957*Z3Z4Z7X8X9
0.00614957*Z3Z4Y8Y9
0.00935970*Z3Z4Z5X6X7X8X9
0.00935970*Z3Z4Y6X7X8Y9
-0.02566769*X3Z8X9
0.02566769*Z2X3Z4Z8X9
0.02566769*X3X9
-0.02566769*Z2X3Z4X9
0.00345576*X3Z6X7X8X9
-0.00345576*Z2X3Z4Z6X7X8X9
0.00345576*X3Y7X8Y9
-0.00345576*Z2X3Z4Y7X8Y9
-0.00623959*X3X5X6X7X8X9
0.00623959*Z2X3Z4X5X6X7X8X9
0.00623959*X3Y5X6X7X8Y9
-0.00623959*Z2X3Z4Y5X6X7X8Y9
0.02124458*Y2Y3Z9
0.02124458*Z1X2X3Z4Z9
-0.01542610*Y2Y3Z7X8X9
-0.01542610*Z1X2X3Z4Z7X8X9
-0.01542610*Y2Y3Y8Y9
-0.01542610*Z1X2X3Z4Y8Y9
0.00643163*Y2Y3Z5X6X7X8X9
0.00643163*Z1X2X3Z4Z5X6X7X8X9
0.00643163*Y2Y3Y6X7X8Y9
0.00643163*Z1X2X3Z4Y6X7X8Y9
0.01161315*Y1X2Y3Z8X9
0.01161315*Z0X1X2X3Z4Z8X9
-0.01161315*Y1X2Y3X9
-0.01161315*Z0X1X2X3Z4X9
0.01303149*Y1X2Y3Z6X7X8X9
0.01303149*Z0X1X2X3Z4Z6X7X8X9
0.01303149*Y1X2Y3Y7X8Y9
0.01303149*Z0X1X2X3Z4Y7X8Y9
0.00789757*Y1X2Y3X5X6X7X8X9
0.00789757*Z0X1X2X3Z4X5X6X7X8X9
-0.00789757*Y1X2Y3Y5X6X7X8Y9
-0.00789757*Z0X1X2X3Z4Y5X6X7X8Y9
-0.00131384*Y0X1X2Y3Z9
-0.00131384*X0X1X2X3Z4Z9
-0.00812456*Y0X1X2Y3Z7X8X9
-0.00812456*X0X1X2X3Z4Z7X8X9
-0.00812456*Y0X1X2Y3Y8Y9
-0.00812456*X0X1X2X3Z4Y8Y9
-0.01228576*Y0X1X2Y3Z5X6X7X8X9
-0.01228576*X0X1X2X3Z4Z5X6X7X8X9
-0.01228576*Y0X1X2Y3Y6X7X8Y9
-0.01228576*X0X1X2X3Z4Y6X7X8Y9
0.09609915*Z2Z3Z9
-0.00518314*Z2Z3Z7X8X9
-0.00518314*Z2Z3Y8Y9
-0.00387262*Z2Z3Z5X6X7X8X9
-0.00387262*Z2Z3Y6X7X8Y9
0.02168904*X2Z8X9
-0.02168904*Z1X2Z3Z8X9
-0.02168904*X2X9
0.02168904*Z1X2Z3X9
0.00234975*X2Z6X7X8X9
-0.00234975*Z1X2Z3Z6X7X8X9
0.00234975*X2Y7X8Y9
-0.00234975*Z1X2Z3Y7X8Y9
-0.00913825*X2X5X6X7X8X9
0.00913825*Z1X2Z3X5X6X7X8X9
0.00913825*X2Y5X6X7X8Y9
-0.00913825*Z1X2Z3Y5X6X7X8Y9
0.02214883*Y1Y2Z9
0.02214883*Z0X1X2Z3Z9
-0.01623637*Y1Y2Z7X8X9
-0.01623637*Z0X1X2Z3Z7X8X9
-0.01623637*Y1Y2Y8Y9
-0.01623637*Z0X1X2Z3Y8Y9
0.00397961*Y1Y2Z5X6X7X8X9
0.00397961*Z0X1X2Z3Z5X6X7X8X9
0.00397961*Y1Y2Y6X7X8Y9
0.00397961*Z0X1X2Z3Y6X7X8Y9
-0.01311364*Y0X1Y2Z8X9
-0.01311364*X0X1X2Z3Z8X9
0.01311364*Y0X1Y2X9
0.01311364*X0X1X2Z3X9
-0.01780386*Y0X1Y2Z6X7X8X9
-0.01780386*X0X1X2Z3Z6X7X8X9
-0.01780386*Y0X1Y2Y7X8Y9
-0.01780386*X0X1X2Z3Y7X8Y9
0.00695199*Y0X1Y2X5X6X7X8X9
0.00695199*X0X1X2Z3X5X6X7X8X9
-0.00695199*Y0X1Y2Y5X6X7X8Y9
-0.00695199*X0X1X2Z3Y5X6X7X8Y9
0.09820283*Z1Z2Z9
-0.00552500*Z1Z2Z7X8X9
-0.00552500*Z1Z2Y8Y9
-0.00090622*Z1Z2Z5X6X7X8X9
-0.00090622*Z1Z2Y6X7X8Y9
-0.02679568*X1Z8X9
0.02679568*Z0X1Z2Z8X9
0.02679568*X1X9
-0.02679568*Z0X1Z2X9
0.00015063*X1Z6X7X8X9
-0.00015063*Z0X1Z2Z6X7X8X9
0.00015063*X1Y7X8Y9
-0.00015063*Z0X1Z2Y7X8Y9
-0.00544658*X1X5X6X7X8X9
0.00544658*Z0X1Z2X5X6X7X8X9
0.00544658*X1Y5X6X7X8Y9
-0.00544658*Z0X1Z2Y5X6X7X8Y9
0.02160932*Y0Y1Z9
0.02160932*X0X1Z2Z9
-0.02431584*Y0Y1Z7X8X9
-0.02431584*X0X1Z2Z7X8X9
-0.02431584*Y0Y1Y8Y9
-0.02431584*X0X1Z2Y8Y9
-0.00797628*Y0Y1Z5X6X7X8X9
-0.00797628*X0X1Z2Z5X6X7X8X9
-0.00797628*Y0Y1Y6X7X8Y9
-0.00797628*X0X1Z2Y6X7X8Y9
0.09831265*Z0Z1Z9
0.00241182*Z0Z1Z7X8X9
0.00241182*Z0Z1Y8Y9
0.00862178*Z0Z1Z5X6X7X8X9
0.00862178*Z0Z1Y6X7X8Y9
0.03458091*X0Z8X9
-0.03458091*X0Z1Z8X9
-0.03458091*X0X9
0.03458091*X0Z1X9
0.01339972*X0Z6X7X8X9
-0.01339972*X0Z1Z6X7X8X9
0.01339972*X0Y7X8Y9
-0.01339972*X0Z1Y7X8Y9
-0.00064278*X0X5X6X7X8X9
0.00064278*X0Z1X5X6X7X8X9
0.00064278*X0Y5X6X7X8Y9
-0.00064278*X0Z1Y5X6X7X8Y9
0.12235512*Z0Z9
-0.02259020*Z0Z7X8X9
-0.02259020*Z0Y8Y9
0.00098574*Z0Z5X6X7X8X9
0.00098574*Z0Y6X7X8Y9
0.05966288*Z7Z9
0.00362465*Z5X6X7Z9
0.00362465*Y6Y7Z8Z9
0.07140809*Z6Z7Z8Z9
-0.00092470*X5X6Z7Z8Z9
0.00092470*Y5Y6Z8Z9
0.08089935*Z5Z6Z8Z9
-0.08673547*Z5Z8Z9
-0.02331940*Z6Y7Y8Z9
-0.02331940*X7X8
0.00016150*X5X6Y7Y8Z9
0.00016150*Y5X6Y7X8
0.02289111*Z5X6X8Z9
-0.01028506*X6Z7X8Z9
0.01260604*Z5Y6Y8Z9
0.01260604*Y6Y8
-0.01028506*Z5X6Z7X8
0.02289111*X6X8
0.02168809*X5Z6Z7X8Z9
0.01430801*X5Z7X8Z9
0.00738008*Y5Y8Z9
-0.00738008*Y5Z6Z7Y8
-0.01430801*X5Z6X8
-0.02168809*X5X8
-0.01376864*X5Y6Y7X8Z9
0.01376864*Y5Y6Y7Y8
0.00404014*Z5X7X8Z9
0.00404014*Z5Z6Y7Y8
-0.01543136*Z5Z6X7X8Z9
-0.01543136*Z5Y7Y8
0.00285321*Y5Y6X7X8Z9
0.00285321*X5Y6X7Y8
-0.09228721*Z4Z8Z9
-0.02124458*Z4Z6X7X8Z9
-0.02124458*Z4Y7Y8
-0.00131384*Z4X5X6X7X8Z9
0.00131384*Z4Y5X6X7Y8
-0.02566769*X4Z7X8Z9
-0.02566769*Z3X4Z7X8Z9
0.02566769*X4X8
0.02566769*Z3X4X8
-0.01161315*X4Z5X6X7X8Z9
-0.01161315*Z3X4Z5X6X7X8Z9
-0.01161315*X4Y6X7Y8
-0.01161315*Z3X4Y6X7Y8
0.00614957*Y3Y4Z8Z9
-0.00614957*Z2X3X4Z8Z9
-0.01542610*Y3Y4Z6X7X8Z9
0.01542610*Z2X3X4Z6X7X8Z9
-0.01542610*Y3Y4Y7Y8
0.01542610*Z2X3X4Y7Y8
0.00812456*Y3Y4X5X6X7X8Z9
-0.00812456*Z2X3X4X5X6X7X8Z9
-0.00812456*Y3Y4Y5X6X7Y8
0.00812456*Z2X3X4Y5X6X7Y8
-0.00345576*Y2X3Y4Z7X8Z9
0.00345576*Z1X2X3X4Z7X8Z9
0.00345576*Y2X3Y4X8
-0.00345576*Z1X2X3X4X8
0.01303149*Y2X3Y4Z5X6X7X8Z9
-0.01303149*Z1X2X3X4Z5X6X7X8Z9
0.01303149*Y2X3Y4Y6X7Y8
-0.01303149*Z1X2X3X4Y6X7Y8
0.00935970*Y1X2X3Y4Z8Z9
-0.00935970*Z0X1X2X3X4Z8Z9
0.00643163*Y1X2X3Y4Z6X7X8Z9
-0.00643163*Z0X1X2X3X4Z6X7X8Z9
0.00643163*Y1X2X3Y4Y7Y8
-0.00643163*Z0X1X2X3X4Y7Y8
0.01228576*Y1X2X3Y4X5X6X7X8Z9
-0.01228576*Z0X1X2X3X4X5X6X7X8Z9
-0.01228576*Y1X2X3Y4Y5X6X7Y8
0.01228576*Z0X1X2X3X4Y5X6X7Y8
-0.00623959*Y0X1X2X3Y4Z7X8Z9
0.00623959*X0X1X2X3X4Z7X8Z9
0.00623959*Y0X1X2X3Y4X8
-0.00623959*X0X1X2X3X4X8
-0.00789757*Y0X1X2X3Y4Z5X6X7X8Z9
0.00789757*X0X1X2X3X4Z5X6X7X8Z9
-0.00789757*Y0X1X2X3Y4Y6X7Y8
0.00789757*X0X1X2X3X4Y6X7Y8
0.09945257*Z3Z4Z8Z9
0.00417931*Z3Z4Z6X7X8Z9
0.00417931*Z3Z4Y7Y8
0.00944636*Z3Z4X5X6X7X8Z9
-0.00944636*Z3Z4Y5X6X7Y8
-0.03230708*X3Z7X8Z9
0.03230708*Z2X3Z4Z7X8Z9
0.03230708*X3X8
-0.03230708*Z2X3Z4X8
-0.00095969*X3Z5X6X7X8Z9
0.00095969*Z2X3Z4Z5X6X7X8Z9
-0.00095969*X3Y6X7Y8
0.00095969*Z2X3Z4Y6X7Y8
0.00417931*Y2Y3Z8Z9
0.00417931*Z1X2X3Z4Z8Z9
0.02203685*Y2Y3Z6X7X8Z9
0.02203685*Z1X2X3Z4Z6X7X8Z9
0.02203685*Y2Y3Y7Y8
0.02203685*Z1X2X3Z4Y7Y8
0.00494065*Y2Y3X5X6X7X8Z9
0.00494065*Z1X2X3Z4X5X6X7X8Z9
-0.00494065*Y2Y3Y5X6X7Y8
-0.00494065*Z1X2X3Z4Y5X6X7Y8
0.00095969*Y1X2Y3Z7X8Z9
0.00095969*Z0X1X2X3Z4Z7X8Z9
-0.00095969*Y1X2Y3X8
-0.00095969*Z0X1X2X3Z4X8
0.02088715*Y1X2Y3Z5X6X7X8Z9
0.02088715*Z0X1X2X3Z4Z5X6X7X8Z9
0.02088715*Y1X2Y3Y6X7Y8
0.02088715*Z0X1X2X3Z4Y6X7Y8
-0.00944636*Y0X1X2Y3Z8Z9
-0.00944636*X0X1X2X3Z4Z8Z9
-0.00494065*Y0X1X2Y3Z6X7X8Z9
-0.00494065*X0X1X2X3Z4Z6X7X8Z9
-0.00494065*Y0X1X2Y3Y7Y8
-0.00494065*X0X1X2X3Z4Y7Y8
-0.01294231*Y0X1X2Y3X5X6X7X8Z9
-0.01294231*X0X1X2X3Z4X5X6X7X8Z9
0.01294231*Y0X1X2Y3Y5X6X7Y8
0.01294231*X0X1X2X3Z4Y5X6X7Y8
0.09196996*Z2Z3Z8Z9
0.00094059*Z2Z3Z6X7X8Z9
0.00094059*Z2Z3Y7Y8
-0.00166054*Z2Z3X5X6X7X8Z9
0.00166054*Z2Z3Y5X6X7Y8
0.02237881*X2Z7X8Z9
-0.02237881*Z1X2Z3Z7X8Z9
-0.02237881*X2X8
0.02237881*Z1X2Z3X8
-0.00745041*X2Z5X6X7X8Z9
0.00745041*Z1X2Z3Z5X6X7X8Z9
-0.00745041*X2Y6X7Y8
0.00745041*Z1X2Z3Y6X7Y8
0.00458433*Y1Y2Z8Z9
0.00458433*Z0X1X2Z3Z8Z9
0.02005645*Y1Y2Z6X7X8Z9
0.02005645*Z0X1X2Z3Z6X7X8Z9
0.02005645*Y1Y2Y7Y8
0.02005645*Z0X1X2Z3Y7Y8
0.00537365*Y1Y2X5X6X7X8Z9
0.00537365*Z0X1X2Z3X5X6X7X8Z9
-0.00537365*Y1Y2Y5X6X7Y8
-0.00537365*Z0X1X2Z3Y5X6X7Y8
0.00149904*Y0X1Y2Z7X8Z9
0.00149904*X0X1X2Z3Z7X8Z9
-0.00149904*Y0X1Y2X8
-0.00149904*X0X1X2Z3X8
-0.01275373*Y0X1Y2Z5X6X7X8Z9
-0.01275373*X0X1X2Z3Z5X6X7X8Z9
-0.01275373*Y0X1Y2Y6X7Y8
-0.01275373*X0X1X2Z3Y6X7Y8
0.09344495*Z1Z2Z8Z9
0.00467243*Z1Z2Z6X7X8Z9
0.00467243*Z1Z2Y7Y8
-0.00210354*Z1Z2X5X6X7X8Z9
0.00210354*Z1Z2Y5X6X7Y8
-0.03034152*X1Z7X8Z9
0.03034152*Z0X1Z2Z7X8Z9
0.03034152*X1X8
-0.03034152*Z0X1Z2X8
-0.00242726*X1Z5X6X7X8Z9
0.00242726*Z0X1Z2Z5X6X7X8Z9
-0.00242726*X1Y6X7Y8
0.00242726*Z0X1Z2Y6X7Y8
-0.00401595*Y0Y1Z8Z9
-0.00401595*X0X1Z2Z8Z9
0.01587218*Y0Y1Z6X7X8Z9
0.01587218*X0X1Z2Z6X7X8Z9
0.01587218*Y0Y1Y7Y8
0.01587218*X0X1Z2Y7Y8
-0.00811624*Y0Y1X5X6X7X8Z9
-0.00811624*X0X1Z2X5X6X7X8Z9
0.00811624*Y0Y1Y5X6X7Y8
0.00811624*X0X1Z2Y5X6X7Y8
0.10178651*Z0Z1Z8Z9
0.00646740*Z0Z1Z6X7X8Z9
0.00646740*Z0Z1Y7Y8
0.00927677*Z0Z1X5X6X7X8Z9
-0.00927677*Z0Z1Y5X6X7Y8
0.02706174*X0Z7X8Z9
-0.02706174*X0Z1Z7X8Z9
-0.02706174*X0X8
0.02706174*X0Z1X8
0.01212998*X0Z5X6X7X8Z9
-0.01212998*X0Z1Z5X6X7X8Z9
0.01212998*X0Y6X7Y8
-0.01212998*X0Z1Y6X7Y8
0.09967778*Z0Z8Z9
0.02354760*Z0Z6X7X8Z9
0.02354760*Z0Y7Y8
0.00167511*Z0X5X6X7X8Z9
-0.00167511*Z0Y5X6X7Y8
0.06868088*Z6Z8
-0.00329488*X5X6Z8
0.00329488*Y5Y6Z7Z8
0.07464342*Z5Z6Z7Z8
-0.08542503*Z5Z7Z8
-0.02608083*Z5Y6Y7Z8
-0.02608083*X6X7
-0.02182448*X5X7Z8
-0.00651914*X5Z6X7Z8
-0.01530534*Y5Y7Z8
0.01530534*Y5Y7
0.00651914*X5Z6X7
0.02182448*X5X7
-0.01068806*X6X7Z8
-0.01068806*Z5Y6Y7
-0.09609915*Z4Z7Z8
-0.02214883*Z4Z5X6X7Z8
-0.02214883*Z4Y6Y7
0.02168904*X4Z6X7Z8
0.02168904*Z3X4Z6X7Z8
-0.02168904*X4X7
-0.02168904*Z3X4X7
-0.01311364*X4X5X6X7Z8
-0.01311364*Z3X4X5X6X7Z8
0.01311364*X4Y5X6Y7
0.01311364*Z3X4Y5X6Y7
-0.00518314*Y3Y4Z7Z8
0.00518314*Z2X3X4Z7Z8
-0.01623637*Y3Y4Z5X6X7Z8
0.01623637*Z2X3X4Z5X6X7Z8
-0.01623637*Y3Y4Y6Y7
0.01623637*Z2X3X4Y6Y7
-0.00234975*Y2X3Y4Z6X7Z8
0.00234975*Z1X2X3X4Z6X7Z8
0.00234975*Y2X3Y4X7
-0.00234975*Z1X2X3X4X7
0.01780386*Y2X3Y4X5X6X7Z8
-0.01780386*Z1X2X3X4X5X6X7Z8
-0.01780386*Y2X3Y4Y5X6Y7
0.01780386*Z1X2X3X4Y5X6Y7
-0.00387262*Y1X2X3Y4Z7Z8
0.00387262*Z0X1X2X3X4Z7Z8
0.00397961*Y1X2X3Y4Z5X6X7Z8
-0.00397961*Z0X1X2X3X4Z5X6X7Z8
0.00397961*Y1X2X3Y4Y6Y7
-0.00397961*Z0X1X2X3X4Y6Y7
-0.00913825*Y0X1X2X3Y4Z6X7Z8
0.00913825*X0X1X2X3X4Z6X7Z8
0.00913825*Y0X1X2X3Y4X7
-0.00913825*X0X1X2X3X4X7
0.00695199*Y0X1X2X3Y4X5X6X7Z8
-0.00695199*X0X1X2X3X4X5X6X7Z8
-0.00695199*Y0X1X2X3Y4Y5X6Y7
0.00695199*X0X1X2X3X4Y5X6Y7
0.09196996*Z3Z4Z7Z8
0.00458433*Z3Z4Z5X6X7Z8
0.00458433*Z3Z4Y6Y7
0.02237881*X3Z6X7Z8
-0.02237881*Z2X3Z4Z6X7Z8
-0.02237881*X3X7
0.02237881*Z2X3Z4X7
0.00149904*X3X5X6X7Z8
-0.00149904*Z2X3Z4X5X6X7Z8
-0.00149904*X3Y5X6Y7
0.00149904*Z2X3Z4Y5X6Y7
0.00094059*Y2Y3Z7Z8
0.00094059*Z1X2X3Z4Z7Z8
0.02005645*Y2Y3Z5X6X7Z8
0.02005645*Z1X2X3Z4Z5X6X7Z8
0.02005645*Y2Y3Y6Y7
0.02005645*Z1X2X3Z4Y6Y7
0.00745041*Y1X2Y3Z6X7Z8
0.00745041*Z0X1X2X3Z4Z6X7Z8
-0.00745041*Y1X2Y3X7
-0.00745041*Z0X1X2X3Z4X7
0.01275373*Y1X2Y3X5X6X7Z8
0.01275373*Z0X1X2X3Z4X5X6X7Z8
-0.01275373*Y1X2Y3Y5X6Y7
-0.01275373*Z0X1X2X3Z4Y5X6Y7
0.00166054*Y0X1X2Y3Z7Z8
0.00166054*X0X1X2X3Z4Z7Z8
-0.00537365*Y0X1X2Y3Z5X6X7Z8
-0.00537365*X0X1X2X3Z4Z5X6X7Z8
-0.00537365*Y0X1X2Y3Y6Y7
-0.00537365*X0X1X2X3Z4Y6Y7
0.09782336*Z2Z3Z7Z8
0.00420675*Z2Z3Z5X6X7Z8
0.00420675*Z2Z3Y6Y7
-0.02760706*X2Z6X7Z8
0.02760706*Z1X2Z3Z6X7Z8
0.02760706*X2X7
-0.02760706*Z1X2Z3X7
0.00273675*X2X5X6X7Z8
-0.00273675*Z1X2Z3X5X6X7Z8
-0.00273675*X2Y5X6Y7
0.00273675*Z1X2Z3Y5X6Y7
0.00420675*Y1Y2Z7Z8
0.00420675*Z0X1X2Z3Z7Z8
0.02184545*Y1Y2Z5X6X7Z8
0.02184545*Z0X1X2Z3Z5X6X7Z8
0.02184545*Y1Y2Y6Y7
0.02184545*Z0X1X2Z3Y6Y7
0.00273675*Y0X1Y2Z6X7Z8
0.00273675*X0X1X2Z3Z6X7Z8
-0.00273675*Y0X1Y2X7
-0.00273675*X0X1X2Z3X7
-0.01904256*Y0X1Y2X5X6X7Z8
-0.01904256*X0X1X2Z3X5X6X7Z8
0.01904256*Y0X1Y2Y5X6Y7
0.01904256*X0X1X2Z3Y5X6Y7
0.09628794*Z1Z2Z7Z8
0.00356154*Z1Z2Z5X6X7Z8
0.00356154*Z1Z2Y6Y7
0.02251929*X1Z6X7Z8
-0.02251929*Z0X1Z2Z6X7Z8
-0.02251929*X1X7
0.02251929*Z0X1Z2X7
0.00131483*X1X5X6X7Z8
-0.00131483*Z0X1Z2X5X6X7Z8
-0.00131483*X1Y5X6Y7
0.00131483*Z0X1Z2Y5X6Y7
0.00603163*Y0Y1Z7Z8
0.00603163*X0X1Z2Z7Z8
0.01662017*Y0Y1Z5X6X7Z8
0.01662017*X0X1Z2Z5X6X7Z8
0.01662017*Y0Y1Y6Y7
0.01662017*X0X1Z2Y6Y7
0.09648887*Z0Z1Z7Z8
0.00695903*Z0Z1Z5X6X7Z8
0.00695903*Z0Z1Y6Y7
-0.02313931*X0Z6X7Z8
0.02313931*X0Z1Z6X7Z8
0.02313931*X0X7
-0.02313931*X0Z1X7
0.01458749*X0X5X6X7Z8
-0.01458749*X0Z1X5X6X7Z8
-0.01458749*X0Y5X6Y7
0.01458749*X0Z1Y5X6Y7
0.10446759*Z0Z7Z8
0.02527555*Z0Z5X6X7Z8
0.02527555*Z0Y6Y7
0.06624016*Z5Z7
-0.08095556*Z5Z6Z7
0.02577252*Y5Y6Z7
-0.02577252*X5X6
-0.09820283*Z4Z6Z7
0.02160932*Z4X5X6Z7
-0.02160932*Z4Y5Y6
-0.02679568*X4Z5X6Z7
-0.02679568*Z3X4Z5X6Z7
0.02679568*X4X6
0.02679568*Z3X4X6
-0.00552500*Y3Y4Z6Z7
0.00552500*Z2X3X4Z6Z7
0.02431584*Y3Y4X5X6Z7
-0.02431584*Z2X3X4X5X6Z7
-0.02431584*Y3Y4Y5Y6
0.02431584*Z2X3X4Y5Y6
-0.00015063*Y2X3Y4Z5X6Z7
0.00015063*Z1X2X3X4Z5X6Z7
0.00015063*Y2X3Y4X6
-0.00015063*Z1X2X3X4X6
-0.00090622*Y1X2X3Y4Z6Z7
0.00090622*Z0X1X2X3X4Z6Z7
0.00797628*Y1X2X3Y4X5X6Z7
-0.00797628*Z0X1X2X3X4X5X6Z7
-0.00797628*Y1X2X3Y4Y5Y6
0.00797628*Z0X1X2X3X4Y5Y6
-0.00544658*Y0X1X2X3Y4Z5X6Z7
0.00544658*X0X1X2X3X4Z5X6Z7
0.00544658*Y0X1X2X3Y4X6
-0.00544658*X0X1X2X3X4X6
0.09344495*Z3Z4Z6Z7
0.00401595*Z3Z4X5X6Z7
-0.00401595*Z3Z4Y5Y6
-0.03034152*X3Z5X6Z7
0.03034152*Z2X3Z4Z5X6Z7
0.03034152*X3X6
-0.03034152*Z2X3Z4X6
0.00467243*Y2Y3Z6Z7
0.00467243*Z1X2X3Z4Z6Z7
-0.01587218*Y2Y3X5X6Z7
-0.01587218*Z1X2X3Z4X5X6Z7
0.01587218*Y2Y3Y5Y6
0.01587218*Z1X2X3Z4Y5Y6
0.00242726*Y1X2Y3Z5X6Z7
0.00242726*Z0X1X2X3Z4Z5X6Z7
-0.00242726*Y1X2Y3X6
-0.00242726*Z0X1X2X3Z4X6
0.00210354*Y0X1X2Y3Z6Z7
0.00210354*X0X1X2X3Z4Z6Z7
-0.00811624*Y0X1X2Y3X5X6Z7
-0.00811624*X0X1X2X3Z4X5X6Z7
0.00811624*Y0X1X2Y3Y5Y6
0.00811624*X0X1X2X3Z4Y5Y6
0.09628794*Z2Z3Z6Z7
-0.00603163*Z2Z3X5X6Z7
0.00603163*Z2Z3Y5Y6
0.02251929*X2Z5X6Z7
-0.02251929*Z1X2Z3Z5X6Z7
-0.02251929*X2X6
0.02251929*Z1X2Z3X6
0.00356154*Y1Y2Z6Z7
0.00356154*Z0X1X2Z3Z6Z7
-0.01662017*Y1Y2X5X6Z7
-0.01662017*Z0X1X2Z3X5X6Z7
0.01662017*Y1Y2Y5Y6
0.01662017*Z0X1X2Z3Y5Y6
0.00131483*Y0X1Y2Z5X6Z7
0.00131483*X0X1X2Z3Z5X6Z7
-0.00131483*Y0X1Y2X6
-0.00131483*X0X1X2Z3X6
0.10040821*Z1Z2Z6Z7
-0.00667031*Z1Z2X5X6Z7
0.00667031*Z1Z2Y5Y6
-0.03279498*X1Z5X6Z7
0.03279498*Z0X1Z2Z5X6Z7
0.03279498*X1X6
-0.03279498*Z0X1Z2X6
0.00667031*Y0Y1Z6Z7
0.00667031*X0X1Z2Z6Z7
-0.02680075*Y0Y1X5X6Z7
-0.02680075*X0X1Z2X5X6Z7
0.02680075*Y0Y1Y5Y6
0.02680075*X0X1Z2Y5Y6
0.09903515*Z0Z1Z6Z7
0.00314999*Z0Z1X5X6Z7
-0.00314999*Z0Z1Y5Y6
0.02892251*X0Z5X6Z7
-0.02892251*X0Z1Z5X6Z7
-0.02892251*X0X6
0.02892251*X0Z1X6
0.10775631*Z0Z6Z7
-0.02534743*Z0X5X6Z7
0.02534743*Z0Y5Y6
-0.06954610*Z6
-0.09831265*Z4Z5Z6
-0.03458091*X4X5Z6
-0.03458091*Z3X4X5Z6
-0.03458091*X4X5
-0.03458091*Z3X4X5
0.00241182*Y3Y4Z5Z6
-0.00241182*Z2X3X4Z5Z6
0.01339972*Y2X3Y4X5Z6
-0.01339972*Z1X2X3X4X5Z6
0.01339972*Y2X3Y4X5
-0.01339972*Z1X2X3X4X5
0.00862178*Y1X2X3Y4Z5Z6
-0.00862178*Z0X1X2X3X4Z5Z6
0.00064278*Y0X1X2X3Y4X5Z6
-0.00064278*X0X1X2X3X4X5Z6
0.00064278*Y0X1X2X3Y4X5
-0.00064278*X0X1X2X3X4X5
0.10178651*Z3Z4Z5Z6
-0.02706174*X3X5Z6
0.02706174*Z2X3Z4X5Z6
-0.02706174*X3X5
0.02706174*Z2X3Z4X5
0.00646740*Y2Y3Z5Z6
0.00646740*Z1X2X3Z4Z5Z6
0.01212998*Y1X2Y3X5Z6
0.01212998*Z0X1X2X3Z4X5Z6
0.01212998*Y1X2Y3X5
0.01212998*Z0X1X2X3Z4X5
-0.00927677*Y0X1X2Y3Z5Z6
-0.00927677*X0X1X2X3Z4Z5Z6
0.09648887*Z2Z3Z5Z6
0.02313931*X2X5Z6
-0.02313931*Z1X2Z3X5Z6
0.02313931*X2X5
-0.02313931*Z1X2Z3X5
0.00695903*Y1Y2Z5Z6
0.00695903*Z0X1X2Z3Z5Z6
-0.01458749*Y0X1Y2X5Z6
-0.01458749*X0X1X2Z3X5Z6
-0.01458749*Y0X1Y2X5
-0.01458749*X0X1X2Z3X5
0.09903515*Z1Z2Z5Z6
-0.02892251*X1X5Z6
0.02892251*Z0X1Z2X5Z6
-0.02892251*X1X5
0.02892251*Z0X1Z2X5
-0.00314999*Y0Y1Z5Z6
-0.00314999*X0X1Z2Z5Z6
0.10971250*Z0Z1Z5Z6
0.03963138*X0X5Z6
-0.03963138*X0Z1X5Z6
0.03963138*X0X5
-0.03963138*X0Z1X5
0.10917748*Z0Z5Z6
0.12235512*Z4Z5
0.02259020*Y3Y4Z5
-0.02259020*Z2X3X4Z5
-0.00098574*Y1X2X3Y4Z5
0.00098574*Z0X1X2X3X4Z5
-0.09967778*Z3Z4Z5
-0.02354760*Y2Y3Z5
-0.02354760*Z1X2X3Z4Z5
0.00167511*Y0X1X2Y3Z5
0.00167511*X0X1X2X3Z4Z5
-0.10446759*Z2Z3Z5
-0.02527555*Y1Y2Z5
-0.02527555*Z0X1X2Z3Z5
-0.10775631*Z1Z2Z5
-0.02534743*Y0Y1Z5
-0.02534743*X0X1Z2Z5
-0.10917748*Z0Z1Z5
-0.14003153*Z0Z5
-0.05847356*Z3
-0.00797358*Z1X2X3
-0.00797358*Y2Y3Z4
0.00185687*X0X1X2X3
0.00185687*Y0X1X2Y3Z4
-0.07066339*Z2Z3Z4
-0.01342653*Z0X1X2Z3Z4
-0.01342653*Y1Y2Z4
-0.07856525*Z1Z2Z4
-0.01420517*X0X1Z2Z4
-0.01420517*Y0Y1Z4
-0.08433392*Z0Z1Z4
-0.10546989*Z0Z4
-0.01951812*Z2Y3Y4
0.01951812*X3X4
-0.00225345*Z0X1X2Y3Y4
-0.00225345*Y1X2Y3X4
0.01823328*Z1X2X4
-0.00626294*X2Z3X4
0.01197034*Z1Y2Y4
-0.01197034*Y2Y4
0.00626294*Z1X2Z3X4
-0.01823328*X2X4
0.00687404*X0X1X2X4
0.00498908*Y0X1Y2Z3X4
0.00188496*X0X1Y2Y4
-0.00188496*Y0X1X2Y4
0.00498908*X0X1X2Z3X4
0.00687404*Y0X1Y2X4
-0.02036405*Z0X1Z2Z3X4
0.01376419*X1Z3X4
-0.00659986*Z0Y1Y4
0.00659986*Y1Z2Z3Y4
-0.01376419*Z0X1Z2X4
0.02036405*X1X4
0.02668333*X0Z1Z3X4
-0.02229515*X0Z3X4
0.00438818*Y0Y4
-0.00438818*Y0Z1Z3Y4
0.02229515*X0Z1X4
-0.02668333*X0X4
0.01236375*Z0X1Y2Y3X4
-0.01236375*Y1Y2Y3Y4
0.00317525*Z1X3X4
-0.00317525*Z1Z2Y3Y4
0.01517759*X0X1X3X4
0.00651198*Y0Y1Z2X3X4
0.00866561*X0Y1Y3X4
-0.00866561*Y0X1X3Y4
-0.00651198*X0X1Z2Y3Y4
-0.01517759*Y0Y1Y3Y4
0.00156779*Z0Z1Z2X3X4
-0.00156779*Z0Z1Y3Y4
0.01563821*Z0Z2X3X4
-0.01563821*Z0Y3Y4
-0.00075558*Z0Y1Y2X3X4
-0.00075558*X1Y2X3Y4
0.00795314*X0X2X3X4
-0.00542343*X0Z1X2X3X4
0.00252971*Y0Y2X3X4
-0.00252971*Y0X2X3Y4
-0.00542343*X0Z1Y2X3Y4
0.00795314*X0Y2X3Y4
-0.00162853*X1X2X3X4
0.00162853*Z0Y1X2X3Y4
0.05966288*Z2Z4
0.00362465*Z0X1X2Z4
0.00362465*Y1Y2Z3Z4
0.07140809*Z1Z2Z3Z4
0.00092470*X0X1Z2Z3Z4
0.00092470*Y0Y1Z3Z4
0.08089935*Z0Z1Z3Z4
0.08673547*Z0Z3Z4
-0.02331940*Z1Y2Y3Z4
-0.02331940*X2X3
-0.00016150*X0X1Y2Y3Z4
0.00016150*Y0X1Y2X3
0.02289111*Z0X1X3Z4
-0.01028506*X1Z2X3Z4
0.01260604*Z0Y1Y3Z4
0.01260604*Y1Y3
-0.01028506*Z0X1Z2X3
0.02289111*X1X3
-0.02168809*X0Z1Z2X3Z4
0.01430801*X0Z2X3Z4
-0.00738008*Y0Y3Z4
-0.00738008*Y0Z1Z2Y3
0.01430801*X0Z1X3
-0.02168809*X0X3
0.01376864*X0Y1Y2X3Z4
0.01376864*Y0Y1Y2Y3
0.00404014*Z0X2X3Z4
0.00404014*Z0Z1Y2Y3
0.01543136*Z0Z1X2X3Z4
0.01543136*Z0Y2Y3
-0.00285321*Y0Y1X2X3Z4
0.00285321*X0Y1X2Y3
0.06868088*Z1Z3
0.00329488*X0X1Z3
0.00329488*Y0Y1Z2Z3
0.07464342*Z0Z1Z2Z3
0.08542503*Z0Z2Z3
-0.02608083*Z0Y1Y2Z3
-0.02608083*X1X2
0.02182448*X0X2Z3
-0.00651914*X0Z1X2Z3
0.01530534*Y0Y2Z3
0.01530534*Y0Y2
-0.00651914*X0Z1X2
0.02182448*X0X2
0.01068806*X1X2Z3
0.01068806*Z0Y1Y2
0.06624016*Z0Z2
0.08095556*Z0Z1Z2
-0.02577252*Y0Y1Z2
-0.02577252*X0X1
0.06954610*Z1
