Y6X7X8X9
Y7X8Z9
Y5X6X7X8Z9
Y6X7Z8
Y1X2X3X4
Y2X3Z4
Y0X1X2X3Z4
Y1X2Z3
Y2X3X4Z6X7X8X9
Y0X1X2X3X4Z6X7X8X9
Y1X2X3Z4Z6X7X8X9
Y2Z3Z6X7X8X9
Y0X1X2Z3Z6X7X8X9
Y1X2X3X4Z5X6X7X8X9
Y2X3Z4Z5X6X7X8X9
Y0X1X2X3Z4Z5X6X7X8X9
Y1X2Z3Z5X6X7X8X9
Y2X3X4X5X6X7X8X9
Y0X1X2X3X4X5X6X7X8X9
Y1X2X3Z4X5X6X7X8X9
Y2Z3X5X6X7X8X9
Y0X1X2Z3X5X6X7X8X9
Y1X2X3X4Z6X7X8Z9
Y2X3Z4Z6X7X8Z9
Y0X1X2X3Z4Z6X7X8Z9
Y1X2Z3Z6X7X8Z9
Y2X3X4Z5X6X7X8Z9
Y0X1X2X3X4Z5X6X7X8Z9
Y1X2X3Z4Z5X6X7X8Z9
Y2Z3Z5X6X7X8Z9
Y0X1X2Z3Z5X6X7X8Z9
Y1X2X3X4X5X6X7X8Z9
Y2X3Z4X5X6X7X8Z9
Y0X1X2X3Z4X5X6X7X8Z9
Y1X2Z3X5X6X7X8Z9
Y2X3X4Z6X7Z8
Y0X1X2X3X4Z6X7Z8
Y1X2X3Z4Z6X7Z8
Y2Z3Z6X7Z8
Y0X1X2Z3Z6X7Z8
Y1X2X3X4Z5X6X7Z8
Y2X3Z4Z5X6X7Z8
Y0X1X2X3Z4Z5X6X7Z8
Y1X2Z3Z5X6X7Z8
Y2X3X4X5X6X7Z8
Y0X1X2X3X4X5X6X7Z8
Y1X2X3Z4X5X6X7Z8
Y2Z3X5X6X7Z8
Y0X1X2Z3X5X6X7Z8
X6Y9
Y5Y6Y8X9
X5Y9
X6Y8Z9
X5Y8Z9
X1Y4
Y0Y1Y3X4
X0Y4
X1Y3Z4
X0Y3Z4
