-14.21498852*I
-0.12873866*Z7
0.03135874*Z5X6X7
0.03135874*Y6Y7
-0.03781738*Z6Z7
-0.02335122*X4X5X6Z7
-0.02335122*Y4X5Y6
-0.04562922*Z5Z6
-0.23476410*Z4Z5
-0.23385265*Z4
-0.12873866*Z3
0.03135874*Z1X2X3
0.03135874*Y2Y3
-0.03781738*Z2Z3
-0.02335122*X0X1X2Z3
-0.02335122*Y0X1Y2
-0.04562922*Z1Z2
-0.23476410*Z0Z1
-0.23385265*Z0
0.03640194*Z6
0.00595179*X4X5X6
0.00595179*Y4X5Y6Z7
0.03671380*Z5Z6Z7
0.07802128*Z4Z5Z7
0.07738831*Z4Z7
0.00557349*Z5Y6Y7
0.00557349*X6X7
-0.00676825*X4X5X7
0.00043891*Y4Y5Z6X7
-0.00720716*X4Y5Y7
-0.00720716*Y4X5Y7
-0.00043891*X4X5Z6X7
0.00676825*Y4Y5X7
-0.01066619*Z4X6X7
-0.01066619*Z4Z5Y6Y7
-0.00900763*Z4Z5X6X7
-0.00900763*Z4Y6Y7
0.09374432*Z3Z7
-0.01354726*Z3Z5X6X7
-0.01354726*Z3Y6Y7
-0.00599950*X3Z6X7
0.00599950*Z2X3Z6X7
0.00599950*X3X7
-0.00599950*Z2X3X7
-0.00419735*X3X4X5X6X7
0.00419735*Z2X3X4X5X6X7
-0.00419735*X3Y4X5X6Y7
0.00419735*Z2X3Y4X5X6Y7
-0.01354726*Y2Y3Z7
-0.01354726*Z1X2X3Z7
0.00731416*Y2Y3Z5X6X7
0.00731416*Z1X2X3Z5X6X7
0.00731416*Y2Y3Y6Y7
0.00731416*Z1X2X3Y6Y7
0.02034582*Y1X2Y3Z4X5X6X7
0.02034582*Z0X1X2X3Z4X5X6X7
0.02034582*Y1X2Y3Y5X6Y7
0.02034582*Z0X1X2X3Y5X6Y7
0.00419735*Y0X1X2Y3Z6X7
0.00419735*X0X1X2X3Z6X7
-0.00419735*Y0X1X2Y3X7
-0.00419735*X0X1X2X3X7
0.01948025*Y0X1X2Y3X4X5X6X7
0.01948025*X0X1X2X3X4X5X6X7
0.01948025*Y0X1X2Y3Y4X5X6Y7
0.01948025*X0X1X2X3Y4X5X6Y7
0.04240144*Z2Z3Z7
0.01479151*Z2Z3Z5X6X7
0.01479151*Z2Z3Y6Y7
-0.02036500*X2Z6X7
0.02036500*Z1X2Z3Z6X7
0.02036500*X2X7
-0.02036500*Z1X2Z3X7
-0.00149343*X2X4X5X6X7
0.00149343*Z1X2Z3X4X5X6X7
-0.00149343*X2Y4X5X6Y7
0.00149343*Z1X2Z3Y4X5X6Y7
0.01014914*Y0X1Y2Z7
0.01014914*X0X1X2Z3Z7
-0.00571374*Y0X1Y2Z5X6X7
-0.00571374*X0X1X2Z3Z5X6X7
-0.00571374*Y0X1Y2Y6Y7
-0.00571374*X0X1X2Z3Y6Y7
0.04402796*Z1Z2Z7
0.01405287*Z1Z2Z5X6X7
0.01405287*Z1Z2Y6Y7
0.00528490*X1Z4X5X6X7
-0.00528490*Z0X1Z2Z4X5X6X7
0.00528490*X1Y5X6Y7
-0.00528490*Z0X1Z2Y5X6Y7
-0.00527483*Y0Y1Z6X7
-0.00527483*X0X1Z2Z6X7
0.00527483*Y0Y1X7
0.00527483*X0X1Z2X7
-0.00510868*Y0Y1X4X5X6X7
-0.00510868*X0X1Z2X4X5X6X7
-0.00510868*Y0Y1Y4X5X6Y7
-0.00510868*X0X1Z2Y4X5X6Y7
0.09836710*Z0Z1Z7
-0.01595109*Z0Z1Z5X6X7
-0.01595109*Z0Z1Y6Y7
0.09686856*Z0Z7
-0.01411632*Z0Z5X6X7
-0.01411632*Z0Y6Y7
0.02071124*Z5Z7
0.03769368*Z4Z5Z6Z7
0.03845350*Z4Z6Z7
-0.00529030*X4Y5Y6Z7
0.00529030*Y4Y5X6
-0.01026811*Y4Y5X6Z7
0.01026811*X4Y5Y6
0.04240144*Z3Z6Z7
0.01014914*Z3X4X5X6Z7
0.01014914*Z3Y4X5Y6
-0.02036500*X3Z5X6Z7
0.02036500*Z2X3Z5X6Z7
0.02036500*X3X6
-0.02036500*Z2X3X6
0.01479151*Y2Y3Z6Z7
0.01479151*Z1X2X3Z6Z7
-0.00571374*Y2Y3X4X5X6Z7
-0.00571374*Z1X2X3X4X5X6Z7
-0.00571374*Y2Y3Y4X5Y6
-0.00571374*Z1X2X3Y4X5Y6
0.00149343*Y0X1X2Y3Z5X6Z7
0.00149343*X0X1X2X3Z5X6Z7
-0.00149343*Y0X1X2Y3X6
-0.00149343*X0X1X2X3X6
0.10107093*Z2Z3Z6Z7
-0.01214459*Z2Z3X4X5X6Z7
-0.01214459*Z2Z3Y4X5Y6
-0.07918726*X2Z5X6Z7
0.07918726*Z1X2Z3Z5X6Z7
0.07918726*X2X6
-0.07918726*Z1X2Z3X6
0.00018175*Y1Y2Z4X5X6Z7
0.00018175*Z0X1X2Z3Z4X5X6Z7
0.00018175*Y1Y2Y5Y6
0.00018175*Z0X1X2Z3Y5Y6
-0.01214459*Y0X1Y2Z6Z7
-0.01214459*X0X1X2Z3Z6Z7
0.00486340*Y0X1Y2X4X5X6Z7
0.00486340*X0X1X2Z3X4X5X6Z7
0.00486340*Y0X1Y2Y4X5Y6
0.00486340*X0X1X2Z3Y4X5Y6
0.09989849*Z1Z2Z6Z7
-0.01166881*Z1Z2X4X5X6Z7
-0.01166881*Z1Z2Y4X5Y6
-0.01695911*Y0Y1Z5X6Z7
-0.01695911*X0X1Z2Z5X6Z7
0.01695911*Y0Y1X6
0.01695911*X0X1Z2X6
0.03787544*Z0Z1Z6Z7
0.01129886*Z0Z1X4X5X6Z7
0.01129886*Z0Z1Y4X5Y6
-0.00103075*X0Z4X5X6Z7
0.00103075*X0Z1Z4X5X6Z7
-0.00103075*X0Y5Y6
0.00103075*X0Z1Y5Y6
0.04331690*Z0Z6Z7
0.01211898*Z0X4X5X6Z7
0.01211898*Z0Y4X5Y6
0.03853540*Z4Z6
0.03985014*Z4Z5Z6
0.04402796*Z3Z5Z6
0.00527483*X3X4X5Z6
-0.00527483*Z2X3X4X5Z6
0.00527483*X3Y4Y5
-0.00527483*Z2X3Y4Y5
0.01405287*Y2Y3Z5Z6
0.01405287*Z1X2X3Z5Z6
-0.00528490*Y1X2Y3Z4X5Z6
-0.00528490*Z0X1X2X3Z4X5Z6
0.00528490*Y1X2Y3X5
0.00528490*Z0X1X2X3X5
-0.00510868*Y0X1X2Y3X4X5Z6
-0.00510868*X0X1X2X3X4X5Z6
-0.00510868*Y0X1X2Y3Y4Y5
-0.00510868*X0X1X2X3Y4Y5
0.09989849*Z2Z3Z5Z6
0.01695911*X2X4X5Z6
-0.01695911*Z1X2Z3X4X5Z6
0.01695911*X2Y4Y5
-0.01695911*Z1X2Z3Y4Y5
-0.01166881*Y0X1Y2Z5Z6
-0.01166881*X0X1X2Z3Z5Z6
0.09882990*Z1Z2Z5Z6
-0.00137453*X1Z4X5Z6
0.00137453*Z0X1Z2Z4X5Z6
0.00137453*X1X5
-0.00137453*Z0X1Z2X5
0.00485552*Y0Y1X4X5Z6
0.00485552*X0X1Z2X4X5Z6
0.00485552*Y0Y1Y4Y5
0.00485552*X0X1Z2Y4Y5
0.03990994*Z0Z1Z5Z6
0.04470566*Z0Z5Z6
0.09251709*Z5
0.09836710*Z3Z4Z5
-0.01595109*Y2Y3Z4Z5
-0.01595109*Z1X2X3Z4Z5
0.03787544*Z2Z3Z4Z5
0.00103075*Y1Y2X4Z5
0.00103075*Z0X1X2Z3X4Z5
-0.00103075*Y1Y2X4
-0.00103075*Z0X1X2Z3X4
0.01129886*Y0X1Y2Z4Z5
0.01129886*X0X1X2Z3Z4Z5
0.03990994*Z1Z2Z4Z5
0.11246476*Z0Z1Z4Z5
-0.00589567*X0X4Z5
0.00589567*X0Z1X4Z5
0.00589567*X0X4
-0.00589567*X0Z1X4
0.09841276*Z0Z4Z5
0.09686856*Z3Z4
-0.01411632*Y2Y3Z4
-0.01411632*Z1X2X3Z4
0.04331690*Z2Z3Z4
0.01211898*Y0X1Y2Z4
0.01211898*X0X1X2Z3Z4
0.04470566*Z1Z2Z4
0.09841276*Z0Z1Z4
0.10814468*Z0Z4
0.03640194*Z2
0.00595179*X0X1X2
0.00595179*Y0X1Y2Z3
0.03671380*Z1Z2Z3
0.07802128*Z0Z1Z3
0.07738831*Z0Z3
0.00557349*Z1Y2Y3
0.00557349*X2X3
-0.00676825*X0X1X3
0.00043891*Y0Y1Z2X3
-0.00720716*X0Y1Y3
-0.00720716*Y0X1Y3
-0.00043891*X0X1Z2X3
0.00676825*Y0Y1X3
-0.01066619*Z0X2X3
-0.01066619*Z0Z1Y2Y3
-0.00900763*Z0Z1X2X3
-0.00900763*Z0Y2Y3
0.02071124*Z1Z3
0.03769368*Z0Z1Z2Z3
0.03845350*Z0Z2Z3
-0.00529030*X0Y1Y2Z3
0.00529030*Y0Y1X2
-0.01026811*Y0Y1X2Z3
0.01026811*X0Y1Y2
0.03853540*Z0Z2
0.03985014*Z0Z1Z2
0.09251709*Z1
