-1.52328923*I
0.09969724*Z9
0.00061955*Z7X8X9
0.00061955*Y8Y9
0.00477575*Z5X6X7X8X9
0.00477575*Y6X7X8Y9
0.08233596*Z8Z9
-0.00682764*Z6X7X8Z9
-0.00682764*Y7Y8
-0.00555240*X5X6X7X8Z9
0.00555240*Y5X6X7Y8
0.05460309*Z7Z8
0.00886754*Z5X6X7Z8
0.00886754*Y6Y7
0.01985517*Z6Z7
-0.00261245*X5X6Z7
0.00261245*Y5Y6
-0.01939202*Z5Z6
0.05376645*Z5
-0.09969724*Z4
-0.00061955*Z2X3X4
0.00061955*Y3Y4
-0.00477575*Z0X1X2X3X4
0.00477575*Y1X2X3Y4
0.08233596*Z3Z4
-0.00682764*Z1X2X3Z4
-0.00682764*Y2Y3
0.00555240*X0X1X2X3Z4
0.00555240*Y0X1X2Y3
0.05460309*Z2Z3
0.00886754*Z0X1X2Z3
0.00886754*Y1Y2
0.01985517*Z1Z2
0.00261245*X0X1Z2
0.00261245*Y0Y1
-0.01939202*Z0Z1
-0.05376645*Z0
0.03087055*Z8
-0.00348275*Z6X7X8
-0.00348275*Y7Y8Z9
0.00286122*X5X6X7X8
-0.00286122*Y5X6X7Y8Z9
0.04063759*Z7Z8Z9
-0.00792745*Z5X6X7Z8Z9
-0.00792745*Y6Y7Z9
0.04589082*Z6Z7Z9
0.00851923*X5X6Z7Z9
-0.00851923*Y5Y6Z9
0.04643023*Z5Z6Z9
-0.05845180*Z5Z9
-0.01179364*Z7Y8Y9
-0.01179364*X8X9
0.00017000*Z5X6X7Y8Y9
-0.00017000*Y6X7Y8X9
-0.01098897*Z6X7X9
0.00299857*X7Z8X9
-0.00799040*Z6Y7Y9
-0.00799040*Y7Y9
0.00299857*Z6X7Z8X9
-0.01098897*X7X9
-0.00522116*X5X6X7X9
0.00436490*Y5X6Y7Z8X9
-0.00085626*X5X6Y7Y9
0.00085626*Y5X6X7Y9
0.00436490*X5X6X7Z8X9
-0.00522116*Y5X6Y7X9
-0.01292361*Z5X6Z7Z8X9
0.00927561*X6Z8X9
-0.00364799*Z5Y6Y9
-0.00364799*Y6Z7Z8Y9
0.00927561*Z5X6Z7X9
-0.01292361*X6X9
0.01774779*X5Z6Z8X9
0.01529295*X5Z8X9
0.00245484*Y5Y9
-0.00245484*Y5Z6Z8Y9
-0.01529295*X5Z6X9
-0.01774779*X5X9
-0.00810746*Z5X6Y7Y8X9
-0.00810746*Y6Y7Y8Y9
0.00299253*Z6X8X9
0.00299253*Z6Z7Y8Y9
0.01093379*X5X6X8X9
-0.00508652*Y5Y6Z7X8X9
0.00584727*X5Y6Y8X9
-0.00584727*Y5X6X8Y9
0.00508652*X5X6Z7Y8Y9
-0.01093379*Y5Y6Y8Y9
-0.00095465*Z5Z6Z7X8X9
-0.00095465*Z5Z6Y8Y9
-0.00853767*Z5Z7X8X9
-0.00853767*Z5Y8Y9
-0.00001330*Z5Y6Y7X8X9
0.00001330*X6Y7X8Y9
-0.00533393*X5X7X8X9
-0.00440303*X5Z6X7X8X9
-0.00093090*Y5Y7X8X9
0.00093090*Y5X7X8Y9
-0.00440303*X5Z6Y7X8Y9
-0.00533393*X5Y7X8Y9
-0.00282102*X6X7X8X9
-0.00282102*Z5Y6X7X8Y9
-0.07694964*Z4Z9
-0.01615204*Z4Z7X8X9
-0.01615204*Z4Y8Y9
-0.00241658*Z4Z5X6X7X8X9
-0.00241658*Z4Y6X7X8Y9
-0.02911978*X4Z8X9
-0.02911978*Z3X4Z8X9
0.02911978*X4X9
0.02911978*Z3X4X9
0.01034866*X4Z6X7X8X9
0.01034866*Z3X4Z6X7X8X9
0.01034866*X4Y7X8Y9
0.01034866*Z3X4Y7X8Y9
0.00016496*X4X5X6X7X8X9
0.00016496*Z3X4X5X6X7X8X9
-0.00016496*X4Y5X6X7X8Y9
-0.00016496*Z3X4Y5X6X7X8Y9
0.01615204*Y3Y4Z9
-0.01615204*Z2X3X4Z9
0.02752489*Y3Y4Z7X8X9
-0.02752489*Z2X3X4Z7X8X9
0.02752489*Y3Y4Y8Y9
-0.02752489*Z2X3X4Y8Y9
-0.00635440*Y3Y4Z5X6X7X8X9
0.00635440*Z2X3X4Z5X6X7X8X9
-0.00635440*Y3Y4Y6X7X8Y9
0.00635440*Z2X3X4Y6X7X8Y9
-0.01034866*Y2X3Y4Z8X9
0.01034866*Z1X2X3X4Z8X9
0.01034866*Y2X3Y4X9
-0.01034866*Z1X2X3X4X9
0.02288347*Y2X3Y4Z6X7X8X9
-0.02288347*Z1X2X3X4Z6X7X8X9
0.02288347*Y2X3Y4Y7X8Y9
-0.02288347*Z1X2X3X4Y7X8Y9
0.00825623*Y2X3Y4X5X6X7X8X9
-0.00825623*Z1X2X3X4X5X6X7X8X9
-0.00825623*Y2X3Y4Y5X6X7X8Y9
0.00825623*Z1X2X3X4Y5X6X7X8Y9
0.00241658*Y1X2X3Y4Z9
-0.00241658*Z0X1X2X3X4Z9
-0.00635440*Y1X2X3Y4Z7X8X9
0.00635440*Z0X1X2X3X4Z7X8X9
-0.00635440*Y1X2X3Y4Y8Y9
0.00635440*Z0X1X2X3X4Y8Y9
0.01501559*Y1X2X3Y4Z5X6X7X8X9
-0.01501559*Z0X1X2X3X4Z5X6X7X8X9
0.01501559*Y1X2X3Y4Y6X7X8Y9
-0.01501559*Z0X1X2X3X4Y6X7X8Y9
0.00016496*Y0X1X2X3Y4Z8X9
-0.00016496*X0X1X2X3X4Z8X9
-0.00016496*Y0X1X2X3Y4X9
0.00016496*X0X1X2X3X4X9
-0.00825623*Y0X1X2X3Y4Z6X7X8X9
0.00825623*X0X1X2X3X4Z6X7X8X9
-0.00825623*Y0X1X2X3Y4Y7X8Y9
0.00825623*X0X1X2X3X4Y7X8Y9
-0.02144396*Y0X1X2X3Y4X5X6X7X8X9
0.02144396*X0X1X2X3X4X5X6X7X8X9
0.02144396*Y0X1X2X3Y4Y5X6X7X8Y9
-0.02144396*X0X1X2X3X4Y5X6X7X8Y9
0.05999032*Z3Z4Z9
-0.01211754*Z3Z4Z7X8X9
-0.01211754*Z3Z4Y8Y9
0.00753288*Z3Z4Z5X6X7X8X9
0.00753288*Z3Z4Y6X7X8Y9
0.02391119*X3Z8X9
-0.02391119*Z2X3Z4Z8X9
-0.02391119*X3X9
0.02391119*Z2X3Z4X9
0.00465004*X3Z6X7X8X9
-0.00465004*Z2X3Z4Z6X7X8X9
0.00465004*X3Y7X8Y9
-0.00465004*Z2X3Z4Y7X8Y9
0.00544551*X3X5X6X7X8X9
-0.00544551*Z2X3Z4X5X6X7X8X9
-0.00544551*X3Y5X6X7X8Y9
0.00544551*Z2X3Z4Y5X6X7X8Y9
-0.01383141*Y2Y3Z9
-0.01383141*Z1X2X3Z4Z9
-0.01264044*Y2Y3Z7X8X9
-0.01264044*Z1X2X3Z4Z7X8X9
-0.01264044*Y2Y3Y8Y9
-0.01264044*Z1X2X3Z4Y8Y9
-0.01123713*Y2Y3Z5X6X7X8X9
-0.01123713*Z1X2X3Z4Z5X6X7X8X9
-0.01123713*Y2Y3Y6X7X8Y9
-0.01123713*Z1X2X3Z4Y6X7X8Y9
0.00770288*Y1X2Y3Z8X9
0.00770288*Z0X1X2X3Z4Z8X9
-0.00770288*Y1X2Y3X9
-0.00770288*Z0X1X2X3Z4X9
-0.01488512*Y1X2Y3Z6X7X8X9
-0.01488512*Z0X1X2X3Z4Z6X7X8X9
-0.01488512*Y1X2Y3Y7X8Y9
-0.01488512*Z0X1X2X3Z4Y7X8Y9
0.01259628*Y1X2Y3X5X6X7X8X9
0.01259628*Z0X1X2X3Z4X5X6X7X8X9
-0.01259628*Y1X2Y3Y5X6X7X8Y9
-0.01259628*Z0X1X2X3Z4Y5X6X7X8Y9
-0.00269626*Y0X1X2Y3Z9
-0.00269626*X0X1X2X3Z4Z9
0.00630176*Y0X1X2Y3Z7X8X9
0.00630176*X0X1X2X3Z4Z7X8X9
0.00630176*Y0X1X2Y3Y8Y9
0.00630176*X0X1X2X3Z4Y8Y9
-0.01505112*Y0X1X2Y3Z5X6X7X8X9
-0.01505112*X0X1X2X3Z4Z5X6X7X8X9
-0.01505112*Y0X1X2Y3Y6X7X8Y9
-0.01505112*X0X1X2X3Z4Y6X7X8Y9
0.06816248*Z2Z3Z9
0.00708622*Z2Z3Z7X8X9
0.00708622*Z2Z3Y8Y9
-0.00465982*Z2Z3Z5X6X7X8X9
-0.00465982*Z2Z3Y6X7X8Y9
0.01563901*X2Z8X9
-0.01563901*Z1X2Z3Z8X9
-0.01563901*X2X9
0.01563901*Z1X2Z3X9
-0.00431437*X2Z6X7X8X9
0.00431437*Z1X2Z3Z6X7X8X9
-0.00431437*X2Y7X8Y9
0.00431437*Z1X2Z3Y7X8Y9
-0.01717188*X2X5X6X7X8X9
0.01717188*Z1X2Z3X5X6X7X8X9
0.01717188*X2Y5X6X7X8Y9
-0.01717188*Z1X2Z3Y5X6X7X8Y9
-0.01428185*Y1Y2Z9
-0.01428185*Z0X1X2Z3Z9
-0.01276728*Y1Y2Z7X8X9
-0.01276728*Z0X1X2Z3Z7X8X9
-0.01276728*Y1Y2Y8Y9
-0.01276728*Z0X1X2Z3Y8Y9
-0.01125868*Y1Y2Z5X6X7X8X9
-0.01125868*Z0X1X2Z3Z5X6X7X8X9
-0.01125868*Y1Y2Y6X7X8Y9
-0.01125868*Z0X1X2Z3Y6X7X8Y9
0.01066667*Y0X1Y2Z8X9
0.01066667*X0X1X2Z3Z8X9
-0.01066667*Y0X1Y2X9
-0.01066667*X0X1X2Z3X9
-0.02301915*Y0X1Y2Z6X7X8X9
-0.02301915*X0X1X2Z3Z6X7X8X9
-0.02301915*Y0X1Y2Y7X8Y9
-0.02301915*X0X1X2Z3Y7X8Y9
-0.00808801*Y0X1Y2X5X6X7X8X9
-0.00808801*X0X1X2Z3X5X6X7X8X9
0.00808801*Y0X1Y2Y5X6X7X8Y9
0.00808801*X0X1X2Z3Y5X6X7X8Y9
0.06877429*Z1Z2Z9
0.00730690*Z1Z2Z7X8X9
0.00730690*Z1Z2Y8Y9
-0.00458343*Z1Z2Z5X6X7X8X9
-0.00458343*Z1Z2Y6X7X8Y9
0.02416073*X1Z8X9
-0.02416073*Z0X1Z2Z8X9
-0.02416073*X1X9
0.02416073*Z0X1Z2X9
0.00459673*X1Z6X7X8X9
-0.00459673*Z0X1Z2Z6X7X8X9
0.00459673*X1Y7X8Y9
-0.00459673*Z0X1Z2Y7X8Y9
0.00533037*X1X5X6X7X8X9
-0.00533037*Z0X1Z2X5X6X7X8X9
-0.00533037*X1Y5X6X7X8Y9
0.00533037*Z0X1Z2Y5X6X7X8Y9
-0.01677546*Y0Y1Z9
-0.01677546*X0X1Z2Z9
-0.02810567*Y0Y1Z7X8X9
-0.02810567*X0X1Z2Z7X8X9
-0.02810567*Y0Y1Y8Y9
-0.02810567*X0X1Z2Y8Y9
0.00626127*Y0Y1Z5X6X7X8X9
0.00626127*X0X1Z2Z5X6X7X8X9
0.00626127*Y0Y1Y6X7X8Y9
0.00626127*X0X1Z2Y6X7X8Y9
0.06144582*Z0Z1Z9
-0.01221333*Z0Z1Z7X8X9
-0.01221333*Z0Z1Y8Y9
0.00757376*Z0Z1Z5X6X7X8X9
0.00757376*Z0Z1Y6X7X8Y9
0.03034407*X0Z8X9
-0.03034407*X0Z1Z8X9
-0.03034407*X0X9
0.03034407*X0Z1X9
-0.01066430*X0Z6X7X8X9
0.01066430*X0Z1Z6X7X8X9
-0.01066430*X0Y7X8Y9
0.01066430*X0Z1Y7X8Y9
-0.00019434*X0X5X6X7X8X9
0.00019434*X0Z1X5X6X7X8X9
0.00019434*X0Y5X6X7X8Y9
-0.00019434*X0Z1Y5X6X7X8Y9
0.07989576*Z0Z9
0.01662567*Z0Z7X8X9
0.01662567*Z0Y8Y9
0.00262667*Z0Z5X6X7X8X9
0.00262667*Z0Y6X7X8Y9
0.03283647*Z7Z9
-0.00171611*Z5X6X7Z9
-0.00171611*Y6Y7Z8Z9
0.04119839*Z6Z7Z8Z9
-0.00083997*X5X6Z7Z8Z9
0.00083997*Y5Y6Z8Z9
0.04628263*Z5Z6Z8Z9
-0.04716640*Z5Z8Z9
0.01377956*Z6Y7Y8Z9
0.01377956*X7X8
-0.00002428*X5X6Y7Y8Z9
-0.00002428*Y5X6Y7X8
0.01464870*Z5X6X8Z9
-0.00813242*X6Z7X8Z9
0.00651628*Z5Y6Y8Z9
0.00651628*Y6Y8
-0.00813242*Z5X6Z7X8
0.01464870*X6X8
-0.01349434*X5Z6Z7X8Z9
-0.00973851*X5Z7X8Z9
-0.00375583*Y5Y8Z9
0.00375583*Y5Z6Z7Y8
0.00973851*X5Z6X8
0.01349434*X5X8
-0.00862617*X5Y6Y7X8Z9
0.00862617*Y5Y6Y7Y8
-0.00152254*Z5X7X8Z9
-0.00152254*Z5Z6Y7Y8
0.00812947*Z5Z6X7X8Z9
0.00812947*Z5Y7Y8
0.00008971*Y5Y6X7X8Z9
0.00008971*X5Y6X7Y8
-0.05999032*Z4Z8Z9
0.01383141*Z4Z6X7X8Z9
0.01383141*Z4Y7Y8
-0.00269626*Z4X5X6X7X8Z9
0.00269626*Z4Y5X6X7Y8
0.02391119*X4Z7X8Z9
0.02391119*Z3X4Z7X8Z9
-0.02391119*X4X8
-0.02391119*Z3X4X8
-0.00770288*X4Z5X6X7X8Z9
-0.00770288*Z3X4Z5X6X7X8Z9
-0.00770288*X4Y6X7Y8
-0.00770288*Z3X4Y6X7Y8
-0.01211754*Y3Y4Z8Z9
0.01211754*Z2X3X4Z8Z9
-0.01264044*Y3Y4Z6X7X8Z9
0.01264044*Z2X3X4Z6X7X8Z9
-0.01264044*Y3Y4Y7Y8
0.01264044*Z2X3X4Y7Y8
-0.00630176*Y3Y4X5X6X7X8Z9
0.00630176*Z2X3X4X5X6X7X8Z9
0.00630176*Y3Y4Y5X6X7Y8
-0.00630176*Z2X3X4Y5X6X7Y8
-0.00465004*Y2X3Y4Z7X8Z9
0.00465004*Z1X2X3X4Z7X8Z9
0.00465004*Y2X3Y4X8
-0.00465004*Z1X2X3X4X8
-0.01488512*Y2X3Y4Z5X6X7X8Z9
0.01488512*Z1X2X3X4Z5X6X7X8Z9
-0.01488512*Y2X3Y4Y6X7Y8
0.01488512*Z1X2X3X4Y6X7Y8
0.00753288*Y1X2X3Y4Z8Z9
-0.00753288*Z0X1X2X3X4Z8Z9
-0.01123713*Y1X2X3Y4Z6X7X8Z9
0.01123713*Z0X1X2X3X4Z6X7X8Z9
-0.01123713*Y1X2X3Y4Y7Y8
0.01123713*Z0X1X2X3X4Y7Y8
0.01505112*Y1X2X3Y4X5X6X7X8Z9
-0.01505112*Z0X1X2X3X4X5X6X7X8Z9
-0.01505112*Y1X2X3Y4Y5X6X7Y8
0.01505112*Z0X1X2X3X4Y5X6X7Y8
0.00544551*Y0X1X2X3Y4Z7X8Z9
-0.00544551*X0X1X2X3X4Z7X8Z9
-0.00544551*Y0X1X2X3Y4X8
0.00544551*X0X1X2X3X4X8
-0.01259628*Y0X1X2X3Y4Z5X6X7X8Z9
0.01259628*X0X1X2X3X4Z5X6X7X8Z9
-0.01259628*Y0X1X2X3Y4Y6X7Y8
0.01259628*X0X1X2X3X4Y6X7Y8
0.07223604*Z3Z4Z8Z9
0.00062803*Z3Z4Z6X7X8Z9
0.00062803*Z3Z4Y7Y8
0.00781475*Z3Z4X5X6X7X8Z9
-0.00781475*Z3Z4Y5X6X7Y8
-0.02870075*X3Z7X8Z9
0.02870075*Z2X3Z4Z7X8Z9
0.02870075*X3X8
-0.02870075*Z2X3Z4X8
-0.00194207*X3Z5X6X7X8Z9
0.00194207*Z2X3Z4Z5X6X7X8Z9
-0.00194207*X3Y6X7Y8
0.00194207*Z2X3Z4Y6X7Y8
0.00062803*Y2Y3Z8Z9
0.00062803*Z1X2X3Z4Z8Z9
0.02063701*Y2Y3Z6X7X8Z9
0.02063701*Z1X2X3Z4Z6X7X8Z9
0.02063701*Y2Y3Y7Y8
0.02063701*Z1X2X3Z4Y7Y8
-0.01124812*Y2Y3X5X6X7X8Z9
-0.01124812*Z1X2X3Z4X5X6X7X8Z9
0.01124812*Y2Y3Y5X6X7Y8
0.01124812*Z1X2X3Z4Y5X6X7Y8
0.00194207*Y1X2Y3Z7X8Z9
0.00194207*Z0X1X2X3Z4Z7X8Z9
-0.00194207*Y1X2Y3X8
-0.00194207*Z0X1X2X3Z4X8
0.02755502*Y1X2Y3Z5X6X7X8Z9
0.02755502*Z0X1X2X3Z4Z5X6X7X8Z9
0.02755502*Y1X2Y3Y6X7Y8
0.02755502*Z0X1X2X3Z4Y6X7Y8
-0.00781475*Y0X1X2Y3Z8Z9
-0.00781475*X0X1X2X3Z4Z8Z9
0.01124812*Y0X1X2Y3Z6X7X8Z9
0.01124812*X0X1X2X3Z4Z6X7X8Z9
0.01124812*Y0X1X2Y3Y7Y8
0.01124812*X0X1X2X3Z4Y7Y8
-0.01540010*Y0X1X2Y3X5X6X7X8Z9
-0.01540010*X0X1X2X3Z4X5X6X7X8Z9
0.01540010*Y0X1X2Y3Y5X6X7Y8
0.01540010*X0X1X2X3Z4Y5X6X7Y8
0.06153722*Z2Z3Z8Z9
-0.00004567*Z2Z3Z6X7X8Z9
-0.00004567*Z2Z3Y7Y8
-0.00420321*Z2Z3X5X6X7X8Z9
0.00420321*Z2Z3Y5X6X7Y8
-0.01373389*X2Z7X8Z9
0.01373389*Z1X2Z3Z7X8Z9
0.01373389*X2X8
-0.01373389*Z1X2Z3X8
-0.01417372*X2Z5X6X7X8Z9
0.01417372*Z1X2Z3Z5X6X7X8Z9
-0.01417372*X2Y6X7Y8
0.01417372*Z1X2Z3Y6X7Y8
0.00022597*Y1Y2Z8Z9
0.00022597*Z0X1X2Z3Z8Z9
0.02069000*Y1Y2Z6X7X8Z9
0.02069000*Z0X1X2Z3Z6X7X8Z9
0.02069000*Y1Y2Y7Y8
0.02069000*Z0X1X2Z3Y7Y8
-0.01167650*Y1Y2X5X6X7X8Z9
-0.01167650*Z0X1X2Z3X5X6X7X8Z9
0.01167650*Y1Y2Y5X6X7Y8
0.01167650*Z0X1X2Z3Y5X6X7Y8
0.00422749*Y0X1Y2Z7X8Z9
0.00422749*X0X1X2Z3Z7X8Z9
-0.00422749*Y0X1Y2X8
-0.00422749*X0X1X2Z3X8
0.01543233*Y0X1Y2Z5X6X7X8Z9
0.01543233*X0X1X2Z3Z5X6X7X8Z9
0.01543233*Y0X1Y2Y6X7Y8
0.01543233*X0X1X2Z3Y6X7Y8
0.06183540*Z1Z2Z8Z9
-0.00038005*Z1Z2Z6X7X8Z9
-0.00038005*Z1Z2Y7Y8
-0.00468810*Z1Z2X5X6X7X8Z9
0.00468810*Z1Z2Y5X6X7Y8
-0.02882242*X1Z7X8Z9
0.02882242*Z0X1Z2Z7X8Z9
0.02882242*X1X8
-0.02882242*Z0X1Z2X8
-0.00229974*X1Z5X6X7X8Z9
0.00229974*Z0X1Z2Z5X6X7X8Z9
-0.00229974*X1Y6X7Y8
0.00229974*Z0X1Z2Y6X7Y8
0.01208809*Y0Y1Z8Z9
0.01208809*X0X1Z2Z8Z9
0.01331427*Y0Y1Z6X7X8Z9
0.01331427*X0X1Z2Z6X7X8Z9
0.01331427*Y0Y1Y7Y8
0.01331427*X0X1Z2Y7Y8
0.00629932*Y0Y1X5X6X7X8Z9
0.00629932*X0X1Z2X5X6X7X8Z9
-0.00629932*Y0Y1Y5X6X7Y8
-0.00629932*X0X1Z2Y5X6X7Y8
0.07383765*Z0Z1Z8Z9
0.00077720*Z0Z1Z6X7X8Z9
0.00077720*Z0Z1Y7Y8
0.00788578*Z0Z1X5X6X7X8Z9
-0.00788578*Z0Z1Y5X6X7Y8
-0.02517084*X0Z7X8Z9
0.02517084*X0Z1Z7X8Z9
0.02517084*X0X8
-0.02517084*X0Z1X8
0.00797549*X0Z5X6X7X8Z9
-0.00797549*X0Z1Z5X6X7X8Z9
0.00797549*X0Y6X7Y8
-0.00797549*X0Z1Y6X7Y8
0.06256650*Z0Z8Z9
-0.01442880*Z0Z6X7X8Z9
-0.01442880*Z0Y7Y8
0.00301157*Z0X5X6X7X8Z9
-0.00301157*Z0Y5X6X7Y8
0.04311095*Z6Z8
0.00305337*X5X6Z8
-0.00305337*Y5Y6Z7Z8
0.04192159*Z5Z6Z7Z8
-0.04735335*Z5Z7Z8
0.01447988*Z5Y6Y7Z8
0.01447988*X6X7
-0.01182352*X5X7Z8
-0.00310074*X5Z6X7Z8
-0.00872278*Y5Y7Z8
0.00872278*Y5Y7
0.00310074*X5Z6X7
0.01182352*X5X7
0.00382141*X6X7Z8
0.00382141*Z5Y6Y7
-0.06816248*Z4Z7Z8
0.01428185*Z4Z5X6X7Z8
0.01428185*Z4Y6Y7
0.01563901*X4Z6X7Z8
0.01563901*Z3X4Z6X7Z8
-0.01563901*X4X7
-0.01563901*Z3X4X7
0.01066667*X4X5X6X7Z8
0.01066667*Z3X4X5X6X7Z8
-0.01066667*X4Y5X6Y7
-0.01066667*Z3X4Y5X6Y7
0.00708622*Y3Y4Z7Z8
-0.00708622*Z2X3X4Z7Z8
-0.01276728*Y3Y4Z5X6X7Z8
0.01276728*Z2X3X4Z5X6X7Z8
-0.01276728*Y3Y4Y6Y7
0.01276728*Z2X3X4Y6Y7
0.00431437*Y2X3Y4Z6X7Z8
-0.00431437*Z1X2X3X4Z6X7Z8
-0.00431437*Y2X3Y4X7
0.00431437*Z1X2X3X4X7
0.02301915*Y2X3Y4X5X6X7Z8
-0.02301915*Z1X2X3X4X5X6X7Z8
-0.02301915*Y2X3Y4Y5X6Y7
0.02301915*Z1X2X3X4Y5X6Y7
-0.00465982*Y1X2X3Y4Z7Z8
0.00465982*Z0X1X2X3X4Z7Z8
-0.01125868*Y1X2X3Y4Z5X6X7Z8
0.01125868*Z0X1X2X3X4Z5X6X7Z8
-0.01125868*Y1X2X3Y4Y6Y7
0.01125868*Z0X1X2X3X4Y6Y7
-0.01717188*Y0X1X2X3Y4Z6X7Z8
0.01717188*X0X1X2X3X4Z6X7Z8
0.01717188*Y0X1X2X3Y4X7
-0.01717188*X0X1X2X3X4X7
-0.00808801*Y0X1X2X3Y4X5X6X7Z8
0.00808801*X0X1X2X3X4X5X6X7Z8
0.00808801*Y0X1X2X3Y4Y5X6Y7
-0.00808801*X0X1X2X3X4Y5X6Y7
0.06153722*Z3Z4Z7Z8
0.00022597*Z3Z4Z5X6X7Z8
0.00022597*Z3Z4Y6Y7
-0.01373389*X3Z6X7Z8
0.01373389*Z2X3Z4Z6X7Z8
0.01373389*X3X7
-0.01373389*Z2X3Z4X7
0.00422749*X3X5X6X7Z8
-0.00422749*Z2X3Z4X5X6X7Z8
-0.00422749*X3Y5X6Y7
0.00422749*Z2X3Z4Y5X6Y7
-0.00004567*Y2Y3Z7Z8
-0.00004567*Z1X2X3Z4Z7Z8
0.02069000*Y2Y3Z5X6X7Z8
0.02069000*Z1X2X3Z4Z5X6X7Z8
0.02069000*Y2Y3Y6Y7
0.02069000*Z1X2X3Z4Y6Y7
0.01417372*Y1X2Y3Z6X7Z8
0.01417372*Z0X1X2X3Z4Z6X7Z8
-0.01417372*Y1X2Y3X7
-0.01417372*Z0X1X2X3Z4X7
-0.01543233*Y1X2Y3X5X6X7Z8
-0.01543233*Z0X1X2X3Z4X5X6X7Z8
0.01543233*Y1X2Y3Y5X6Y7
0.01543233*Z0X1X2X3Z4Y5X6Y7
0.00420321*Y0X1X2Y3Z7Z8
0.00420321*X0X1X2X3Z4Z7Z8
0.01167650*Y0X1X2Y3Z5X6X7Z8
0.01167650*X0X1X2X3Z4Z5X6X7Z8
0.01167650*Y0X1X2Y3Y6Y7
0.01167650*X0X1X2X3Z4Y6Y7
0.06878915*Z2Z3Z7Z8
-0.00071933*Z2Z3Z5X6X7Z8
-0.00071933*Z2Z3Y6Y7
-0.02582131*X2Z6X7Z8
0.02582131*Z1X2Z3Z6X7Z8
0.02582131*X2X7
-0.02582131*Z1X2Z3X7
-0.00426483*X2X5X6X7Z8
0.00426483*Z1X2Z3X5X6X7Z8
0.00426483*X2Y5X6Y7
-0.00426483*Z1X2Z3Y5X6Y7
-0.00071933*Y1Y2Z7Z8
-0.00071933*Z0X1X2Z3Z7Z8
0.02128937*Y1Y2Z5X6X7Z8
0.02128937*Z0X1X2Z3Z5X6X7Z8
0.02128937*Y1Y2Y6Y7
0.02128937*Z0X1X2Z3Y6Y7
-0.00426483*Y0X1Y2Z6X7Z8
-0.00426483*X0X1X2Z3Z6X7Z8
0.00426483*Y0X1Y2X7
0.00426483*X0X1X2Z3X7
-0.02373810*Y0X1Y2X5X6X7Z8
-0.02373810*X0X1X2Z3X5X6X7Z8
0.02373810*Y0X1Y2Y5X6Y7
0.02373810*X0X1X2Z3Y5X6Y7
0.06893226*Z1Z2Z7Z8
-0.00032075*Z1Z2Z5X6X7Z8
-0.00032075*Z1Z2Y6Y7
-0.01415913*X1Z6X7Z8
0.01415913*Z0X1Z2Z6X7Z8
0.01415913*X1X7
-0.01415913*Z0X1Z2X7
0.00471894*X1X5X6X7Z8
-0.00471894*Z0X1Z2X5X6X7Z8
-0.00471894*X1Y5X6Y7
0.00471894*Z0X1Z2Y5X6Y7
-0.00731821*Y0Y1Z7Z8
-0.00731821*X0X1Z2Z7Z8
0.01344172*Y0Y1Z5X6X7Z8
0.01344172*X0X1Z2Z5X6X7Z8
0.01344172*Y0Y1Y6Y7
0.01344172*X0X1Z2Y6Y7
0.06321096*Z0Z1Z7Z8
0.00041822*Z0Z1Z5X6X7Z8
0.00041822*Z0Z1Y6Y7
-0.01654247*X0Z6X7Z8
0.01654247*X0Z1Z6X7Z8
0.01654247*X0X7
-0.01654247*X0Z1X7
-0.01126112*X0X5X6X7Z8
0.01126112*X0Z1X5X6X7Z8
0.01126112*X0Y5X6Y7
-0.01126112*X0Z1Y5X6Y7
0.07109144*Z0Z7Z8
-0.01508254*Z0Z5X6X7Z8
-0.01508254*Z0Y6Y7
0.03405393*Z5Z7
-0.04247142*Z5Z6Z7
-0.01287660*Y5Y6Z7
0.01287660*X5X6
-0.06877429*Z4Z6Z7
-0.01677546*Z4X5X6Z7
0.01677546*Z4Y5Y6
0.02416073*X4Z5X6Z7
0.02416073*Z3X4Z5X6Z7
-0.02416073*X4X6
-0.02416073*Z3X4X6
0.00730690*Y3Y4Z6Z7
-0.00730690*Z2X3X4Z6Z7
0.02810567*Y3Y4X5X6Z7
-0.02810567*Z2X3X4X5X6Z7
-0.02810567*Y3Y4Y5Y6
0.02810567*Z2X3X4Y5Y6
-0.00459673*Y2X3Y4Z5X6Z7
0.00459673*Z1X2X3X4Z5X6Z7
0.00459673*Y2X3Y4X6
-0.00459673*Z1X2X3X4X6
-0.00458343*Y1X2X3Y4Z6Z7
0.00458343*Z0X1X2X3X4Z6Z7
-0.00626127*Y1X2X3Y4X5X6Z7
0.00626127*Z0X1X2X3X4X5X6Z7
0.00626127*Y1X2X3Y4Y5Y6
-0.00626127*Z0X1X2X3X4Y5Y6
0.00533037*Y0X1X2X3Y4Z5X6Z7
-0.00533037*X0X1X2X3X4Z5X6Z7
-0.00533037*Y0X1X2X3Y4X6
0.00533037*X0X1X2X3X4X6
0.06183540*Z3Z4Z6Z7
-0.01208809*Z3Z4X5X6Z7
0.01208809*Z3Z4Y5Y6
-0.02882242*X3Z5X6Z7
0.02882242*Z2X3Z4Z5X6Z7
0.02882242*X3X6
-0.02882242*Z2X3Z4X6
-0.00038005*Y2Y3Z6Z7
-0.00038005*Z1X2X3Z4Z6Z7
-0.01331427*Y2Y3X5X6Z7
-0.01331427*Z1X2X3Z4X5X6Z7
0.01331427*Y2Y3Y5Y6
0.01331427*Z1X2X3Z4Y5Y6
0.00229974*Y1X2Y3Z5X6Z7
0.00229974*Z0X1X2X3Z4Z5X6Z7
-0.00229974*Y1X2Y3X6
-0.00229974*Z0X1X2X3Z4X6
0.00468810*Y0X1X2Y3Z6Z7
0.00468810*X0X1X2X3Z4Z6Z7
0.00629932*Y0X1X2Y3X5X6Z7
0.00629932*X0X1X2X3Z4X5X6Z7
-0.00629932*Y0X1X2Y3Y5Y6
-0.00629932*X0X1X2X3Z4Y5Y6
0.06893226*Z2Z3Z6Z7
0.00731821*Z2Z3X5X6Z7
-0.00731821*Z2Z3Y5Y6
-0.01415913*X2Z5X6Z7
0.01415913*Z1X2Z3Z5X6Z7
0.01415913*X2X6
-0.01415913*Z1X2Z3X6
-0.00032075*Y1Y2Z6Z7
-0.00032075*Z0X1X2Z3Z6Z7
-0.01344172*Y1Y2X5X6Z7
-0.01344172*Z0X1X2Z3X5X6Z7
0.01344172*Y1Y2Y5Y6
0.01344172*Z0X1X2Z3Y5Y6
0.00471894*Y0X1Y2Z5X6Z7
0.00471894*X0X1X2Z3Z5X6Z7
-0.00471894*Y0X1Y2X6
-0.00471894*X0X1X2Z3X6
0.07025892*Z1Z2Z6Z7
0.00765481*Z1Z2X5X6Z7
-0.00765481*Z1Z2Y5Y6
-0.02977265*X1Z5X6Z7
0.02977265*Z0X1Z2Z5X6Z7
0.02977265*X1X6
-0.02977265*Z0X1Z2X6
-0.00765481*Y0Y1Z6Z7
-0.00765481*X0X1Z2Z6Z7
-0.02948697*Y0Y1X5X6Z7
-0.02948697*X0X1Z2X5X6Z7
0.02948697*Y0Y1Y5Y6
0.02948697*X0X1Z2Y5Y6
0.06382657*Z0Z1Z6Z7
-0.01277278*Z0Z1X5X6Z7
0.01277278*Z0Z1Y5Y6
-0.02564938*X0Z5X6Z7
0.02564938*X0Z1Z5X6Z7
0.02564938*X0X6
-0.02564938*X0Z1X6
0.07195839*Z0Z6Z7
0.01759202*Z0X5X6Z7
-0.01759202*Z0Y5Y6
-0.03220644*Z6
-0.06144582*Z4Z5Z6
-0.03034407*X4X5Z6
-0.03034407*Z3X4X5Z6
-0.03034407*X4X5
-0.03034407*Z3X4X5
-0.01221333*Y3Y4Z5Z6
0.01221333*Z2X3X4Z5Z6
-0.01066430*Y2X3Y4X5Z6
0.01066430*Z1X2X3X4X5Z6
-0.01066430*Y2X3Y4X5
0.01066430*Z1X2X3X4X5
0.00757376*Y1X2X3Y4Z5Z6
-0.00757376*Z0X1X2X3X4Z5Z6
0.00019434*Y0X1X2X3Y4X5Z6
-0.00019434*X0X1X2X3X4X5Z6
0.00019434*Y0X1X2X3Y4X5
-0.00019434*X0X1X2X3X4X5
0.07383765*Z3Z4Z5Z6
0.02517084*X3X5Z6
-0.02517084*Z2X3Z4X5Z6
0.02517084*X3X5
-0.02517084*Z2X3Z4X5
0.00077720*Y2Y3Z5Z6
0.00077720*Z1X2X3Z4Z5Z6
0.00797549*Y1X2Y3X5Z6
0.00797549*Z0X1X2X3Z4X5Z6
0.00797549*Y1X2Y3X5
0.00797549*Z0X1X2X3Z4X5
-0.00788578*Y0X1X2Y3Z5Z6
-0.00788578*X0X1X2X3Z4Z5Z6
0.06321096*Z2Z3Z5Z6
0.01654247*X2X5Z6
-0.01654247*Z1X2Z3X5Z6
0.01654247*X2X5
-0.01654247*Z1X2Z3X5
0.00041822*Y1Y2Z5Z6
0.00041822*Z0X1X2Z3Z5Z6
0.01126112*Y0X1Y2X5Z6
0.01126112*X0X1X2Z3X5Z6
0.01126112*Y0X1Y2X5
0.01126112*X0X1X2Z3X5
0.06382657*Z1Z2Z5Z6
0.02564938*X1X5Z6
-0.02564938*Z0X1Z2X5Z6
0.02564938*X1X5
-0.02564938*Z0X1Z2X5
0.01277278*Y0Y1Z5Z6
0.01277278*X0X1Z2Z5Z6
0.07653037*Z0Z1Z5Z6
0.03245600*X0X5Z6
-0.03245600*X0Z1X5Z6
0.03245600*X0X5
-0.03245600*X0Z1X5
0.06466243*Z0Z5Z6
0.07989576*Z4Z5
-0.01662567*Y3Y4Z5
0.01662567*Z2X3X4Z5
-0.00262667*Y1X2X3Y4Z5
0.00262667*Z0X1X2X3X4Z5
-0.06256650*Z3Z4Z5
0.01442880*Y2Y3Z5
0.01442880*Z1X2X3Z4Z5
0.00301157*Y0X1X2Y3Z5
0.00301157*X0X1X2X3Z4Z5
-0.07109144*Z2Z3Z5
0.01508254*Y1Y2Z5
0.01508254*Z0X1X2Z3Z5
-0.07195839*Z1Z2Z5
0.01759202*Y0Y1Z5
0.01759202*X0X1Z2Z5
-0.06466243*Z0Z1Z5
-0.08432888*Z0Z5
-0.03087055*Z3
0.00348275*Z1X2X3
0.00348275*Y2Y3Z4
0.00286122*X0X1X2X3
0.00286122*Y0X1X2Y3Z4
-0.04063759*Z2Z3Z4
0.00792745*Z0X1X2Z3Z4
0.00792745*Y1Y2Z4
-0.04589082*Z1Z2Z4
0.00851923*X0X1Z2Z4
0.00851923*Y0Y1Z4
-0.04643023*Z0Z1Z4
-0.05845180*Z0Z4
0.01179364*Z2Y3Y4
-0.01179364*X3X4
-0.00017000*Z0X1X2Y3Y4
-0.00017000*Y1X2Y3X4
0.01098897*Z1X2X4
-0.00299857*X2Z3X4
0.00799040*Z1Y2Y4
-0.00799040*Y2Y4
0.00299857*Z1X2Z3X4
-0.01098897*X2X4
-0.00522116*X0X1X2X4
-0.00436490*Y0X1Y2Z3X4
-0.00085626*X0X1Y2Y4
0.00085626*Y0X1X2Y4
-0.00436490*X0X1X2Z3X4
-0.00522116*Y0X1Y2X4
0.01292361*Z0X1Z2Z3X4
-0.00927561*X1Z3X4
0.00364799*Z0Y1Y4
-0.00364799*Y1Z2Z3Y4
0.00927561*Z0X1Z2X4
-0.01292361*X1X4
0.01774779*X0Z1Z3X4
-0.01529295*X0Z3X4
0.00245484*Y0Y4
-0.00245484*Y0Z1Z3Y4
0.01529295*X0Z1X4
-0.01774779*X0X4
0.00810746*Z0X1Y2Y3X4
-0.00810746*Y1Y2Y3Y4
-0.00299253*Z1X3X4
0.00299253*Z1Z2Y3Y4
0.01093379*X0X1X3X4
0.00508652*Y0Y1Z2X3X4
0.00584727*X0Y1Y3X4
-0.00584727*Y0X1X3Y4
-0.00508652*X0X1Z2Y3Y4
-0.01093379*Y0Y1Y3Y4
0.00095465*Z0Z1Z2X3X4
-0.00095465*Z0Z1Y3Y4
-0.00853767*Z0Z2X3X4
0.00853767*Z0Y3Y4
0.00001330*Z0Y1Y2X3X4
0.00001330*X1Y2X3Y4
-0.00533393*X0X2X3X4
0.00440303*X0Z1X2X3X4
-0.00093090*Y0Y2X3X4
0.00093090*Y0X2X3Y4
0.00440303*X0Z1Y2X3Y4
-0.00533393*X0Y2X3Y4
-0.00282102*X1X2X3X4
0.00282102*Z0Y1X2X3Y4
0.03283647*Z2Z4
-0.00171611*Z0X1X2Z4
-0.00171611*Y1Y2Z3Z4
0.04119839*Z1Z2Z3Z4
0.00083997*X0X1Z2Z3Z4
0.00083997*Y0Y1Z3Z4
0.04628263*Z0Z1Z3Z4
0.04716640*Z0Z3Z4
0.01377956*Z1Y2Y3Z4
0.01377956*X2X3
0.00002428*X0X1Y2Y3Z4
-0.00002428*Y0X1Y2X3
0.01464870*Z0X1X3Z4
-0.00813242*X1Z2X3Z4
0.00651628*Z0Y1Y3Z4
0.00651628*Y1Y3
-0.00813242*Z0X1Z2X3
0.01464870*X1X3
0.01349434*X0Z1Z2X3Z4
-0.00973851*X0Z2X3Z4
0.00375583*Y0Y3Z4
0.00375583*Y0Z1Z2Y3
-0.00973851*X0Z1X3
0.01349434*X0X3
0.00862617*X0Y1Y2X3Z4
0.00862617*Y0Y1Y2Y3
-0.00152254*Z0X2X3Z4
-0.00152254*Z0Z1Y2Y3
-0.00812947*Z0Z1X2X3Z4
-0.00812947*Z0Y2Y3
-0.00008971*Y0Y1X2X3Z4
0.00008971*X0Y1X2Y3
0.04311095*Z1Z3
-0.00305337*X0X1Z3
-0.00305337*Y0Y1Z2Z3
0.04192159*Z0Z1Z2Z3
0.04735335*Z0Z2Z3
0.01447988*Z0Y1Y2Z3
0.01447988*X1X2
0.01182352*X0X2Z3
-0.00310074*X0Z1X2Z3
0.00872278*Y0Y2Z3
0.00872278*Y0Y2
-0.00310074*X0Z1X2
0.01182352*X0X2
-0.00382141*X1X2Z3
-0.00382141*Z0Y1Y2
0.03405393*Z0Z2
0.04247142*Z0Z1Z2
0.01287660*Y0Y1Z2
0.01287660*X0X1
0.03220644*Z1
