2.25000000*I
0.12500000*Z8
0.12500000*Z7Z8Z9
0.12500000*Z6Z7Z9
0.12500000*Z5Z6Z9
-0.12500000*Z5Z9
0.37500000*Z4Z9
-0.12500000*Z3Z4Z9
-0.12500000*Z2Z3Z9
-0.12500000*Z1Z2Z9
-0.12500000*Z0Z1Z9
-0.12500000*Z0Z9
0.12500000*Y4Y9
0.12500000*X4Z8X9
0.12500000*Z3Y4Y9
0.12500000*Z3X4Z8X9
-0.12500000*X4X9
-0.12500000*Y4Z8Y9
-0.12500000*Z3X4X9
-0.12500000*Z3Y4Z8Y9
0.12500000*Y3X4Y8X9
-0.12500000*Y3Y4Z7X8X9
0.12500000*Z2X3Y4Y8X9
0.12500000*Z2X3X4Z7X8X9
-0.12500000*Y3Y4Y8Y9
-0.12500000*Y3X4Z7X8Y9
0.12500000*Z2X3X4Y8Y9
-0.12500000*Z2X3Y4Z7X8Y9
0.12500000*Y2X3X4Y7X8X9
-0.12500000*Y2X3Y4Z6X7X8X9
0.12500000*Z1X2X3Y4Y7X8X9
0.12500000*Z1X2X3X4Z6X7X8X9
-0.12500000*Y2X3Y4Y7X8Y9
-0.12500000*Y2X3X4Z6X7X8Y9
0.12500000*Z1X2X3X4Y7X8Y9
-0.12500000*Z1X2X3Y4Z6X7X8Y9
0.12500000*Y1X2X3X4Y6X7X8X9
-0.12500000*Y1X2X3Y4Z5X6X7X8X9
0.12500000*Z0X1X2X3Y4Y6X7X8X9
0.12500000*Z0X1X2X3X4Z5X6X7X8X9
-0.12500000*Y1X2X3Y4Y6X7X8Y9
-0.12500000*Y1X2X3X4Z5X6X7X8Y9
0.12500000*Z0X1X2X3X4Y6X7X8Y9
-0.12500000*Z0X1X2X3Y4Z5X6X7X8Y9
0.12500000*Y0X1X2X3X4Y5X6X7X8X9
0.12500000*Y0X1X2X3Y4X5X6X7X8X9
0.12500000*X0X1X2X3Y4Y5X6X7X8X9
-0.12500000*X0X1X2X3X4X5X6X7X8X9
-0.12500000*Y0X1X2X3Y4Y5X6X7X8Y9
0.12500000*Y0X1X2X3X4X5X6X7X8Y9
0.12500000*X0X1X2X3X4Y5X6X7X8Y9
0.12500000*X0X1X2X3Y4X5X6X7X8Y9
0.12500000*Z7Z9
0.12500000*Z6Z7Z8Z9
0.12500000*Z5Z6Z8Z9
-0.12500000*Z5Z8Z9
0.12500000*Z4Z8Z9
-0.37500000*Z3Z4Z8Z9
-0.12500000*Z2Z3Z8Z9
-0.12500000*Z1Z2Z8Z9
-0.12500000*Z0Z1Z8Z9
-0.12500000*Z0Z8Z9
-0.12500000*Y3Z4Y8Z9
0.12500000*X3Z7X8Z9
0.12500000*Z2Y3Y8Z9
-0.12500000*Z2X3Z4Z7X8Z9
-0.12500000*X3X8
0.12500000*Y3Z4Z7Y8
0.12500000*Z2X3Z4X8
-0.12500000*Z2Y3Z7Y8
-0.12500000*Y2X3Z4Y7X8Z9
-0.12500000*Y2Y3Z6X7X8Z9
0.12500000*Z1X2Y3Y7X8Z9
-0.12500000*Z1X2X3Z4Z6X7X8Z9
-0.12500000*Y2Y3Y7Y8
0.12500000*Y2X3Z4Z6X7Y8
-0.12500000*Z1X2X3Z4Y7Y8
-0.12500000*Z1X2Y3Z6X7Y8
-0.12500000*Y1X2X3Z4Y6X7X8Z9
-0.12500000*Y1X2Y3Z5X6X7X8Z9
0.12500000*Z0X1X2Y3Y6X7X8Z9
-0.12500000*Z0X1X2X3Z4Z5X6X7X8Z9
-0.12500000*Y1X2Y3Y6X7Y8
0.12500000*Y1X2X3Z4Z5X6X7Y8
-0.12500000*Z0X1X2X3Z4Y6X7Y8
-0.12500000*Z0X1X2Y3Z5X6X7Y8
-0.12500000*Y0X1X2X3Z4Y5X6X7X8Z9
0.12500000*Y0X1X2Y3X5X6X7X8Z9
0.12500000*X0X1X2Y3Y5X6X7X8Z9
0.12500000*X0X1X2X3Z4X5X6X7X8Z9
-0.12500000*Y0X1X2Y3Y5X6X7Y8
-0.12500000*Y0X1X2X3Z4X5X6X7Y8
-0.12500000*X0X1X2X3Z4Y5X6X7Y8
0.12500000*X0X1X2Y3X5X6X7Y8
0.12500000*Z6Z8
0.12500000*Z5Z6Z7Z8
-0.12500000*Z5Z7Z8
0.12500000*Z4Z7Z8
-0.12500000*Z3Z4Z7Z8
-0.37500000*Z2Z3Z7Z8
-0.12500000*Z1Z2Z7Z8
-0.12500000*Z0Z1Z7Z8
-0.12500000*Z0Z7Z8
-0.12500000*Y2Z3Y7Z8
0.12500000*X2Z6X7Z8
0.12500000*Z1Y2Y7Z8
-0.12500000*Z1X2Z3Z6X7Z8
-0.12500000*X2X7
0.12500000*Y2Z3Z6Y7
0.12500000*Z1X2Z3X7
-0.12500000*Z1Y2Z6Y7
-0.12500000*Y1X2Z3Y6X7Z8
-0.12500000*Y1Y2Z5X6X7Z8
0.12500000*Z0X1Y2Y6X7Z8
-0.12500000*Z0X1X2Z3Z5X6X7Z8
-0.12500000*Y1Y2Y6Y7
0.12500000*Y1X2Z3Z5X6Y7
-0.12500000*Z0X1X2Z3Y6Y7
-0.12500000*Z0X1Y2Z5X6Y7
-0.12500000*Y0X1X2Z3Y5X6X7Z8
0.12500000*Y0X1Y2X5X6X7Z8
0.12500000*X0X1Y2Y5X6X7Z8
0.12500000*X0X1X2Z3X5X6X7Z8
-0.12500000*Y0X1Y2Y5X6Y7
-0.12500000*Y0X1X2Z3X5X6Y7
-0.12500000*X0X1X2Z3Y5X6Y7
0.12500000*X0X1Y2X5X6Y7
0.12500000*Z5Z7
-0.12500000*Z5Z6Z7
0.12500000*Z4Z6Z7
-0.12500000*Z3Z4Z6Z7
-0.12500000*Z2Z3Z6Z7
-0.37500000*Z1Z2Z6Z7
-0.12500000*Z0Z1Z6Z7
-0.12500000*Z0Z6Z7
-0.12500000*Y1Z2Y6Z7
0.12500000*X1Z5X6Z7
0.12500000*Z0Y1Y6Z7
-0.12500000*Z0X1Z2Z5X6Z7
-0.12500000*X1X6
0.12500000*Y1Z2Z5Y6
0.12500000*Z0X1Z2X6
-0.12500000*Z0Y1Z5Y6
-0.12500000*Y0X1Z2Y5X6Z7
0.12500000*Y0Y1X5X6Z7
0.12500000*X0Y1Y5X6Z7
0.12500000*X0X1Z2X5X6Z7
-0.12500000*Y0Y1Y5Y6
-0.12500000*Y0X1Z2X5Y6
-0.12500000*X0X1Z2Y5Y6
0.12500000*X0Y1X5Y6
-0.12500000*Z6
0.12500000*Z4Z5Z6
-0.12500000*Z3Z4Z5Z6
-0.12500000*Z2Z3Z5Z6
-0.12500000*Z1Z2Z5Z6
-0.37500000*Z0Z1Z5Z6
-0.12500000*Z0Z5Z6
-0.12500000*Y0Z1Y5Z6
-0.12500000*X0X5Z6
0.12500000*Y0Y5Z6
0.12500000*X0Z1X5Z6
-0.12500000*X0X5
-0.12500000*Y0Z1Y5
0.12500000*X0Z1X5
0.12500000*Y0Y5
-0.12500000*Z4Z5
0.12500000*Z3Z4Z5
0.12500000*Z2Z3Z5
0.12500000*Z1Z2Z5
0.12500000*Z0Z1Z5
0.37500000*Z0Z5
-0.12500000*Z3
-0.12500000*Z2Z3Z4
-0.12500000*Z1Z2Z4
-0.12500000*Z0Z1Z4
-0.12500000*Z0Z4
0.12500000*Z2Z4
0.12500000*Z1Z2Z3Z4
0.12500000*Z0Z1Z3Z4
0.12500000*Z0Z3Z4
0.12500000*Z1Z3
0.12500000*Z0Z1Z2Z3
0.12500000*Z0Z2Z3
0.12500000*Z0Z2
0.12500000*Z0Z1Z2
0.12500000*Z1
